%!PS-Adobe-3.0 EPSF-3.0
%%Creator: MATLAB, The MathWorks, Inc. Version 8.3.0.532 (R2014a). Operating System: Linux 3.13.0-49-generic #83-Ubuntu SMP Fri Apr 10 20:11:33 UTC 2015 x86_64.
%%Title: /home/dnad/Documents/publication/ram2014_data/figures/Figure6_a_measurement_error_box.eps
%%CreationDate: 04/23/2015  14:06:51
%%DocumentNeededFonts: Helvetica
%%DocumentProcessColors: Cyan Magenta Yellow Black
%%LanguageLevel: 2
%%Pages: 1
%%BoundingBox:   -17   194   622   615
%%EndComments

%%BeginProlog
% MathWorks dictionary
/MathWorks 160 dict begin
% definition operators
/bdef {bind def} bind def
/ldef {load def} bind def
/xdef {exch def} bdef
/xstore {exch store} bdef
% operator abbreviations
/c  /clip ldef
/cc /concat ldef
/cp /closepath ldef
/gr /grestore ldef
/gs /gsave ldef
/mt /moveto ldef
/np /newpath ldef
/cm /currentmatrix ldef
/sm /setmatrix ldef
/rm /rmoveto ldef
/rl /rlineto ldef
/s {show newpath} bdef
/sc {setcmykcolor} bdef
/sr /setrgbcolor ldef
/sg /setgray ldef
/w /setlinewidth ldef
/j /setlinejoin ldef
/cap /setlinecap ldef
/rc {rectclip} bdef
/rf {rectfill} bdef
% page state control
/pgsv () def
/bpage {/pgsv save def} bdef
/epage {pgsv restore} bdef
/bplot /gsave ldef
/eplot {stroke grestore} bdef
% orientation switch
/portraitMode 0 def /landscapeMode 1 def /rotateMode 2 def
% coordinate system mappings
/dpi2point 0 def
% font control
/FontSize 0 def
/FMS {/FontSize xstore findfont [FontSize 0 0 FontSize neg 0 0]
  makefont setfont} bdef
/reencode {exch dup where {pop load} {pop StandardEncoding} ifelse
  exch dup 3 1 roll findfont dup length dict begin
  { 1 index /FID ne {def}{pop pop} ifelse } forall
  /Encoding exch def currentdict end definefont pop} bdef
/isroman {findfont /CharStrings get /Agrave known} bdef
/FMSR {3 1 roll 1 index dup isroman {reencode} {pop pop} ifelse
  exch FMS} bdef
/csm {1 dpi2point div -1 dpi2point div scale neg translate
 dup landscapeMode eq {pop -90 rotate}
  {rotateMode eq {90 rotate} if} ifelse} bdef
% line types: solid, dotted, dashed, dotdash
/SO { [] 0 setdash } bdef
/DO { [.5 dpi2point mul 4 dpi2point mul] 0 setdash } bdef
/DA { [6 dpi2point mul] 0 setdash } bdef
/DD { [.5 dpi2point mul 4 dpi2point mul 6 dpi2point mul 4
  dpi2point mul] 0 setdash } bdef
% macros for lines and objects
/L {lineto stroke} bdef
/MP {3 1 roll moveto 1 sub {rlineto} repeat} bdef
/AP {{rlineto} repeat} bdef
/PDlw -1 def
/W {/PDlw currentlinewidth def setlinewidth} def
/PP {closepath eofill} bdef
/DP {closepath stroke} bdef
/MR {4 -2 roll moveto dup  0 exch rlineto exch 0 rlineto
  neg 0 exch rlineto closepath} bdef
/FR {MR stroke} bdef
/PR {MR fill} bdef
/L1i {{currentfile picstr readhexstring pop} image} bdef
/tMatrix matrix def
/MakeOval {newpath tMatrix currentmatrix pop translate scale
0 0 1 0 360 arc tMatrix setmatrix} bdef
/FO {MakeOval stroke} bdef
/PO {MakeOval fill} bdef
/PD {currentlinewidth 2 div 0 360 arc fill
   PDlw -1 eq not {PDlw w /PDlw -1 def} if} def
/FA {newpath tMatrix currentmatrix pop translate scale
  0 0 1 5 -2 roll arc tMatrix setmatrix stroke} bdef
/PA {newpath tMatrix currentmatrix pop	translate 0 0 moveto scale
  0 0 1 5 -2 roll arc closepath tMatrix setmatrix fill} bdef
/FAn {newpath tMatrix currentmatrix pop translate scale
  0 0 1 5 -2 roll arcn tMatrix setmatrix stroke} bdef
/PAn {newpath tMatrix currentmatrix pop translate 0 0 moveto scale
  0 0 1 5 -2 roll arcn closepath tMatrix setmatrix fill} bdef
/vradius 0 def /hradius 0 def /lry 0 def
/lrx 0 def /uly 0 def /ulx 0 def /rad 0 def
/MRR {/vradius xdef /hradius xdef /lry xdef /lrx xdef /uly xdef
  /ulx xdef newpath tMatrix currentmatrix pop ulx hradius add uly
  vradius add translate hradius vradius scale 0 0 1 180 270 arc 
  tMatrix setmatrix lrx hradius sub uly vradius add translate
  hradius vradius scale 0 0 1 270 360 arc tMatrix setmatrix
  lrx hradius sub lry vradius sub translate hradius vradius scale
  0 0 1 0 90 arc tMatrix setmatrix ulx hradius add lry vradius sub
  translate hradius vradius scale 0 0 1 90 180 arc tMatrix setmatrix
  closepath} bdef
/FRR {MRR stroke } bdef
/PRR {MRR fill } bdef
/MlrRR {/lry xdef /lrx xdef /uly xdef /ulx xdef /rad lry uly sub 2 div def
  newpath tMatrix currentmatrix pop ulx rad add uly rad add translate
  rad rad scale 0 0 1 90 270 arc tMatrix setmatrix lrx rad sub lry rad
  sub translate rad rad scale 0 0 1 270 90 arc tMatrix setmatrix
  closepath} bdef
/FlrRR {MlrRR stroke } bdef
/PlrRR {MlrRR fill } bdef
/MtbRR {/lry xdef /lrx xdef /uly xdef /ulx xdef /rad lrx ulx sub 2 div def
  newpath tMatrix currentmatrix pop ulx rad add uly rad add translate
  rad rad scale 0 0 1 180 360 arc tMatrix setmatrix lrx rad sub lry rad
  sub translate rad rad scale 0 0 1 0 180 arc tMatrix setmatrix
  closepath} bdef
/FtbRR {MtbRR stroke } bdef
/PtbRR {MtbRR fill } bdef
/stri 6 array def /dtri 6 array def
/smat 6 array def /dmat 6 array def
/tmat1 6 array def /tmat2 6 array def /dif 3 array def
/asub {/ind2 exch def /ind1 exch def dup dup
  ind1 get exch ind2 get sub exch } bdef
/tri_to_matrix {
  2 0 asub 3 1 asub 4 0 asub 5 1 asub
  dup 0 get exch 1 get 7 -1 roll astore } bdef
/compute_transform {
  dmat dtri tri_to_matrix tmat1 invertmatrix 
  smat stri tri_to_matrix tmat2 concatmatrix } bdef
/ds {stri astore pop} bdef
/dt {dtri astore pop} bdef
/db {2 copy /cols xdef /rows xdef mul dup 3 mul string
  currentfile 
  3 index 0 eq {/ASCIIHexDecode filter}
  {/ASCII85Decode filter 3 index 2 eq {/RunLengthDecode filter} if }
  ifelse exch readstring pop
  dup 0 3 index getinterval /rbmap xdef
  dup 2 index dup getinterval /gbmap xdef
  1 index dup 2 mul exch getinterval /bbmap xdef pop pop}bdef
/it {gs np dtri aload pop moveto lineto lineto cp c
  cols rows 8 compute_transform 
  rbmap gbmap bbmap true 3 colorimage gr}bdef
/il {newpath moveto lineto stroke}bdef
currentdict end def
%%EndProlog

%%BeginSetup
MathWorks begin

0 cap

end
%%EndSetup

%%Page: 1 1
%%BeginPageSetup
%%PageBoundingBox:   -17   194   622   615
MathWorks begin
bpage
%%EndPageSetup

%%BeginObject: obj1
bplot

/dpi2point 4.16667 def
portraitMode -0320 2550 csm

  249   -16  2664  1754 rc
85 dict begin %Colortable dictionary
/c0 { 0.000000 0.000000 0.000000 sr} bdef
/c1 { 1.000000 1.000000 1.000000 sr} bdef
/c2 { 0.900000 0.000000 0.000000 sr} bdef
/c3 { 0.000000 0.820000 0.000000 sr} bdef
/c4 { 0.000000 0.000000 0.800000 sr} bdef
/c5 { 0.910000 0.820000 0.320000 sr} bdef
/c6 { 1.000000 0.260000 0.820000 sr} bdef
/c7 { 0.000000 0.820000 0.820000 sr} bdef
c0
1 j
1 sg
   0    0 3200 1802 rf
2.08333 w
0 1405 2479 0 0 -1405 416 1540 4 MP
PP
-2479 0 0 1405 2479 0 0 -1405 416 1540 5 MP stroke
1.38889 w
DO
0 sg
 416 1540 mt 2895 1540 L
2895 1540 mt 2895 1540 L
 416 1188 mt 2895 1188 L
2895 1188 mt 2895 1188 L
 416  837 mt 2895  837 L
2895  837 mt 2895  837 L
 416  486 mt 2895  486 L
2895  486 mt 2895  486 L
 416  135 mt 2895  135 L
2895  135 mt 2895  135 L
SO
2.08333 w
 416 1540 mt 2895 1540 L
 416  135 mt 2895  135 L
 416 1540 mt  416  135 L
2895 1540 mt 2895  135 L
 416 1540 mt 2895 1540 L
 416 1540 mt  416  135 L
 416 1540 mt  440 1540 L
2895 1540 mt 2870 1540 L
%%IncludeResource: font Helvetica
/Helvetica /ISOLatin1Encoding 75 FMSR

 363 1567 mt 
(0) s
 416 1188 mt  440 1188 L
2895 1188 mt 2870 1188 L
 363 1215 mt 
(2) s
 416  837 mt  440  837 L
2895  837 mt 2870  837 L
 363  864 mt 
(4) s
 416  486 mt  440  486 L
2895  486 mt 2870  486 L
 363  513 mt 
(6) s
 416  135 mt  440  135 L
2895  135 mt 2870  135 L
 363  162 mt 
(8) s
 416 1540 mt 2895 1540 L
 416  135 mt 2895  135 L
 416 1540 mt  416  135 L
2895 1540 mt 2895  135 L
gs 416 135 2480 1406 rc
DA
12.5 w
0 -68 829 1481 2 MP stroke
0 -212 1655 1310 2 MP stroke
0 -349 2481 1213 2 MP stroke
0 -10 829 1539 2 MP stroke
0 -84 1655 1537 2 MP stroke
0 -84 2481 1537 2 MP stroke
SO
186 0 736 1413 2 MP stroke
186 0 1562 1098 2 MP stroke
186 0 2388 864 2 MP stroke
186 0 736 1539 2 MP stroke
186 0 1562 1537 2 MP stroke
186 0 2388 1537 2 MP stroke
/c8 { 0.000000 0.000000 1.000000 sr} bdef
c8
-372 0 0 48 372 0 0 -48 643 1529 5 MP stroke
-372 0 0 143 372 0 0 -143 1469 1453 5 MP stroke
-372 0 0 240 372 0 0 -240 2295 1453 5 MP stroke
/c9 { 1.000000 0.000000 0.000000 sr} bdef
c9
372 0 643 1518 2 MP stroke
372 0 1469 1389 2 MP stroke
372 0 2295 1378 2 MP stroke
2.08333 w
gr

c9
 817 1407 mt  841 1407 L
 829 1395 mt  829 1419 L
 817 1373 mt  841 1373 L
 829 1361 mt  829 1385 L
 817 1347 mt  841 1347 L
 829 1335 mt  829 1359 L
 817 1333 mt  841 1333 L
 829 1321 mt  829 1345 L
 817 1332 mt  841 1332 L
 829 1320 mt  829 1344 L
 817 1320 mt  841 1320 L
 829 1308 mt  829 1332 L
 817 1303 mt  841 1303 L
 829 1291 mt  829 1315 L
 817 1296 mt  841 1296 L
 829 1284 mt  829 1308 L
 817 1282 mt  841 1282 L
 829 1270 mt  829 1294 L
 817 1261 mt  841 1261 L
 829 1249 mt  829 1273 L
 817 1235 mt  841 1235 L
 829 1223 mt  829 1247 L
 817 1225 mt  841 1225 L
 829 1213 mt  829 1237 L
 817 1212 mt  841 1212 L
 829 1200 mt  829 1224 L
 817 1185 mt  841 1185 L
 829 1173 mt  829 1197 L
 817 1161 mt  841 1161 L
 829 1149 mt  829 1173 L
 817 1141 mt  841 1141 L
 829 1129 mt  829 1153 L
 817 1131 mt  841 1131 L
 829 1119 mt  829 1143 L
 817 1121 mt  841 1121 L
 829 1109 mt  829 1133 L
 817 1118 mt  841 1118 L
 829 1106 mt  829 1130 L
 817 1101 mt  841 1101 L
 829 1089 mt  829 1113 L
 817 1097 mt  841 1097 L
 829 1085 mt  829 1109 L
 817 1093 mt  841 1093 L
 829 1081 mt  829 1105 L
 817 1063 mt  841 1063 L
 829 1051 mt  829 1075 L
 817 1061 mt  841 1061 L
 829 1049 mt  829 1073 L
 817 1056 mt  841 1056 L
 829 1044 mt  829 1068 L
 817 1047 mt  841 1047 L
 829 1035 mt  829 1059 L
 817 1006 mt  841 1006 L
 829  994 mt  829 1018 L
 817  973 mt  841  973 L
 829  961 mt  829  985 L
gs 416 135 2480 1406 rc
gr

1643 1083 mt 1667 1083 L
1655 1071 mt 1655 1095 L
1643 1064 mt 1667 1064 L
1655 1052 mt 1655 1076 L
1643 1061 mt 1667 1061 L
1655 1049 mt 1655 1073 L
1643 1060 mt 1667 1060 L
1655 1048 mt 1655 1072 L
1643 1058 mt 1667 1058 L
1655 1046 mt 1655 1070 L
1643 1057 mt 1667 1057 L
1655 1045 mt 1655 1069 L
1643 1049 mt 1667 1049 L
1655 1037 mt 1655 1061 L
1643 1046 mt 1667 1046 L
1655 1034 mt 1655 1058 L
1643 1043 mt 1667 1043 L
1655 1031 mt 1655 1055 L
1643 1041 mt 1667 1041 L
1655 1029 mt 1655 1053 L
1643 1029 mt 1667 1029 L
1655 1017 mt 1655 1041 L
1643 1016 mt 1667 1016 L
1655 1004 mt 1655 1028 L
1643 1014 mt 1667 1014 L
1655 1002 mt 1655 1026 L
1643 1007 mt 1667 1007 L
1655  995 mt 1655 1019 L
1643 1006 mt 1667 1006 L
1655  994 mt 1655 1018 L
1643  994 mt 1667  994 L
1655  982 mt 1655 1006 L
1643  946 mt 1667  946 L
1655  934 mt 1655  958 L
1643  932 mt 1667  932 L
1655  920 mt 1655  944 L
1643  838 mt 1667  838 L
1655  826 mt 1655  850 L
1643  824 mt 1667  824 L
1655  812 mt 1655  836 L
1643  809 mt 1667  809 L
1655  797 mt 1655  821 L
1643  715 mt 1667  715 L
1655  703 mt 1655  727 L
gs 416 135 2480 1406 rc
gr

2469  850 mt 2493  850 L
2481  838 mt 2481  862 L
2469  848 mt 2493  848 L
2481  836 mt 2481  860 L
2469  813 mt 2493  813 L
2481  801 mt 2481  825 L
2469  808 mt 2493  808 L
2481  796 mt 2481  820 L
2469  803 mt 2493  803 L
2481  791 mt 2481  815 L
2469  786 mt 2493  786 L
2481  774 mt 2481  798 L
2469  766 mt 2493  766 L
2481  754 mt 2481  778 L
2469  763 mt 2493  763 L
2481  751 mt 2481  775 L
2469  755 mt 2493  755 L
2481  743 mt 2481  767 L
2469  748 mt 2493  748 L
2481  736 mt 2481  760 L
2469  740 mt 2493  740 L
2481  728 mt 2481  752 L
2469  725 mt 2493  725 L
2481  713 mt 2481  737 L
2469  720 mt 2493  720 L
2481  708 mt 2481  732 L
2469  718 mt 2493  718 L
2481  706 mt 2481  730 L
2469  713 mt 2493  713 L
2481  701 mt 2481  725 L
2469  709 mt 2493  709 L
2481  697 mt 2481  721 L
2469  691 mt 2493  691 L
2481  679 mt 2481  703 L
2469  690 mt 2493  690 L
2481  678 mt 2481  702 L
2469  687 mt 2493  687 L
2481  675 mt 2481  699 L
2469  684 mt 2493  684 L
2481  672 mt 2481  696 L
2469  681 mt 2493  681 L
2481  669 mt 2481  693 L
2469  676 mt 2493  676 L
2481  664 mt 2481  688 L
2469  671 mt 2493  671 L
2481  659 mt 2481  683 L
2469  668 mt 2493  668 L
2481  656 mt 2481  680 L
2469  655 mt 2493  655 L
2481  643 mt 2481  667 L
2469  652 mt 2493  652 L
2481  640 mt 2481  664 L
2469  645 mt 2493  645 L
2481  633 mt 2481  657 L
2469  640 mt 2493  640 L
2481  628 mt 2481  652 L
2469  631 mt 2493  631 L
2481  619 mt 2481  643 L
2469  627 mt 2493  627 L
2481  615 mt 2481  639 L
2469  623 mt 2493  623 L
2481  611 mt 2481  635 L
2469  603 mt 2493  603 L
2481  591 mt 2481  615 L
2469  601 mt 2493  601 L
2481  589 mt 2481  613 L
2469  599 mt 2493  599 L
2481  587 mt 2481  611 L
2469  598 mt 2493  598 L
2481  586 mt 2481  610 L
2469  589 mt 2493  589 L
2481  577 mt 2481  601 L
2469  585 mt 2493  585 L
2481  573 mt 2481  597 L
2469  579 mt 2493  579 L
2481  567 mt 2481  591 L
2469  573 mt 2493  573 L
2481  561 mt 2481  585 L
2469  568 mt 2493  568 L
2481  556 mt 2481  580 L
2469  565 mt 2493  565 L
2481  553 mt 2481  577 L
2469  556 mt 2493  556 L
2481  544 mt 2481  568 L
2469  546 mt 2493  546 L
2481  534 mt 2481  558 L
2469  545 mt 2493  545 L
2481  533 mt 2481  557 L
2469  537 mt 2493  537 L
2481  525 mt 2481  549 L
2469  528 mt 2493  528 L
2481  516 mt 2481  540 L
2469  525 mt 2493  525 L
2481  513 mt 2481  537 L
2469  524 mt 2493  524 L
2481  512 mt 2481  536 L
2469  522 mt 2493  522 L
2481  510 mt 2481  534 L
2469  515 mt 2493  515 L
2481  503 mt 2481  527 L
2469  509 mt 2493  509 L
2481  497 mt 2481  521 L
2469  506 mt 2493  506 L
2481  494 mt 2481  518 L
2469  502 mt 2493  502 L
2481  490 mt 2481  514 L
2469  493 mt 2493  493 L
2481  481 mt 2481  505 L
2469  491 mt 2493  491 L
2481  479 mt 2481  503 L
2469  484 mt 2493  484 L
2481  472 mt 2481  496 L
2469  480 mt 2493  480 L
2481  468 mt 2481  492 L
2469  472 mt 2493  472 L
2481  460 mt 2481  484 L
2469  453 mt 2493  453 L
2481  441 mt 2481  465 L
2469  452 mt 2493  452 L
2481  440 mt 2481  464 L
2469  444 mt 2493  444 L
2481  432 mt 2481  456 L
2469  422 mt 2493  422 L
2481  410 mt 2481  434 L
2469  405 mt 2493  405 L
2481  393 mt 2481  417 L
2469  403 mt 2493  403 L
2481  391 mt 2481  415 L
2469  401 mt 2493  401 L
2481  389 mt 2481  413 L
2469  397 mt 2493  397 L
2481  385 mt 2481  409 L
2469  395 mt 2493  395 L
2481  383 mt 2481  407 L
2469  384 mt 2493  384 L
2481  372 mt 2481  396 L
2469  380 mt 2493  380 L
2481  368 mt 2481  392 L
2469  367 mt 2493  367 L
2481  355 mt 2481  379 L
2469  358 mt 2493  358 L
2481  346 mt 2481  370 L
2469  349 mt 2493  349 L
2481  337 mt 2481  361 L
2469  347 mt 2493  347 L
2481  335 mt 2481  359 L
2469  342 mt 2493  342 L
2481  330 mt 2481  354 L
2469  325 mt 2493  325 L
2481  313 mt 2481  337 L
2469  323 mt 2493  323 L
2481  311 mt 2481  335 L
2469  318 mt 2493  318 L
2481  306 mt 2481  330 L
2469  317 mt 2493  317 L
2481  305 mt 2481  329 L
2469  291 mt 2493  291 L
2481  279 mt 2481  303 L
2469  288 mt 2493  288 L
2481  276 mt 2481  300 L
2469  287 mt 2493  287 L
2481  275 mt 2481  299 L
2469  274 mt 2493  274 L
2481  262 mt 2481  286 L
2469  264 mt 2493  264 L
2481  252 mt 2481  276 L
2469  262 mt 2493  262 L
2481  250 mt 2481  274 L
2469  261 mt 2493  261 L
2481  249 mt 2481  273 L
2469  248 mt 2493  248 L
2481  236 mt 2481  260 L
2469  239 mt 2493  239 L
2481  227 mt 2481  251 L
2469  230 mt 2493  230 L
2481  218 mt 2481  242 L
2469  206 mt 2493  206 L
2481  194 mt 2481  218 L
2469  203 mt 2493  203 L
2481  191 mt 2481  215 L
2469  199 mt 2493  199 L
2481  187 mt 2481  211 L
2469  194 mt 2493  194 L
2481  182 mt 2481  206 L
2469  172 mt 2493  172 L
2481  160 mt 2481  184 L
2469  171 mt 2493  171 L
2481  159 mt 2481  183 L
2469  165 mt 2493  165 L
2481  153 mt 2481  177 L
2469  152 mt 2493  152 L
2481  140 mt 2481  164 L
2469  147 mt 2493  147 L
2481  135 mt 2481  159 L
gs 416 135 2480 1406 rc
gr

0 sg
 476 1713 mt 
(Setup 1 \(M = 0.12 m\)) s
1303 1713 mt 
(Setup 2 \(M = 0.85 m\)) s
2130 1713 mt 
(Setup 3 \(M = 0.92 m\)) s
 958   78 mt 
(USBL measured tracking error distribution) s
 327  984 mt  -90 rotate
(Error [m]) s
90 rotate

end %%Color Dict

eplot
%%EndObject

epage
end

showpage

%%Trailer
%%EOF
