%!PS-Adobe-3.0 EPSF-3.0
%%Creator: MATLAB, The MathWorks, Inc. Version 8.3.0.532 (R2014a). Operating System: Linux 3.13.0-49-generic #83-Ubuntu SMP Fri Apr 10 20:11:33 UTC 2015 x86_64.
%%Title: /home/dnad/Documents/publication/ram2014_data/figures/Figure6_b_estimate_error_box.eps
%%CreationDate: 04/23/2015  14:06:54
%%DocumentNeededFonts: Helvetica
%%DocumentProcessColors: Cyan Magenta Yellow Black
%%LanguageLevel: 2
%%Pages: 1
%%BoundingBox:   -17   194   622   615
%%EndComments

%%BeginProlog
% MathWorks dictionary
/MathWorks 160 dict begin
% definition operators
/bdef {bind def} bind def
/ldef {load def} bind def
/xdef {exch def} bdef
/xstore {exch store} bdef
% operator abbreviations
/c  /clip ldef
/cc /concat ldef
/cp /closepath ldef
/gr /grestore ldef
/gs /gsave ldef
/mt /moveto ldef
/np /newpath ldef
/cm /currentmatrix ldef
/sm /setmatrix ldef
/rm /rmoveto ldef
/rl /rlineto ldef
/s {show newpath} bdef
/sc {setcmykcolor} bdef
/sr /setrgbcolor ldef
/sg /setgray ldef
/w /setlinewidth ldef
/j /setlinejoin ldef
/cap /setlinecap ldef
/rc {rectclip} bdef
/rf {rectfill} bdef
% page state control
/pgsv () def
/bpage {/pgsv save def} bdef
/epage {pgsv restore} bdef
/bplot /gsave ldef
/eplot {stroke grestore} bdef
% orientation switch
/portraitMode 0 def /landscapeMode 1 def /rotateMode 2 def
% coordinate system mappings
/dpi2point 0 def
% font control
/FontSize 0 def
/FMS {/FontSize xstore findfont [FontSize 0 0 FontSize neg 0 0]
  makefont setfont} bdef
/reencode {exch dup where {pop load} {pop StandardEncoding} ifelse
  exch dup 3 1 roll findfont dup length dict begin
  { 1 index /FID ne {def}{pop pop} ifelse } forall
  /Encoding exch def currentdict end definefont pop} bdef
/isroman {findfont /CharStrings get /Agrave known} bdef
/FMSR {3 1 roll 1 index dup isroman {reencode} {pop pop} ifelse
  exch FMS} bdef
/csm {1 dpi2point div -1 dpi2point div scale neg translate
 dup landscapeMode eq {pop -90 rotate}
  {rotateMode eq {90 rotate} if} ifelse} bdef
% line types: solid, dotted, dashed, dotdash
/SO { [] 0 setdash } bdef
/DO { [.5 dpi2point mul 4 dpi2point mul] 0 setdash } bdef
/DA { [6 dpi2point mul] 0 setdash } bdef
/DD { [.5 dpi2point mul 4 dpi2point mul 6 dpi2point mul 4
  dpi2point mul] 0 setdash } bdef
% macros for lines and objects
/L {lineto stroke} bdef
/MP {3 1 roll moveto 1 sub {rlineto} repeat} bdef
/AP {{rlineto} repeat} bdef
/PDlw -1 def
/W {/PDlw currentlinewidth def setlinewidth} def
/PP {closepath eofill} bdef
/DP {closepath stroke} bdef
/MR {4 -2 roll moveto dup  0 exch rlineto exch 0 rlineto
  neg 0 exch rlineto closepath} bdef
/FR {MR stroke} bdef
/PR {MR fill} bdef
/L1i {{currentfile picstr readhexstring pop} image} bdef
/tMatrix matrix def
/MakeOval {newpath tMatrix currentmatrix pop translate scale
0 0 1 0 360 arc tMatrix setmatrix} bdef
/FO {MakeOval stroke} bdef
/PO {MakeOval fill} bdef
/PD {currentlinewidth 2 div 0 360 arc fill
   PDlw -1 eq not {PDlw w /PDlw -1 def} if} def
/FA {newpath tMatrix currentmatrix pop translate scale
  0 0 1 5 -2 roll arc tMatrix setmatrix stroke} bdef
/PA {newpath tMatrix currentmatrix pop	translate 0 0 moveto scale
  0 0 1 5 -2 roll arc closepath tMatrix setmatrix fill} bdef
/FAn {newpath tMatrix currentmatrix pop translate scale
  0 0 1 5 -2 roll arcn tMatrix setmatrix stroke} bdef
/PAn {newpath tMatrix currentmatrix pop translate 0 0 moveto scale
  0 0 1 5 -2 roll arcn closepath tMatrix setmatrix fill} bdef
/vradius 0 def /hradius 0 def /lry 0 def
/lrx 0 def /uly 0 def /ulx 0 def /rad 0 def
/MRR {/vradius xdef /hradius xdef /lry xdef /lrx xdef /uly xdef
  /ulx xdef newpath tMatrix currentmatrix pop ulx hradius add uly
  vradius add translate hradius vradius scale 0 0 1 180 270 arc 
  tMatrix setmatrix lrx hradius sub uly vradius add translate
  hradius vradius scale 0 0 1 270 360 arc tMatrix setmatrix
  lrx hradius sub lry vradius sub translate hradius vradius scale
  0 0 1 0 90 arc tMatrix setmatrix ulx hradius add lry vradius sub
  translate hradius vradius scale 0 0 1 90 180 arc tMatrix setmatrix
  closepath} bdef
/FRR {MRR stroke } bdef
/PRR {MRR fill } bdef
/MlrRR {/lry xdef /lrx xdef /uly xdef /ulx xdef /rad lry uly sub 2 div def
  newpath tMatrix currentmatrix pop ulx rad add uly rad add translate
  rad rad scale 0 0 1 90 270 arc tMatrix setmatrix lrx rad sub lry rad
  sub translate rad rad scale 0 0 1 270 90 arc tMatrix setmatrix
  closepath} bdef
/FlrRR {MlrRR stroke } bdef
/PlrRR {MlrRR fill } bdef
/MtbRR {/lry xdef /lrx xdef /uly xdef /ulx xdef /rad lrx ulx sub 2 div def
  newpath tMatrix currentmatrix pop ulx rad add uly rad add translate
  rad rad scale 0 0 1 180 360 arc tMatrix setmatrix lrx rad sub lry rad
  sub translate rad rad scale 0 0 1 0 180 arc tMatrix setmatrix
  closepath} bdef
/FtbRR {MtbRR stroke } bdef
/PtbRR {MtbRR fill } bdef
/stri 6 array def /dtri 6 array def
/smat 6 array def /dmat 6 array def
/tmat1 6 array def /tmat2 6 array def /dif 3 array def
/asub {/ind2 exch def /ind1 exch def dup dup
  ind1 get exch ind2 get sub exch } bdef
/tri_to_matrix {
  2 0 asub 3 1 asub 4 0 asub 5 1 asub
  dup 0 get exch 1 get 7 -1 roll astore } bdef
/compute_transform {
  dmat dtri tri_to_matrix tmat1 invertmatrix 
  smat stri tri_to_matrix tmat2 concatmatrix } bdef
/ds {stri astore pop} bdef
/dt {dtri astore pop} bdef
/db {2 copy /cols xdef /rows xdef mul dup 3 mul string
  currentfile 
  3 index 0 eq {/ASCIIHexDecode filter}
  {/ASCII85Decode filter 3 index 2 eq {/RunLengthDecode filter} if }
  ifelse exch readstring pop
  dup 0 3 index getinterval /rbmap xdef
  dup 2 index dup getinterval /gbmap xdef
  1 index dup 2 mul exch getinterval /bbmap xdef pop pop}bdef
/it {gs np dtri aload pop moveto lineto lineto cp c
  cols rows 8 compute_transform 
  rbmap gbmap bbmap true 3 colorimage gr}bdef
/il {newpath moveto lineto stroke}bdef
currentdict end def
%%EndProlog

%%BeginSetup
MathWorks begin

0 cap

end
%%EndSetup

%%Page: 1 1
%%BeginPageSetup
%%PageBoundingBox:   -17   194   622   615
MathWorks begin
bpage
%%EndPageSetup

%%BeginObject: obj1
bplot

/dpi2point 4.16667 def
portraitMode -0320 2550 csm

  249   -16  2664  1754 rc
85 dict begin %Colortable dictionary
/c0 { 0.000000 0.000000 0.000000 sr} bdef
/c1 { 1.000000 1.000000 1.000000 sr} bdef
/c2 { 0.900000 0.000000 0.000000 sr} bdef
/c3 { 0.000000 0.820000 0.000000 sr} bdef
/c4 { 0.000000 0.000000 0.800000 sr} bdef
/c5 { 0.910000 0.820000 0.320000 sr} bdef
/c6 { 1.000000 0.260000 0.820000 sr} bdef
/c7 { 0.000000 0.820000 0.820000 sr} bdef
c0
1 j
1 sg
   0    0 3200 1802 rf
2.08333 w
0 1405 2479 0 0 -1405 416 1540 4 MP
PP
-2479 0 0 1405 2479 0 0 -1405 416 1540 5 MP stroke
1.38889 w
DO
0 sg
 416 1540 mt 2895 1540 L
2895 1540 mt 2895 1540 L
 416 1071 mt 2895 1071 L
2895 1071 mt 2895 1071 L
 416  603 mt 2895  603 L
2895  603 mt 2895  603 L
 416  135 mt 2895  135 L
2895  135 mt 2895  135 L
SO
2.08333 w
 416 1540 mt 2895 1540 L
 416  135 mt 2895  135 L
 416 1540 mt  416  135 L
2895 1540 mt 2895  135 L
 416 1540 mt 2895 1540 L
 416 1540 mt  416  135 L
 416 1540 mt  440 1540 L
2895 1540 mt 2870 1540 L
%%IncludeResource: font Helvetica
/Helvetica /ISOLatin1Encoding 75 FMSR

 363 1567 mt 
(0) s
 416 1071 mt  440 1071 L
2895 1071 mt 2870 1071 L
 363 1098 mt 
(2) s
 416  603 mt  440  603 L
2895  603 mt 2870  603 L
 363  630 mt 
(4) s
 416  135 mt  440  135 L
2895  135 mt 2870  135 L
 363  162 mt 
(6) s
 416 1540 mt 2895 1540 L
 416  135 mt 2895  135 L
 416 1540 mt  416  135 L
2895 1540 mt 2895  135 L
gs 416 135 2480 1406 rc
DA
12.5 w
0 -14 829 1509 2 MP stroke
0 -226 1655 1327 2 MP stroke
0 -260 2481 1295 2 MP stroke
0 -10 829 1539 2 MP stroke
0 -62 1655 1539 2 MP stroke
0 -70 2481 1539 2 MP stroke
SO
186 0 736 1495 2 MP stroke
186 0 1562 1101 2 MP stroke
186 0 2388 1035 2 MP stroke
186 0 736 1539 2 MP stroke
186 0 1562 1539 2 MP stroke
186 0 2388 1539 2 MP stroke
/c8 { 0.000000 0.000000 1.000000 sr} bdef
c8
-372 0 0 20 372 0 0 -20 643 1529 5 MP stroke
-372 0 0 150 372 0 0 -150 1469 1477 5 MP stroke
-372 0 0 174 372 0 0 -174 2295 1469 5 MP stroke
/c9 { 1.000000 0.000000 0.000000 sr} bdef
c9
372 0 643 1519 2 MP stroke
372 0 1469 1390 2 MP stroke
372 0 2295 1408 2 MP stroke
2.08333 w
gr

c9
1643 1100 mt 1667 1100 L
1655 1088 mt 1655 1112 L
1643 1099 mt 1667 1099 L
1655 1087 mt 1655 1111 L
1643 1098 mt 1667 1098 L
1655 1086 mt 1655 1110 L
1643 1097 mt 1667 1097 L
1655 1085 mt 1655 1109 L
1643 1096 mt 1667 1096 L
1655 1084 mt 1655 1108 L
1643 1095 mt 1667 1095 L
1655 1083 mt 1655 1107 L
1643 1094 mt 1667 1094 L
1655 1082 mt 1655 1106 L
1643 1092 mt 1667 1092 L
1655 1080 mt 1655 1104 L
1643 1091 mt 1667 1091 L
1655 1079 mt 1655 1103 L
1643 1090 mt 1667 1090 L
1655 1078 mt 1655 1102 L
1643 1089 mt 1667 1089 L
1655 1077 mt 1655 1101 L
1643 1088 mt 1667 1088 L
1655 1076 mt 1655 1100 L
1643 1087 mt 1667 1087 L
1655 1075 mt 1655 1099 L
1643 1085 mt 1667 1085 L
1655 1073 mt 1655 1097 L
1643 1084 mt 1667 1084 L
1655 1072 mt 1655 1096 L
1643 1082 mt 1667 1082 L
1655 1070 mt 1655 1094 L
1643 1081 mt 1667 1081 L
1655 1069 mt 1655 1093 L
1643 1080 mt 1667 1080 L
1655 1068 mt 1655 1092 L
1643 1078 mt 1667 1078 L
1655 1066 mt 1655 1090 L
1643 1077 mt 1667 1077 L
1655 1065 mt 1655 1089 L
1643 1075 mt 1667 1075 L
1655 1063 mt 1655 1087 L
1643 1074 mt 1667 1074 L
1655 1062 mt 1655 1086 L
1643 1073 mt 1667 1073 L
1655 1061 mt 1655 1085 L
1643 1072 mt 1667 1072 L
1655 1060 mt 1655 1084 L
1643 1071 mt 1667 1071 L
1655 1059 mt 1655 1083 L
1643 1070 mt 1667 1070 L
1655 1058 mt 1655 1082 L
1643 1069 mt 1667 1069 L
1655 1057 mt 1655 1081 L
1643 1068 mt 1667 1068 L
1655 1056 mt 1655 1080 L
1643 1066 mt 1667 1066 L
1655 1054 mt 1655 1078 L
1643 1065 mt 1667 1065 L
1655 1053 mt 1655 1077 L
1643 1064 mt 1667 1064 L
1655 1052 mt 1655 1076 L
1643 1061 mt 1667 1061 L
1655 1049 mt 1655 1073 L
1643 1059 mt 1667 1059 L
1655 1047 mt 1655 1071 L
1643 1058 mt 1667 1058 L
1655 1046 mt 1655 1070 L
1643 1056 mt 1667 1056 L
1655 1044 mt 1655 1068 L
1643 1055 mt 1667 1055 L
1655 1043 mt 1655 1067 L
1643 1054 mt 1667 1054 L
1655 1042 mt 1655 1066 L
1643 1052 mt 1667 1052 L
1655 1040 mt 1655 1064 L
1643 1051 mt 1667 1051 L
1655 1039 mt 1655 1063 L
1643 1050 mt 1667 1050 L
1655 1038 mt 1655 1062 L
1643 1047 mt 1667 1047 L
1655 1035 mt 1655 1059 L
1643 1046 mt 1667 1046 L
1655 1034 mt 1655 1058 L
1643 1043 mt 1667 1043 L
1655 1031 mt 1655 1055 L
1643 1041 mt 1667 1041 L
1655 1029 mt 1655 1053 L
1643 1039 mt 1667 1039 L
1655 1027 mt 1655 1051 L
1643 1036 mt 1667 1036 L
1655 1024 mt 1655 1048 L
1643 1034 mt 1667 1034 L
1655 1022 mt 1655 1046 L
1643 1031 mt 1667 1031 L
1655 1019 mt 1655 1043 L
1643 1030 mt 1667 1030 L
1655 1018 mt 1655 1042 L
gs 416 135 2480 1406 rc
gr

2469 1033 mt 2493 1033 L
2481 1021 mt 2481 1045 L
2469 1032 mt 2493 1032 L
2481 1020 mt 2481 1044 L
2469 1031 mt 2493 1031 L
2481 1019 mt 2481 1043 L
2469 1030 mt 2493 1030 L
2481 1018 mt 2481 1042 L
2469 1028 mt 2493 1028 L
2481 1016 mt 2481 1040 L
2469 1026 mt 2493 1026 L
2481 1014 mt 2481 1038 L
2469 1024 mt 2493 1024 L
2481 1012 mt 2481 1036 L
2469 1022 mt 2493 1022 L
2481 1010 mt 2481 1034 L
2469 1021 mt 2493 1021 L
2481 1009 mt 2481 1033 L
2469 1020 mt 2493 1020 L
2481 1008 mt 2481 1032 L
2469 1019 mt 2493 1019 L
2481 1007 mt 2481 1031 L
2469 1017 mt 2493 1017 L
2481 1005 mt 2481 1029 L
2469 1016 mt 2493 1016 L
2481 1004 mt 2481 1028 L
2469 1015 mt 2493 1015 L
2481 1003 mt 2481 1027 L
2469 1014 mt 2493 1014 L
2481 1002 mt 2481 1026 L
2469 1013 mt 2493 1013 L
2481 1001 mt 2481 1025 L
2469 1011 mt 2493 1011 L
2481  999 mt 2481 1023 L
2469 1009 mt 2493 1009 L
2481  997 mt 2481 1021 L
2469 1008 mt 2493 1008 L
2481  996 mt 2481 1020 L
2469 1006 mt 2493 1006 L
2481  994 mt 2481 1018 L
2469 1005 mt 2493 1005 L
2481  993 mt 2481 1017 L
2469 1003 mt 2493 1003 L
2481  991 mt 2481 1015 L
2469 1000 mt 2493 1000 L
2481  988 mt 2481 1012 L
2469  998 mt 2493  998 L
2481  986 mt 2481 1010 L
2469  997 mt 2493  997 L
2481  985 mt 2481 1009 L
2469  996 mt 2493  996 L
2481  984 mt 2481 1008 L
2469  995 mt 2493  995 L
2481  983 mt 2481 1007 L
2469  992 mt 2493  992 L
2481  980 mt 2481 1004 L
2469  991 mt 2493  991 L
2481  979 mt 2481 1003 L
2469  990 mt 2493  990 L
2481  978 mt 2481 1002 L
2469  989 mt 2493  989 L
2481  977 mt 2481 1001 L
2469  988 mt 2493  988 L
2481  976 mt 2481 1000 L
2469  987 mt 2493  987 L
2481  975 mt 2481  999 L
2469  986 mt 2493  986 L
2481  974 mt 2481  998 L
2469  985 mt 2493  985 L
2481  973 mt 2481  997 L
2469  984 mt 2493  984 L
2481  972 mt 2481  996 L
2469  983 mt 2493  983 L
2481  971 mt 2481  995 L
2469  982 mt 2493  982 L
2481  970 mt 2481  994 L
2469  981 mt 2493  981 L
2481  969 mt 2481  993 L
2469  980 mt 2493  980 L
2481  968 mt 2481  992 L
2469  979 mt 2493  979 L
2481  967 mt 2481  991 L
2469  978 mt 2493  978 L
2481  966 mt 2481  990 L
2469  976 mt 2493  976 L
2481  964 mt 2481  988 L
2469  975 mt 2493  975 L
2481  963 mt 2481  987 L
2469  974 mt 2493  974 L
2481  962 mt 2481  986 L
2469  973 mt 2493  973 L
2481  961 mt 2481  985 L
2469  972 mt 2493  972 L
2481  960 mt 2481  984 L
2469  971 mt 2493  971 L
2481  959 mt 2481  983 L
2469  970 mt 2493  970 L
2481  958 mt 2481  982 L
2469  969 mt 2493  969 L
2481  957 mt 2481  981 L
2469  968 mt 2493  968 L
2481  956 mt 2481  980 L
2469  967 mt 2493  967 L
2481  955 mt 2481  979 L
2469  966 mt 2493  966 L
2481  954 mt 2481  978 L
2469  965 mt 2493  965 L
2481  953 mt 2481  977 L
2469  964 mt 2493  964 L
2481  952 mt 2481  976 L
2469  963 mt 2493  963 L
2481  951 mt 2481  975 L
2469  962 mt 2493  962 L
2481  950 mt 2481  974 L
2469  961 mt 2493  961 L
2481  949 mt 2481  973 L
2469  960 mt 2493  960 L
2481  948 mt 2481  972 L
2469  959 mt 2493  959 L
2481  947 mt 2481  971 L
2469  958 mt 2493  958 L
2481  946 mt 2481  970 L
2469  957 mt 2493  957 L
2481  945 mt 2481  969 L
2469  956 mt 2493  956 L
2481  944 mt 2481  968 L
2469  954 mt 2493  954 L
2481  942 mt 2481  966 L
2469  952 mt 2493  952 L
2481  940 mt 2481  964 L
2469  950 mt 2493  950 L
2481  938 mt 2481  962 L
2469  949 mt 2493  949 L
2481  937 mt 2481  961 L
2469  948 mt 2493  948 L
2481  936 mt 2481  960 L
2469  947 mt 2493  947 L
2481  935 mt 2481  959 L
2469  946 mt 2493  946 L
2481  934 mt 2481  958 L
2469  943 mt 2493  943 L
2481  931 mt 2481  955 L
2469  940 mt 2493  940 L
2481  928 mt 2481  952 L
2469  939 mt 2493  939 L
2481  927 mt 2481  951 L
2469  938 mt 2493  938 L
2481  926 mt 2481  950 L
2469  937 mt 2493  937 L
2481  925 mt 2481  949 L
2469  935 mt 2493  935 L
2481  923 mt 2481  947 L
2469  933 mt 2493  933 L
2481  921 mt 2481  945 L
2469  932 mt 2493  932 L
2481  920 mt 2481  944 L
2469  927 mt 2493  927 L
2481  915 mt 2481  939 L
2469  926 mt 2493  926 L
2481  914 mt 2481  938 L
2469  924 mt 2493  924 L
2481  912 mt 2481  936 L
2469  921 mt 2493  921 L
2481  909 mt 2481  933 L
2469  920 mt 2493  920 L
2481  908 mt 2481  932 L
2469  915 mt 2493  915 L
2481  903 mt 2481  927 L
2469  913 mt 2493  913 L
2481  901 mt 2481  925 L
2469  912 mt 2493  912 L
2481  900 mt 2481  924 L
2469  911 mt 2493  911 L
2481  899 mt 2481  923 L
2469  910 mt 2493  910 L
2481  898 mt 2481  922 L
2469  909 mt 2493  909 L
2481  897 mt 2481  921 L
2469  908 mt 2493  908 L
2481  896 mt 2481  920 L
2469  907 mt 2493  907 L
2481  895 mt 2481  919 L
2469  906 mt 2493  906 L
2481  894 mt 2481  918 L
2469  905 mt 2493  905 L
2481  893 mt 2481  917 L
2469  904 mt 2493  904 L
2481  892 mt 2481  916 L
2469  903 mt 2493  903 L
2481  891 mt 2481  915 L
2469  902 mt 2493  902 L
2481  890 mt 2481  914 L
2469  901 mt 2493  901 L
2481  889 mt 2481  913 L
2469  900 mt 2493  900 L
2481  888 mt 2481  912 L
2469  899 mt 2493  899 L
2481  887 mt 2481  911 L
2469  898 mt 2493  898 L
2481  886 mt 2481  910 L
2469  897 mt 2493  897 L
2481  885 mt 2481  909 L
2469  892 mt 2493  892 L
2481  880 mt 2481  904 L
2469  891 mt 2493  891 L
2481  879 mt 2481  903 L
2469  890 mt 2493  890 L
2481  878 mt 2481  902 L
2469  884 mt 2493  884 L
2481  872 mt 2481  896 L
2469  882 mt 2493  882 L
2481  870 mt 2481  894 L
2469  880 mt 2493  880 L
2481  868 mt 2481  892 L
2469  879 mt 2493  879 L
2481  867 mt 2481  891 L
2469  878 mt 2493  878 L
2481  866 mt 2481  890 L
2469  877 mt 2493  877 L
2481  865 mt 2481  889 L
2469  876 mt 2493  876 L
2481  864 mt 2481  888 L
2469  875 mt 2493  875 L
2481  863 mt 2481  887 L
2469  871 mt 2493  871 L
2481  859 mt 2481  883 L
2469  864 mt 2493  864 L
2481  852 mt 2481  876 L
2469  858 mt 2493  858 L
2481  846 mt 2481  870 L
2469  845 mt 2493  845 L
2481  833 mt 2481  857 L
2469  839 mt 2493  839 L
2481  827 mt 2481  851 L
2469  837 mt 2493  837 L
2481  825 mt 2481  849 L
2469  834 mt 2493  834 L
2481  822 mt 2481  846 L
2469  832 mt 2493  832 L
2481  820 mt 2481  844 L
2469  831 mt 2493  831 L
2481  819 mt 2481  843 L
2469  830 mt 2493  830 L
2481  818 mt 2481  842 L
2469  829 mt 2493  829 L
2481  817 mt 2481  841 L
2469  828 mt 2493  828 L
2481  816 mt 2481  840 L
2469  827 mt 2493  827 L
2481  815 mt 2481  839 L
2469  826 mt 2493  826 L
2481  814 mt 2481  838 L
2469  825 mt 2493  825 L
2481  813 mt 2481  837 L
2469  824 mt 2493  824 L
2481  812 mt 2481  836 L
2469  823 mt 2493  823 L
2481  811 mt 2481  835 L
2469  822 mt 2493  822 L
2481  810 mt 2481  834 L
2469  821 mt 2493  821 L
2481  809 mt 2481  833 L
2469  820 mt 2493  820 L
2481  808 mt 2481  832 L
2469  819 mt 2493  819 L
2481  807 mt 2481  831 L
2469  818 mt 2493  818 L
2481  806 mt 2481  830 L
2469  817 mt 2493  817 L
2481  805 mt 2481  829 L
2469  816 mt 2493  816 L
2481  804 mt 2481  828 L
2469  815 mt 2493  815 L
2481  803 mt 2481  827 L
2469  813 mt 2493  813 L
2481  801 mt 2481  825 L
2469  812 mt 2493  812 L
2481  800 mt 2481  824 L
2469  811 mt 2493  811 L
2481  799 mt 2481  823 L
2469  810 mt 2493  810 L
2481  798 mt 2481  822 L
2469  809 mt 2493  809 L
2481  797 mt 2481  821 L
2469  808 mt 2493  808 L
2481  796 mt 2481  820 L
2469  807 mt 2493  807 L
2481  795 mt 2481  819 L
2469  806 mt 2493  806 L
2481  794 mt 2481  818 L
2469  805 mt 2493  805 L
2481  793 mt 2481  817 L
2469  803 mt 2493  803 L
2481  791 mt 2481  815 L
2469  801 mt 2493  801 L
2481  789 mt 2481  813 L
2469  798 mt 2493  798 L
2481  786 mt 2481  810 L
2469  796 mt 2493  796 L
2481  784 mt 2481  808 L
2469  794 mt 2493  794 L
2481  782 mt 2481  806 L
2469  792 mt 2493  792 L
2481  780 mt 2481  804 L
2469  790 mt 2493  790 L
2481  778 mt 2481  802 L
2469  788 mt 2493  788 L
2481  776 mt 2481  800 L
2469  787 mt 2493  787 L
2481  775 mt 2481  799 L
2469  786 mt 2493  786 L
2481  774 mt 2481  798 L
2469  785 mt 2493  785 L
2481  773 mt 2481  797 L
2469  784 mt 2493  784 L
2481  772 mt 2481  796 L
2469  782 mt 2493  782 L
2481  770 mt 2481  794 L
2469  781 mt 2493  781 L
2481  769 mt 2481  793 L
2469  780 mt 2493  780 L
2481  768 mt 2481  792 L
2469  779 mt 2493  779 L
2481  767 mt 2481  791 L
2469  778 mt 2493  778 L
2481  766 mt 2481  790 L
2469  776 mt 2493  776 L
2481  764 mt 2481  788 L
2469  774 mt 2493  774 L
2481  762 mt 2481  786 L
2469  773 mt 2493  773 L
2481  761 mt 2481  785 L
2469  772 mt 2493  772 L
2481  760 mt 2481  784 L
2469  771 mt 2493  771 L
2481  759 mt 2481  783 L
2469  770 mt 2493  770 L
2481  758 mt 2481  782 L
2469  768 mt 2493  768 L
2481  756 mt 2481  780 L
2469  767 mt 2493  767 L
2481  755 mt 2481  779 L
2469  765 mt 2493  765 L
2481  753 mt 2481  777 L
2469  763 mt 2493  763 L
2481  751 mt 2481  775 L
2469  761 mt 2493  761 L
2481  749 mt 2481  773 L
2469  759 mt 2493  759 L
2481  747 mt 2481  771 L
2469  757 mt 2493  757 L
2481  745 mt 2481  769 L
2469  755 mt 2493  755 L
2481  743 mt 2481  767 L
2469  753 mt 2493  753 L
2481  741 mt 2481  765 L
2469  751 mt 2493  751 L
2481  739 mt 2481  763 L
2469  749 mt 2493  749 L
2481  737 mt 2481  761 L
2469  747 mt 2493  747 L
2481  735 mt 2481  759 L
2469  745 mt 2493  745 L
2481  733 mt 2481  757 L
2469  743 mt 2493  743 L
2481  731 mt 2481  755 L
2469  742 mt 2493  742 L
2481  730 mt 2481  754 L
2469  741 mt 2493  741 L
2481  729 mt 2481  753 L
2469  739 mt 2493  739 L
2481  727 mt 2481  751 L
2469  736 mt 2493  736 L
2481  724 mt 2481  748 L
2469  735 mt 2493  735 L
2481  723 mt 2481  747 L
2469  734 mt 2493  734 L
2481  722 mt 2481  746 L
2469  733 mt 2493  733 L
2481  721 mt 2481  745 L
2469  732 mt 2493  732 L
2481  720 mt 2481  744 L
2469  731 mt 2493  731 L
2481  719 mt 2481  743 L
2469  730 mt 2493  730 L
2481  718 mt 2481  742 L
2469  729 mt 2493  729 L
2481  717 mt 2481  741 L
2469  728 mt 2493  728 L
2481  716 mt 2481  740 L
2469  727 mt 2493  727 L
2481  715 mt 2481  739 L
2469  726 mt 2493  726 L
2481  714 mt 2481  738 L
2469  725 mt 2493  725 L
2481  713 mt 2481  737 L
2469  724 mt 2493  724 L
2481  712 mt 2481  736 L
2469  723 mt 2493  723 L
2481  711 mt 2481  735 L
2469  722 mt 2493  722 L
2481  710 mt 2481  734 L
2469  721 mt 2493  721 L
2481  709 mt 2481  733 L
2469  720 mt 2493  720 L
2481  708 mt 2481  732 L
2469  719 mt 2493  719 L
2481  707 mt 2481  731 L
2469  718 mt 2493  718 L
2481  706 mt 2481  730 L
2469  716 mt 2493  716 L
2481  704 mt 2481  728 L
2469  714 mt 2493  714 L
2481  702 mt 2481  726 L
2469  712 mt 2493  712 L
2481  700 mt 2481  724 L
2469  710 mt 2493  710 L
2481  698 mt 2481  722 L
2469  707 mt 2493  707 L
2481  695 mt 2481  719 L
2469  705 mt 2493  705 L
2481  693 mt 2481  717 L
2469  703 mt 2493  703 L
2481  691 mt 2481  715 L
2469  690 mt 2493  690 L
2481  678 mt 2481  702 L
2469  677 mt 2493  677 L
2481  665 mt 2481  689 L
2469  595 mt 2493  595 L
2481  583 mt 2481  607 L
2469  590 mt 2493  590 L
2481  578 mt 2481  602 L
2469  588 mt 2493  588 L
2481  576 mt 2481  600 L
2469  586 mt 2493  586 L
2481  574 mt 2481  598 L
2469  581 mt 2493  581 L
2481  569 mt 2481  593 L
2469  579 mt 2493  579 L
2481  567 mt 2481  591 L
2469  577 mt 2493  577 L
2481  565 mt 2481  589 L
2469  573 mt 2493  573 L
2481  561 mt 2481  585 L
2469  568 mt 2493  568 L
2481  556 mt 2481  580 L
2469  461 mt 2493  461 L
2481  449 mt 2481  473 L
2469  459 mt 2493  459 L
2481  447 mt 2481  471 L
2469  458 mt 2493  458 L
2481  446 mt 2481  470 L
2469  457 mt 2493  457 L
2481  445 mt 2481  469 L
2469  455 mt 2493  455 L
2481  443 mt 2481  467 L
2469  454 mt 2493  454 L
2481  442 mt 2481  466 L
2469  453 mt 2493  453 L
2481  441 mt 2481  465 L
2469  451 mt 2493  451 L
2481  439 mt 2481  463 L
2469  450 mt 2493  450 L
2481  438 mt 2481  462 L
2469  449 mt 2493  449 L
2481  437 mt 2481  461 L
2469  448 mt 2493  448 L
2481  436 mt 2481  460 L
2469  245 mt 2493  245 L
2481  233 mt 2481  257 L
2469  240 mt 2493  240 L
2481  228 mt 2481  252 L
2469  236 mt 2493  236 L
2481  224 mt 2481  248 L
2469  231 mt 2493  231 L
2481  219 mt 2481  243 L
2469  226 mt 2493  226 L
2481  214 mt 2481  238 L
2469  222 mt 2493  222 L
2481  210 mt 2481  234 L
2469  217 mt 2493  217 L
2481  205 mt 2481  229 L
2469  212 mt 2493  212 L
2481  200 mt 2481  224 L
2469  208 mt 2493  208 L
2481  196 mt 2481  220 L
2469  203 mt 2493  203 L
2481  191 mt 2481  215 L
2469  198 mt 2493  198 L
2481  186 mt 2481  210 L
2469  194 mt 2493  194 L
2481  182 mt 2481  206 L
2469  189 mt 2493  189 L
2481  177 mt 2481  201 L
2469  184 mt 2493  184 L
2481  172 mt 2481  196 L
2469  179 mt 2493  179 L
2481  167 mt 2481  191 L
2469  175 mt 2493  175 L
2481  163 mt 2481  187 L
2469  170 mt 2493  170 L
2481  158 mt 2481  182 L
gs 416 135 2480 1406 rc
gr

0 sg
 455 1713 mt 
(Setup 1 \(M = 0.086 m\)) s
1303 1713 mt 
(Setup 2 \(M = 0.64 m\)) s
2130 1713 mt 
(Setup 3 \(M = 0.56 m\)) s
1067   78 mt 
(Estimated tracking error distribution) s
 327  984 mt  -90 rotate
(Error [m]) s
90 rotate

end %%Color Dict

eplot
%%EndObject

epage
end

showpage

%%Trailer
%%EOF
