%!PS-Adobe-3.0 EPSF-3.0
%%Creator: MATLAB, The MathWorks, Inc. Version 8.3.0.532 (R2014a). Operating System: Linux 3.13.0-49-generic #83-Ubuntu SMP Fri Apr 10 20:11:33 UTC 2015 x86_64.
%%Title: /home/dnad/Documents/publication/ram2014_data/figures/Figure5_b_tracking_error_diver.eps
%%CreationDate: 04/23/2015  14:06:49
%%DocumentNeededFonts: Helvetica
%%DocumentProcessColors: Cyan Magenta Yellow Black
%%LanguageLevel: 2
%%Pages: 1
%%BoundingBox:   -62   183   625   615
%%EndComments

%%BeginProlog
% MathWorks dictionary
/MathWorks 160 dict begin
% definition operators
/bdef {bind def} bind def
/ldef {load def} bind def
/xdef {exch def} bdef
/xstore {exch store} bdef
% operator abbreviations
/c  /clip ldef
/cc /concat ldef
/cp /closepath ldef
/gr /grestore ldef
/gs /gsave ldef
/mt /moveto ldef
/np /newpath ldef
/cm /currentmatrix ldef
/sm /setmatrix ldef
/rm /rmoveto ldef
/rl /rlineto ldef
/s {show newpath} bdef
/sc {setcmykcolor} bdef
/sr /setrgbcolor ldef
/sg /setgray ldef
/w /setlinewidth ldef
/j /setlinejoin ldef
/cap /setlinecap ldef
/rc {rectclip} bdef
/rf {rectfill} bdef
% page state control
/pgsv () def
/bpage {/pgsv save def} bdef
/epage {pgsv restore} bdef
/bplot /gsave ldef
/eplot {stroke grestore} bdef
% orientation switch
/portraitMode 0 def /landscapeMode 1 def /rotateMode 2 def
% coordinate system mappings
/dpi2point 0 def
% font control
/FontSize 0 def
/FMS {/FontSize xstore findfont [FontSize 0 0 FontSize neg 0 0]
  makefont setfont} bdef
/reencode {exch dup where {pop load} {pop StandardEncoding} ifelse
  exch dup 3 1 roll findfont dup length dict begin
  { 1 index /FID ne {def}{pop pop} ifelse } forall
  /Encoding exch def currentdict end definefont pop} bdef
/isroman {findfont /CharStrings get /Agrave known} bdef
/FMSR {3 1 roll 1 index dup isroman {reencode} {pop pop} ifelse
  exch FMS} bdef
/csm {1 dpi2point div -1 dpi2point div scale neg translate
 dup landscapeMode eq {pop -90 rotate}
  {rotateMode eq {90 rotate} if} ifelse} bdef
% line types: solid, dotted, dashed, dotdash
/SO { [] 0 setdash } bdef
/DO { [.5 dpi2point mul 4 dpi2point mul] 0 setdash } bdef
/DA { [6 dpi2point mul] 0 setdash } bdef
/DD { [.5 dpi2point mul 4 dpi2point mul 6 dpi2point mul 4
  dpi2point mul] 0 setdash } bdef
% macros for lines and objects
/L {lineto stroke} bdef
/MP {3 1 roll moveto 1 sub {rlineto} repeat} bdef
/AP {{rlineto} repeat} bdef
/PDlw -1 def
/W {/PDlw currentlinewidth def setlinewidth} def
/PP {closepath eofill} bdef
/DP {closepath stroke} bdef
/MR {4 -2 roll moveto dup  0 exch rlineto exch 0 rlineto
  neg 0 exch rlineto closepath} bdef
/FR {MR stroke} bdef
/PR {MR fill} bdef
/L1i {{currentfile picstr readhexstring pop} image} bdef
/tMatrix matrix def
/MakeOval {newpath tMatrix currentmatrix pop translate scale
0 0 1 0 360 arc tMatrix setmatrix} bdef
/FO {MakeOval stroke} bdef
/PO {MakeOval fill} bdef
/PD {currentlinewidth 2 div 0 360 arc fill
   PDlw -1 eq not {PDlw w /PDlw -1 def} if} def
/FA {newpath tMatrix currentmatrix pop translate scale
  0 0 1 5 -2 roll arc tMatrix setmatrix stroke} bdef
/PA {newpath tMatrix currentmatrix pop	translate 0 0 moveto scale
  0 0 1 5 -2 roll arc closepath tMatrix setmatrix fill} bdef
/FAn {newpath tMatrix currentmatrix pop translate scale
  0 0 1 5 -2 roll arcn tMatrix setmatrix stroke} bdef
/PAn {newpath tMatrix currentmatrix pop translate 0 0 moveto scale
  0 0 1 5 -2 roll arcn closepath tMatrix setmatrix fill} bdef
/vradius 0 def /hradius 0 def /lry 0 def
/lrx 0 def /uly 0 def /ulx 0 def /rad 0 def
/MRR {/vradius xdef /hradius xdef /lry xdef /lrx xdef /uly xdef
  /ulx xdef newpath tMatrix currentmatrix pop ulx hradius add uly
  vradius add translate hradius vradius scale 0 0 1 180 270 arc 
  tMatrix setmatrix lrx hradius sub uly vradius add translate
  hradius vradius scale 0 0 1 270 360 arc tMatrix setmatrix
  lrx hradius sub lry vradius sub translate hradius vradius scale
  0 0 1 0 90 arc tMatrix setmatrix ulx hradius add lry vradius sub
  translate hradius vradius scale 0 0 1 90 180 arc tMatrix setmatrix
  closepath} bdef
/FRR {MRR stroke } bdef
/PRR {MRR fill } bdef
/MlrRR {/lry xdef /lrx xdef /uly xdef /ulx xdef /rad lry uly sub 2 div def
  newpath tMatrix currentmatrix pop ulx rad add uly rad add translate
  rad rad scale 0 0 1 90 270 arc tMatrix setmatrix lrx rad sub lry rad
  sub translate rad rad scale 0 0 1 270 90 arc tMatrix setmatrix
  closepath} bdef
/FlrRR {MlrRR stroke } bdef
/PlrRR {MlrRR fill } bdef
/MtbRR {/lry xdef /lrx xdef /uly xdef /ulx xdef /rad lrx ulx sub 2 div def
  newpath tMatrix currentmatrix pop ulx rad add uly rad add translate
  rad rad scale 0 0 1 180 360 arc tMatrix setmatrix lrx rad sub lry rad
  sub translate rad rad scale 0 0 1 0 180 arc tMatrix setmatrix
  closepath} bdef
/FtbRR {MtbRR stroke } bdef
/PtbRR {MtbRR fill } bdef
/stri 6 array def /dtri 6 array def
/smat 6 array def /dmat 6 array def
/tmat1 6 array def /tmat2 6 array def /dif 3 array def
/asub {/ind2 exch def /ind1 exch def dup dup
  ind1 get exch ind2 get sub exch } bdef
/tri_to_matrix {
  2 0 asub 3 1 asub 4 0 asub 5 1 asub
  dup 0 get exch 1 get 7 -1 roll astore } bdef
/compute_transform {
  dmat dtri tri_to_matrix tmat1 invertmatrix 
  smat stri tri_to_matrix tmat2 concatmatrix } bdef
/ds {stri astore pop} bdef
/dt {dtri astore pop} bdef
/db {2 copy /cols xdef /rows xdef mul dup 3 mul string
  currentfile 
  3 index 0 eq {/ASCIIHexDecode filter}
  {/ASCII85Decode filter 3 index 2 eq {/RunLengthDecode filter} if }
  ifelse exch readstring pop
  dup 0 3 index getinterval /rbmap xdef
  dup 2 index dup getinterval /gbmap xdef
  1 index dup 2 mul exch getinterval /bbmap xdef pop pop}bdef
/it {gs np dtri aload pop moveto lineto lineto cp c
  cols rows 8 compute_transform 
  rbmap gbmap bbmap true 3 colorimage gr}bdef
/il {newpath moveto lineto stroke}bdef
currentdict end def
%%EndProlog

%%BeginSetup
MathWorks begin

0 cap

end
%%EndSetup

%%Page: 1 1
%%BeginPageSetup
%%PageBoundingBox:   -62   183   625   615
MathWorks begin
bpage
%%EndPageSetup

%%BeginObject: obj1
bplot

/dpi2point 4.16667 def
portraitMode -0320 2550 csm

   61   -16  2865  1800 rc
86 dict begin %Colortable dictionary
/c0 { 0.000000 0.000000 0.000000 sr} bdef
/c1 { 1.000000 1.000000 1.000000 sr} bdef
/c2 { 0.900000 0.000000 0.000000 sr} bdef
/c3 { 0.000000 0.820000 0.000000 sr} bdef
/c4 { 0.000000 0.000000 0.800000 sr} bdef
/c5 { 0.910000 0.820000 0.320000 sr} bdef
/c6 { 1.000000 0.260000 0.820000 sr} bdef
/c7 { 0.000000 0.820000 0.820000 sr} bdef
c0
1 j
1 sg
   0    0 3200 1802 rf
2.08333 w
0 1468 2479 0 0 -1468 416 1603 4 MP
PP
-2479 0 0 1468 2479 0 0 -1468 416 1603 5 MP stroke
1.38889 w
DO
0 sg
 416 1603 mt  416  135 L
 416  135 mt  416  135 L
 668 1603 mt  668  135 L
 668  135 mt  668  135 L
 921 1603 mt  921  135 L
 921  135 mt  921  135 L
1174 1603 mt 1174  135 L
1174  135 mt 1174  135 L
1427 1603 mt 1427  135 L
1427  135 mt 1427  135 L
1680 1603 mt 1680  135 L
1680  135 mt 1680  135 L
1933 1603 mt 1933  135 L
1933  135 mt 1933  135 L
2186 1603 mt 2186  135 L
2186  135 mt 2186  135 L
2439 1603 mt 2439  135 L
2439  135 mt 2439  135 L
2692 1603 mt 2692  135 L
2692  135 mt 2692  135 L
 416 1603 mt 2895 1603 L
2895 1603 mt 2895 1603 L
 416 1253 mt 2895 1253 L
2895 1253 mt 2895 1253 L
 416 1128 mt 2895 1128 L
2895 1128 mt 2895 1128 L
 416  624 mt 2895  624 L
2895  624 mt 2895  624 L
 416  135 mt 2895  135 L
2895  135 mt 2895  135 L
SO
2.08333 w
 416 1603 mt 2895 1603 L
 416  135 mt 2895  135 L
 416 1603 mt  416  135 L
2895 1603 mt 2895  135 L
 416 1603 mt 2895 1603 L
 416 1603 mt  416  135 L
 416 1603 mt  416 1578 L
 416  135 mt  416  159 L
%%IncludeResource: font Helvetica
/Helvetica /ISOLatin1Encoding 75 FMSR

 396 1684 mt 
(0) s
 668 1603 mt  668 1578 L
 668  135 mt  668  159 L
 627 1684 mt 
(50) s
 921 1603 mt  921 1578 L
 921  135 mt  921  159 L
 859 1684 mt 
(100) s
1174 1603 mt 1174 1578 L
1174  135 mt 1174  159 L
1112 1684 mt 
(150) s
1427 1603 mt 1427 1578 L
1427  135 mt 1427  159 L
1365 1684 mt 
(200) s
1680 1603 mt 1680 1578 L
1680  135 mt 1680  159 L
1618 1684 mt 
(250) s
1933 1603 mt 1933 1578 L
1933  135 mt 1933  159 L
1871 1684 mt 
(300) s
2186 1603 mt 2186 1578 L
2186  135 mt 2186  159 L
2124 1684 mt 
(350) s
2439 1603 mt 2439 1578 L
2439  135 mt 2439  159 L
2377 1684 mt 
(400) s
2692 1603 mt 2692 1578 L
2692  135 mt 2692  159 L
2630 1684 mt 
(450) s
 416 1603 mt  440 1603 L
2895 1603 mt 2870 1603 L
 363 1630 mt 
(0) s
 416 1253 mt  440 1253 L
2895 1253 mt 2870 1253 L
 175 1280 mt 
(1.4283) s
 416 1128 mt  440 1128 L
2895 1128 mt 2870 1128 L
 175 1155 mt 
(1.9399) s
 416  624 mt  440  624 L
2895  624 mt 2870  624 L
 363  651 mt 
(4) s
 416  135 mt  440  135 L
2895  135 mt 2870  135 L
 363  162 mt 
(6) s
 416 1603 mt 2895 1603 L
 416  135 mt 2895  135 L
 416 1603 mt  416  135 L
2895 1603 mt 2895  135 L
gs 416 135 2480 1469 rc
gr

/c8 { 1.000000 0.000000 0.000000 sr} bdef
c8
 465  402 mt  481  418 L
 481  402 mt  465  418 L
 472  149 mt  488  165 L
 488  149 mt  472  165 L
 480  385 mt  496  401 L
 496  385 mt  480  401 L
 486  492 mt  502  508 L
 502  492 mt  486  508 L
 493  358 mt  509  374 L
 509  358 mt  493  374 L
 499  290 mt  515  306 L
 515  290 mt  499  306 L
gs 416 135 2480 1469 rc
gr

 546  182 mt  562  198 L
 562  182 mt  546  198 L
 554  137 mt  570  153 L
 570  137 mt  554  153 L
 562  287 mt  578  303 L
 578  287 mt  562  303 L
 571  237 mt  587  253 L
 587  237 mt  571  253 L
 578  249 mt  594  265 L
 594  249 mt  578  265 L
 586  318 mt  602  334 L
 602  318 mt  586  334 L
 592  197 mt  608  213 L
 608  197 mt  592  213 L
 599  836 mt  615  852 L
 615  836 mt  599  852 L
 605  674 mt  621  690 L
 621  674 mt  605  690 L
gs 416 135 2480 1469 rc
gr

 639  689 mt  655  705 L
 655  689 mt  639  705 L
 645  460 mt  661  476 L
 661  460 mt  645  476 L
 651  450 mt  667  466 L
 667  450 mt  651  466 L
 657  329 mt  673  345 L
 673  329 mt  657  345 L
 664  341 mt  680  357 L
 680  341 mt  664  357 L
gs 416 135 2480 1469 rc
gr

 697  411 mt  713  427 L
 713  411 mt  697  427 L
 704  412 mt  720  428 L
 720  412 mt  704  428 L
 711  270 mt  727  286 L
 727  270 mt  711  286 L
 718  133 mt  734  149 L
 734  133 mt  718  149 L
 745  198 mt  761  214 L
 761  198 mt  745  214 L
 751  209 mt  767  225 L
 767  209 mt  751  225 L
 777  224 mt  793  240 L
 793  224 mt  777  240 L
 784  283 mt  800  299 L
 800  283 mt  784  299 L
 810  726 mt  826  742 L
 826  726 mt  810  742 L
 834  575 mt  850  591 L
 850  575 mt  834  591 L
 841  813 mt  857  829 L
 857  813 mt  841  829 L
 849  681 mt  865  697 L
 865  681 mt  849  697 L
 856  814 mt  872  830 L
 872  814 mt  856  830 L
 864 1028 mt  880 1044 L
 880 1028 mt  864 1044 L
 873  915 mt  889  931 L
 889  915 mt  873  931 L
 880 1043 mt  896 1059 L
 896 1043 mt  880 1059 L
 905 1312 mt  921 1328 L
 921 1312 mt  905 1328 L
 914 1279 mt  930 1295 L
 930 1279 mt  914 1295 L
 921 1533 mt  937 1549 L
 937 1533 mt  921 1549 L
 927 1382 mt  943 1398 L
 943 1382 mt  927 1398 L
 934 1539 mt  950 1555 L
 950 1539 mt  934 1555 L
 941 1498 mt  957 1514 L
 957 1498 mt  941 1514 L
 948 1425 mt  964 1441 L
 964 1425 mt  948 1441 L
 955 1536 mt  971 1552 L
 971 1536 mt  955 1552 L
 966 1333 mt  982 1349 L
 982 1333 mt  966 1349 L
 972 1195 mt  988 1211 L
 988 1195 mt  972 1211 L
 980 1197 mt  996 1213 L
 996 1197 mt  980 1213 L
 987 1355 mt 1003 1371 L
1003 1355 mt  987 1371 L
 993 1333 mt 1009 1349 L
1009 1333 mt  993 1349 L
 999 1159 mt 1015 1175 L
1015 1159 mt  999 1175 L
1006 1302 mt 1022 1318 L
1022 1302 mt 1006 1318 L
1013 1253 mt 1029 1269 L
1029 1253 mt 1013 1269 L
1019 1322 mt 1035 1338 L
1035 1322 mt 1019 1338 L
1025 1472 mt 1041 1488 L
1041 1472 mt 1025 1488 L
1032 1483 mt 1048 1499 L
1048 1483 mt 1032 1499 L
1042 1525 mt 1058 1541 L
1058 1525 mt 1042 1541 L
1048 1268 mt 1064 1284 L
1064 1268 mt 1048 1284 L
1058 1194 mt 1074 1210 L
1074 1194 mt 1058 1210 L
1064 1301 mt 1080 1317 L
1080 1301 mt 1064 1317 L
1072 1461 mt 1088 1477 L
1088 1461 mt 1072 1477 L
1078 1561 mt 1094 1577 L
1094 1561 mt 1078 1577 L
1088 1481 mt 1104 1497 L
1104 1481 mt 1088 1497 L
1097 1334 mt 1113 1350 L
1113 1334 mt 1097 1350 L
1103 1536 mt 1119 1552 L
1119 1536 mt 1103 1552 L
1112 1405 mt 1128 1421 L
1128 1405 mt 1112 1421 L
1118 1312 mt 1134 1328 L
1134 1312 mt 1118 1328 L
1125 1254 mt 1141 1270 L
1141 1254 mt 1125 1270 L
1131 1402 mt 1147 1418 L
1147 1402 mt 1131 1418 L
1139 1525 mt 1155 1541 L
1155 1525 mt 1139 1541 L
1148  807 mt 1164  823 L
1164  807 mt 1148  823 L
1155 1361 mt 1171 1377 L
1171 1361 mt 1155 1377 L
1162 1380 mt 1178 1396 L
1178 1380 mt 1162 1396 L
1170 1280 mt 1186 1296 L
1186 1280 mt 1170 1296 L
1176 1443 mt 1192 1459 L
1192 1443 mt 1176 1459 L
1183 1384 mt 1199 1400 L
1199 1384 mt 1183 1400 L
1191 1368 mt 1207 1384 L
1207 1368 mt 1191 1384 L
1200 1205 mt 1216 1221 L
1216 1205 mt 1200 1221 L
1207 1483 mt 1223 1499 L
1223 1483 mt 1207 1499 L
1214 1374 mt 1230 1390 L
1230 1374 mt 1214 1390 L
gs 416 135 2480 1469 rc
gr

1283  727 mt 1299  743 L
1299  727 mt 1283  743 L
1311  631 mt 1327  647 L
1327  631 mt 1311  647 L
1317  656 mt 1333  672 L
1333  656 mt 1317  672 L
1325  437 mt 1341  453 L
1341  437 mt 1325  453 L
1334  809 mt 1350  825 L
1350  809 mt 1334  825 L
1342  984 mt 1358 1000 L
1358  984 mt 1342 1000 L
1353 1041 mt 1369 1057 L
1369 1041 mt 1353 1057 L
1382  775 mt 1398  791 L
1398  775 mt 1382  791 L
1430  545 mt 1446  561 L
1446  545 mt 1430  561 L
1455  663 mt 1471  679 L
1471  663 mt 1455  679 L
1460  816 mt 1476  832 L
1476  816 mt 1460  832 L
1468  843 mt 1484  859 L
1484  843 mt 1468  859 L
1480  883 mt 1496  899 L
1496  883 mt 1480  899 L
1506 1019 mt 1522 1035 L
1522 1019 mt 1506 1035 L
1514 1009 mt 1530 1025 L
1530 1009 mt 1514 1025 L
1539 1030 mt 1555 1046 L
1555 1030 mt 1539 1046 L
1546 1083 mt 1562 1099 L
1562 1083 mt 1546 1099 L
1552 1129 mt 1568 1145 L
1568 1129 mt 1552 1145 L
1559 1065 mt 1575 1081 L
1575 1065 mt 1559 1081 L
1565 1324 mt 1581 1340 L
1581 1324 mt 1565 1340 L
1573 1274 mt 1589 1290 L
1589 1274 mt 1573 1290 L
1580 1184 mt 1596 1200 L
1596 1184 mt 1580 1200 L
1586 1255 mt 1602 1271 L
1602 1255 mt 1586 1271 L
1592 1180 mt 1608 1196 L
1608 1180 mt 1592 1196 L
1599 1326 mt 1615 1342 L
1615 1326 mt 1599 1342 L
1606 1184 mt 1622 1200 L
1622 1184 mt 1606 1200 L
1612 1335 mt 1628 1351 L
1628 1335 mt 1612 1351 L
1618 1293 mt 1634 1309 L
1634 1293 mt 1618 1309 L
1641 1393 mt 1657 1409 L
1657 1393 mt 1641 1409 L
1652 1412 mt 1668 1428 L
1668 1412 mt 1652 1428 L
1658 1455 mt 1674 1471 L
1674 1455 mt 1658 1471 L
1666 1399 mt 1682 1415 L
1682 1399 mt 1666 1415 L
1675 1365 mt 1691 1381 L
1691 1365 mt 1675 1381 L
1683 1323 mt 1699 1339 L
1699 1323 mt 1683 1339 L
1691  989 mt 1707 1005 L
1707  989 mt 1691 1005 L
1697 1331 mt 1713 1347 L
1713 1331 mt 1697 1347 L
1704 1357 mt 1720 1373 L
1720 1357 mt 1704 1373 L
1710 1270 mt 1726 1286 L
1726 1270 mt 1710 1286 L
1717  981 mt 1733  997 L
1733  981 mt 1717  997 L
1724 1193 mt 1740 1209 L
1740 1193 mt 1724 1209 L
1731 1211 mt 1747 1227 L
1747 1211 mt 1731 1227 L
1741 1397 mt 1757 1413 L
1757 1397 mt 1741 1413 L
1747 1283 mt 1763 1299 L
1763 1283 mt 1747 1299 L
1755 1353 mt 1771 1369 L
1771 1353 mt 1755 1369 L
1762 1541 mt 1778 1557 L
1778 1541 mt 1762 1557 L
1771 1492 mt 1787 1508 L
1787 1492 mt 1771 1508 L
1778 1385 mt 1794 1401 L
1794 1385 mt 1778 1401 L
1825 1024 mt 1841 1040 L
1841 1024 mt 1825 1040 L
1834  779 mt 1850  795 L
1850  779 mt 1834  795 L
1840  691 mt 1856  707 L
1856  691 mt 1840  707 L
1849  803 mt 1865  819 L
1865  803 mt 1849  819 L
1892 1150 mt 1908 1166 L
1908 1150 mt 1892 1166 L
1901 1066 mt 1917 1082 L
1917 1066 mt 1901 1082 L
1907 1059 mt 1923 1075 L
1923 1059 mt 1907 1075 L
1953 1269 mt 1969 1285 L
1969 1269 mt 1953 1285 L
1958 1405 mt 1974 1421 L
1974 1405 mt 1958 1421 L
1968 1433 mt 1984 1449 L
1984 1433 mt 1968 1449 L
1974 1336 mt 1990 1352 L
1990 1336 mt 1974 1352 L
1980 1233 mt 1996 1249 L
1996 1233 mt 1980 1249 L
1988 1532 mt 2004 1548 L
2004 1532 mt 1988 1548 L
2010 1523 mt 2026 1539 L
2026 1523 mt 2010 1539 L
2021 1476 mt 2037 1492 L
2037 1476 mt 2021 1492 L
2026 1427 mt 2042 1443 L
2042 1427 mt 2026 1443 L
2033 1439 mt 2049 1455 L
2049 1439 mt 2033 1455 L
2039 1459 mt 2055 1475 L
2055 1459 mt 2039 1475 L
2046 1571 mt 2062 1587 L
2062 1571 mt 2046 1587 L
2052 1319 mt 2068 1335 L
2068 1319 mt 2052 1335 L
2059 1473 mt 2075 1489 L
2075 1473 mt 2059 1489 L
2065 1446 mt 2081 1462 L
2081 1446 mt 2065 1462 L
2073 1460 mt 2089 1476 L
2089 1460 mt 2073 1476 L
2078 1584 mt 2094 1600 L
2094 1584 mt 2078 1600 L
2087 1317 mt 2103 1333 L
2103 1317 mt 2087 1333 L
2092 1424 mt 2108 1440 L
2108 1424 mt 2092 1440 L
2116 1543 mt 2132 1559 L
2132 1543 mt 2116 1559 L
2125 1478 mt 2141 1494 L
2141 1478 mt 2125 1494 L
2132 1429 mt 2148 1445 L
2148 1429 mt 2132 1445 L
2139 1360 mt 2155 1376 L
2155 1360 mt 2139 1376 L
2146 1429 mt 2162 1445 L
2162 1429 mt 2146 1445 L
2159 1450 mt 2175 1466 L
2175 1450 mt 2159 1466 L
2166 1420 mt 2182 1436 L
2182 1420 mt 2166 1436 L
2171 1458 mt 2187 1474 L
2187 1458 mt 2171 1474 L
2181 1186 mt 2197 1202 L
2197 1186 mt 2181 1202 L
2188 1168 mt 2204 1184 L
2204 1168 mt 2188 1184 L
2192 1258 mt 2208 1274 L
2208 1258 mt 2192 1274 L
2198 1414 mt 2214 1430 L
2214 1414 mt 2198 1430 L
2215 1460 mt 2231 1476 L
2231 1460 mt 2215 1476 L
2219 1553 mt 2235 1569 L
2235 1553 mt 2219 1569 L
2229 1547 mt 2245 1563 L
2245 1547 mt 2229 1563 L
2244 1061 mt 2260 1077 L
2260 1061 mt 2244 1077 L
2250 1262 mt 2266 1278 L
2266 1262 mt 2250 1278 L
2256 1363 mt 2272 1379 L
2272 1363 mt 2256 1379 L
2261 1436 mt 2277 1452 L
2277 1436 mt 2261 1452 L
2271 1497 mt 2287 1513 L
2287 1497 mt 2271 1513 L
2277 1420 mt 2293 1436 L
2293 1420 mt 2277 1436 L
2284 1346 mt 2300 1362 L
2300 1346 mt 2284 1362 L
2309 1530 mt 2325 1546 L
2325 1530 mt 2309 1546 L
2315 1445 mt 2331 1461 L
2331 1445 mt 2315 1461 L
2339 1178 mt 2355 1194 L
2355 1178 mt 2339 1194 L
2350 1322 mt 2366 1338 L
2366 1322 mt 2350 1338 L
2359 1414 mt 2375 1430 L
2375 1414 mt 2359 1430 L
2366 1467 mt 2382 1483 L
2382 1467 mt 2366 1483 L
2376 1290 mt 2392 1306 L
2392 1290 mt 2376 1306 L
2382 1113 mt 2398 1129 L
2398 1113 mt 2382 1129 L
2388 1239 mt 2404 1255 L
2404 1239 mt 2388 1255 L
2394 1208 mt 2410 1224 L
2410 1208 mt 2394 1224 L
2401 1105 mt 2417 1121 L
2417 1105 mt 2401 1121 L
2407 1365 mt 2423 1381 L
2423 1365 mt 2407 1381 L
2415 1435 mt 2431 1451 L
2431 1435 mt 2415 1451 L
2446 1387 mt 2462 1403 L
2462 1387 mt 2446 1403 L
2455 1289 mt 2471 1305 L
2471 1289 mt 2455 1305 L
2484 1312 mt 2500 1328 L
2500 1312 mt 2484 1328 L
2487 1259 mt 2503 1275 L
2503 1259 mt 2487 1275 L
2492 1322 mt 2508 1338 L
2508 1322 mt 2492 1338 L
2499 1399 mt 2515 1415 L
2515 1399 mt 2499 1415 L
2505 1528 mt 2521 1544 L
2521 1528 mt 2505 1544 L
2511 1553 mt 2527 1569 L
2527 1553 mt 2511 1569 L
2518 1568 mt 2534 1584 L
2534 1568 mt 2518 1584 L
2525 1296 mt 2541 1312 L
2541 1296 mt 2525 1312 L
2532 1180 mt 2548 1196 L
2548 1180 mt 2532 1196 L
2538 1321 mt 2554 1337 L
2554 1321 mt 2538 1337 L
2563 1329 mt 2579 1345 L
2579 1329 mt 2563 1345 L
2571 1259 mt 2587 1275 L
2587 1259 mt 2571 1275 L
2577 1528 mt 2593 1544 L
2593 1528 mt 2577 1544 L
2584 1466 mt 2600 1482 L
2600 1466 mt 2584 1482 L
2590 1451 mt 2606 1467 L
2606 1451 mt 2590 1467 L
2598 1335 mt 2614 1351 L
2614 1335 mt 2598 1351 L
2606 1401 mt 2622 1417 L
2622 1401 mt 2606 1417 L
2610 1305 mt 2626 1321 L
2626 1305 mt 2610 1321 L
2638 1099 mt 2654 1115 L
2654 1099 mt 2638 1115 L
2645  991 mt 2661 1007 L
2661  991 mt 2645 1007 L
2674 1306 mt 2690 1322 L
2690 1306 mt 2674 1322 L
2681 1268 mt 2697 1284 L
2697 1268 mt 2681 1284 L
2689 1341 mt 2705 1357 L
2705 1341 mt 2689 1357 L
2695 1368 mt 2711 1384 L
2711 1368 mt 2695 1384 L
2703 1358 mt 2719 1374 L
2719 1358 mt 2703 1374 L
2709 1288 mt 2725 1304 L
2725 1288 mt 2709 1304 L
2715 1240 mt 2731 1256 L
2731 1240 mt 2715 1256 L
2721 1389 mt 2737 1405 L
2737 1389 mt 2721 1405 L
2729 1510 mt 2745 1526 L
2745 1510 mt 2729 1526 L
2735 1191 mt 2751 1207 L
2751 1191 mt 2735 1207 L
2749 1152 mt 2765 1168 L
2765 1152 mt 2749 1168 L
2753 1102 mt 2769 1118 L
2769 1102 mt 2753 1118 L
2759 1369 mt 2775 1385 L
2775 1369 mt 2759 1385 L
2768 1365 mt 2784 1381 L
2784 1365 mt 2768 1381 L
2774 1427 mt 2790 1443 L
2790 1427 mt 2774 1443 L
2785 1335 mt 2801 1351 L
2801 1335 mt 2785 1351 L
2809 1416 mt 2825 1432 L
2825 1416 mt 2809 1432 L
2813 1487 mt 2829 1503 L
2829 1487 mt 2813 1503 L
2828 1441 mt 2844 1457 L
2844 1441 mt 2828 1457 L
2832 1574 mt 2848 1590 L
2848 1574 mt 2832 1590 L
2838 1363 mt 2854 1379 L
2854 1363 mt 2838 1379 L
2846 1267 mt 2862 1283 L
2862 1267 mt 2846 1283 L
2851 1472 mt 2867 1488 L
2867 1472 mt 2851 1488 L
2857 1512 mt 2873 1528 L
2873 1512 mt 2857 1528 L
2863 1568 mt 2879 1584 L
2879 1568 mt 2863 1584 L
2870 1373 mt 2886 1389 L
2886 1373 mt 2870 1389 L
2876 1369 mt 2892 1385 L
2892 1369 mt 2876 1385 L
2884 1388 mt 2900 1404 L
2900 1388 mt 2884 1404 L
gs 416 135 2480 1469 rc
DA
4 0 8 0 6 0 7 0 6 0 6 0 5 0 8 0 
6 0 4 0 15 0 4 0 24 0 11 0 6 0 9 0 
6 0 4 0 14 0 6 0 8 0 6 0 6 0 6 0 
8 0 6 0 8 0 7 0 29 0 7 0 28 0 4 0 
8 0 8 0 6 0 7 0 6 0 8 0 25 0 6 0 
7 0 7 0 7 0 6 0 6 0 7 0 5 0 3 0 
29 0 9 0 31 0 8 0 6 0 7 0 6 0 6 0 
6 0 10 0 7 0 9 0 11 0 24 0 6 0 25 0 
7 0 6 0 10 0 5 0 6 0 6 0 15 0 10 0 
4 0 17 0 6 0 4 0 7 0 10 0 5 0 7 0 
13 0 7 0 7 0 7 0 9 0 24 0 5 0 9 0 
5 0 8 0 6 0 7 0 6 0 7 0 6 0 7 0 
5 0 11 0 22 0 8 0 6 0 6 0 10 0 5 0 
46 0 6 0 9 0 43 0 9 0 6 0 9 0 47 0 
7 0 9 0 7 0 8 0 6 0 10 0 7 0 7 0 
7 0 6 0 7 0 6 0 8 0 8 0 9 0 8 0 
6 0 11 0 23 0 6 0 6 0 7 0 7 0 6 0 
6 0 7 0 8 0 6 0 7 0 6 0 7 0 25 0 
8 0 26 0 12 0 8 0 5 0 25 0 48 0 29 0 
11 0 8 0 9 0 8 0 6 0 28 0 9 0 60 0 
7 0 7 0 9 0 8 0 7 0 6 0 8 0 7 0 
7 0 9 0 8 0 6 0 7 0 6 0 9 0 6 0 
9 0 10 0 6 0 8 0 6 0 10 0 6 0 10 0 
7 0 6 0 6 0 7 0 7 0 6 0 6 0 7 0 
8 0 6 0 11 0 7 0 7 0 7 0 7 0 6 0 
7 0 9 0 25 0 7 0 9 0 8 0 7 0 8 0 
7 0 24 0 26 0 7 0 26 0 6 0 27 0 7 0 
7 0 7 0 5 0 28 0 7 0 6 0 6 0 6 0 
9 0 25 0 6 0 7 0 6 0 8 0 7 0 9 0 
8 0 8 0 25 0 9 0 6 0 7 0 6 0 7 0 
6 0 8 0 7 0 48 0 6 0 3 0 416 1128 247 MP stroke
SO
8.33333 w
/c9 { 0.000000 0.000000 1.000000 sr} bdef
c9
1 0 0 -2 2 0 0 5 1 0 0 5 0 -34 0 3 
1 0 0 9 0 -3 1 0 0 5 1 0 0 6 1 0 
0 6 1 0 0 7 1 0 0 6 1 0 0 6 1 0 
0 2 0 -42 1 0 0 4 1 0 0 4 1 0 0 3 
2 2 1 0 0 -30 1 0 0 -2 1 0 1 -1 0 -9 
1 0 0 8 0 -16 0 5 2 0 0 6 1 0 1 1 
0 23 0 -3 1 0 0 10 0 -13 3 0 0 5 1 0 
0 -7 0 4 1 0 0 7 1 -1 0 6 1 0 0 12 
1 0 0 45 0 -17 2 0 0 -4 1 0 0 40 1 0 
0 48 0 -28 3 0 0 23 0 -108 2 0 0 31 0 -32 
6 0 0 5 0 -55 3 0 0 6 0 -3 1 0 0 17 
0 -8 2 0 0 30 4 0 0 -9 0 39 9 0 0 4 
1 -1 0 4 0 -10 0 9 1 0 0 19 2 0 0 5 
1 0 0 4 0 -9 1 0 0 8 1 0 0 8 1 0 
0 -9 0 3 1 0 0 -3 0 7 1 0 0 -90 2 0 
0 -3 0 1 2 0 0 32 0 -30 4 0 0 40 0 -28 
4 0 0 44 0 -34 4 0 0 8 1 0 0 63 0 -27 
4 0 0 65 0 -29 3 0 0 37 0 -73 6 0 0 -15 
2 0 0 3 1 0 0 13 1 0 0 81 1 0 0 74 
0 -52 6 0 0 41 0 -46 3 0 0 55 0 -68 0 59 
2 0 0 79 0 -43 4 0 0 53 0 -51 6 0 0 9 
0 -107 3 0 0 38 0 -19 1 0 0 32 0 -70 6 0 
0 11 1 0 0 14 1 0 0 -26 1 0 0 5 1 0 
0 10 1 0 0 5 0 -20 1 0 0 8 1 0 0 5 
1 0 0 -77 1 0 0 2 1 1 0 1 0 -1 1 -21 
0 -3 1 1 0 5 0 -24 1 0 1 0 1 1 0 -19 
1 0 0 2 1 1 1 -1 0 -10 1 1 0 2 1 0 
0 5 1 0 1 -1 0 17 1 0 0 3 0 -14 0 8 
1 0 0 12 0 -2 1 0 0 -3 0 3 1 0 0 9 
0 -6 1 0 0 3 1 0 0 39 1 0 0 8 0 -6 
1 0 0 -10 1 0 0 9 1 -1 0 6 1 0 0 6 
0 -7 0 5 1 0 0 6 0 -32 1 0 1 0 0 4 
1 0 0 7 1 0 0 4 0 -4 0 4 1 0 0 8 
1 0 0 -33 1 0 0 6 1 0 0 4 1 0 0 -1 
0 9 1 0 0 8 1 0 0 -8 1 0 0 4 1 0 
0 9 1 0 0 7 0 -15 1 0 0 2 1 0 0 11 
1 0 0 1 0 -1 1 7 0 11 1 0 0 9 1 0 
0 -50 0 6 1 0 2696 1505 300 MP stroke
0 11 1 0 0 9 1 0 0 15 1 0 0 8 1 0 
0 11 1 0 0 13 1 0 0 5 1 0 0 2 0 -83 
1 0 0 3 1 -1 0 6 1 0 0 4 1 0 0 2 
1 -1 0 6 1 0 0 2 0 -37 1 0 0 4 1 0 
0 6 1 0 0 -5 0 4 1 0 0 4 1 0 0 9 
1 0 0 -5 0 9 1 0 0 9 1 0 0 -3 1 0 
0 15 1 0 0 8 0 -5 1 0 0 13 1 0 0 16 
1 0 0 -3 1 0 0 15 1 0 0 16 1 0 0 -4 
0 18 1 0 0 11 1 0 0 10 1 0 0 21 1 0 
0 21 1 0 0 13 1 0 0 24 1 0 0 14 1 0 
0 23 1 0 0 21 1 0 0 14 1 0 0 18 1 0 
0 10 1 0 0 14 1 0 0 5 0 -133 1 0 0 1 
0 -1 1 6 0 8 1 0 0 3 0 -2 1 0 1 1 
0 -2 1 0 0 -284 1 0 1 0 0 1 0 -1 1 -2 
1 1 1 0 0 -2 1 0 1 1 0 9 0 -5 1 0 
0 -5 1 0 1 1 0 8 2 2 0 31 0 -5 1 0 
0 -18 2 0 0 19 0 -11 2 0 0 20 0 -16 2 0 
0 8 0 -4 1 0 0 14 1 0 0 3 0 -4 1 0 
0 9 1 -1 0 46 0 -3 1 0 0 -17 2 0 0 -4 
1 0 0 2 0 -5 1 0 0 6 0 -54 1 0 0 8 
0 -3 1 0 0 11 1 0 0 3 1 0 0 -2 0 8 
1 0 0 49 0 -51 0 3 4 0 0 24 0 -6 1 0 
0 -6 3 0 0 6 0 -41 1 0 0 -7 1 0 0 19 
0 -14 2 0 1 1 0 4 1 0 0 4 0 -6 1 0 
1 -1 0 -7 0 2 1 0 0 6 0 -7 1 0 0 6 
1 0 0 3 0 -5 0 6 1 -3 0 3 1 0 0 7 
1 -1 0 31 1 0 0 3 1 0 0 6 1 0 0 6 
1 0 0 9 1 1 0 -3 0 105 2 0 0 17 2 0 
0 6 1 0 0 10 1 0 0 -5 0 4 1 0 0 -1 
0 1 1 4 1 -78 -1 0 3 1 0 -13 0 3 1 0 
0 -2 2 0 0 -1 1 -1 0 -30 0 2 1 0 0 -84 
2 0 0 -6 1 0 0 0 0 -1 1 4 0 -6 1 0 
0 3 1 0 0 -2 1 -3 0 3 2 0 0 -8 0 4 
2 0 0 -12 0 8 2 0 0 -19 0 27 3 0 0 40 
3 0 0 34 2 0 0 27 3 0 0 -1 0 1 1 4 
0 -39 0 11 1 0 0 6 1 0 0 10 1 0 0 11 
1 3 0 -11 0 26 2 0 0 -96 1 0 0 18 1 0 
0 -5 0 9 1 0 2537 1525 300 MP stroke
0 2 1 0 0 4 1 1 0 6 1 0 1 -1 0 -62 
0 1 2 2 0 1 1 -5 -1 0 2 2 0 2 1 1 
0 -6 0 9 1 0 0 4 1 0 1 -7 -1 0 2 2 
0 9 0 -6 1 0 0 -3 1 0 0 2 1 0 0 3 
0 -8 1 0 0 6 1 0 0 8 1 0 0 -7 0 2 
1 0 0 6 1 0 0 29 1 0 0 -21 2 0 0 4 
0 -4 1 0 0 51 0 -12 1 0 0 -13 2 0 0 6 
1 0 0 5 1 1 0 73 0 -65 3 0 0 -3 1 0 
0 8 1 0 0 26 1 0 0 -3 1 0 0 88 0 -76 
3 0 0 151 0 -31 2 0 0 90 0 -37 3 0 0 -176 
0 140 29 0 0 43 0 -107 4 0 0 8 0 -21 5 0 
0 27 0 -155 15 0 0 2 1 0 0 2 1 0 0 -5 
0 3 1 0 0 8 0 -1 2 0 1 1 0 3 1 0 
0 -6 0 5 1 1 0 2 0 -7 0 4 2 0 0 -12 
2 0 1 1 1 -1 0 -16 2 0 0 21 1 0 0 -7 
1 0 0 14 1 0 0 14 1 0 0 -3 0 24 1 0 
0 8 1 0 0 8 1 0 0 8 1 0 0 -23 0 8 
1 0 0 -1 0 27 2 0 0 18 1 0 0 8 1 0 
0 13 1 0 0 5 0 -105 0 11 2 0 0 10 1 0 
0 16 1 0 0 16 1 0 0 11 1 0 0 14 1 0 
0 5 0 -1 1 -73 0 54 4 0 0 15 1 0 0 -62 
0 6 1 0 0 13 1 0 0 15 1 0 0 11 1 0 
0 9 1 0 0 9 1 0 0 3 0 -122 1 0 0 8 
1 0 0 2 1 0 0 0 0 9 1 0 1 1 1 -1 
0 3 0 -25 1 0 1 1 0 3 0 -1 1 -4 0 2 
2 2 0 2 0 -6 1 1 1 1 0 2 0 -1 1 -4 
0 1 2 2 0 16 0 -19 1 0 0 15 2 0 0 3 
1 0 0 7 1 0 0 8 1 0 0 4 1 0 0 10 
1 0 0 -10 3 0 0 8 1 0 0 8 1 0 0 6 
1 0 0 7 1 0 0 5 1 0 0 43 1 -1 0 6 
1 0 0 30 0 -2 2 0 0 8 1 0 0 12 0 -9 
1 0 0 3 1 0 0 12 1 0 0 1 0 -1 1 -7 
0 2 1 0 0 6 0 -3 1 0 0 -214 1 1 0 3 
1 0 0 -3 0 4 1 0 0 1 0 -1 1 -2 0 9 
0 -11 0 8 1 0 0 -7 2 0 0 -3 1 0 0 38 
0 -37 4 0 0 25 0 -5 1 0 0 12 0 -16 3 0 
0 18 0 -7 4 -1 0 2 1 0 0 1 0 -1 1 4 
0 1 2 2 0 -3 2323 1566 300 MP stroke
1 0 0 2 0 -4 0 3 1 0 0 -4 0 7 1 0 
0 2 1 0 0 2 1 1 0 -7 1 0 0 1 0 -13 
0 2 1 -1 0 6 2 0 0 2 1 0 0 -2 0 3 
1 0 0 4 1 0 0 2 0 -2 1 0 0 1 0 -1 
1 5 0 6 1 0 0 -4 0 3 1 0 0 7 1 0 
0 -5 0 6 1 0 0 3 1 0 0 5 0 -9 0 5 
2 0 0 15 2 0 0 4 1 0 0 5 1 0 0 4 
0 -12 0 9 1 0 0 5 1 0 0 4 0 -12 0 1 
1 11 0 9 3 0 0 2 0 -60 0 3 1 0 0 -5 
1 0 0 -3 0 3 1 0 0 8 1 0 0 2 0 -8 
1 0 0 3 2 2 0 -27 1 0 0 2 2 0 0 1 
0 -1 1 3 0 1 0 -1 1 3 0 11 0 -6 1 0 
0 103 0 -11 4 0 0 4 1 0 0 -4 1 0 0 12 
1 0 0 13 0 -23 1 0 0 -35 1 0 0 14 1 0 
0 -1 0 12 1 0 0 -3 1 0 0 47 0 -51 0 31 
2 0 0 12 0 -4 1 0 0 12 0 -30 1 0 0 211 
0 -6 1 0 0 44 0 -48 4 0 0 105 0 -273 6 0 
0 83 0 -114 15 0 0 54 0 -114 10 0 0 68 0 -39 
4 0 0 144 0 -164 14 0 0 5 1 0 0 -3 0 5 
1 0 0 -1 0 1 1 11 0 15 0 -3 1 0 0 4 
1 0 0 10 0 -5 1 0 0 4 1 0 0 -2 0 4 
1 0 0 25 0 -63 1 0 0 16 1 0 0 32 0 -6 
3 0 0 8 0 -17 5 0 0 -20 0 13 2 0 0 -63 
5 0 0 -2 0 8 2 0 0 2 0 -3 1 0 0 -12 
0 13 1 0 0 2 1 0 0 -5 0 4 1 0 0 9 
1 0 0 2 0 -4 1 0 0 -10 0 8 1 0 0 -35 
0 6 1 0 0 -4 0 7 3 0 0 1 0 -1 1 5 
0 26 0 -11 3 0 0 147 0 -112 8 0 0 27 0 -46 
4 0 0 28 0 -11 1 0 0 54 0 -36 2 0 0 -25 
2 0 0 3 1 0 0 10 1 0 0 -4 1 0 0 8 
0 -61 1 0 0 7 0 -5 1 0 0 -5 1 0 0 19 
1 0 0 26 0 -14 2 0 0 -46 1 0 1 0 0 -11 
1 0 1 0 1 1 0 -9 0 1 2 2 0 1 0 -1 
1 38 0 2 2 2 0 -11 1 1 1 1 0 1 0 -1 
1 -11 1 1 1 1 0 -10 1 0 1 1 0 -14 1 0 
0 -6 1 -1 1 0 0 4 1 0 1 0 0 8 1 -1 
0 8 0 -6 3 1 0 2 2 2 0 4 1 0 0 4 
1 0 0 4 1 0 2110 1567 300 MP stroke
0 5 1 0 0 8 1 0 0 -2 0 4 1 0 0 9 
1 0 0 6 1 0 0 8 1 0 0 8 1 0 0 4 
1 0 0 8 1 0 0 4 1 -1 0 4 0 -20 1 0 
0 7 1 0 0 -1 0 1 1 2 0 5 1 0 0 2 
1 -1 0 -93 2 0 0 8 1 0 1 1 1 1 0 4 
0 -13 0 9 1 0 0 14 2 0 0 7 2 2 1 1 
0 2 0 -1 1 -4 0 -6 0 12 2 0 0 -5 2 0 
0 13 1 0 1 -1 0 2 1 0 0 2 1 1 0 7 
1 1 0 1 0 -1 1 3 0 2 0 -12 0 8 2 0 
0 8 3 0 0 1 0 -1 1 28 0 8 1 0 1 -1 
0 2 1 0 0 8 0 -3 1 0 0 -4 1 0 1 1 
0 3 0 -64 1 0 1 -1 0 -2 1 -1 0 -14 1 0 
0 -4 1 0 0 -5 1 0 0 -11 1 0 0 -4 1 0 
0 -1 0 1 1 4 0 5 1 0 0 5 1 0 0 8 
1 0 0 4 1 0 0 7 1 0 0 -3 0 3 1 0 
0 6 1 0 0 -2 0 3 1 0 0 4 1 0 0 13 
0 -9 1 0 0 10 0 -7 1 0 0 9 0 -3 1 0 
0 3 0 -3 1 0 0 10 0 -3 1 0 0 10 0 -7 
1 0 0 10 0 -4 1 0 0 10 0 -5 1 0 0 6 
0 -41 1 0 0 6 0 -2 1 0 0 2 1 1 0 4 
1 0 0 2 1 1 0 2 1 1 0 1 0 -1 1 10 
1 1 0 -2 0 -1 1 3 0 -5 2 0 1 0 0 1 
0 -1 1 -5 0 0 2 0 0 9 0 -7 2 0 1 1 
0 -4 0 2 1 0 0 2 1 0 0 -1 0 7 1 -1 
0 17 0 -13 2 0 0 -3 3 0 0 2 1 0 0 1 
0 -3 1 1 0 7 0 -4 4 -1 1 1 0 2 0 -7 
1 1 0 -7 0 10 4 0 0 -3 0 1 1 2 0 -25 
0 103 5 0 1 -1 0 9 0 -9 0 7 2 0 0 -89 
1 0 0 -1 0 31 3 0 0 9 1 0 0 7 1 0 
0 -35 0 2 1 0 0 6 1 0 0 7 1 0 0 -1 
0 1 1 2 0 3 0 -3 0 3 1 0 0 6 1 0 
0 -22 1 0 0 -4 0 14 2 0 0 1 0 -1 1 10 
0 15 1 0 0 6 1 0 0 13 1 0 0 12 1 0 
0 14 1 0 0 31 1 0 0 13 1 0 0 11 1 0 
0 -1 0 1 1 3 0 6 1 0 0 -9 1 0 0 -196 
10 0 0 -4 0 2 1 0 1 1 0 11 1 0 0 7 
1 0 0 15 1 0 0 3 1 0 0 8 1 0 0 17 
1 0 0 8 1 0 1942 1508 300 MP stroke
0 10 1 0 0 19 1 0 0 10 1 0 0 20 1 0 
0 10 1 0 0 20 1 0 0 -12 0 5 1 0 0 10 
1 0 0 10 1 0 0 10 1 0 0 9 1 0 0 10 
1 0 0 10 1 0 0 14 1 0 0 10 1 0 0 10 
1 0 0 13 1 0 0 9 1 0 0 12 1 0 0 16 
1 0 0 -3 0 4 1 0 0 11 1 0 0 9 1 0 
0 9 1 0 0 8 1 0 0 4 1 0 0 12 1 0 
0 -66 0 5 1 0 0 8 1 0 0 9 1 0 0 4 
1 0 0 12 1 0 0 4 1 0 0 -122 0 5 1 0 
0 7 1 0 0 9 1 0 0 5 0 -2 1 0 0 8 
1 0 0 8 1 0 0 -3 0 3 1 0 0 5 1 0 
0 1 0 -1 1 -196 0 6 1 0 0 6 1 0 0 -3 
0 3 1 0 0 7 1 0 0 4 1 -1 0 8 1 0 
0 8 1 0 0 -1 0 1 1 3 0 9 1 0 0 4 
0 -5 1 0 0 10 1 0 0 10 1 0 0 -6 0 5 
1 0 0 12 1 0 0 5 0 -5 1 0 0 13 1 0 
0 13 1 0 0 -3 0 7 1 0 0 14 1 0 0 8 
0 -7 1 0 0 16 1 0 0 17 1 0 0 -6 0 8 
1 0 0 23 1 0 0 5 0 -5 1 0 0 19 1 0 
0 10 1 0 0 17 1 0 0 20 1 0 0 9 1 0 
0 -1 0 19 1 0 0 10 1 0 0 10 1 -1 0 21 
1 0 0 20 1 0 0 -1 0 1 1 10 0 20 1 0 
0 10 1 1 0 21 1 0 0 21 1 0 0 13 1 0 
0 21 1 0 0 12 1 0 0 -83 0 12 1 0 0 22 
1 0 0 15 1 0 0 22 1 0 0 16 1 0 0 21 
1 0 0 21 1 0 0 17 1 0 0 20 1 0 0 -143 
0 8 1 0 0 21 1 0 0 19 1 0 0 15 1 0 
0 17 1 0 0 12 1 0 0 -213 0 8 1 0 0 15 
1 0 0 11 1 0 0 11 1 0 0 6 1 0 0 5 
2 2 0 -2 1 -1 0 -397 1 0 1 0 0 1 2 2 
0 2 2 2 0 1 2 2 0 3 1 1 1 1 0 1 
0 -1 1 3 0 1 0 -1 1 3 0 -2 1 1 0 2 
1 1 0 2 0 -4 1 0 0 3 2 2 0 -5 1 1 
0 1 0 -1 1 3 0 1 0 -1 1 -6 0 3 2 2 
0 -7 0 1 2 2 0 1 0 -1 1 -8 0 2 2 2 
0 -8 0 1 2 2 0 1 0 -1 1 -8 0 3 2 2 
0 -6 0 2 1 0 0 4 1 0 0 2 0 -3 1 0 
0 4 1 0 0 5 1798 1568 300 MP stroke
1 0 0 -3 0 3 1 0 0 6 1 0 0 3 0 -2 
1 0 0 6 1 0 0 6 1 0 0 -1 0 1 1 2 
0 7 1 0 0 3 0 -2 1 0 0 7 1 0 0 3 
1 0 0 3 0 -27 1 0 0 6 1 0 0 2 1 0 
0 -10 0 5 1 0 0 3 1 0 0 2 0 -10 1 0 
0 5 1 0 0 5 1 0 0 -16 1 0 0 5 1 0 
0 3 0 -12 1 0 0 10 1 0 0 3 1 0 0 -9 
0 3 1 0 0 8 1 0 0 3 0 -8 1 0 0 8 
1 0 0 16 1 0 0 -8 0 5 1 0 0 8 1 0 
0 5 0 -7 1 0 0 9 1 0 0 8 1 0 0 -8 
0 4 1 0 0 -20 0 4 1 0 0 5 0 -11 1 0 
0 9 1 0 0 8 1 0 0 -11 0 4 1 0 0 8 
1 0 0 3 0 -11 0 3 1 0 0 3 0 -37 1 0 
0 3 0 -10 1 0 0 3 1 0 0 6 1 0 0 4 
0 -8 1 0 0 8 1 0 0 6 0 -3 1 0 0 6 
0 -9 1 0 0 6 1 0 0 8 1 0 0 9 1 0 
0 5 1 0 0 19 2 0 0 12 1 0 0 4 1 0 
0 7 1 0 0 10 0 -65 1 0 0 5 1 0 0 20 
1 0 0 22 2 0 0 7 1 0 0 7 1 0 0 7 
0 -14 1 0 0 13 1 0 0 14 1 0 0 9 1 0 
0 12 1 0 0 10 1 0 0 -1 0 1 1 2 0 -112 
0 4 1 0 0 3 0 -4 1 0 0 7 1 0 0 7 
1 0 0 -4 0 3 1 0 0 4 1 0 0 1 0 -1 
1 -57 0 2 1 1 0 1 0 -1 1 3 0 5 1 0 
0 2 1 1 0 7 1 0 0 1 0 -1 1 -18 1 1 
0 7 1 0 1 0 0 5 1 0 1 1 0 4 1 0 
0 11 1 0 0 104 1 0 0 13 1 0 0 12 1 0 
0 5 1 0 0 10 1 0 0 2 1 0 0 -149 0 3 
1 0 0 3 1 0 0 5 1 0 0 3 1 -1 0 5 
1 0 0 4 1 0 0 -4 1 1 1 1 0 -28 1 0 
0 8 1 0 0 8 1 0 0 -4 0 4 1 0 0 8 
1 0 0 4 0 -3 1 0 0 7 1 0 0 6 1 0 
0 -48 0 4 1 0 0 6 1 0 0 4 0 -5 1 0 
0 7 1 0 0 7 1 0 0 -5 0 3 1 0 0 5 
1 0 0 2 0 -6 1 0 0 1 0 -1 1 -42 0 2 
1 1 0 -12 0 1 2 2 0 1 0 -1 1 -3 0 -1 
2 -2 0 9 1 0 0 -1 0 1 1 46 0 1 0 -1 
1 12 0 2 1 1 1664 1523 300 MP stroke
0 2 1 1 0 12 1 1 0 2 1 1 0 10 1 0 
0 43 1 0 0 6 1 0 0 9 1 0 0 2 1 0 
0 6 1 0 0 2 1 0 0 4 2 2 0 4 1 0 
0 4 1 0 0 51 2 2 0 1 0 -1 1 -1 0 2 
1 1 1 1 0 -4 0 1 2 2 0 2 0 -5 1 0 
0 3 2 2 0 -6 0 2 1 0 0 1 0 -1 1 3 
0 1 0 -1 1 -5 0 1 0 -1 1 3 0 1 0 -1 
1 3 0 -6 0 2 1 0 0 1 0 -1 1 3 0 1 
0 -1 1 -6 0 4 1 0 0 2 1 1 0 -7 0 2 
1 0 0 2 1 1 0 2 0 -6 1 0 0 1 0 -1 
1 3 0 12 1 1 0 -3 1 1 0 2 1 1 0 2 
0 -2 1 0 0 1 0 -1 1 3 0 1 0 -1 1 3 
0 12 1 0 0 1 0 -1 1 3 0 9 0 -6 1 0 
0 10 1 0 0 -5 0 8 1 0 0 6 1 0 0 -53 
1 0 0 8 1 0 0 4 1 0 0 2 1 0 0 10 
1 0 0 1 0 -1 1 3 0 4 1 0 0 38 1 0 
0 2 1 1 0 1 0 -1 1 7 0 2 1 1 0 1 
0 -1 1 3 0 4 1 1 0 10 1 1 0 -30 1 0 
0 11 1 0 0 5 1 0 0 -4 1 1 0 2 1 0 
0 5 1 0 0 9 0 -2 1 0 0 1 0 -1 1 3 
0 6 1 0 0 1 0 -1 1 3 0 7 1 0 0 1 
0 -1 1 3 0 -13 0 2 1 0 0 7 1 0 0 4 
1 0 0 5 1 0 0 4 1 0 0 4 1 0 0 4 
1 0 0 35 1 0 0 1 2 2 1 3 -1 0 2 0 
0 1 0 -1 1 3 0 1 0 -1 1 -1 1 1 0 79 
1 1 0 -5 1 0 0 1 2 2 1 -6 -1 0 2 2 
1 -17 -1 0 2 2 1 1 0 -5 0 1 2 2 0 1 
1 -5 -1 0 2 2 0 14 1 1 0 -6 0 1 2 2 
0 1 0 -1 1 -5 0 2 2 2 0 -8 0 1 2 2 
0 1 1 -5 -1 0 2 2 0 10 0 -4 1 0 0 34 
0 -7 1 0 0 46 0 -103 1 0 0 64 0 -77 6 0 
0 9 0 -31 3 0 0 12 1 0 0 4 1 0 0 55 
0 -11 2 0 0 -25 2 0 0 6 1 0 0 -4 0 3 
1 0 0 5 1 0 0 5 1 0 0 2 1 0 0 5 
1 0 0 5 1 0 0 5 1 0 0 7 1 0 0 4 
1 0 0 2 0 -55 1 0 0 6 1 0 0 5 1 0 
0 12 1 0 0 11 0 -3 1 0 0 -6 1 0 0 12 
1 0 0 3 0 -3 1515 1110 300 MP stroke
1 0 0 -93 1 0 0 8 1 0 0 7 1 0 0 6 
1 0 0 8 1 0 0 7 1 0 0 8 1 0 0 8 
1 0 0 9 1 0 0 7 1 0 0 10 1 0 0 8 
1 0 0 7 1 0 0 10 1 0 0 8 1 0 0 10 
1 0 0 9 1 -1 0 7 1 0 0 11 1 0 0 7 
1 0 0 11 1 0 0 7 1 0 0 8 1 0 0 12 
1 -1 0 12 1 0 0 36 0 -37 3 -1 0 20 0 -10 
2 0 0 13 1 0 0 7 1 0 0 -1 0 1 1 7 
0 4 1 0 0 14 1 0 0 10 1 0 0 6 0 -8 
0 6 2 0 0 31 0 -33 2 0 0 -3 1 0 0 8 
0 -3 1 0 0 7 0 -4 1 0 0 6 0 -6 2 2 
1 1 0 -35 0 1 2 2 0 1 0 -1 1 -5 0 23 
0 -17 2 0 0 195 2 0 0 3 0 -8 1 0 0 11 
0 -7 1 0 0 11 0 -17 1 0 0 12 0 -7 1 0 
0 12 0 -7 1 0 0 1 0 -1 1 -6 0 13 1 0 
0 -7 0 13 1 0 0 -17 0 13 1 0 0 -7 0 13 
1 0 0 -6 0 2 1 0 0 -7 0 4 1 0 0 6 
1 0 0 -10 0 13 1 0 0 -7 0 3 1 0 0 2 
0 -9 1 0 0 4 1 0 0 13 0 -10 1 0 0 21 
0 -28 2 0 0 -11 1 0 0 23 1 0 0 6 0 -24 
1 0 0 -766 2 0 0 3 0 -8 1 0 0 7 1 0 
0 6 1 0 0 -8 0 3 1 0 0 8 1 0 0 5 
0 -10 1 0 0 8 1 0 0 10 1 0 0 -11 0 5 
1 0 0 11 1 0 0 5 1 0 0 -9 0 7 1 0 
0 13 1 0 0 7 0 -7 1 0 0 15 1 0 0 16 
1 0 0 -5 0 9 1 0 0 18 1 0 0 12 0 -5 
1 0 0 22 1 0 0 17 1 0 0 -1 0 1 1 7 
0 19 1 0 0 13 0 -4 1 0 0 47 0 -12 2 0 
0 7 1 0 0 20 1 0 0 10 0 -2 1 0 0 20 
1 0 0 20 1 0 0 -1 0 1 1 9 0 18 1 0 
0 9 0 -3 1 0 0 16 1 0 0 16 1 0 0 -5 
0 6 1 0 0 12 1 0 0 5 0 -3 1 0 0 1 
0 -1 1 7 0 -1 0 1 1 4 0 -11 0 3 1 0 
0 -4 0 2 1 0 0 -5 1 0 0 -11 1 0 0 -10 
1 0 0 -306 1 0 0 5 1 0 0 30 0 -10 2 0 
0 -5 2 0 1 0 0 11 0 -7 2 0 0 2 1 0 
0 2 0 -10 1 0 0 4 1 0 0 5 0 -16 1 0 
0 2 2 2 0 1 1375 1472 300 MP stroke
0 -1 1 -15 0 2 2 2 0 -18 1 1 0 2 1 1 
0 2 0 -14 1 0 0 6 1 0 0 8 1 0 0 -4 
0 6 1 0 0 12 1 0 0 10 1 0 0 14 1 0 
0 15 1 0 0 13 1 0 0 -15 0 5 1 0 0 5 
0 -6 1 0 0 6 1 0 0 20 1 0 0 7 1 0 
0 8 1 0 0 10 1 0 0 -15 0 8 1 0 0 7 
1 0 0 23 1 0 0 8 1 0 0 16 1 0 0 20 
1 0 0 19 1 0 0 9 0 -4 1 0 0 18 1 0 
0 18 1 0 0 -2 0 9 1 0 0 39 1 0 0 9 
0 -3 1 0 0 19 1 0 0 20 1 0 0 -1 0 1 
1 9 0 19 1 0 0 10 1 -1 0 19 1 0 0 20 
1 0 0 1 0 -1 1 -48 0 18 1 0 0 11 1 0 
0 17 1 0 0 17 1 0 0 1 0 -1 1 10 0 14 
1 0 0 7 1 -1 0 10 1 0 0 5 0 -95 1 0 
0 -4 0 2 1 0 0 2 1 0 0 -4 1 0 0 -2 
1 0 0 -11 1 0 0 -388 0 3 1 0 0 3 1 0 
0 6 1 0 0 -17 0 4 1 0 0 6 1 0 0 3 
0 -12 0 4 1 0 0 8 1 0 0 4 1 0 0 -7 
0 5 1 0 0 10 1 0 0 6 1 -1 0 19 1 0 
0 7 1 0 0 7 1 0 0 16 1 0 0 11 1 0 
0 18 1 0 0 19 1 0 0 18 1 0 0 21 1 0 
0 20 1 0 0 22 1 0 0 21 1 0 0 22 1 0 
0 20 1 0 0 20 1 0 0 19 1 0 0 17 1 0 
0 986 1 1 0 2 1 1 0 1 0 -1 1 -1 1 1 
1 -1 0 -4 1 0 0 -4 1 0 0 -5 1 0 1 -1283 
-1 0 2 2 0 5 2 2 0 5 1 0 0 4 1 0 
0 5 1 0 0 7 1 0 0 8 1 0 0 11 1 0 
0 8 1 0 1 1 0 -3 1 0 1 1 1 0 0 -3 
1 0 1 1 0 1 0 -1 1 -4 1 1 1 1 1 -4 
-1 0 2 2 1 -4 -1 0 2 2 1 1 0 -5 1 1 
1 1 0 1 0 -1 1 -5 0 2 2 2 0 -8 0 1 
2 2 0 1 0 -1 1 -6 0 2 2 2 0 -9 1 1 
0 2 1 1 0 1 0 -1 1 -7 0 1 0 -1 1 3 
0 1 0 -1 1 3 0 -9 0 2 1 0 0 1 0 -1 
1 3 0 2 0 -8 1 0 0 1 0 -1 1 3 0 4 
1 0 0 -8 0 2 1 0 0 4 1 0 0 2 0 -7 
1 0 0 3 1 0 0 6 1 0 0 -6 0 2 1 0 
0 2 1 0 0 5 1231 1487 300 MP stroke
0 -7 1 0 0 4 1 0 0 3 1 0 0 2 0 -8 
1 0 0 7 1 0 0 3 1 0 0 -10 0 3 1 0 
0 5 1 0 0 3 0 -9 1 0 0 -22 0 3 1 0 
0 6 1 0 0 -11 0 3 1 0 0 7 1 0 0 3 
0 -10 1 0 0 17 1 0 0 10 0 -14 1 0 0 82 
0 -27 5 0 1 -6 -1 0 2 2 0 -105 1 -1 0 5 
1 0 0 5 1 0 0 1 0 -1 1 3 0 5 1 0 
0 3 1 0 0 4 2 2 0 5 1 0 0 -62 1 1 
0 7 2 2 1 1 0 9 1 0 1 0 1 9 -1 0 
2 -2 0 26 1 0 0 -1 0 1 1 2 0 2 1 0 
0 4 0 -3 1 0 1 1 0 2 1 1 0 1 0 -1 
1 -1 0 7 1 0 0 4 1 0 0 7 1 0 0 4 
1 0 0 1 0 -1 1 5 1 1 0 1 0 -1 1 -9 
0 -2 0 3 1 0 0 7 1 0 0 4 0 -3 1 0 
0 9 1 0 0 8 1 0 0 -2 0 5 1 0 0 5 
0 -3 1 0 0 5 1 1 0 12 1 0 0 12 1 0 
0 7 1 0 0 12 1 0 0 6 1 -1 0 13 1 0 
0 38 1 0 0 -1 0 1 1 3 0 5 1 0 0 2 
0 -2 1 0 1 -1 0 -6 1 0 0 -151 1 0 0 2 
1 1 0 2 0 -4 1 0 0 2 1 1 0 4 1 0 
0 -5 0 2 1 0 0 1 0 -1 1 3 0 2 1 0 
0 -3 0 2 1 0 0 26 1 0 0 2 0 -3 1 0 
0 4 1 0 0 4 0 -4 1 0 0 2 1 0 0 5 
1 0 0 2 0 -3 1 0 0 5 1 0 0 5 1 0 
0 -25 0 3 1 0 0 6 1 0 0 2 0 -2 1 0 
0 5 1 0 0 5 1 0 0 -2 0 2 1 0 0 2 
0 -35 1 0 0 6 1 0 0 4 1 0 0 4 1 0 
0 4 2 2 1 1 0 -43 1 0 1 1 0 -3 1 0 
1 1 0 -4 1 0 1 -1 0 -1 0 1 1 -26 0 -8 
2 -2 0 -1 0 1 1 -8 0 -1 0 1 1 -3 0 -1 
0 1 1 -3 0 -9 1 0 0 -1 0 1 1 -3 0 -7 
1 0 0 19 2 2 0 6 1 0 0 2 1 1 0 6 
2 2 0 -4 1 -1 0 -2 2 -2 0 -1 0 1 1 2 
1 -1 1 -1 1 1 1 0 1 0 0 1 0 -1 1 16 
1 0 0 -3 1 0 0 -1 2 -2 0 -4 2 -2 0 -7 
1 0 0 -4 1 0 0 -4 1 0 0 1 0 -2 2 -2 
0 -1 0 1 1 -4 0 6 1 0 0 8 1 0 0 13 
1 0 0 6 1 0 1079 1555 300 MP stroke
0 9 1 0 0 11 1 0 0 10 1 0 0 13 1 0 
0 10 1 0 0 13 1 0 0 7 1 0 0 -50 0 4 
1 0 0 12 1 0 0 9 1 0 0 7 1 0 0 7 
1 0 0 6 1 0 0 -87 1 0 0 5 1 0 0 2 
1 -1 0 5 1 0 0 5 1 0 0 -2 0 2 1 0 
0 3 1 0 0 4 1 0 1 1 1 0 0 -15 0 2 
1 0 1 1 0 0 2 2 1 -1 0 3 1 0 0 -10 
1 0 1 0 0 4 1 0 1 0 0 5 1 0 1 1 
1 1 0 7 1 1 1 1 0 1 0 -1 1 7 0 1 
0 -1 1 31 0 5 1 0 0 6 1 0 0 7 1 0 
0 6 1 0 0 7 1 0 0 6 1 0 0 9 1 0 
0 6 1 0 0 6 1 0 0 6 1 0 0 5 1 0 
0 7 1 0 0 25 1 0 0 7 1 0 0 4 1 0 
0 4 1 0 0 8 1 0 0 4 1 0 0 1 0 -1 
1 -43 0 5 1 0 0 3 1 0 0 9 1 0 0 2 
1 0 0 6 1 0 0 5 1 0 0 -30 0 3 1 0 
0 7 1 0 0 6 1 0 0 6 1 0 0 5 1 0 
0 6 1 0 0 4 1 1 0 3 0 -85 1 0 0 8 
1 0 0 1 0 -1 1 5 0 9 1 0 0 6 1 0 
0 8 1 0 0 -34 0 5 1 0 0 9 1 0 0 9 
1 0 0 9 1 0 0 9 1 0 0 9 1 0 0 4 
0 -15 1 0 0 9 1 0 0 9 1 0 0 9 1 0 
0 8 1 0 0 9 1 0 0 3 0 -76 1 0 0 9 
1 0 0 9 1 0 0 9 1 0 0 9 1 0 0 8 
1 0 0 8 1 0 0 5 1 0 0 5 1 0 0 -85 
0 2 1 0 0 5 1 0 0 7 1 0 0 2 1 1 
0 2 1 0 0 3 1 0 0 -1 0 1 1 -60 1 -1 
1 -1 1 -1 0 0 2 -2 0 -1 0 1 1 -3 0 1 
0 -2 2 -2 0 -2 1 0 1 -1 0 -4 1 0 0 2 
0 -2 1 0 0 -4 1 0 0 -2 0 4 1 0 0 -4 
1 0 0 -1 0 1 1 -3 0 6 1 -1 0 -1 0 1 
1 41 0 -1 0 1 1 4 0 -1 2 -2 0 3 1 -1 
1 -1 0 4 1 0 0 31 1 0 1 0 0 4 1 -1 
1 -1 0 3 1 0 1 -1 1 0 0 40 1 0 1 0 
0 3 1 0 1 0 1 -1 1 4 -1 0 2 -2 0 -13 
0 4 1 0 1 -1 1 -1 0 3 1 0 0 0 2 2 
0 88 1 0 0 2 1 1 0 7 1 0 0 3 2 2 
0 5 1 1 1 0 922 1311 300 MP stroke
0 -17 0 4 1 0 1 1 1 0 0 4 1 1 1 1 
0 1 0 -1 1 7 0 1 0 -1 1 3 0 5 1 0 
0 11 1 0 0 101 1 0 0 12 1 0 0 9 1 0 
0 9 1 0 0 10 1 0 0 9 1 0 0 9 1 0 
0 9 1 0 0 8 1 0 0 8 1 0 0 8 1 0 
0 7 1 0 0 7 1 0 0 6 1 0 0 7 1 0 
0 5 1 0 0 4 1 0 0 5 1 0 0 2 1 1 
0 2 1 1 0 2 1 1 0 4 2 2 0 1 0 -1 
1 3 0 2 1 0 0 65 1 0 0 5 1 0 0 5 
1 0 0 5 1 0 0 5 1 0 0 5 1 0 0 5 
1 0 0 2 0 -4 0 2 1 0 0 3 1 0 0 4 
1 0 0 6 1 0 0 5 1 0 0 8 1 0 0 3 
1 0 0 6 1 0 0 7 1 0 0 82 1 0 0 6 
1 0 0 5 1 0 0 5 1 0 0 5 1 0 0 6 
1 0 0 5 1 0 0 5 1 0 0 31 1 0 0 5 
1 0 0 4 1 0 0 4 1 0 0 5 1 0 0 10 
1 0 0 2 0 -3 1 0 0 -17 0 11 1 0 0 2 
0 -3 1 0 0 7 0 -3 1 0 0 8 0 -3 1 0 
0 8 1 0 0 -3 0 7 1 0 0 -3 0 7 1 0 
0 -3 0 8 1 0 0 109 1 0 0 -5 0 15 1 0 
0 -6 1 0 0 -4 1 1 1 1 0 1 2 0 1 1 
0 1 2 2 1 1 0 25 0 -19 2 0 0 9 0 -6 
1 0 0 8 0 -6 1 0 0 7 0 -2 1 0 0 7 
0 -6 1 0 0 8 0 -6 1 0 0 10 0 -6 1 0 
0 7 0 -6 1 0 0 7 0 -4 1 0 0 7 0 -6 
1 0 0 7 0 -6 1 0 0 7 0 -6 1 0 0 7 
0 -5 1 0 1 0 1 -2 -1 0 2 2 1 -3 -1 0 
2 2 0 1 0 -1 1 8 0 262 2 0 0 -6 1 0 
0 8 0 -11 1 0 0 8 0 -11 1 0 0 4 0 -10 
1 0 0 7 0 -10 1 0 0 8 0 -6 1 0 0 -1 
0 1 1 -12 0 8 0 -10 1 0 0 11 0 -10 1 0 
0 -11 1 0 0 9 0 -17 1 0 0 9 0 -10 1 0 
0 8 0 -10 1 0 0 1 0 -1 1 -9 0 9 0 -10 
1 0 0 -8 1 0 1 -1 1 -1 0 2 1 -1 0 17 
0 -35 3 0 0 9 1 -1 0 -7 1 0 0 8 0 1 
1 -60 0 -16 1 0 0 9 0 -9 1 0 0 9 0 -9 
1 0 0 3 0 -8 1 0 0 8 0 -8 1 0 0 9 
0 -14 1 0 0 17 785 433 300 MP stroke
0 -208 1 0 0 -4 1 0 0 2 0 -5 1 0 0 10 
0 -5 1 0 0 9 0 -10 1 0 0 2 1 0 0 6 
1 0 0 2 0 -3 1 0 0 5 1 0 0 6 1 0 
0 -3 0 13 1 0 0 3 0 -4 1 0 0 5 0 -4 
1 0 0 3 1 0 0 13 0 -10 1 0 0 10 0 -4 
1 0 0 3 1 0 0 3 0 -5 1 0 0 6 1 0 
0 6 1 0 0 -5 1 0 0 8 1 0 0 3 0 -5 
1 0 0 3 1 0 0 5 1 0 0 3 0 -4 1 0 
0 2 0 -110 1 0 0 5 1 0 0 -3 0 3 1 0 
0 4 1 0 0 2 1 -1 0 4 1 0 0 1 0 -1 
1 -263 0 1 0 -1 1 6 0 9 1 0 0 10 1 0 
0 9 1 0 0 10 1 0 0 14 1 0 0 10 1 0 
0 16 1 0 0 11 1 0 0 11 1 0 0 16 1 0 
0 11 1 0 0 15 1 0 0 11 1 0 0 10 1 0 
0 16 1 0 0 9 1 0 0 15 1 0 0 8 1 0 
0 7 1 0 0 14 1 0 0 5 1 0 0 11 2 2 
1 0 0 4 1 -1 0 -135 1 0 0 -1 0 1 1 -4 
0 -4 1 0 0 -5 1 0 0 -13 1 0 0 -8 1 0 
0 -17 1 0 0 -188 1 0 0 -9 1 0 0 -15 1 0 
0 -12 1 0 0 -14 1 0 0 -27 1 0 0 -18 1 0 
0 -250 1 0 0 -6 1 0 0 -4 1 0 0 -5 1 0 
0 1 0 -1 1 3 0 1 0 -1 1 7 0 5 1 0 
0 373 1 0 0 18 1 0 0 2 1 1 0 1 0 -1 
1 13 1 -1 0 -1 0 1 1 309 0 -6 1 1 0 2 
1 1 0 1 0 -1 1 -4 0 1 0 -1 1 3 0 1 
0 -1 1 3 0 -2 1 1 0 4 2 2 0 1 0 -1 
1 3 0 3 2 2 0 3 2 2 0 3 2 2 0 4 
2 2 0 6 1 0 1 0 1 0 0 8 1 0 1 -1 
1 -1 0 7 0 -2 1 0 0 -1 0 1 1 -3 0 -2 
0 6 1 0 0 -5 1 0 0 -119 1 -1 0 5 1 -1 
0 -2 1 -1 0 -2 0 3 1 0 0 -5 1 0 0 -5 
1 0 0 -4 1 0 0 -146 1 0 0 -2 1 1 0 -7 
1 0 0 -9 1 0 0 -8 1 0 0 -13 1 0 0 -156 
1 0 0 -13 1 0 0 -14 1 0 0 -11 1 0 0 -15 
1 0 0 -10 1 0 0 -17 1 0 0 12 1 0 0 14 
1 0 0 13 1 0 0 18 1 0 0 12 1 0 0 638 
1 0 0 -7 1 0 0 -9 1 0 0 -12 1 0 0 -15 
1 0 0 -19 1 0 641 550 300 MP stroke
0 -20 1 0 0 -25 1 0 0 -315 1 0 0 10 1 0 
0 11 1 0 0 13 1 0 0 11 1 0 0 11 1 0 
0 17 1 0 0 11 1 0 0 15 1 0 0 11 1 0 
0 11 1 0 0 14 1 0 0 10 1 0 0 15 1 0 
0 10 1 0 0 9 1 0 0 14 1 0 0 10 1 0 
0 13 1 0 0 9 1 0 0 10 1 0 0 14 1 0 
0 9 1 0 0 15 1 0 0 9 1 0 0 10 1 0 
0 37 1 0 0 9 1 0 0 16 1 0 0 8 1 0 
0 8 1 0 0 13 1 0 0 152 1 0 0 9 1 0 
0 4 1 0 0 2 1 1 0 8 1 0 0 2 1 1 
0 8 1 0 0 1 1 -24 -1 0 2 2 0 7 1 1 
0 2 1 1 0 1 0 -1 1 8 0 1 0 -1 1 3 
0 1 0 -1 1 -9 0 9 1 0 0 4 1 0 0 3 
1 0 0 9 1 0 0 6 1 0 0 7 1 0 0 4 
1 0 0 -10 0 2 1 0 0 7 1 1 0 4 1 0 
0 9 2 2 0 2 1 1 0 7 1 1 0 2 0 -15 
1 0 0 8 1 0 0 2 1 1 0 4 1 0 0 8 
1 0 0 1 0 -1 1 3 0 1 0 -1 1 8 0 1 
0 -1 1 3 0 1 0 -1 1 3 0 37 2 2 0 1 
0 -1 1 10 0 1 2 2 0 9 2 2 0 7 1 0 
0 -21 1 1 1 1 0 3 1 1 0 2 2 2 0 1 
2 2 0 15 2 2 0 1 2 2 1 1 1 1 1 0 
1 2 -1 0 2 0 1 1 0 1 2 2 1 1 0 -2 
1 1 1 1 0 1 0 -1 1 -2 1 1 1 1 0 -4 
1 1 1 0 0 1 0 -1 1 -4 1 0 1 0 0 -4 
1 0 1 0 0 -4 1 0 0 -21 1 0 1 0 0 -6 
1 0 1 -1 0 -6 1 0 1 -1 1 -1 0 -6 1 -1 
1 -1 0 -1 0 1 1 -8 0 -2 2 -2 0 -9 2 -2 
0 -1 0 1 1 -6 0 -66 2 -2 0 -9 1 -1 1 -1 
0 -9 1 0 1 -1 1 0 0 -25 1 0 1 0 0 -10 
1 0 1 0 1 1 0 -9 1 0 0 1 0 -1 1 -7 
1 1 0 -7 1 1 1 1 0 1 1 -6 -1 0 2 2 
0 2 1 1 0 45 2 2 0 1 0 -1 1 -4 0 2 
1 1 0 1 0 -1 1 3 0 -3 1 1 0 26 1 1 
0 2 0 -3 1 0 0 2 1 1 0 1 0 -1 1 3 
1 1 0 4 1 0 0 1 0 -1 1 -1 0 4 1 0 
0 -127 0 3 1 0 0 -2 0 3 1 0 0 7 1 0 
0 4 0 -4 1 0 476 422 300 MP stroke
0 8 1 0 0 9 1 0 0 -2 0 4 1 0 0 -86 
0 6 1 0 0 9 1 0 0 12 1 0 0 12 1 0 
0 10 1 0 0 12 1 0 0 9 1 0 0 6 1 0 
0 19 1 0 0 3 1 0 0 14 1 0 0 15 1 0 
0 7 1 0 0 14 1 0 0 7 0 -2 1 0 0 14 
1 0 0 15 1 0 0 -4 0 8 1 0 0 15 1 0 
0 7 0 -3 1 0 0 16 1 0 0 16 1 0 0 -3 
0 8 1 0 0 16 1 0 0 8 0 -3 1 0 0 17 
1 0 0 17 1 0 0 -5 0 9 1 0 0 17 1 0 
0 9 0 -6 1 0 0 18 1 0 0 15 442 135 79 MP stroke
DA
2.08333 w
1 0 2 0 1 0 1 0 1 0 1 0 1 0 1 0 
1 0 1 0 1 0 1 0 1 0 1 0 1 0 1 0 
1 0 1 0 1 0 1 0 1 0 2 0 1 0 1 0 
1 0 3 0 1 0 1 0 1 0 1 0 1 0 2 0 
1 0 1 0 3 0 2 0 6 0 3 0 1 0 2 0 
4 0 9 0 1 0 1 0 2 0 1 0 1 0 1 0 
1 0 1 0 1 0 2 0 2 0 4 0 4 0 4 0 
1 0 4 0 3 0 6 0 2 0 1 0 1 0 1 0 
6 0 3 0 2 0 4 0 6 0 3 0 1 0 6 0 
1 0 1 0 1 0 1 0 1 0 1 0 1 0 1 0 
1 0 1 0 1 0 1 0 1 0 1 0 1 0 1 0 
1 0 1 0 1 0 1 0 1 0 1 0 1 0 1 0 
1 0 1 0 1 0 1 0 1 0 1 0 1 0 1 0 
1 0 1 0 1 0 1 0 1 0 1 0 1 0 1 0 
1 0 1 0 1 0 1 0 1 0 1 0 1 0 1 0 
1 0 1 0 1 0 1 0 1 0 1 0 1 0 1 0 
1 0 1 0 1 0 1 0 1 0 1 0 1 0 1 0 
1 0 1 0 1 0 1 0 1 0 1 0 1 0 1 0 
1 0 1 0 1 0 1 0 1 0 1 0 1 0 1 0 
1 0 1 0 1 0 1 0 1 0 1 0 1 0 1 0 
1 0 1 0 1 0 1 0 1 0 1 0 1 0 1 0 
1 0 1 0 1 0 1 0 1 0 1 0 1 0 1 0 
1 0 1 0 1 0 1 0 1 0 1 0 1 0 1 0 
1 0 1 0 1 0 1 0 1 0 2 0 2 0 2 0 
1 0 1 0 1 0 1 0 1 0 2 0 1 0 1 0 
1 0 1 0 1 0 1 0 1 0 4 0 1 0 3 0 
1 0 1 0 2 0 1 0 1 0 1 0 1 0 1 0 
1 0 1 0 1 0 1 0 1 0 1 0 1 0 1 0 
1 0 1 0 2 0 2 0 1 0 1 0 1 0 1 0 
1 0 2 0 1 0 2 0 1 0 1 0 2 0 1 0 
1 0 1 0 1 0 1 0 2 0 2 0 2 0 3 0 
3 0 2 0 3 0 1 0 1 0 1 0 1 0 1 0 
2 0 1 0 1 0 1 0 1 0 1 0 1 0 1 0 
1 0 1 0 1 0 1 0 1 0 1 0 1 0 1 0 
1 0 1 0 1 0 1 0 1 0 1 0 1 0 1 0 
1 0 1 0 2 0 1 0 1 0 2 0 1 0 1 0 
3 0 1 0 1 0 1 0 1 0 3 0 2 0 3 0 
29 0 4 0 5 0 2454 1253 300 MP stroke
15 0 1 0 1 0 1 0 2 0 1 0 1 0 1 0 
2 0 2 0 1 0 1 0 2 0 1 0 1 0 1 0 
1 0 1 0 1 0 1 0 1 0 1 0 2 0 1 0 
1 0 1 0 2 0 1 0 1 0 1 0 1 0 1 0 
1 0 4 0 1 0 1 0 1 0 1 0 1 0 1 0 
1 0 1 0 1 0 1 0 1 0 1 0 1 0 1 0 
1 0 1 0 1 0 1 0 1 0 1 0 1 0 1 0 
1 0 1 0 2 0 1 0 1 0 1 0 1 0 1 0 
3 0 1 0 1 0 1 0 1 0 1 0 1 0 1 0 
2 0 1 0 1 0 1 0 1 0 1 0 1 0 1 0 
1 0 1 0 1 0 1 0 1 0 2 0 1 0 4 0 
1 0 3 0 1 0 3 0 1 0 1 0 1 0 1 0 
1 0 1 0 1 0 1 0 1 0 1 0 1 0 2 0 
1 0 1 0 1 0 1 0 1 0 1 0 1 0 1 0 
1 0 1 0 2 0 2 0 1 0 1 0 1 0 1 0 
1 0 3 0 1 0 1 0 1 0 1 0 1 0 1 0 
1 0 1 0 1 0 1 0 1 0 1 0 1 0 4 0 
1 0 1 0 1 0 1 0 1 0 1 0 1 0 1 0 
2 0 1 0 1 0 1 0 4 0 6 0 15 0 10 0 
4 0 14 0 1 0 1 0 1 0 1 0 1 0 1 0 
1 0 1 0 1 0 1 0 3 0 5 0 2 0 5 0 
2 0 1 0 1 0 1 0 1 0 1 0 1 0 1 0 
1 0 3 0 1 0 3 0 8 0 4 0 1 0 2 0 
2 0 1 0 1 0 1 0 1 0 1 0 1 0 1 0 
2 0 1 0 1 0 1 0 1 0 1 0 1 0 1 0 
1 0 1 0 1 0 1 0 1 0 1 0 1 0 1 0 
1 0 1 0 1 0 1 0 1 0 1 0 1 0 1 0 
1 0 2 0 1 0 1 0 1 0 1 0 1 0 1 0 
1 0 1 0 1 0 1 0 1 0 1 0 1 0 1 0 
1 0 1 0 1 0 1 0 1 0 1 0 2 0 1 0 
1 0 1 0 1 0 2 0 1 0 1 0 1 0 1 0 
2 0 2 0 1 0 1 0 1 0 1 0 1 0 1 0 
2 0 3 0 1 0 1 0 1 0 1 0 1 0 1 0 
1 0 1 0 1 0 1 0 1 0 1 0 1 0 1 0 
1 0 1 0 1 0 1 0 1 0 1 0 1 0 1 0 
1 0 1 0 1 0 1 0 1 0 1 0 1 0 1 0 
1 0 1 0 1 0 1 0 1 0 1 0 1 0 1 0 
1 0 1 0 1 0 2027 1253 300 MP stroke
1 0 2 0 1 0 1 0 1 0 1 0 2 0 1 0 
1 0 1 0 1 0 2 0 3 0 1 0 1 0 1 0 
3 0 1 0 1 0 4 0 1 0 5 0 1 0 2 0 
1 0 3 0 1 0 1 0 1 0 1 0 1 0 1 0 
1 0 1 0 1 0 2 0 1 0 1 0 1 0 1 0 
1 0 1 0 1 0 1 0 1 0 1 0 1 0 1 0 
10 0 1 0 1 0 1 0 1 0 1 0 1 0 1 0 
1 0 1 0 1 0 1 0 1 0 1 0 1 0 1 0 
1 0 1 0 1 0 1 0 1 0 1 0 1 0 1 0 
1 0 1 0 1 0 1 0 1 0 1 0 1 0 1 0 
1 0 1 0 1 0 1 0 1 0 1 0 1 0 1 0 
1 0 1 0 1 0 1 0 1 0 1 0 1 0 1 0 
1 0 1 0 1 0 1 0 1 0 1 0 1 0 1 0 
1 0 1 0 1 0 1 0 1 0 1 0 1 0 1 0 
1 0 1 0 1 0 1 0 1 0 1 0 1 0 1 0 
1 0 1 0 1 0 1 0 1 0 1 0 1 0 1 0 
1 0 1 0 1 0 1 0 1 0 1 0 1 0 1 0 
1 0 1 0 1 0 1 0 1 0 1 0 1 0 1 0 
1 0 1 0 1 0 1 0 1 0 1 0 1 0 1 0 
1 0 1 0 1 0 1 0 1 0 1 0 1 0 1 0 
1 0 1 0 1 0 1 0 1 0 1 0 1 0 1 0 
1 0 1 0 1 0 1 0 1 0 1 0 1 0 1 0 
1 0 1 0 1 0 1 0 1 0 1 0 1 0 1 0 
1 0 1 0 1 0 1 0 1 0 1 0 1 0 1 0 
1 0 1 0 1 0 1 0 1 0 1 0 1 0 1 0 
1 0 1 0 1 0 1 0 1 0 1 0 1 0 1 0 
1 0 1 0 1 0 1 0 1 0 1 0 1 0 1 0 
1 0 1 0 1 0 1 0 1 0 1 0 1 0 1 0 
1 0 1 0 1 0 1 0 1 0 1 0 1 0 1 0 
1 0 1 0 1 0 1 0 1 0 1 0 1 0 1 0 
1 0 1 0 1 0 1 0 1 0 1 0 1 0 1 0 
1 0 1 0 1 0 1 0 1 0 1 0 1 0 1 0 
2 0 1 0 1 0 1 0 1 0 1 0 1 0 2 0 
1 0 1 0 1 0 1 0 1 0 1 0 1 0 1 0 
1 0 1 0 1 0 1 0 1 0 1 0 1 0 1 0 
1 0 1 0 1 0 1 0 1 0 1 0 1 0 1 0 
1 0 1 0 1 0 1 0 1 0 1 0 1 0 1 0 
1 0 1 0 1 0 1699 1253 300 MP stroke
1 0 1 0 1 0 1 0 1 0 1 0 1 0 1 0 
1 0 1 0 1 0 1 0 1 0 1 0 1 0 1 0 
1 0 1 0 1 0 1 0 1 0 1 0 1 0 1 0 
1 0 1 0 1 0 1 0 1 0 1 0 1 0 1 0 
1 0 1 0 1 0 1 0 1 0 1 0 1 0 1 0 
1 0 1 0 1 0 1 0 1 0 1 0 1 0 1 0 
1 0 1 0 1 0 1 0 1 0 1 0 1 0 1 0 
1 0 1 0 1 0 1 0 1 0 1 0 1 0 1 0 
1 0 1 0 1 0 1 0 1 0 1 0 1 0 1 0 
1 0 1 0 1 0 1 0 1 0 1 0 1 0 1 0 
1 0 1 0 1 0 1 0 1 0 1 0 1 0 1 0 
1 0 1 0 1 0 1 0 1 0 1 0 1 0 1 0 
1 0 1 0 1 0 1 0 1 0 1 0 1 0 1 0 
1 0 1 0 1 0 1 0 1 0 1 0 1 0 1 0 
1 0 1 0 1 0 1 0 1 0 1 0 1 0 1 0 
1 0 1 0 1 0 1 0 1 0 1 0 1 0 1 0 
1 0 1 0 1 0 1 0 1 0 1 0 1 0 1 0 
1 0 1 0 1 0 1 0 1 0 1 0 1 0 1 0 
1 0 1 0 1 0 1 0 1 0 1 0 1 0 1 0 
6 0 3 0 1 0 1 0 2 0 2 0 1 0 1 0 
1 0 1 0 1 0 1 0 1 0 1 0 1 0 1 0 
1 0 1 0 1 0 1 0 1 0 1 0 1 0 1 0 
1 0 1 0 1 0 1 0 1 0 1 0 1 0 1 0 
1 0 1 0 1 0 1 0 1 0 1 0 1 0 1 0 
1 0 1 0 1 0 1 0 1 0 1 0 1 0 1 0 
1 0 1 0 2 0 2 0 1 0 1 0 1 0 1 0 
1 0 1 0 2 0 2 0 1 0 1 0 1 0 1 0 
1 0 1 0 1 0 1 0 1 0 2 0 2 0 1 0 
1 0 1 0 1 0 1 0 1 0 1 0 1 0 1 0 
1 0 1 0 1 0 1 0 1 0 1 0 1 0 1 0 
1 0 2 0 1 0 1 0 1 0 2 0 1 0 1 0 
1 0 1 0 1 0 1 0 1 0 1 0 1 0 1 0 
1 0 1 0 1 0 1 0 1 0 1 0 1 0 1 0 
1 0 1 0 1 0 1 0 1 0 1 0 2 0 1 0 
1 0 1 0 1 0 1 0 1 0 1 0 1 0 1 0 
1 0 1 0 1 0 1 0 1 0 1 0 1 0 1 0 
1 0 1 0 1 0 1 0 1 0 2 0 2 0 1 0 
2 0 1 0 1 0 1379 1253 300 MP stroke
1 0 1 0 1 0 1 0 1 0 1 0 1 0 1 0 
1 0 1 0 1 0 1 0 1 0 1 0 1 0 1 0 
1 0 1 0 1 0 1 0 1 0 1 0 1 0 1 0 
1 0 1 0 1 0 1 0 1 0 1 0 1 0 1 0 
1 0 1 0 1 0 1 0 1 0 1 0 1 0 1 0 
1 0 1 0 1 0 1 0 1 0 1 0 1 0 1 0 
1 0 1 0 1 0 1 0 1 0 1 0 1 0 1 0 
1 0 1 0 1 0 1 0 1 0 1 0 1 0 1 0 
1 0 1 0 1 0 1 0 1 0 1 0 1 0 1 0 
1 0 1 0 1 0 1 0 1 0 1 0 1 0 1 0 
1 0 1 0 1 0 1 0 1 0 1 0 1 0 1 0 
1 0 1 0 1 0 1 0 1 0 1 0 1 0 1 0 
1 0 1 0 1 0 1 0 1 0 1 0 1 0 1 0 
1 0 1 0 1 0 1 0 1 0 1 0 1 0 1 0 
1 0 1 0 1 0 1 0 1 0 1 0 1 0 1 0 
1 0 1 0 1 0 1 0 1 0 1 0 1 0 1 0 
1 0 1 0 1 0 1 0 1 0 1 0 1 0 1 0 
1 0 1 0 1 0 1 0 1 0 1 0 1 0 1 0 
1 0 1 0 1 0 1 0 1 0 1 0 1 0 1 0 
1 0 1 0 1 0 1 0 1 0 1 0 1 0 1 0 
1 0 1 0 1 0 1 0 5 0 1 0 1 0 1 0 
1 0 1 0 1 0 1 0 1 0 1 0 1 0 1 0 
1 0 1 0 1 0 1 0 1 0 1 0 1 0 1 0 
1 0 1 0 1 0 1 0 1 0 1 0 1 0 1 0 
1 0 1 0 1 0 1 0 1 0 1 0 1 0 1 0 
1 0 1 0 1 0 1 0 1 0 1 0 1 0 1 0 
1 0 1 0 1 0 1 0 1 0 1 0 1 0 1 0 
1 0 1 0 1 0 1 0 1 0 1 0 1 0 1 0 
1 0 1 0 1 0 1 0 1 0 1 0 1 0 1 0 
1 0 1 0 1 0 1 0 1 0 1 0 1 0 1 0 
1 0 1 0 1 0 1 0 1 0 1 0 1 0 1 0 
1 0 1 0 1 0 1 0 1 0 1 0 1 0 1 0 
1 0 1 0 1 0 1 0 1 0 1 0 1 0 1 0 
1 0 1 0 1 0 1 0 1 0 1 0 1 0 1 0 
1 0 1 0 1 0 1 0 1 0 1 0 1 0 1 0 
1 0 1 0 1 0 1 0 1 0 1 0 1 0 1 0 
1 0 1 0 1 0 1 0 1 0 1 0 1 0 1 0 
1 0 1 0 1 0 1076 1253 300 MP stroke
1 0 1 0 1 0 1 0 1 0 1 0 1 0 1 0 
1 0 1 0 1 0 1 0 1 0 1 0 1 0 1 0 
1 0 1 0 1 0 1 0 1 0 1 0 1 0 1 0 
1 0 1 0 1 0 1 0 1 0 1 0 1 0 1 0 
1 0 1 0 1 0 1 0 1 0 1 0 1 0 1 0 
1 0 1 0 1 0 1 0 1 0 1 0 1 0 1 0 
1 0 1 0 1 0 1 0 1 0 1 0 1 0 1 0 
1 0 1 0 1 0 1 0 1 0 1 0 1 0 1 0 
1 0 1 0 1 0 1 0 1 0 1 0 1 0 1 0 
1 0 1 0 1 0 1 0 1 0 1 0 1 0 1 0 
1 0 1 0 1 0 1 0 1 0 1 0 1 0 1 0 
1 0 1 0 1 0 1 0 1 0 1 0 1 0 1 0 
1 0 1 0 1 0 1 0 1 0 1 0 1 0 1 0 
1 0 1 0 1 0 1 0 1 0 1 0 1 0 1 0 
1 0 1 0 1 0 1 0 1 0 1 0 1 0 1 0 
1 0 1 0 1 0 1 0 1 0 1 0 1 0 1 0 
1 0 1 0 1 0 1 0 1 0 1 0 1 0 1 0 
1 0 1 0 1 0 1 0 1 0 1 0 1 0 1 0 
1 0 1 0 1 0 1 0 1 0 1 0 1 0 1 0 
1 0 1 0 1 0 1 0 1 0 1 0 1 0 1 0 
1 0 1 0 1 0 1 0 1 0 1 0 1 0 1 0 
1 0 1 0 1 0 1 0 1 0 1 0 1 0 1 0 
1 0 1 0 1 0 1 0 1 0 1 0 1 0 1 0 
1 0 1 0 1 0 1 0 1 0 1 0 1 0 1 0 
1 0 1 0 1 0 1 0 1 0 1 0 1 0 1 0 
1 0 1 0 1 0 1 0 1 0 1 0 1 0 1 0 
1 0 1 0 1 0 1 0 1 0 1 0 1 0 1 0 
1 0 1 0 1 0 1 0 1 0 1 0 1 0 1 0 
1 0 1 0 1 0 1 0 1 0 1 0 1 0 1 0 
1 0 1 0 1 0 1 0 1 0 1 0 2 0 1 0 
1 0 1 0 1 0 1 0 1 0 1 0 1 0 1 0 
1 0 1 0 1 0 1 0 1 0 1 0 1 0 1 0 
1 0 2 0 1 0 1 0 1 0 1 0 1 0 1 0 
1 0 1 0 1 0 1 0 1 0 1 0 1 0 1 0 
1 0 1 0 1 0 1 0 1 0 3 0 1 0 1 0 
1 0 1 0 1 0 1 0 1 0 1 0 1 0 1 0 
1 0 1 0 1 0 1 0 1 0 1 0 1 0 1 0 
1 0 1 0 1 0 773 1253 300 MP stroke
1 0 1 0 1 0 1 0 1 0 1 0 1 0 1 0 
1 0 1 0 1 0 1 0 1 0 1 0 1 0 1 0 
1 0 1 0 1 0 1 0 1 0 1 0 1 0 1 0 
1 0 1 0 1 0 1 0 1 0 1 0 1 0 1 0 
1 0 1 0 1 0 1 0 1 0 1 0 1 0 1 0 
1 0 1 0 1 0 1 0 1 0 1 0 1 0 1 0 
1 0 1 0 1 0 1 0 1 0 1 0 1 0 1 0 
1 0 1 0 1 0 1 0 1 0 1 0 1 0 1 0 
1 0 1 0 1 0 1 0 1 0 1 0 1 0 1 0 
1 0 1 0 1 0 1 0 1 0 1 0 1 0 1 0 
1 0 1 0 1 0 1 0 1 0 1 0 1 0 1 0 
1 0 1 0 1 0 1 0 1 0 1 0 1 0 1 0 
1 0 1 0 1 0 1 0 1 0 1 0 1 0 1 0 
1 0 1 0 1 0 1 0 1 0 1 0 1 0 1 0 
1 0 1 0 1 0 1 0 1 0 1 0 1 0 1 0 
1 0 1 0 1 0 1 0 1 0 1 0 1 0 1 0 
1 0 1 0 1 0 1 0 1 0 1 0 1 0 1 0 
1 0 1 0 1 0 1 0 1 0 1 0 1 0 1 0 
1 0 1 0 1 0 1 0 1 0 1 0 1 0 1 0 
1 0 1 0 1 0 1 0 1 0 1 0 1 0 1 0 
1 0 1 0 1 0 1 0 1 0 1 0 1 0 1 0 
1 0 1 0 1 0 1 0 1 0 1 0 1 0 1 0 
1 0 1 0 1 0 1 0 1 0 1 0 1 0 1 0 
1 0 1 0 1 0 1 0 1 0 1 0 1 0 1 0 
1 0 1 0 1 0 1 0 1 0 1 0 1 0 1 0 
1 0 1 0 1 0 1 0 1 0 1 0 1 0 1 0 
1 0 1 0 1 0 1 0 1 0 1 0 1 0 1 0 
1 0 1 0 1 0 1 0 1 0 1 0 1 0 1 0 
1 0 1 0 1 0 1 0 1 0 1 0 1 0 1 0 
1 0 1 0 1 0 1 0 1 0 1 0 1 0 1 0 
1 0 1 0 1 0 1 0 1 0 1 0 1 0 1 0 
1 0 1 0 1 0 1 0 1 0 1 0 1 0 1 0 
1 0 1 0 1 0 1 0 1 0 1 0 1 0 1 0 
1 0 1 0 1 0 1 0 1 0 1 0 1 0 1 0 
1 0 1 0 1 0 1 0 1 0 1 0 1 0 1 0 
1 0 1 0 1 0 1 0 1 0 1 0 1 0 1 0 
1 0 1 0 1 0 1 0 1 0 1 0 1 0 1 0 
1 0 1 0 1 0 474 1253 300 MP stroke
1 0 1 0 1 0 1 0 1 0 1 0 1 0 1 0 
1 0 1 0 1 0 1 0 1 0 1 0 1 0 1 0 
1 0 1 0 1 0 1 0 1 0 1 0 1 0 1 0 
1 0 1 0 1 0 1 0 1 0 1 0 1 0 1 0 
1 0 1 0 1 0 1 0 1 0 1 0 1 0 1 0 
1 0 1 0 1 0 1 0 1 0 1 0 1 0 1 0 
1 0 1 0 1 0 1 0 1 0 1 0 1 0 1 0 
1 0 1 0 416 1253 59 MP stroke
SO
8.33333 w
gr

8.33333 w
c9
8 W
/c10 { 0.000000 1.000000 0.000000 sr} bdef
c10
416 784 PD
8 W
646 965 PD
8 W
647 993 PD
8 W
647 1042 PD
8 W
648 1071 PD
8 W
648 1060 PD
8 W
649 1021 PD
8 W
649 1013 PD
8 W
653 930 PD
8 W
654 845 PD
8 W
654 843 PD
8 W
661 909 PD
8 W
661 916 PD
8 W
662 924 PD
8 W
828 1068 PD
8 W
835 1039 PD
8 W
836 1052 PD
8 W
836 1065 PD
8 W
838 976 PD
8 W
843 1131 PD
8 W
844 1149 PD
8 W
845 1167 PD
8 W
845 1182 PD
8 W
846 1112 PD
8 W
848 1015 PD
8 W
853 1091 PD
8 W
854 1102 PD
8 W
854 1093 PD
8 W
855 1077 PD
8 W
855 1095 PD
8 W
857 1052 PD
8 W
858 1064 PD
8 W
858 1066 PD
8 W
859 1058 PD
8 W
860 1072 PD
8 W
860 1073 PD
8 W
861 1074 PD
8 W
862 1070 PD
8 W
863 1091 PD
8 W
863 1097 PD
8 W
864 1100 PD
8 W
865 1104 PD
8 W
865 1064 PD
8 W
866 1012 PD
8 W
866 998 PD
8 W
867 1019 PD
8 W
868 1064 PD
8 W
869 1101 PD
8 W
869 1127 PD
8 W
870 1140 PD
8 W
870 1176 PD
8 W
871 1197 PD
8 W
872 1199 PD
8 W
872 1203 PD
8 W
873 1209 PD
8 W
873 1207 PD
8 W
874 1200 PD
8 W
874 1196 PD
8 W
875 1195 PD
8 W
877 1118 PD
8 W
877 1098 PD
8 W
878 1128 PD
8 W
879 1197 PD
8 W
881 1270 PD
8 W
881 1311 PD
8 W
881 1318 PD
8 W
882 1309 PD
8 W
882 1259 PD
8 W
883 1244 PD
8 W
883 1222 PD
8 W
884 1180 PD
8 W
884 1183 PD
8 W
885 1171 PD
8 W
885 1173 PD
8 W
886 1188 PD
8 W
886 1230 PD
8 W
887 1279 PD
8 W
887 1311 PD
8 W
888 1343 PD
8 W
888 1376 PD
8 W
889 1372 PD
8 W
890 1324 PD
8 W
890 1271 PD
8 W
891 1229 PD
8 W
891 1234 PD
8 W
892 1237 PD
8 W
893 1282 PD
8 W
893 1286 PD
8 W
894 1329 PD
8 W
894 1335 PD
8 W
895 1347 PD
8 W
895 1337 PD
8 W
896 1324 PD
8 W
896 1307 PD
8 W
897 1307 PD
8 W
897 1292 PD
8 W
898 1344 PD
8 W
898 1376 PD
8 W
899 1384 PD
8 W
900 1377 PD
8 W
900 1375 PD
8 W
901 1390 PD
8 W
901 1413 PD
8 W
902 1465 PD
8 W
902 1497 PD
8 W
903 1514 PD
8 W
903 1517 PD
8 W
904 1516 PD
8 W
904 1495 PD
8 W
905 1472 PD
8 W
906 1409 PD
8 W
906 1329 PD
8 W
907 1321 PD
8 W
908 1323 PD
8 W
908 1374 PD
8 W
909 1421 PD
8 W
909 1447 PD
8 W
910 1526 PD
8 W
911 1517 PD
8 W
911 1468 PD
8 W
912 1440 PD
8 W
913 1446 PD
8 W
914 1423 PD
8 W
915 1454 PD
8 W
916 1514 PD
8 W
916 1492 PD
8 W
917 1493 PD
8 W
917 1474 PD
8 W
918 1511 PD
8 W
918 1535 PD
8 W
919 1513 PD
8 W
920 1471 PD
8 W
921 1451 PD
8 W
921 1438 PD
8 W
922 1461 PD
8 W
923 1491 PD
8 W
923 1536 PD
8 W
924 1588 PD
8 W
924 1550 PD
8 W
925 1514 PD
8 W
925 1512 PD
8 W
926 1539 PD
8 W
926 1594 PD
8 W
927 1551 PD
8 W
927 1516 PD
8 W
928 1487 PD
8 W
928 1449 PD
8 W
930 1502 PD
8 W
932 1469 PD
8 W
934 1576 PD
8 W
934 1515 PD
8 W
935 1490 PD
8 W
935 1475 PD
8 W
936 1475 PD
8 W
936 1542 PD
8 W
937 1564 PD
8 W
937 1544 PD
8 W
938 1529 PD
8 W
938 1538 PD
8 W
939 1580 PD
8 W
939 1560 PD
8 W
940 1533 PD
8 W
940 1530 PD
8 W
941 1584 PD
8 W
942 1550 PD
8 W
943 1449 PD
8 W
943 1422 PD
8 W
944 1414 PD
8 W
944 1438 PD
8 W
945 1480 PD
8 W
945 1578 PD
8 W
946 1555 PD
8 W
947 1451 PD
8 W
947 1440 PD
8 W
948 1497 PD
8 W
949 1535 PD
8 W
950 1490 PD
8 W
952 1347 PD
8 W
954 1539 PD
8 W
955 1519 PD
8 W
955 1490 PD
8 W
956 1537 PD
8 W
957 1455 PD
8 W
958 1398 PD
8 W
958 1402 PD
8 W
959 1430 PD
8 W
960 1518 PD
8 W
960 1531 PD
8 W
961 1495 PD
8 W
962 1420 PD
8 W
963 1353 PD
8 W
963 1360 PD
8 W
964 1353 PD
8 W
964 1402 PD
8 W
965 1440 PD
8 W
966 1487 PD
8 W
967 1466 PD
8 W
967 1444 PD
8 W
968 1441 PD
8 W
969 1430 PD
8 W
971 1279 PD
8 W
972 1222 PD
8 W
972 1221 PD
8 W
974 1357 PD
8 W
976 1438 PD
8 W
977 1386 PD
8 W
978 1371 PD
8 W
978 1355 PD
8 W
979 1318 PD
8 W
980 1290 PD
8 W
980 1265 PD
8 W
981 1235 PD
8 W
981 1221 PD
8 W
982 1255 PD
8 W
982 1268 PD
8 W
983 1318 PD
8 W
984 1329 PD
8 W
985 1317 PD
8 W
986 1302 PD
8 W
986 1309 PD
8 W
987 1324 PD
8 W
988 1366 PD
8 W
988 1379 PD
8 W
989 1364 PD
8 W
990 1346 PD
8 W
992 1315 PD
8 W
993 1355 PD
8 W
994 1355 PD
8 W
995 1334 PD
8 W
996 1317 PD
8 W
999 1394 PD
8 W
1001 1455 PD
8 W
1002 1413 PD
8 W
1003 1333 PD
8 W
1004 1262 PD
8 W
1005 1258 PD
8 W
1005 1294 PD
8 W
1015 1400 PD
8 W
1020 1432 PD
8 W
1021 1521 PD
8 W
1022 1535 PD
8 W
1022 1490 PD
8 W
1023 1540 PD
8 W
1023 1526 PD
8 W
1024 1582 PD
8 W
1025 1572 PD
8 W
1025 1549 PD
8 W
1026 1563 PD
8 W
1026 1548 PD
8 W
1027 1467 PD
8 W
1031 1533 PD
8 W
1032 1587 PD
8 W
1033 1565 PD
8 W
1034 1548 PD
8 W
1035 1504 PD
8 W
1035 1439 PD
8 W
1036 1419 PD
8 W
1036 1406 PD
8 W
1037 1408 PD
8 W
1037 1414 PD
8 W
1038 1424 PD
8 W
1038 1444 PD
8 W
1039 1461 PD
8 W
1039 1473 PD
8 W
1040 1472 PD
8 W
1041 1462 PD
8 W
1041 1468 PD
8 W
1042 1512 PD
8 W
1043 1534 PD
8 W
1043 1531 PD
8 W
1044 1484 PD
8 W
1044 1406 PD
8 W
1045 1326 PD
8 W
1045 1271 PD
8 W
1046 1256 PD
8 W
1046 1282 PD
8 W
1047 1338 PD
8 W
1047 1399 PD
8 W
1048 1436 PD
8 W
1049 1399 PD
8 W
1049 1372 PD
8 W
1050 1368 PD
8 W
1050 1392 PD
8 W
1052 1469 PD
8 W
1054 1300 PD
8 W
1054 1299 PD
8 W
1055 1342 PD
8 W
1055 1404 PD
8 W
1056 1440 PD
8 W
1057 1438 PD
8 W
1058 1373 PD
8 W
1059 1320 PD
8 W
1059 1280 PD
8 W
1060 1311 PD
8 W
1061 1330 PD
8 W
1063 1450 PD
8 W
1063 1394 PD
8 W
1064 1449 PD
8 W
1064 1458 PD
8 W
1065 1460 PD
8 W
1066 1492 PD
8 W
1067 1443 PD
8 W
1070 1330 PD
8 W
1070 1313 PD
8 W
1071 1314 PD
8 W
1073 1513 PD
8 W
1075 1511 PD
8 W
1077 1433 PD
8 W
1077 1371 PD
8 W
1078 1351 PD
8 W
1078 1369 PD
8 W
1079 1464 PD
8 W
1080 1472 PD
8 W
1080 1493 PD
8 W
1081 1532 PD
8 W
1082 1549 PD
8 W
1083 1576 PD
8 W
1084 1511 PD
8 W
1085 1493 PD
8 W
1086 1575 PD
8 W
1086 1540 PD
8 W
1087 1478 PD
8 W
1088 1530 PD
8 W
1089 1539 PD
8 W
1090 1530 PD
8 W
1097 1393 PD
8 W
1100 1512 PD
8 W
1102 1401 PD
8 W
1102 1443 PD
8 W
1103 1518 PD
8 W
1104 1478 PD
8 W
1109 1412 PD
8 W
1110 1467 PD
8 W
1110 1508 PD
8 W
1111 1546 PD
8 W
1115 1427 PD
8 W
1115 1425 PD
8 W
1116 1482 PD
8 W
1120 1409 PD
8 W
1121 1366 PD
8 W
1121 1333 PD
8 W
1122 1423 PD
8 W
1123 1479 PD
8 W
1128 1232 PD
8 W
1129 1319 PD
8 W
1129 1410 PD
8 W
1133 1574 PD
8 W
1135 1312 PD
8 W
1135 1303 PD
8 W
1136 1333 PD
8 W
1137 1540 PD
8 W
1138 1544 PD
8 W
1138 1518 PD
8 W
1139 1516 PD
8 W
1140 1486 PD
8 W
1141 1459 PD
8 W
1141 1433 PD
8 W
1142 1415 PD
8 W
1145 1436 PD
8 W
1146 1476 PD
8 W
1147 1485 PD
8 W
1147 1487 PD
8 W
1148 1455 PD
8 W
1149 1418 PD
8 W
1149 1401 PD
8 W
1150 1357 PD
8 W
1151 1360 PD
8 W
1152 1284 PD
8 W
1152 1248 PD
8 W
1154 1392 PD
8 W
1154 1457 PD
8 W
1155 1495 PD
8 W
1157 1414 PD
8 W
1157 1375 PD
8 W
1158 1343 PD
8 W
1158 1305 PD
8 W
1159 1304 PD
8 W
1160 1342 PD
8 W
1161 1360 PD
8 W
1161 1377 PD
8 W
1162 1395 PD
8 W
1162 1401 PD
8 W
1163 1391 PD
8 W
1164 1327 PD
8 W
1165 1240 PD
8 W
1165 1217 PD
8 W
1166 1218 PD
8 W
1167 1314 PD
8 W
1167 1403 PD
8 W
1173 1186 PD
8 W
1180 1259 PD
8 W
1181 1269 PD
8 W
1181 1267 PD
8 W
1182 1262 PD
8 W
1183 1345 PD
8 W
1184 1373 PD
8 W
1186 1369 PD
8 W
1188 1366 PD
8 W
1188 1459 PD
8 W
1192 1271 PD
8 W
1196 1344 PD
8 W
1199 1489 PD
8 W
1202 1190 PD
8 W
1203 1308 PD
8 W
1208 1288 PD
8 W
1208 1217 PD
8 W
1209 1221 PD
8 W
1210 1328 PD
8 W
1219 1392 PD
8 W
1222 1319 PD
8 W
1224 1286 PD
8 W
1224 1327 PD
8 W
1226 1416 PD
8 W
1227 1390 PD
8 W
1230 1307 PD
8 W
1231 1249 PD
8 W
1238 1249 PD
8 W
1239 1254 PD
8 W
1240 1331 PD
8 W
1241 1377 PD
8 W
1242 1359 PD
8 W
1242 1353 PD
8 W
1243 1336 PD
8 W
1245 1273 PD
8 W
1246 1215 PD
8 W
1248 1371 PD
8 W
1250 1335 PD
8 W
1251 1286 PD
8 W
1253 1238 PD
8 W
1254 1260 PD
8 W
1255 1264 PD
8 W
1255 1261 PD
8 W
1257 1293 PD
8 W
1259 1288 PD
8 W
1260 1262 PD
8 W
1260 1202 PD
8 W
1262 1096 PD
8 W
1262 1095 PD
8 W
1264 1215 PD
8 W
1265 1216 PD
8 W
1266 1198 PD
8 W
1267 1187 PD
8 W
1267 1197 PD
8 W
1268 1204 PD
8 W
1269 1239 PD
8 W
1272 1154 PD
8 W
1272 1113 PD
8 W
1273 1083 PD
8 W
1273 1064 PD
8 W
1274 1051 PD
8 W
1275 1111 PD
8 W
1275 1186 PD
8 W
1276 1213 PD
8 W
1277 1227 PD
8 W
1279 1129 PD
8 W
1279 1102 PD
8 W
1280 1037 PD
8 W
1280 1047 PD
8 W
1281 1032 PD
8 W
1282 1099 PD
8 W
1283 1195 PD
8 W
1284 1199 PD
8 W
1285 1084 PD
8 W
1287 1014 PD
8 W
1288 1057 PD
8 W
1288 1084 PD
8 W
1289 1149 PD
8 W
1289 1194 PD
8 W
1291 1088 PD
8 W
1291 1076 PD
8 W
1292 1048 PD
8 W
1292 1026 PD
8 W
1293 1020 PD
8 W
1294 996 PD
8 W
1294 983 PD
8 W
1295 985 PD
8 W
1295 963 PD
8 W
1296 953 PD
8 W
1296 968 PD
8 W
1297 1006 PD
8 W
1298 1068 PD
8 W
1299 1086 PD
8 W
1300 1050 PD
8 W
1302 936 PD
8 W
1303 920 PD
8 W
1303 898 PD
8 W
1304 893 PD
8 W
1304 919 PD
8 W
1305 911 PD
8 W
1305 933 PD
8 W
1306 926 PD
8 W
1307 962 PD
8 W
1308 978 PD
8 W
1309 961 PD
8 W
1311 896 PD
8 W
1311 869 PD
8 W
1312 862 PD
8 W
1313 863 PD
8 W
1313 869 PD
8 W
1314 894 PD
8 W
1314 899 PD
8 W
1315 937 PD
8 W
1316 911 PD
8 W
1317 942 PD
8 W
1318 933 PD
8 W
1319 922 PD
8 W
1320 906 PD
8 W
1321 948 PD
8 W
1322 1001 PD
8 W
1322 1028 PD
8 W
1323 1023 PD
8 W
1323 987 PD
8 W
1324 951 PD
8 W
1325 956 PD
8 W
1326 984 PD
8 W
1327 991 PD
8 W
1328 984 PD
8 W
1328 986 PD
8 W
1329 1028 PD
8 W
1329 1006 PD
8 W
1330 970 PD
8 W
1330 957 PD
8 W
1331 939 PD
8 W
1331 940 PD
8 W
1333 1141 PD
8 W
1335 1152 PD
8 W
1337 1030 PD
8 W
1338 1002 PD
8 W
1340 1139 PD
8 W
1342 1139 PD
8 W
1343 1166 PD
8 W
1345 1235 PD
8 W
1347 1218 PD
8 W
1348 1192 PD
8 W
1351 1034 PD
8 W
1352 1066 PD
8 W
1353 1242 PD
8 W
1357 1105 PD
8 W
1357 1037 PD
8 W
1358 1024 PD
8 W
1358 1110 PD
8 W
1360 1177 PD
8 W
1361 1173 PD
8 W
1362 1105 PD
8 W
1362 1074 PD
8 W
1363 1070 PD
8 W
1364 1174 PD
8 W
1364 1226 PD
8 W
1366 1186 PD
8 W
1366 1118 PD
8 W
1367 1104 PD
8 W
1369 1215 PD
8 W
1378 1095 PD
8 W
1378 1104 PD
8 W
1379 1139 PD
8 W
1380 1142 PD
8 W
1380 1121 PD
8 W
1381 1098 PD
8 W
1383 1024 PD
8 W
1383 1043 PD
8 W
1386 1054 PD
8 W
1388 983 PD
8 W
1467 1067 PD
8 W
1467 1046 PD
8 W
1468 1057 PD
8 W
1470 1131 PD
8 W
1471 1156 PD
8 W
1472 1137 PD
8 W
1478 1140 PD
8 W
1486 1242 PD
8 W
1489 1040 PD
8 W
1490 1146 PD
8 W
1491 1186 PD
8 W
1493 1144 PD
8 W
1495 1126 PD
8 W
1497 1158 PD
8 W
1498 1144 PD
8 W
1500 1168 PD
8 W
1502 1159 PD
8 W
1503 1162 PD
8 W
1504 1175 PD
8 W
1506 1183 PD
8 W
1507 1183 PD
8 W
1510 1172 PD
8 W
1510 1166 PD
8 W
1511 1144 PD
8 W
1514 1149 PD
8 W
1518 1193 PD
8 W
1519 1157 PD
8 W
1521 1156 PD
8 W
1522 1196 PD
8 W
1523 1294 PD
8 W
1524 1279 PD
8 W
1526 1187 PD
8 W
1569 1299 PD
8 W
1570 1334 PD
8 W
1573 1279 PD
8 W
1575 1321 PD
8 W
1575 1340 PD
8 W
1576 1355 PD
8 W
1577 1352 PD
8 W
1580 1322 PD
8 W
1581 1296 PD
8 W
1581 1278 PD
8 W
1582 1267 PD
8 W
1587 1362 PD
8 W
1588 1308 PD
8 W
1590 1342 PD
8 W
1591 1387 PD
8 W
1592 1380 PD
8 W
1593 1305 PD
8 W
1596 1346 PD
8 W
1599 1385 PD
8 W
1602 1245 PD
8 W
1603 1333 PD
8 W
1605 1411 PD
8 W
1608 1286 PD
8 W
1609 1300 PD
8 W
1614 1395 PD
8 W
1614 1335 PD
8 W
1615 1296 PD
8 W
1617 1284 PD
8 W
1621 1241 PD
8 W
1622 1273 PD
8 W
1625 1394 PD
8 W
1626 1343 PD
8 W
1627 1222 PD
8 W
1628 1208 PD
8 W
1630 1371 PD
8 W
1633 1244 PD
8 W
1634 1179 PD
8 W
1634 1190 PD
8 W
1635 1235 PD
8 W
1636 1332 PD
8 W
1638 1340 PD
8 W
1639 1203 PD
8 W
1640 1189 PD
8 W
1646 1251 PD
8 W
1658 1336 PD
8 W
1659 1366 PD
8 W
1659 1344 PD
8 W
1661 1154 PD
8 W
1665 1437 PD
8 W
1665 1392 PD
8 W
1666 1363 PD
8 W
1666 1303 PD
8 W
1667 1242 PD
8 W
1669 1244 PD
8 W
1672 1404 PD
8 W
1679 1383 PD
8 W
1683 1326 PD
8 W
1685 1366 PD
8 W
1688 1242 PD
8 W
1692 1364 PD
8 W
1698 1496 PD
8 W
1699 1300 PD
8 W
1704 1408 PD
8 W
1712 1336 PD
8 W
1720 1349 PD
8 W
1725 1304 PD
8 W
1730 1195 PD
8 W
1733 1198 PD
8 W
1738 1207 PD
8 W
1744 1349 PD
8 W
1746 1372 PD
8 W
1760 1340 PD
8 W
1760 1374 PD
8 W
1763 1426 PD
8 W
1779 1378 PD
8 W
1780 1422 PD
8 W
1788 1165 PD
8 W
1790 1339 PD
8 W
1795 1198 PD
8 W
1795 1205 PD
8 W
1797 1358 PD
8 W
1798 1346 PD
8 W
1799 1270 PD
8 W
1800 1200 PD
8 W
1801 1121 PD
8 W
1804 1119 PD
8 W
1805 1162 PD
8 W
1807 908 PD
8 W
1816 899 PD
8 W
1817 890 PD
8 W
1819 868 PD
8 W
1821 885 PD
8 W
1822 864 PD
8 W
1822 808 PD
8 W
1826 944 PD
8 W
1826 988 PD
8 W
1827 883 PD
8 W
1829 750 PD
8 W
1829 748 PD
8 W
1830 819 PD
8 W
1831 880 PD
8 W
1832 862 PD
8 W
1832 856 PD
8 W
1833 845 PD
8 W
1834 830 PD
8 W
1835 770 PD
8 W
1838 876 PD
8 W
1839 932 PD
8 W
1895 1158 PD
8 W
1898 1052 PD
8 W
1904 1216 PD
8 W
1904 1172 PD
8 W
1940 1342 PD
8 W
1978 1558 PD
8 W
1990 1493 PD
8 W
2001 1442 PD
8 W
2029 1446 PD
8 W
2034 1399 PD
8 W
2074 1441 PD
8 W
2136 1459 PD
8 W
2139 1537 PD
8 W
2143 1421 PD
8 W
2154 1490 PD
8 W
2205 1404 PD
8 W
2237 1344 PD
8 W
2267 1467 PD
8 W
2290 1289 PD
8 W
2292 1286 PD
8 W
2361 1378 PD
8 W
2388 1168 PD
8 W
2415 1497 PD
8 W
2615 1372 PD
8 W
2625 1346 PD
8 W
2640 1301 PD
8 W
2642 1201 PD
8 W
2654 1186 PD
8 W
2655 1202 PD
8 W
2657 1175 PD
8 W
2666 1461 PD
8 W
2669 1398 PD
8 W
2670 1384 PD
8 W
2671 1399 PD
8 W
2678 1374 PD
8 W
2728 1217 PD
8 W
2729 1220 PD
8 W
2732 1349 PD
8 W
2733 1355 PD
8 W
2735 1303 PD
8 W
2739 1259 PD
8 W
2741 1211 PD
8 W
2743 1164 PD
8 W
2746 1314 PD
8 W
2747 1236 PD
8 W
2876 1380 PD
gs 416 135 2480 1469 rc
DA
2.08333 w
1 0 2 0 1 0 1 0 1 0 1 0 1 0 1 0 
1 0 1 0 1 0 1 0 1 0 1 0 1 0 1 0 
1 0 1 0 1 0 1 0 1 0 2 0 1 0 1 0 
1 0 3 0 1 0 1 0 1 0 1 0 1 0 2 0 
1 0 1 0 3 0 2 0 6 0 3 0 1 0 2 0 
4 0 9 0 1 0 1 0 2 0 1 0 1 0 1 0 
1 0 1 0 1 0 2 0 2 0 4 0 4 0 4 0 
1 0 4 0 3 0 6 0 2 0 1 0 1 0 1 0 
6 0 3 0 2 0 4 0 6 0 3 0 1 0 6 0 
1 0 1 0 1 0 1 0 1 0 1 0 1 0 1 0 
1 0 1 0 1 0 1 0 1 0 1 0 1 0 1 0 
1 0 1 0 1 0 1 0 1 0 1 0 1 0 1 0 
1 0 1 0 1 0 1 0 1 0 1 0 1 0 1 0 
1 0 1 0 1 0 1 0 1 0 1 0 1 0 1 0 
1 0 1 0 1 0 1 0 1 0 1 0 1 0 1 0 
1 0 1 0 1 0 1 0 1 0 1 0 1 0 1 0 
1 0 1 0 1 0 1 0 1 0 1 0 1 0 1 0 
1 0 1 0 1 0 1 0 1 0 1 0 1 0 1 0 
1 0 1 0 1 0 1 0 1 0 1 0 1 0 1 0 
1 0 1 0 1 0 1 0 1 0 1 0 1 0 1 0 
1 0 1 0 1 0 1 0 1 0 1 0 1 0 1 0 
1 0 1 0 1 0 1 0 1 0 1 0 1 0 1 0 
1 0 1 0 1 0 1 0 1 0 1 0 1 0 1 0 
1 0 1 0 1 0 1 0 1 0 2 0 2 0 2 0 
1 0 1 0 1 0 1 0 1 0 2 0 1 0 1 0 
1 0 1 0 1 0 1 0 1 0 4 0 1 0 3 0 
1 0 1 0 2 0 1 0 1 0 1 0 1 0 1 0 
1 0 1 0 1 0 1 0 1 0 1 0 1 0 1 0 
1 0 1 0 2 0 2 0 1 0 1 0 1 0 1 0 
1 0 2 0 1 0 2 0 1 0 1 0 2 0 1 0 
1 0 1 0 1 0 1 0 2 0 2 0 2 0 3 0 
3 0 2 0 3 0 1 0 1 0 1 0 1 0 1 0 
2 0 1 0 1 0 1 0 1 0 1 0 1 0 1 0 
1 0 1 0 1 0 1 0 1 0 1 0 1 0 1 0 
1 0 1 0 1 0 1 0 1 0 1 0 1 0 1 0 
1 0 1 0 2 0 1 0 1 0 2 0 1 0 1 0 
3 0 1 0 1 0 1 0 1 0 3 0 2 0 3 0 
29 0 4 0 5 0 2454 1274 300 MP stroke
15 0 1 0 1 0 1 0 2 0 1 0 1 0 1 0 
2 0 2 0 1 0 1 0 2 0 1 0 1 0 1 0 
1 0 1 0 1 0 1 0 1 0 1 0 2 0 1 0 
1 0 1 0 2 0 1 0 1 0 1 0 1 0 1 0 
1 0 4 0 1 0 1 0 1 0 1 0 1 0 1 0 
1 0 1 0 1 0 1 0 1 0 1 0 1 0 1 0 
1 0 1 0 1 0 1 0 1 0 1 0 1 0 1 0 
1 0 1 0 2 0 1 0 1 0 1 0 1 0 1 0 
3 0 1 0 1 0 1 0 1 0 1 0 1 0 1 0 
2 0 1 0 1 0 1 0 1 0 1 0 1 0 1 0 
1 0 1 0 1 0 1 0 1 0 2 0 1 0 4 0 
1 0 3 0 1 0 3 0 1 0 1 0 1 0 1 0 
1 0 1 0 1 0 1 0 1 0 1 0 1 0 2 0 
1 0 1 0 1 0 1 0 1 0 1 0 1 0 1 0 
1 0 1 0 2 0 2 0 1 0 1 0 1 0 1 0 
1 0 3 0 1 0 1 0 1 0 1 0 1 0 1 0 
1 0 1 0 1 0 1 0 1 0 1 0 1 0 4 0 
1 0 1 0 1 0 1 0 1 0 1 0 1 0 1 0 
2 0 1 0 1 0 1 0 4 0 6 0 15 0 10 0 
4 0 14 0 1 0 1 0 1 0 1 0 1 0 1 0 
1 0 1 0 1 0 1 0 3 0 5 0 2 0 5 0 
2 0 1 0 1 0 1 0 1 0 1 0 1 0 1 0 
1 0 3 0 1 0 3 0 8 0 4 0 1 0 2 0 
2 0 1 0 1 0 1 0 1 0 1 0 1 0 1 0 
2 0 1 0 1 0 1 0 1 0 1 0 1 0 1 0 
1 0 1 0 1 0 1 0 1 0 1 0 1 0 1 0 
1 0 1 0 1 0 1 0 1 0 1 0 1 0 1 0 
1 0 2 0 1 0 1 0 1 0 1 0 1 0 1 0 
1 0 1 0 1 0 1 0 1 0 1 0 1 0 1 0 
1 0 1 0 1 0 1 0 1 0 1 0 2 0 1 0 
1 0 1 0 1 0 2 0 1 0 1 0 1 0 1 0 
2 0 2 0 1 0 1 0 1 0 1 0 1 0 1 0 
2 0 3 0 1 0 1 0 1 0 1 0 1 0 1 0 
1 0 1 0 1 0 1 0 1 0 1 0 1 0 1 0 
1 0 1 0 1 0 1 0 1 0 1 0 1 0 1 0 
1 0 1 0 1 0 1 0 1 0 1 0 1 0 1 0 
1 0 1 0 1 0 1 0 1 0 1 0 1 0 1 0 
1 0 1 0 1 0 2027 1274 300 MP stroke
1 0 2 0 1 0 1 0 1 0 1 0 2 0 1 0 
1 0 1 0 1 0 2 0 3 0 1 0 1 0 1 0 
3 0 1 0 1 0 4 0 1 0 5 0 1 0 2 0 
1 0 3 0 1 0 1 0 1 0 1 0 1 0 1 0 
1 0 1 0 1 0 2 0 1 0 1 0 1 0 1 0 
1 0 1 0 1 0 1 0 1 0 1 0 1 0 1 0 
10 0 1 0 1 0 1 0 1 0 1 0 1 0 1 0 
1 0 1 0 1 0 1 0 1 0 1 0 1 0 1 0 
1 0 1 0 1 0 1 0 1 0 1 0 1 0 1 0 
1 0 1 0 1 0 1 0 1 0 1 0 1 0 1 0 
1 0 1 0 1 0 1 0 1 0 1 0 1 0 1 0 
1 0 1 0 1 0 1 0 1 0 1 0 1 0 1 0 
1 0 1 0 1 0 1 0 1 0 1 0 1 0 1 0 
1 0 1 0 1 0 1 0 1 0 1 0 1 0 1 0 
1 0 1 0 1 0 1 0 1 0 1 0 1 0 1 0 
1 0 1 0 1 0 1 0 1 0 1 0 1 0 1 0 
1 0 1 0 1 0 1 0 1 0 1 0 1 0 1 0 
1 0 1 0 1 0 1 0 1 0 1 0 1 0 1 0 
1 0 1 0 1 0 1 0 1 0 1 0 1 0 1 0 
1 0 1 0 1 0 1 0 1 0 1 0 1 0 1 0 
1 0 1 0 1 0 1 0 1 0 1 0 1 0 1 0 
1 0 1 0 1 0 1 0 1 0 1 0 1 0 1 0 
1 0 1 0 1 0 1 0 1 0 1 0 1 0 1 0 
1 0 1 0 1 0 1 0 1 0 1 0 1 0 1 0 
1 0 1 0 1 0 1 0 1 0 1 0 1 0 1 0 
1 0 1 0 1 0 1 0 1 0 1 0 1 0 1 0 
1 0 1 0 1 0 1 0 1 0 1 0 1 0 1 0 
1 0 1 0 1 0 1 0 1 0 1 0 1 0 1 0 
1 0 1 0 1 0 1 0 1 0 1 0 1 0 1 0 
1 0 1 0 1 0 1 0 1 0 1 0 1 0 1 0 
1 0 1 0 1 0 1 0 1 0 1 0 1 0 1 0 
1 0 1 0 1 0 1 0 1 0 1 0 1 0 1 0 
2 0 1 0 1 0 1 0 1 0 1 0 1 0 2 0 
1 0 1 0 1 0 1 0 1 0 1 0 1 0 1 0 
1 0 1 0 1 0 1 0 1 0 1 0 1 0 1 0 
1 0 1 0 1 0 1 0 1 0 1 0 1 0 1 0 
1 0 1 0 1 0 1 0 1 0 1 0 1 0 1 0 
1 0 1 0 1 0 1699 1274 300 MP stroke
1 0 1 0 1 0 1 0 1 0 1 0 1 0 1 0 
1 0 1 0 1 0 1 0 1 0 1 0 1 0 1 0 
1 0 1 0 1 0 1 0 1 0 1 0 1 0 1 0 
1 0 1 0 1 0 1 0 1 0 1 0 1 0 1 0 
1 0 1 0 1 0 1 0 1 0 1 0 1 0 1 0 
1 0 1 0 1 0 1 0 1 0 1 0 1 0 1 0 
1 0 1 0 1 0 1 0 1 0 1 0 1 0 1 0 
1 0 1 0 1 0 1 0 1 0 1 0 1 0 1 0 
1 0 1 0 1 0 1 0 1 0 1 0 1 0 1 0 
1 0 1 0 1 0 1 0 1 0 1 0 1 0 1 0 
1 0 1 0 1 0 1 0 1 0 1 0 1 0 1 0 
1 0 1 0 1 0 1 0 1 0 1 0 1 0 1 0 
1 0 1 0 1 0 1 0 1 0 1 0 1 0 1 0 
1 0 1 0 1 0 1 0 1 0 1 0 1 0 1 0 
1 0 1 0 1 0 1 0 1 0 1 0 1 0 1 0 
1 0 1 0 1 0 1 0 1 0 1 0 1 0 1 0 
1 0 1 0 1 0 1 0 1 0 1 0 1 0 1 0 
1 0 1 0 1 0 1 0 1 0 1 0 1 0 1 0 
1 0 1 0 1 0 1 0 1 0 1 0 1 0 1 0 
6 0 3 0 1 0 1 0 2 0 2 0 1 0 1 0 
1 0 1 0 1 0 1 0 1 0 1 0 1 0 1 0 
1 0 1 0 1 0 1 0 1 0 1 0 1 0 1 0 
1 0 1 0 1 0 1 0 1 0 1 0 1 0 1 0 
1 0 1 0 1 0 1 0 1 0 1 0 1 0 1 0 
1 0 1 0 1 0 1 0 1 0 1 0 1 0 1 0 
1 0 1 0 2 0 2 0 1 0 1 0 1 0 1 0 
1 0 1 0 2 0 2 0 1 0 1 0 1 0 1 0 
1 0 1 0 1 0 1 0 1 0 2 0 2 0 1 0 
1 0 1 0 1 0 1 0 1 0 1 0 1 0 1 0 
1 0 1 0 1 0 1 0 1 0 1 0 1 0 1 0 
1 0 2 0 1 0 1 0 1 0 2 0 1 0 1 0 
1 0 1 0 1 0 1 0 1 0 1 0 1 0 1 0 
1 0 1 0 1 0 1 0 1 0 1 0 1 0 1 0 
1 0 1 0 1 0 1 0 1 0 1 0 2 0 1 0 
1 0 1 0 1 0 1 0 1 0 1 0 1 0 1 0 
1 0 1 0 1 0 1 0 1 0 1 0 1 0 1 0 
1 0 1 0 1 0 1 0 1 0 2 0 2 0 1 0 
2 0 1 0 1 0 1379 1274 300 MP stroke
1 0 1 0 1 0 1 0 1 0 1 0 1 0 1 0 
1 0 1 0 1 0 1 0 1 0 1 0 1 0 1 0 
1 0 1 0 1 0 1 0 1 0 1 0 1 0 1 0 
1 0 1 0 1 0 1 0 1 0 1 0 1 0 1 0 
1 0 1 0 1 0 1 0 1 0 1 0 1 0 1 0 
1 0 1 0 1 0 1 0 1 0 1 0 1 0 1 0 
1 0 1 0 1 0 1 0 1 0 1 0 1 0 1 0 
1 0 1 0 1 0 1 0 1 0 1 0 1 0 1 0 
1 0 1 0 1 0 1 0 1 0 1 0 1 0 1 0 
1 0 1 0 1 0 1 0 1 0 1 0 1 0 1 0 
1 0 1 0 1 0 1 0 1 0 1 0 1 0 1 0 
1 0 1 0 1 0 1 0 1 0 1 0 1 0 1 0 
1 0 1 0 1 0 1 0 1 0 1 0 1 0 1 0 
1 0 1 0 1 0 1 0 1 0 1 0 1 0 1 0 
1 0 1 0 1 0 1 0 1 0 1 0 1 0 1 0 
1 0 1 0 1 0 1 0 1 0 1 0 1 0 1 0 
1 0 1 0 1 0 1 0 1 0 1 0 1 0 1 0 
1 0 1 0 1 0 1 0 1 0 1 0 1 0 1 0 
1 0 1 0 1 0 1 0 1 0 1 0 1 0 1 0 
1 0 1 0 1 0 1 0 1 0 1 0 1 0 1 0 
1 0 1 0 1 0 1 0 5 0 1 0 1 0 1 0 
1 0 1 0 1 0 1 0 1 0 1 0 1 0 1 0 
1 0 1 0 1 0 1 0 1 0 1 0 1 0 1 0 
1 0 1 0 1 0 1 0 1 0 1 0 1 0 1 0 
1 0 1 0 1 0 1 0 1 0 1 0 1 0 1 0 
1 0 1 0 1 0 1 0 1 0 1 0 1 0 1 0 
1 0 1 0 1 0 1 0 1 0 1 0 1 0 1 0 
1 0 1 0 1 0 1 0 1 0 1 0 1 0 1 0 
1 0 1 0 1 0 1 0 1 0 1 0 1 0 1 0 
1 0 1 0 1 0 1 0 1 0 1 0 1 0 1 0 
1 0 1 0 1 0 1 0 1 0 1 0 1 0 1 0 
1 0 1 0 1 0 1 0 1 0 1 0 1 0 1 0 
1 0 1 0 1 0 1 0 1 0 1 0 1 0 1 0 
1 0 1 0 1 0 1 0 1 0 1 0 1 0 1 0 
1 0 1 0 1 0 1 0 1 0 1 0 1 0 1 0 
1 0 1 0 1 0 1 0 1 0 1 0 1 0 1 0 
1 0 1 0 1 0 1 0 1 0 1 0 1 0 1 0 
1 0 1 0 1 0 1076 1274 300 MP stroke
1 0 1 0 1 0 1 0 1 0 1 0 1 0 1 0 
1 0 1 0 1 0 1 0 1 0 1 0 1 0 1 0 
1 0 1 0 1 0 1 0 1 0 1 0 1 0 1 0 
1 0 1 0 1 0 1 0 1 0 1 0 1 0 1 0 
1 0 1 0 1 0 1 0 1 0 1 0 1 0 1 0 
1 0 1 0 1 0 1 0 1 0 1 0 1 0 1 0 
1 0 1 0 1 0 1 0 1 0 1 0 1 0 1 0 
1 0 1 0 1 0 1 0 1 0 1 0 1 0 1 0 
1 0 1 0 1 0 1 0 1 0 1 0 1 0 1 0 
1 0 1 0 1 0 1 0 1 0 1 0 1 0 1 0 
1 0 1 0 1 0 1 0 1 0 1 0 1 0 1 0 
1 0 1 0 1 0 1 0 1 0 1 0 1 0 1 0 
1 0 1 0 1 0 1 0 1 0 1 0 1 0 1 0 
1 0 1 0 1 0 1 0 1 0 1 0 1 0 1 0 
1 0 1 0 1 0 1 0 1 0 1 0 1 0 1 0 
1 0 1 0 1 0 1 0 1 0 1 0 1 0 1 0 
1 0 1 0 1 0 1 0 1 0 1 0 1 0 1 0 
1 0 1 0 1 0 1 0 1 0 1 0 1 0 1 0 
1 0 1 0 1 0 1 0 1 0 1 0 1 0 1 0 
1 0 1 0 1 0 1 0 1 0 1 0 1 0 1 0 
1 0 1 0 1 0 1 0 1 0 1 0 1 0 1 0 
1 0 1 0 1 0 1 0 1 0 1 0 1 0 1 0 
1 0 1 0 1 0 1 0 1 0 1 0 1 0 1 0 
1 0 1 0 1 0 1 0 1 0 1 0 1 0 1 0 
1 0 1 0 1 0 1 0 1 0 1 0 1 0 1 0 
1 0 1 0 1 0 1 0 1 0 1 0 1 0 1 0 
1 0 1 0 1 0 1 0 1 0 1 0 1 0 1 0 
1 0 1 0 1 0 1 0 1 0 1 0 1 0 1 0 
1 0 1 0 1 0 1 0 1 0 1 0 1 0 1 0 
1 0 1 0 1 0 1 0 1 0 1 0 2 0 1 0 
1 0 1 0 1 0 1 0 1 0 1 0 1 0 1 0 
1 0 1 0 1 0 1 0 1 0 1 0 1 0 1 0 
1 0 2 0 1 0 1 0 1 0 1 0 1 0 1 0 
1 0 1 0 1 0 1 0 1 0 1 0 1 0 1 0 
1 0 1 0 1 0 1 0 1 0 3 0 1 0 1 0 
1 0 1 0 1 0 1 0 1 0 1 0 1 0 1 0 
1 0 1 0 1 0 1 0 1 0 1 0 1 0 1 0 
1 0 1 0 1 0 773 1274 300 MP stroke
1 0 1 0 1 0 1 0 1 0 1 0 1 0 1 0 
1 0 1 0 1 0 1 0 1 0 1 0 1 0 1 0 
1 0 1 0 1 0 1 0 1 0 1 0 1 0 1 0 
1 0 1 0 1 0 1 0 1 0 1 0 1 0 1 0 
1 0 1 0 1 0 1 0 1 0 1 0 1 0 1 0 
1 0 1 0 1 0 1 0 1 0 1 0 1 0 1 0 
1 0 1 0 1 0 1 0 1 0 1 0 1 0 1 0 
1 0 1 0 1 0 1 0 1 0 1 0 1 0 1 0 
1 0 1 0 1 0 1 0 1 0 1 0 1 0 1 0 
1 0 1 0 1 0 1 0 1 0 1 0 1 0 1 0 
1 0 1 0 1 0 1 0 1 0 1 0 1 0 1 0 
1 0 1 0 1 0 1 0 1 0 1 0 1 0 1 0 
1 0 1 0 1 0 1 0 1 0 1 0 1 0 1 0 
1 0 1 0 1 0 1 0 1 0 1 0 1 0 1 0 
1 0 1 0 1 0 1 0 1 0 1 0 1 0 1 0 
1 0 1 0 1 0 1 0 1 0 1 0 1 0 1 0 
1 0 1 0 1 0 1 0 1 0 1 0 1 0 1 0 
1 0 1 0 1 0 1 0 1 0 1 0 1 0 1 0 
1 0 1 0 1 0 1 0 1 0 1 0 1 0 1 0 
1 0 1 0 1 0 1 0 1 0 1 0 1 0 1 0 
1 0 1 0 1 0 1 0 1 0 1 0 1 0 1 0 
1 0 1 0 1 0 1 0 1 0 1 0 1 0 1 0 
1 0 1 0 1 0 1 0 1 0 1 0 1 0 1 0 
1 0 1 0 1 0 1 0 1 0 1 0 1 0 1 0 
1 0 1 0 1 0 1 0 1 0 1 0 1 0 1 0 
1 0 1 0 1 0 1 0 1 0 1 0 1 0 1 0 
1 0 1 0 1 0 1 0 1 0 1 0 1 0 1 0 
1 0 1 0 1 0 1 0 1 0 1 0 1 0 1 0 
1 0 1 0 1 0 1 0 1 0 1 0 1 0 1 0 
1 0 1 0 1 0 1 0 1 0 1 0 1 0 1 0 
1 0 1 0 1 0 1 0 1 0 1 0 1 0 1 0 
1 0 1 0 1 0 1 0 1 0 1 0 1 0 1 0 
1 0 1 0 1 0 1 0 1 0 1 0 1 0 1 0 
1 0 1 0 1 0 1 0 1 0 1 0 1 0 1 0 
1 0 1 0 1 0 1 0 1 0 1 0 1 0 1 0 
1 0 1 0 1 0 1 0 1 0 1 0 1 0 1 0 
1 0 1 0 1 0 1 0 1 0 1 0 1 0 1 0 
1 0 1 0 1 0 474 1274 300 MP stroke
1 0 1 0 1 0 1 0 1 0 1 0 1 0 1 0 
1 0 1 0 1 0 1 0 1 0 1 0 1 0 1 0 
1 0 1 0 1 0 1 0 1 0 1 0 1 0 1 0 
1 0 1 0 1 0 1 0 1 0 1 0 1 0 1 0 
1 0 1 0 1 0 1 0 1 0 1 0 1 0 1 0 
1 0 1 0 1 0 1 0 1 0 1 0 1 0 1 0 
1 0 1 0 1 0 1 0 1 0 1 0 1 0 1 0 
1 0 1 0 416 1274 59 MP stroke
gr

2.08333 w
DA
0 sg
1521 1759 mt 
(Time [s]) s
 139 1164 mt  -90 rotate
(Tracking Error [m]) s
90 rotate
1423   78 mt 
(Tracking Error) s
%%IncludeResource: font Helvetica
/Helvetica /ISOLatin1Encoding 41.6667 FMSR

 410 1619 mt 
( ) s
2890  150 mt 
( ) s
SO
1 sg
0 228 702 0 0 -228 2173 384 4 MP
PP
-702 0 0 228 702 0 0 -228 2173 384 5 MP stroke
1.38889 w
DO
SO
2.08333 w
0 sg
2173  384 mt 2875  384 L
2173  156 mt 2875  156 L
2173  384 mt 2173  156 L
2875  384 mt 2875  156 L
2173  384 mt 2875  384 L
2173  384 mt 2173  156 L
2173  384 mt 2875  384 L
2173  156 mt 2875  156 L
2173  384 mt 2173  156 L
2875  384 mt 2875  156 L
%%IncludeResource: font Helvetica
/Helvetica /ISOLatin1Encoding 58.3333 FMSR

2342  219 mt 
(USBL measurement) s
gs 2173 156 703 229 rc
gs 2238 171 53 53 rc
c8
2256  189 mt 2272  205 L
2272  189 mt 2256  205 L
gr

c8
gr

c8
0 sg
2342  292 mt 
(Diver estimate) s
gs 2173 156 703 229 rc
8.33333 w
c9
130 0 2199 270 2 MP stroke
2.08333 w
gr

c9
0 sg
2342  364 mt 
(Video validation) s
gs 2173 156 703 229 rc
8.33333 w
gs 2228 306 72 72 rc
8 W
c10
2264 342 PD
gr

c10
2.08333 w
gr

c10

end %%Color Dict

eplot
%%EndObject

epage
end

showpage

%%Trailer
%%EOF
