%!PS-Adobe-3.0 EPSF-3.0
%%Creator: MATLAB, The MathWorks, Inc. Version 8.3.0.532 (R2014a). Operating System: Linux 3.13.0-49-generic #83-Ubuntu SMP Fri Apr 10 20:11:33 UTC 2015 x86_64.
%%Title: /home/dnad/Documents/publication/ram2014_data/figures/Figure1_2a_NE_time_diver.eps
%%CreationDate: 04/23/2015  14:06:38
%%DocumentNeededFonts: Helvetica
%%DocumentProcessColors: Cyan Magenta Yellow Black
%%LanguageLevel: 2
%%Pages: 1
%%BoundingBox:   -37   188   637   606
%%EndComments

%%BeginProlog
% MathWorks dictionary
/MathWorks 160 dict begin
% definition operators
/bdef {bind def} bind def
/ldef {load def} bind def
/xdef {exch def} bdef
/xstore {exch store} bdef
% operator abbreviations
/c  /clip ldef
/cc /concat ldef
/cp /closepath ldef
/gr /grestore ldef
/gs /gsave ldef
/mt /moveto ldef
/np /newpath ldef
/cm /currentmatrix ldef
/sm /setmatrix ldef
/rm /rmoveto ldef
/rl /rlineto ldef
/s {show newpath} bdef
/sc {setcmykcolor} bdef
/sr /setrgbcolor ldef
/sg /setgray ldef
/w /setlinewidth ldef
/j /setlinejoin ldef
/cap /setlinecap ldef
/rc {rectclip} bdef
/rf {rectfill} bdef
% page state control
/pgsv () def
/bpage {/pgsv save def} bdef
/epage {pgsv restore} bdef
/bplot /gsave ldef
/eplot {stroke grestore} bdef
% orientation switch
/portraitMode 0 def /landscapeMode 1 def /rotateMode 2 def
% coordinate system mappings
/dpi2point 0 def
% font control
/FontSize 0 def
/FMS {/FontSize xstore findfont [FontSize 0 0 FontSize neg 0 0]
  makefont setfont} bdef
/reencode {exch dup where {pop load} {pop StandardEncoding} ifelse
  exch dup 3 1 roll findfont dup length dict begin
  { 1 index /FID ne {def}{pop pop} ifelse } forall
  /Encoding exch def currentdict end definefont pop} bdef
/isroman {findfont /CharStrings get /Agrave known} bdef
/FMSR {3 1 roll 1 index dup isroman {reencode} {pop pop} ifelse
  exch FMS} bdef
/csm {1 dpi2point div -1 dpi2point div scale neg translate
 dup landscapeMode eq {pop -90 rotate}
  {rotateMode eq {90 rotate} if} ifelse} bdef
% line types: solid, dotted, dashed, dotdash
/SO { [] 0 setdash } bdef
/DO { [.5 dpi2point mul 4 dpi2point mul] 0 setdash } bdef
/DA { [6 dpi2point mul] 0 setdash } bdef
/DD { [.5 dpi2point mul 4 dpi2point mul 6 dpi2point mul 4
  dpi2point mul] 0 setdash } bdef
% macros for lines and objects
/L {lineto stroke} bdef
/MP {3 1 roll moveto 1 sub {rlineto} repeat} bdef
/AP {{rlineto} repeat} bdef
/PDlw -1 def
/W {/PDlw currentlinewidth def setlinewidth} def
/PP {closepath eofill} bdef
/DP {closepath stroke} bdef
/MR {4 -2 roll moveto dup  0 exch rlineto exch 0 rlineto
  neg 0 exch rlineto closepath} bdef
/FR {MR stroke} bdef
/PR {MR fill} bdef
/L1i {{currentfile picstr readhexstring pop} image} bdef
/tMatrix matrix def
/MakeOval {newpath tMatrix currentmatrix pop translate scale
0 0 1 0 360 arc tMatrix setmatrix} bdef
/FO {MakeOval stroke} bdef
/PO {MakeOval fill} bdef
/PD {currentlinewidth 2 div 0 360 arc fill
   PDlw -1 eq not {PDlw w /PDlw -1 def} if} def
/FA {newpath tMatrix currentmatrix pop translate scale
  0 0 1 5 -2 roll arc tMatrix setmatrix stroke} bdef
/PA {newpath tMatrix currentmatrix pop	translate 0 0 moveto scale
  0 0 1 5 -2 roll arc closepath tMatrix setmatrix fill} bdef
/FAn {newpath tMatrix currentmatrix pop translate scale
  0 0 1 5 -2 roll arcn tMatrix setmatrix stroke} bdef
/PAn {newpath tMatrix currentmatrix pop translate 0 0 moveto scale
  0 0 1 5 -2 roll arcn closepath tMatrix setmatrix fill} bdef
/vradius 0 def /hradius 0 def /lry 0 def
/lrx 0 def /uly 0 def /ulx 0 def /rad 0 def
/MRR {/vradius xdef /hradius xdef /lry xdef /lrx xdef /uly xdef
  /ulx xdef newpath tMatrix currentmatrix pop ulx hradius add uly
  vradius add translate hradius vradius scale 0 0 1 180 270 arc 
  tMatrix setmatrix lrx hradius sub uly vradius add translate
  hradius vradius scale 0 0 1 270 360 arc tMatrix setmatrix
  lrx hradius sub lry vradius sub translate hradius vradius scale
  0 0 1 0 90 arc tMatrix setmatrix ulx hradius add lry vradius sub
  translate hradius vradius scale 0 0 1 90 180 arc tMatrix setmatrix
  closepath} bdef
/FRR {MRR stroke } bdef
/PRR {MRR fill } bdef
/MlrRR {/lry xdef /lrx xdef /uly xdef /ulx xdef /rad lry uly sub 2 div def
  newpath tMatrix currentmatrix pop ulx rad add uly rad add translate
  rad rad scale 0 0 1 90 270 arc tMatrix setmatrix lrx rad sub lry rad
  sub translate rad rad scale 0 0 1 270 90 arc tMatrix setmatrix
  closepath} bdef
/FlrRR {MlrRR stroke } bdef
/PlrRR {MlrRR fill } bdef
/MtbRR {/lry xdef /lrx xdef /uly xdef /ulx xdef /rad lrx ulx sub 2 div def
  newpath tMatrix currentmatrix pop ulx rad add uly rad add translate
  rad rad scale 0 0 1 180 360 arc tMatrix setmatrix lrx rad sub lry rad
  sub translate rad rad scale 0 0 1 0 180 arc tMatrix setmatrix
  closepath} bdef
/FtbRR {MtbRR stroke } bdef
/PtbRR {MtbRR fill } bdef
/stri 6 array def /dtri 6 array def
/smat 6 array def /dmat 6 array def
/tmat1 6 array def /tmat2 6 array def /dif 3 array def
/asub {/ind2 exch def /ind1 exch def dup dup
  ind1 get exch ind2 get sub exch } bdef
/tri_to_matrix {
  2 0 asub 3 1 asub 4 0 asub 5 1 asub
  dup 0 get exch 1 get 7 -1 roll astore } bdef
/compute_transform {
  dmat dtri tri_to_matrix tmat1 invertmatrix 
  smat stri tri_to_matrix tmat2 concatmatrix } bdef
/ds {stri astore pop} bdef
/dt {dtri astore pop} bdef
/db {2 copy /cols xdef /rows xdef mul dup 3 mul string
  currentfile 
  3 index 0 eq {/ASCIIHexDecode filter}
  {/ASCII85Decode filter 3 index 2 eq {/RunLengthDecode filter} if }
  ifelse exch readstring pop
  dup 0 3 index getinterval /rbmap xdef
  dup 2 index dup getinterval /gbmap xdef
  1 index dup 2 mul exch getinterval /bbmap xdef pop pop}bdef
/it {gs np dtri aload pop moveto lineto lineto cp c
  cols rows 8 compute_transform 
  rbmap gbmap bbmap true 3 colorimage gr}bdef
/il {newpath moveto lineto stroke}bdef
currentdict end def
%%EndProlog

%%BeginSetup
MathWorks begin

0 cap

end
%%EndSetup

%%Page: 1 1
%%BeginPageSetup
%%PageBoundingBox:   -37   188   637   606
MathWorks begin
bpage
%%EndPageSetup

%%BeginObject: obj1
bplot

/dpi2point 4.16667 def
portraitMode -0320 2550 csm

  163    25  2812  1738 rc
86 dict begin %Colortable dictionary
/c0 { 0.000000 0.000000 0.000000 sr} bdef
/c1 { 1.000000 1.000000 1.000000 sr} bdef
/c2 { 0.900000 0.000000 0.000000 sr} bdef
/c3 { 0.000000 0.820000 0.000000 sr} bdef
/c4 { 0.000000 0.000000 0.800000 sr} bdef
/c5 { 0.910000 0.820000 0.320000 sr} bdef
/c6 { 1.000000 0.260000 0.820000 sr} bdef
/c7 { 0.000000 0.820000 0.820000 sr} bdef
c0
1 j
1 sg
   0    0 3200 1802 rf
2.08333 w
0 553 2479 0 0 -553 416 729 4 MP
PP
-2479 0 0 553 2479 0 0 -553 416 729 5 MP stroke
1.38889 w
DO
0 sg
 416  729 mt  416  176 L
 416  176 mt  416  176 L
 641  729 mt  641  176 L
 641  176 mt  641  176 L
 866  729 mt  866  176 L
 866  176 mt  866  176 L
1092  729 mt 1092  176 L
1092  176 mt 1092  176 L
1317  729 mt 1317  176 L
1317  176 mt 1317  176 L
1542  729 mt 1542  176 L
1542  176 mt 1542  176 L
1768  729 mt 1768  176 L
1768  176 mt 1768  176 L
1993  729 mt 1993  176 L
1993  176 mt 1993  176 L
2218  729 mt 2218  176 L
2218  176 mt 2218  176 L
2444  729 mt 2444  176 L
2444  176 mt 2444  176 L
2669  729 mt 2669  176 L
2669  176 mt 2669  176 L
2895  729 mt 2895  176 L
2895  176 mt 2895  176 L
 416  673 mt 2895  673 L
2895  673 mt 2895  673 L
 416  452 mt 2895  452 L
2895  452 mt 2895  452 L
 416  231 mt 2895  231 L
2895  231 mt 2895  231 L
SO
2.08333 w
 416  729 mt 2895  729 L
 416  176 mt 2895  176 L
 416  729 mt  416  176 L
2895  729 mt 2895  176 L
 416  729 mt 2895  729 L
 416  729 mt  416  176 L
 416  729 mt  416  704 L
 416  176 mt  416  200 L
%%IncludeResource: font Helvetica
/Helvetica /ISOLatin1Encoding 75 FMSR

 396  810 mt 
(0) s
 641  729 mt  641  704 L
 641  176 mt  641  200 L
 600  810 mt 
(50) s
 866  729 mt  866  704 L
 866  176 mt  866  200 L
 804  810 mt 
(100) s
1092  729 mt 1092  704 L
1092  176 mt 1092  200 L
1030  810 mt 
(150) s
1317  729 mt 1317  704 L
1317  176 mt 1317  200 L
1255  810 mt 
(200) s
1542  729 mt 1542  704 L
1542  176 mt 1542  200 L
1480  810 mt 
(250) s
1768  729 mt 1768  704 L
1768  176 mt 1768  200 L
1706  810 mt 
(300) s
1993  729 mt 1993  704 L
1993  176 mt 1993  200 L
1931  810 mt 
(350) s
2218  729 mt 2218  704 L
2218  176 mt 2218  200 L
2156  810 mt 
(400) s
2444  729 mt 2444  704 L
2444  176 mt 2444  200 L
2382  810 mt 
(450) s
2669  729 mt 2669  704 L
2669  176 mt 2669  200 L
2607  810 mt 
(500) s
2895  729 mt 2895  704 L
2895  176 mt 2895  200 L
2833  810 mt 
(550) s
 416  673 mt  440  673 L
2895  673 mt 2870  673 L
 321  700 mt 
(20) s
 416  452 mt  440  452 L
2895  452 mt 2870  452 L
 321  479 mt 
(40) s
 416  231 mt  440  231 L
2895  231 mt 2870  231 L
 321  258 mt 
(60) s
 416  729 mt 2895  729 L
 416  176 mt 2895  176 L
 416  729 mt  416  176 L
2895  729 mt 2895  176 L
gs 416 176 2480 554 rc
gr

gs 390 179 2533 578 rc
/c8 { 1.000000 0.000000 0.000000 sr} bdef
c8
 408  629 mt  424  645 L
 424  629 mt  408  645 L
 415  643 mt  431  659 L
 431  643 mt  415  659 L
 421  633 mt  437  649 L
 437  633 mt  421  649 L
 430  646 mt  446  662 L
 446  646 mt  430  662 L
gr

c8
gs 416 176 2480 554 rc
gr

gs 390 179 2533 578 rc
 444  633 mt  460  649 L
 460  633 mt  444  649 L
 451  627 mt  467  643 L
 467  627 mt  451  643 L
 457  600 mt  473  616 L
 473  600 mt  457  616 L
 465  624 mt  481  640 L
 481  624 mt  465  640 L
 470  619 mt  486  635 L
 486  619 mt  470  635 L
 476  603 mt  492  619 L
 492  603 mt  476  619 L
 486  603 mt  502  619 L
 502  603 mt  486  619 L
 491  617 mt  507  633 L
 507  617 mt  491  633 L
 499  605 mt  515  621 L
 515  605 mt  499  621 L
 504  610 mt  520  626 L
 520  610 mt  504  626 L
 510  608 mt  526  624 L
 526  608 mt  510  624 L
 516  604 mt  532  620 L
 532  604 mt  516  620 L
 522  614 mt  538  630 L
 538  614 mt  522  630 L
 527  614 mt  543  630 L
 543  614 mt  527  630 L
 535  605 mt  551  621 L
 551  605 mt  535  621 L
 540  603 mt  556  619 L
 556  603 mt  540  619 L
 545  599 mt  561  615 L
 561  599 mt  545  615 L
 551  602 mt  567  618 L
 567  602 mt  551  618 L
 557  598 mt  573  614 L
 573  598 mt  557  614 L
 563  594 mt  579  610 L
 579  594 mt  563  610 L
 583  585 mt  599  601 L
 599  585 mt  583  601 L
 594  598 mt  610  614 L
 610  598 mt  594  614 L
 599  601 mt  615  617 L
 615  601 mt  599  617 L
 621  577 mt  637  593 L
 637  577 mt  621  593 L
 643  569 mt  659  585 L
 659  569 mt  643  585 L
 650  564 mt  666  580 L
 666  564 mt  650  580 L
 656  555 mt  672  571 L
 672  555 mt  656  571 L
 662  553 mt  678  569 L
 678  553 mt  662  569 L
 668  553 mt  684  569 L
 684  553 mt  668  569 L
 674  552 mt  690  568 L
 690  552 mt  674  568 L
 679  550 mt  695  566 L
 695  550 mt  679  566 L
 686  549 mt  702  565 L
 702  549 mt  686  565 L
 691  547 mt  707  563 L
 707  547 mt  691  563 L
 697  553 mt  713  569 L
 713  553 mt  697  569 L
 702  543 mt  718  559 L
 718  543 mt  702  559 L
 710  542 mt  726  558 L
 726  542 mt  710  558 L
 715  536 mt  731  552 L
 731  536 mt  715  552 L
 722  534 mt  738  550 L
 738  534 mt  722  550 L
 727  543 mt  743  559 L
 743  543 mt  727  559 L
 734  527 mt  750  543 L
 750  527 mt  734  543 L
 739  530 mt  755  546 L
 755  530 mt  739  546 L
 744  527 mt  760  543 L
 760  527 mt  744  543 L
 750  526 mt  766  542 L
 766  526 mt  750  542 L
 756  528 mt  772  544 L
 772  528 mt  756  544 L
 761  536 mt  777  552 L
 777  536 mt  761  552 L
 767  523 mt  783  539 L
 783  523 mt  767  539 L
 773  522 mt  789  538 L
 789  522 mt  773  538 L
 780  515 mt  796  531 L
 796  515 mt  780  531 L
 786  515 mt  802  531 L
 802  515 mt  786  531 L
 792  513 mt  808  529 L
 808  513 mt  792  529 L
 798  515 mt  814  531 L
 814  515 mt  798  531 L
 805  504 mt  821  520 L
 821  504 mt  805  520 L
 813  504 mt  829  520 L
 829  504 mt  813  520 L
 819  494 mt  835  510 L
 835  494 mt  819  510 L
 826  491 mt  842  507 L
 842  491 mt  826  507 L
 832  496 mt  848  512 L
 848  496 mt  832  512 L
 837  484 mt  853  500 L
 853  484 mt  837  500 L
 842  489 mt  858  505 L
 858  489 mt  842  505 L
 849  485 mt  865  501 L
 865  485 mt  849  501 L
 855  482 mt  871  498 L
 871  482 mt  855  498 L
 862  479 mt  878  495 L
 878  479 mt  862  495 L
 869  488 mt  885  504 L
 885  488 mt  869  504 L
 896  470 mt  912  486 L
 912  470 mt  896  486 L
 901  486 mt  917  502 L
 917  486 mt  901  502 L
 907  461 mt  923  477 L
 923  461 mt  907  477 L
 914  460 mt  930  476 L
 930  460 mt  914  476 L
 919  460 mt  935  476 L
 935  460 mt  919  476 L
 926  464 mt  942  480 L
 942  464 mt  926  480 L
 931  461 mt  947  477 L
 947  461 mt  931  477 L
 955  455 mt  971  471 L
 971  455 mt  955  471 L
 961  450 mt  977  466 L
 977  450 mt  961  466 L
 966  446 mt  982  462 L
 982  446 mt  966  462 L
 989  439 mt 1005  455 L
1005  439 mt  989  455 L
 995  433 mt 1011  449 L
1011  433 mt  995  449 L
1001  429 mt 1017  445 L
1017  429 mt 1001  445 L
1006  435 mt 1022  451 L
1022  435 mt 1006  451 L
1030  433 mt 1046  449 L
1046  433 mt 1030  449 L
1036  426 mt 1052  442 L
1052  426 mt 1036  442 L
1060  408 mt 1076  424 L
1076  408 mt 1060  424 L
1066  406 mt 1082  422 L
1082  406 mt 1066  422 L
1087  403 mt 1103  419 L
1103  403 mt 1087  419 L
1095  393 mt 1111  409 L
1111  393 mt 1095  409 L
1102  393 mt 1118  409 L
1118  393 mt 1102  409 L
1109  386 mt 1125  402 L
1125  386 mt 1109  402 L
1133  390 mt 1149  406 L
1149  390 mt 1133  406 L
1157  378 mt 1173  394 L
1173  378 mt 1157  394 L
1166  395 mt 1182  411 L
1182  395 mt 1166  411 L
1171  371 mt 1187  387 L
1187  371 mt 1171  387 L
1176  371 mt 1192  387 L
1192  371 mt 1176  387 L
1181  370 mt 1197  386 L
1197  370 mt 1181  386 L
1190  369 mt 1206  385 L
1206  369 mt 1190  385 L
1195  366 mt 1211  382 L
1211  366 mt 1195  382 L
1202  367 mt 1218  383 L
1218  367 mt 1202  383 L
1225  353 mt 1241  369 L
1241  353 mt 1225  369 L
1230  353 mt 1246  369 L
1246  353 mt 1230  369 L
1236  354 mt 1252  370 L
1252  354 mt 1236  370 L
1244  352 mt 1260  368 L
1260  352 mt 1244  368 L
1250  346 mt 1266  362 L
1266  346 mt 1250  362 L
1274  340 mt 1290  356 L
1290  340 mt 1274  356 L
1282  333 mt 1298  349 L
1298  333 mt 1282  349 L
1287  332 mt 1303  348 L
1303  332 mt 1287  348 L
1310  326 mt 1326  342 L
1326  326 mt 1310  342 L
1318  328 mt 1334  344 L
1334  328 mt 1318  344 L
1323  321 mt 1339  337 L
1339  321 mt 1323  337 L
1329  317 mt 1345  333 L
1345  317 mt 1329  333 L
1335  323 mt 1351  339 L
1351  323 mt 1335  339 L
1341  325 mt 1357  341 L
1357  325 mt 1341  341 L
1347  316 mt 1363  332 L
1363  316 mt 1347  332 L
1354  314 mt 1370  330 L
1370  314 mt 1354  330 L
1360  313 mt 1376  329 L
1376  313 mt 1360  329 L
1367  311 mt 1383  327 L
1383  311 mt 1367  327 L
1392  294 mt 1408  310 L
1408  294 mt 1392  310 L
1399  290 mt 1415  306 L
1415  290 mt 1399  306 L
1405  289 mt 1421  305 L
1421  289 mt 1405  305 L
1413  291 mt 1429  307 L
1429  291 mt 1413  307 L
1420  288 mt 1436  304 L
1436  288 mt 1420  304 L
1426  296 mt 1442  312 L
1442  296 mt 1426  312 L
1436  278 mt 1452  294 L
1452  278 mt 1436  294 L
1441  277 mt 1457  293 L
1457  277 mt 1441  293 L
1449  270 mt 1465  286 L
1465  270 mt 1449  286 L
1456  268 mt 1472  284 L
1472  268 mt 1456  284 L
1462  267 mt 1478  283 L
1478  267 mt 1462  283 L
1470  266 mt 1486  282 L
1486  266 mt 1470  282 L
1475  264 mt 1491  280 L
1491  264 mt 1475  280 L
1483  248 mt 1499  264 L
1499  248 mt 1483  264 L
1489  256 mt 1505  272 L
1505  256 mt 1489  272 L
1496  253 mt 1512  269 L
1512  253 mt 1496  269 L
1504  253 mt 1520  269 L
1520  253 mt 1504  269 L
1509  249 mt 1525  265 L
1525  249 mt 1509  265 L
1517  250 mt 1533  266 L
1533  250 mt 1517  266 L
1523  243 mt 1539  259 L
1539  243 mt 1523  259 L
1529  242 mt 1545  258 L
1545  242 mt 1529  258 L
1537  237 mt 1553  253 L
1553  237 mt 1537  253 L
1544  235 mt 1560  251 L
1560  235 mt 1544  251 L
1552  230 mt 1568  246 L
1568  230 mt 1552  246 L
1558  228 mt 1574  244 L
1574  228 mt 1558  244 L
1564  228 mt 1580  244 L
1580  228 mt 1564  244 L
1588  215 mt 1604  231 L
1604  215 mt 1588  231 L
1594  215 mt 1610  231 L
1610  215 mt 1594  231 L
1600  214 mt 1616  230 L
1616  214 mt 1600  230 L
1605  211 mt 1621  227 L
1621  211 mt 1605  227 L
1611  209 mt 1627  225 L
1627  209 mt 1611  225 L
1616  208 mt 1632  224 L
1632  208 mt 1616  224 L
1624  205 mt 1640  221 L
1640  205 mt 1624  221 L
1629  208 mt 1645  224 L
1645  208 mt 1629  224 L
1635  202 mt 1651  218 L
1651  202 mt 1635  218 L
1640  197 mt 1656  213 L
1656  197 mt 1640  213 L
1646  217 mt 1662  233 L
1662  217 mt 1646  233 L
1652  202 mt 1668  218 L
1668  202 mt 1652  218 L
1857  283 mt 1873  299 L
1873  283 mt 1857  299 L
1947  314 mt 1963  330 L
1963  314 mt 1947  330 L
1969  318 mt 1985  334 L
1985  318 mt 1969  334 L
1978  315 mt 1994  331 L
1994  315 mt 1978  331 L
2000  314 mt 2016  330 L
2016  314 mt 2000  330 L
2006  319 mt 2022  335 L
2022  319 mt 2006  335 L
2014  327 mt 2030  343 L
2030  327 mt 2014  343 L
2039  334 mt 2055  350 L
2055  334 mt 2039  350 L
2048  337 mt 2064  353 L
2064  337 mt 2048  353 L
2054  340 mt 2070  356 L
2070  340 mt 2054  356 L
2062  335 mt 2078  351 L
2078  335 mt 2062  351 L
2070  349 mt 2086  365 L
2086  349 mt 2070  365 L
2075  354 mt 2091  370 L
2091  354 mt 2075  370 L
2084  357 mt 2100  373 L
2100  357 mt 2084  373 L
2094  364 mt 2110  380 L
2110  364 mt 2094  380 L
2099  358 mt 2115  374 L
2115  358 mt 2099  374 L
2107  361 mt 2123  377 L
2123  361 mt 2107  377 L
2112  360 mt 2128  376 L
2128  360 mt 2112  376 L
2120  358 mt 2136  374 L
2136  358 mt 2120  374 L
2129  366 mt 2145  382 L
2145  366 mt 2129  382 L
2135  372 mt 2151  388 L
2151  372 mt 2135  388 L
2142  379 mt 2158  395 L
2158  379 mt 2142  395 L
2147  370 mt 2163  386 L
2163  370 mt 2147  386 L
2154  375 mt 2170  391 L
2170  375 mt 2154  391 L
2159  376 mt 2175  392 L
2175  376 mt 2159  392 L
2181  388 mt 2197  404 L
2197  388 mt 2181  404 L
2190  391 mt 2206  407 L
2206  391 mt 2190  407 L
2199  395 mt 2215  411 L
2215  395 mt 2199  411 L
2205  400 mt 2221  416 L
2221  400 mt 2205  416 L
2212  400 mt 2228  416 L
2228  400 mt 2212  416 L
2217  402 mt 2233  418 L
2233  402 mt 2217  418 L
2225  406 mt 2241  422 L
2241  406 mt 2225  422 L
2231  407 mt 2247  423 L
2247  407 mt 2231  423 L
2239  403 mt 2255  419 L
2255  403 mt 2239  419 L
2247  408 mt 2263  424 L
2263  408 mt 2247  424 L
2256  412 mt 2272  428 L
2272  412 mt 2256  428 L
2262  416 mt 2278  432 L
2278  416 mt 2262  432 L
2270  416 mt 2286  432 L
2286  416 mt 2270  432 L
2276  412 mt 2292  428 L
2292  412 mt 2276  428 L
2283  416 mt 2299  432 L
2299  416 mt 2283  432 L
2288  419 mt 2304  435 L
2304  419 mt 2288  435 L
2293  414 mt 2309  430 L
2309  414 mt 2293  430 L
2299  417 mt 2315  433 L
2315  417 mt 2299  433 L
2320  421 mt 2336  437 L
2336  421 mt 2320  437 L
2329  429 mt 2345  445 L
2345  429 mt 2329  445 L
2334  421 mt 2350  437 L
2350  421 mt 2334  437 L
2340  435 mt 2356  451 L
2356  435 mt 2340  451 L
2346  447 mt 2362  463 L
2362  447 mt 2346  463 L
2354  443 mt 2370  459 L
2370  443 mt 2354  459 L
2362  453 mt 2378  469 L
2378  453 mt 2362  469 L
2368  461 mt 2384  477 L
2384  461 mt 2368  477 L
2375  457 mt 2391  473 L
2391  457 mt 2375  473 L
2381  458 mt 2397  474 L
2397  458 mt 2381  474 L
2387  410 mt 2403  426 L
2403  410 mt 2387  426 L
2393  466 mt 2409  482 L
2409  466 mt 2393  482 L
2399  504 mt 2415  520 L
2415  504 mt 2399  520 L
2406  477 mt 2422  493 L
2422  477 mt 2406  493 L
2414  484 mt 2430  500 L
2430  484 mt 2414  500 L
2422  480 mt 2438  496 L
2438  480 mt 2422  496 L
2428  483 mt 2444  499 L
2444  483 mt 2428  499 L
2449  484 mt 2465  500 L
2465  484 mt 2449  500 L
2458  489 mt 2474  505 L
2474  489 mt 2458  505 L
2466  498 mt 2482  514 L
2482  498 mt 2466  514 L
2474  495 mt 2490  511 L
2490  495 mt 2474  511 L
2481  497 mt 2497  513 L
2497  497 mt 2481  513 L
2487  503 mt 2503  519 L
2503  503 mt 2487  519 L
2493  504 mt 2509  520 L
2509  504 mt 2493  520 L
2501  505 mt 2517  521 L
2517  505 mt 2501  521 L
2508  503 mt 2524  519 L
2524  503 mt 2508  519 L
2531  532 mt 2547  548 L
2547  532 mt 2531  548 L
2539  527 mt 2555  543 L
2555  527 mt 2539  543 L
2545  528 mt 2561  544 L
2561  528 mt 2545  544 L
2585  543 mt 2601  559 L
2601  543 mt 2585  559 L
2591  539 mt 2607  555 L
2607  539 mt 2591  555 L
2599  549 mt 2615  565 L
2615  549 mt 2599  565 L
2604  548 mt 2620  564 L
2620  548 mt 2604  564 L
2612  543 mt 2628  559 L
2628  543 mt 2612  559 L
2619  547 mt 2635  563 L
2635  547 mt 2619  563 L
2626  554 mt 2642  570 L
2642  554 mt 2626  570 L
2633  557 mt 2649  573 L
2649  557 mt 2633  573 L
2639  559 mt 2655  575 L
2655  559 mt 2639  575 L
2647  563 mt 2663  579 L
2663  563 mt 2647  579 L
2654  567 mt 2670  583 L
2670  567 mt 2654  583 L
2661  582 mt 2677  598 L
2677  582 mt 2661  598 L
2670  586 mt 2686  602 L
2686  586 mt 2670  602 L
2676  579 mt 2692  595 L
2692  579 mt 2676  595 L
2681  579 mt 2697  595 L
2697  579 mt 2681  595 L
2687  588 mt 2703  604 L
2703  588 mt 2687  604 L
2693  588 mt 2709  604 L
2709  588 mt 2693  604 L
2699  585 mt 2715  601 L
2715  585 mt 2699  601 L
2705  590 mt 2721  606 L
2721  590 mt 2705  606 L
2711  594 mt 2727  610 L
2727  594 mt 2711  610 L
2718  597 mt 2734  613 L
2734  597 mt 2718  613 L
2726  596 mt 2742  612 L
2742  596 mt 2726  612 L
2732  610 mt 2748  626 L
2748  610 mt 2732  626 L
2740  606 mt 2756  622 L
2756  606 mt 2740  622 L
2750  606 mt 2766  622 L
2766  606 mt 2750  622 L
2755  607 mt 2771  623 L
2771  607 mt 2755  623 L
2762  591 mt 2778  607 L
2778  591 mt 2762  607 L
2768  605 mt 2784  621 L
2784  605 mt 2768  621 L
2789  614 mt 2805  630 L
2805  614 mt 2789  630 L
2797  610 mt 2813  626 L
2813  610 mt 2797  626 L
2803  611 mt 2819  627 L
2819  611 mt 2803  627 L
2824  624 mt 2840  640 L
2840  624 mt 2824  640 L
2832  622 mt 2848  638 L
2848  622 mt 2832  638 L
2838  618 mt 2854  634 L
2854  618 mt 2838  634 L
2845  618 mt 2861  634 L
2861  618 mt 2845  634 L
2850  623 mt 2866  639 L
2866  623 mt 2850  639 L
2871  629 mt 2887  645 L
2887  629 mt 2871  645 L
gr

gs 416 176 2480 554 rc
8.33333 w
/c9 { 0.000000 0.000000 1.000000 sr} bdef
c9
1 0 1 0 1 0 1 0 1 0 1 1 1 0 1 0 
1 0 1 0 1 0 1 0 1 1 1 0 1 0 1 0 
1 0 1 1 1 0 1 0 1 0 1 0 1 0 1 1 
1 0 1 0 1 0 1 0 1 0 1 1 1 0 1 0 
1 0 1 0 1 0 1 1 1 0 1 0 1 0 1 0 
1 1 1 0 1 0 1 -1 1 0 1 0 1 0 1 1 
1 0 1 0 0 -2 1 0 1 0 1 1 1 0 1 0 
1 0 1 1 1 0 1 0 1 0 1 0 1 1 1 0 
1 0 0 4 1 0 1 0 1 0 1 0 1 0 1 0 
1 1 1 0 1 0 1 0 1 0 1 0 1 1 1 0 
1 0 1 0 1 0 1 0 1 1 1 0 1 0 1 -1 
1 0 1 0 1 0 1 0 1 1 1 -2 1 0 1 0 
1 0 1 1 1 0 1 0 1 0 1 1 1 0 1 1 
1 0 1 0 1 0 1 0 1 1 1 0 1 0 1 0 
1 1 1 0 1 0 1 0 1 1 1 0 1 0 1 0 
1 1 1 0 1 1 1 0 1 0 1 1 1 0 1 0 
0 -7 1 0 1 0 1 1 1 0 1 1 1 0 1 0 
0 -2 1 0 1 1 1 0 1 1 1 0 1 -1 1 0 
1 1 1 0 1 1 1 0 1 1 1 0 1 1 1 0 
1 1 1 0 1 1 1 0 1 1 1 0 1 0 1 1 
0 2 1 1 1 0 1 0 1 1 1 0 1 -1 1 1 
1 0 1 0 1 1 1 0 1 1 1 0 1 0 1 1 
1 0 1 1 1 0 1 1 1 0 1 1 1 0 1 1 
1 0 1 1 1 0 1 0 1 1 1 0 1 1 1 0 
1 0 1 1 1 -1 1 0 1 1 1 0 1 1 1 0 
-1 0 2 2 1 0 1 1 1 0 1 1 1 0 1 2 
1 0 1 1 1 0 1 0 1 1 0 -1 1 1 1 0 
1 0 1 1 1 0 1 1 1 0 1 1 1 0 1 1 
1 0 1 3 1 1 1 0 1 0 1 1 1 0 1 0 
1 1 1 0 1 4 1 0 1 1 1 0 1 0 1 1 
1 0 1 1 1 0 1 1 1 0 1 0 1 1 1 0 
1 1 1 0 1 0 1 1 1 0 1 0 1 1 1 0 
1 1 1 0 1 0 1 1 1 0 1 0 1 1 1 1 
1 0 1 0 1 0 1 1 1 0 1 1 1 0 1 0 
1 1 1 0 1 0 1 1 0 -2 1 0 1 1 1 0 
1 0 1 1 1 0 1 0 1 -2 1 1 1 0 1 0 
1 1 1 0 1 0 1 1 1 -1 1 1 1 0 1 1 
1 0 1 1 1 0 2605 555 300 MP stroke
1 1 1 0 1 0 1 1 1 0 1 0 -1 0 2 -3 
1 1 1 0 1 1 1 0 1 0 0 -4 1 0 1 1 
1 0 1 1 1 0 1 1 1 0 1 1 1 0 1 1 
1 0 1 1 1 0 1 1 1 1 1 0 1 1 1 0 
1 1 1 0 1 1 1 0 1 1 1 0 1 1 1 0 
1 1 1 0 1 1 1 0 1 1 1 0 1 1 1 0 
1 1 1 0 1 1 1 0 1 1 1 0 1 1 1 1 
1 0 1 1 1 0 1 1 1 1 1 1 1 0 1 1 
1 0 1 1 1 0 1 0 0 9 1 0 1 0 1 1 
1 0 1 0 1 1 1 0 1 0 1 0 1 1 1 0 
1 0 1 0 1 1 1 0 1 0 2 1 1 0 1 0 
1 1 1 0 1 0 1 -1 1 0 1 1 1 0 1 0 
1 1 1 0 1 0 1 1 1 0 1 0 1 1 1 0 
1 0 1 1 1 0 1 0 1 1 1 0 1 0 1 1 
1 1 1 0 1 0 1 1 1 0 1 0 1 0 1 1 
1 0 1 0 1 0 1 1 1 0 1 -1 1 0 1 1 
1 0 1 0 1 1 1 0 1 0 1 1 1 1 1 0 
1 0 1 1 1 0 1 0 1 1 0 -3 1 1 1 0 
1 1 1 0 1 0 1 1 1 0 1 0 1 1 0 -6 
1 0 1 0 1 1 1 0 1 1 1 0 1 1 1 1 
1 0 1 1 1 0 1 1 1 0 1 1 1 0 1 1 
1 1 1 0 1 1 1 0 1 1 1 -2 1 1 1 0 
1 1 1 1 1 0 0 -2 1 0 1 1 1 1 1 0 
1 1 1 1 1 1 1 0 -1 0 2 2 1 0 1 1 
1 1 1 1 1 0 1 1 1 1 1 1 1 1 1 0 
1 1 1 1 1 0 1 1 0 14 1 0 1 1 1 0 
1 0 1 1 1 0 1 6 1 0 1 0 1 0 1 1 
1 0 0 -13 1 0 1 0 1 1 1 1 1 0 1 1 
1 0 1 1 1 1 1 0 1 1 1 0 0 2 1 1 
1 0 1 1 1 0 1 0 1 1 1 0 -1 0 2 5 
1 0 1 0 1 1 1 0 1 1 0 3 1 0 1 0 
1 1 1 0 1 0 1 1 1 0 1 0 1 3 1 0 
1 0 1 0 1 1 1 0 1 0 1 4 1 0 1 1 
1 0 1 0 1 0 1 2 1 0 1 0 1 0 1 1 
1 0 1 0 1 -1 1 0 1 0 1 0 1 0 0 3 
1 0 1 0 1 0 1 0 1 0 1 1 1 0 1 0 
1 0 0 -4 1 1 1 0 1 0 1 0 1 1 1 0 
1 0 1 0 1 0 2319 432 300 MP stroke
1 1 1 0 1 0 1 0 1 1 1 0 1 0 1 0 
1 0 1 1 1 0 1 0 1 0 1 0 1 0 1 1 
1 0 1 -2 1 1 1 0 1 0 1 0 1 1 1 0 
1 0 1 0 1 0 1 1 1 -1 1 0 1 1 1 0 
1 0 1 0 1 1 1 -2 1 0 1 1 1 0 1 0 
1 1 1 -1 1 1 1 0 1 0 1 1 1 0 1 0 
1 1 1 1 1 0 1 1 1 0 1 0 1 1 1 0 
1 1 1 0 1 0 1 1 1 0 1 0 1 0 1 1 
1 1 1 0 1 0 1 0 1 0 1 1 1 0 1 0 
0 -2 1 0 1 0 1 1 1 0 1 0 1 1 1 0 
1 0 1 0 1 1 1 0 1 1 1 0 1 0 1 0 
1 1 1 0 1 1 1 0 1 0 1 1 1 0 1 0 
1 0 1 1 1 0 1 1 -1 0 2 0 1 0 1 1 
1 0 1 0 1 1 1 0 1 1 1 0 1 1 1 0 
1 0 1 1 1 1 1 0 1 0 1 1 1 0 1 1 
1 0 1 1 1 0 1 1 1 0 1 1 1 0 1 1 
1 0 1 0 1 1 1 0 0 2 1 1 1 0 1 0 
1 1 1 0 1 0 1 1 1 0 1 1 1 0 1 0 
1 0 1 1 1 0 1 1 1 0 1 0 1 1 1 0 
1 0 1 1 1 0 1 0 1 1 1 0 1 0 1 1 
1 0 1 0 1 0 1 1 1 0 1 0 1 1 1 -1 
1 0 1 1 1 0 1 0 0 3 1 0 1 1 1 0 
1 0 1 1 1 0 1 0 0 2 1 0 1 0 1 0 
1 1 1 0 1 0 1 1 1 0 1 1 1 0 1 0 
1 0 1 1 1 0 1 0 1 -3 1 1 1 0 1 1 
1 0 1 0 1 1 1 0 0 -2 1 1 1 0 1 0 
1 1 1 0 1 0 1 0 1 1 1 0 1 0 1 1 
1 0 1 1 1 -1 1 0 1 1 1 1 1 0 1 3 
1 0 1 1 1 0 1 1 1 0 1 0 1 1 1 0 
1 1 1 1 1 1 1 0 1 1 1 0 1 0 1 1 
1 0 1 3 1 0 1 1 1 0 1 0 1 1 0 3 
1 0 1 0 1 1 1 0 1 0 1 0 1 1 1 0 
1 -2 1 0 1 0 1 1 1 0 1 0 1 0 1 1 
1 1 1 0 1 0 1 0 1 1 1 0 1 1 1 1 
1 0 1 0 1 1 1 0 1 0 1 0 -1 0 2 4 
1 0 1 0 1 0 1 0 1 1 1 0 1 0 1 0 
1 0 1 1 1 0 1 0 1 0 1 0 1 1 1 0 
1 0 1 0 1 0 2028 334 300 MP stroke
1 1 1 0 1 0 1 0 1 1 1 0 1 2 1 0 
1 0 1 1 1 0 1 0 1 0 1 0 1 0 1 0 
1 0 1 0 1 1 1 -3 1 0 1 0 1 1 1 0 
1 0 1 0 1 0 1 0 1 1 1 0 1 0 1 0 
1 0 1 1 1 0 1 0 1 0 1 0 1 0 1 1 
1 0 1 0 0 2 5 0 1 0 1 0 1 1 1 0 
1 2 1 1 1 0 1 0 1 0 1 0 2 0 1 0 
1 0 1 0 1 0 1 0 1 1 1 0 1 0 1 0 
1 0 1 0 1 0 1 0 1 0 0 10 1 0 1 0 
1 0 1 0 1 0 1 0 1 0 1 0 1 0 1 0 
1 0 1 0 1 0 1 0 1 0 1 0 1 0 1 0 
1 0 1 0 1 0 1 0 1 0 1 0 1 0 1 0 
1 0 1 0 1 0 1 0 1 0 1 0 1 0 1 0 
1 0 1 0 1 0 1 0 1 0 1 0 1 0 1 0 
1 0 1 0 1 0 1 0 1 1 1 0 1 1 1 0 
1 1 1 0 1 1 1 0 1 1 1 0 1 1 1 0 
1 1 1 0 1 1 1 1 1 0 1 0 1 1 1 0 
1 1 1 1 1 0 1 0 1 1 1 1 1 0 1 0 
1 1 1 1 1 0 1 1 1 0 1 0 1 1 1 1 
1 0 1 0 1 1 1 1 1 0 1 1 1 0 1 1 
1 85 1 0 1 0 1 0 1 0 1 0 1 0 1 0 
1 0 1 0 1 0 1 0 1 0 1 0 1 0 1 0 
1 0 1 0 1 0 1 0 1 0 1 0 1 0 1 0 
1 0 1 0 1 0 1 0 1 0 1 0 1 0 1 0 
1 0 1 0 1 0 1 0 1 0 1 0 1 0 1 0 
1 0 1 0 1 0 1 0 1 0 1 0 1 0 1 0 
1 0 1 0 3 0 1 0 1 0 1 0 1 0 1 0 
1 0 1 0 1 0 1 0 1 0 1 0 1 0 1 0 
1 0 1 0 1 0 1 0 1 0 1 0 1 0 1 0 
1 0 1 0 1 0 1 0 1 0 1 0 1 0 1 0 
1 0 1 0 1 0 1 0 1 0 1 0 1 0 1 0 
1 0 1 0 1 0 1 0 1 0 1 0 1 0 1 0 
1 0 1 0 1 0 1 0 1 0 1 0 1 0 1 0 
1 0 1 0 1 0 1 0 1 0 1 0 1 0 1 0 
1 0 1 0 1 0 1 0 1 0 1 0 1 0 1 0 
1 0 1 0 1 0 1 0 1 0 1 0 1 0 1 0 
1 0 1 0 1 0 1 0 1 0 1 0 1 0 1 0 
1 0 1 0 1 0 1724 202 300 MP stroke
1 0 1 0 1 0 1 0 1 0 1 0 1 0 1 0 
1 0 1 0 1 0 1 0 1 0 1 0 1 0 1 0 
1 0 1 0 1 0 1 0 1 0 1 0 1 0 1 -1 
1 0 1 0 1 0 1 0 1 -1 1 0 1 0 1 0 
1 0 1 -1 1 0 1 0 1 0 1 0 1 0 1 -1 
1 0 1 0 1 0 1 0 1 -1 1 0 1 0 1 0 
1 0 1 0 1 -1 1 0 1 0 1 0 1 0 1 -1 
1 0 1 0 1 0 1 0 1 -1 1 0 1 0 1 0 
1 0 1 0 1 -1 1 0 1 0 1 0 0 5 1 0 
1 -1 1 0 1 0 1 -1 1 -1 1 0 1 -1 1 0 
1 0 1 0 -1 0 2 0 1 -1 1 0 1 0 1 -1 
1 0 1 1 1 0 1 -1 1 0 1 0 1 -1 1 0 
1 0 1 -1 1 0 1 -1 1 0 1 0 1 -1 1 0 
1 0 1 -1 1 0 1 0 1 -1 1 0 1 0 1 -1 
1 0 1 0 1 -1 1 0 1 0 1 -1 1 1 1 -1 
1 0 1 -1 1 0 1 0 -1 0 2 0 1 -1 1 0 
1 0 1 -1 1 0 -1 0 2 -2 1 0 1 0 1 -1 
1 0 1 -1 1 0 1 0 1 -1 1 0 1 -1 1 0 
1 0 1 -1 1 0 1 -1 1 0 1 0 1 -1 1 0 
1 -1 1 0 1 0 1 -1 1 0 1 0 1 0 1 -1 
1 0 1 -1 1 0 1 -1 1 0 1 0 1 -1 1 0 
1 -1 1 0 1 -1 1 0 1 0 1 -1 1 0 1 -1 
1 0 1 0 1 -1 1 0 1 -1 1 0 1 0 1 -1 
1 -1 1 0 1 0 1 -1 1 0 1 0 -1 0 2 0 
1 -1 1 0 1 -1 1 0 1 0 1 -1 1 0 1 0 
1 -1 1 0 1 -1 1 0 0 2 1 -1 1 0 1 -1 
1 0 1 0 1 -1 1 0 1 -1 1 1 1 -1 1 0 
1 -1 1 0 1 1 1 0 1 -1 1 0 1 -1 1 0 
1 -1 1 1 1 -1 1 0 1 -1 1 0 1 -1 1 0 
1 -1 1 1 1 -1 1 0 1 -1 1 0 1 -1 0 -3 
1 0 1 -1 1 0 1 -1 1 0 1 -1 1 0 1 -1 
1 1 1 -1 1 0 1 -1 1 0 1 0 1 0 1 -1 
1 0 1 -1 1 -1 1 0 1 -1 1 -1 1 0 1 -1 
1 0 1 -1 1 0 0 -2 1 -1 1 0 1 -1 1 0 
1 0 1 -1 0 0 2 -4 1 0 1 0 1 -1 1 0 
1 0 1 0 1 -1 0 -2 1 0 1 0 1 0 1 -1 
1 0 0 -3 1 0 4 -1 1 -1 1 0 1 0 1 0 
1 0 0 3 1 0 1433 294 300 MP stroke
1 -1 1 0 1 0 1 -1 1 1 1 -1 1 0 1 -1 
1 0 1 0 1 -1 1 0 1 1 1 -1 1 0 1 -1 
1 0 1 -1 1 0 1 0 -1 0 2 -2 1 0 1 -1 
1 0 1 0 1 -1 0 -3 1 0 1 0 1 -1 1 0 
1 0 1 -1 1 0 1 -4 1 0 1 -1 1 0 1 0 
1 0 1 -1 1 0 1 0 1 0 1 -1 1 0 1 0 
1 -1 1 0 1 0 1 0 1 -1 1 0 1 0 1 0 
1 -1 1 0 1 0 1 -1 1 0 1 0 1 -1 1 0 
1 0 1 0 1 -1 1 0 1 0 1 0 1 0 1 -1 
1 0 1 -1 1 0 1 0 1 0 1 -1 1 0 1 0 
1 -1 1 0 1 -1 1 0 1 0 1 2 1 0 1 -1 
1 0 1 0 1 -1 1 2 1 0 1 -1 1 0 1 0 
1 -1 1 -1 1 0 1 0 1 -1 1 0 1 -1 1 0 
1 0 1 0 1 -1 1 0 1 0 -1 0 2 2 1 -1 
1 0 1 0 1 -1 1 0 1 -1 1 0 1 0 1 -1 
1 0 1 0 1 -1 1 0 1 -1 1 0 1 0 1 -1 
1 0 1 -1 1 0 1 0 1 -1 1 0 1 0 1 -1 
1 0 1 -1 1 0 1 0 1 -1 1 0 1 -1 1 0 
1 -1 1 0 0 -2 1 0 1 -1 1 0 1 0 1 -1 
1 0 1 0 1 0 1 1 1 -1 1 0 1 -1 1 0 
1 0 1 -1 1 0 1 0 1 -1 1 0 1 0 1 -1 
1 0 1 0 1 -1 1 0 1 -1 1 0 1 0 1 -1 
1 0 1 0 1 -1 1 0 1 -1 1 0 1 0 1 -1 
1 0 1 0 1 0 1 0 1 -1 1 0 1 0 1 -1 
1 0 1 1 1 -1 1 0 1 -1 1 0 1 0 1 -1 
1 0 1 -1 1 0 1 -1 1 -3 1 0 1 0 1 -1 
1 0 1 0 1 -1 1 0 1 -1 1 0 1 0 1 0 
1 -1 1 0 1 -1 1 0 1 0 1 -1 1 0 1 0 
1 0 1 -1 1 0 1 0 1 0 1 -1 1 0 1 0 
1 -1 1 0 1 -1 1 0 1 -1 1 0 1 0 1 -1 
1 0 1 -1 1 0 1 0 1 -1 1 0 1 0 1 0 
-1 0 2 -2 1 0 1 -1 1 0 1 0 0 -2 1 0 
1 0 1 -1 1 0 1 0 0 -5 1 0 1 0 1 0 
1 0 1 0 0 9 1 0 1 0 1 0 1 -1 1 0 
1 0 1 -1 1 0 1 0 1 -1 1 0 1 -1 1 0 
1 0 1 -1 1 0 1 0 1 -1 1 0 1 0 1 -1 
1 0 1 0 1 -1 1 0 1 0 1 -1 1 0 1 0 
1 -1 1 0 1 0 1142 392 300 MP stroke
1 -1 1 5 1 -1 1 0 1 -1 1 0 1 -1 1 0 
1 0 1 -1 1 0 1 -1 1 0 1 0 1 -1 1 0 
1 -1 1 0 1 -1 1 0 1 0 1 -1 1 0 1 -1 
1 -1 1 0 1 -1 1 0 1 0 1 -1 1 0 1 -1 
1 0 1 -1 1 0 1 -1 1 0 1 0 1 -1 0 -2 
1 -1 1 0 1 0 1 -1 1 0 1 0 1 -1 1 0 
1 0 1 0 1 0 1 -1 1 0 1 -1 1 0 1 0 
1 -1 1 0 1 -1 1 0 1 -1 1 0 1 0 1 -1 
1 0 1 -1 1 0 1 0 1 -1 1 -2 1 0 1 -1 
1 0 1 0 1 -1 0 -5 1 0 1 0 1 -1 1 0 
1 0 1 0 1 -1 1 0 1 0 1 -1 1 0 1 0 
1 -1 1 0 1 0 1 0 1 -1 1 0 1 0 1 0 
1 -1 1 0 1 0 1 -1 1 0 1 0 1 -1 1 0 
1 0 1 0 -1 0 2 2 1 0 1 0 1 -1 1 0 
1 0 1 -1 1 0 1 0 1 -1 1 0 1 0 1 -1 
1 0 1 0 1 -1 1 0 1 0 1 -1 1 0 1 0 
1 0 1 -1 1 1 1 0 1 -1 1 0 1 0 1 -1 
1 -1 1 -1 1 0 1 0 1 -1 1 0 1 -1 1 -1 
1 0 1 0 1 -1 1 0 -1 0 2 0 1 0 1 0 
1 -1 1 0 1 -1 1 0 1 0 1 -1 1 0 1 0 
1 -1 1 0 1 0 1 -1 1 0 1 -1 1 0 1 0 
1 -1 1 0 1 0 1 -1 1 -1 1 0 1 0 1 -1 
1 0 1 0 1 -1 1 0 1 0 1 -1 1 0 1 1 
1 -1 1 0 1 -1 1 0 1 0 1 -1 1 0 1 0 
1 -1 1 0 1 0 1 -1 1 0 1 -1 1 0 1 0 
1 -1 1 0 1 0 1 -1 1 0 1 0 1 -1 1 0 
1 0 1 -1 1 0 1 0 -1 0 2 0 1 -1 1 0 
1 0 1 -1 1 0 1 -2 2 0 1 -1 1 0 1 0 
2 -3 1 0 1 0 1 -1 1 0 1 0 0 -4 1 0 
1 -1 1 0 1 0 1 0 1 0 0 7 1 0 1 -1 
1 0 1 0 1 -1 1 -1 1 -1 1 0 1 0 1 -1 
1 0 1 0 1 -1 1 0 1 0 1 -1 1 0 1 0 
1 -1 1 0 1 -1 1 0 1 0 1 -1 1 0 1 0 
1 -1 1 0 1 0 1 -1 1 0 1 0 0 3 1 0 
1 -1 1 0 1 -1 1 0 1 -1 1 0 1 0 1 -1 
1 0 1 0 1 -1 1 0 1 -1 1 0 1 0 1 -1 
1 0 1 -1 1 0 1 0 1 -1 1 0 1 -1 1 0 
1 -1 1 0 1 0 849 495 300 MP stroke
1 -1 1 0 1 -1 1 -2 1 -1 1 0 1 0 1 -1 
1 0 1 1 1 -1 1 0 1 -1 1 0 1 -1 0 -2 
1 0 1 0 1 -1 1 0 1 -1 1 0 1 -1 0 -3 
1 0 1 -1 1 0 1 0 1 -1 1 0 1 -1 1 -1 
1 0 1 0 1 -1 1 0 1 0 1 -1 0 -2 1 0 
1 0 1 0 1 -1 1 0 1 0 1 -1 1 1 1 0 
1 0 1 -1 1 0 1 -1 1 0 1 -1 1 0 1 0 
1 -1 1 0 1 -1 1 0 1 -1 1 0 1 0 1 -1 
0 -1 1 -1 1 0 1 0 1 0 1 -1 1 0 1 0 
1 -1 1 0 1 0 1 0 1 -1 1 0 1 -1 1 0 
1 0 1 0 1 -1 1 0 0 4 1 0 1 -1 1 0 
1 0 1 -1 1 1 1 0 1 -1 1 0 1 -1 1 0 
1 0 1 -1 1 0 1 0 1 -1 1 0 1 -1 1 0 
1 -1 1 0 1 -1 1 0 1 0 1 -1 1 0 1 -1 
1 -2 1 0 1 -1 1 0 1 0 1 -1 1 0 1 3 
1 -1 1 0 1 -1 1 0 1 -1 1 0 1 -1 1 0 
1 0 1 -1 1 0 1 -1 1 -1 1 0 1 0 1 -1 
1 0 1 0 1 0 1 -1 1 0 1 -1 1 0 1 0 
1 -1 1 0 1 -1 1 0 1 0 0 3 1 -1 1 0 
1 -1 1 0 1 -1 1 0 1 0 1 -1 1 0 1 0 
1 -1 1 0 1 0 1 -1 1 -1 1 0 1 0 1 -1 
1 0 1 -1 1 0 1 -1 1 0 1 -1 1 -1 1 0 
1 0 1 -1 1 -1 1 -1 1 0 1 -1 1 0 1 -1 
1 0 0 -2 1 0 1 -1 1 0 1 -1 1 0 1 -1 
1 -3 1 -1 1 0 1 -1 1 0 1 0 0 -3 1 -1 
1 0 1 0 1 0 1 -1 1 0 1 0 0 -5 1 0 
1 0 1 -1 1 0 1 0 1 0 1 0 1 -1 1 0 
1 0 1 0 1 0 1 -1 1 0 1 0 1 0 1 0 
1 -1 1 0 1 0 1 0 1 0 0 -4 1 0 1 -1 
1 0 1 0 1 0 1 0 1 0 1 -1 1 0 1 0 
1 0 1 0 1 0 1 0 1 -1 1 0 1 0 1 0 
1 0 1 0 1 0 1 -1 1 6 1 0 1 -1 1 0 
1 0 0 6 1 0 1 0 1 -1 1 0 1 -1 1 0 
1 0 1 -1 1 0 1 0 1 -1 0 -2 1 0 1 0 
1 -1 1 0 1 0 1 -1 1 0 1 0 1 -1 1 0 
1 0 1 -1 1 0 1 0 1 -1 1 0 1 0 1 -1 
1 0 1 -1 1 -1 1 0 1 0 1 -1 1 0 1 0 
1 -1 1 -1 1 0 562 605 300 MP stroke
1 0 1 -1 1 0 1 0 1 0 1 0 1 -1 1 0 
1 0 0 -2 1 0 1 -1 1 0 1 0 1 0 0 -2 
1 0 1 0 1 0 1 0 1 0 -1 0 2 -2 1 0 
1 0 1 0 1 0 1 0 1 -1 1 0 0 2 1 0 
1 0 1 0 1 -1 1 0 0 3 1 0 1 0 1 0 
1 -1 1 0 1 0 1 -1 1 0 1 0 1 0 1 0 
1 -1 1 1 1 0 1 0 1 -1 1 0 1 0 0 2 
1 0 1 -1 1 0 1 0 1 0 1 -1 1 0 1 0 
1 -1 1 0 1 0 1 -1 1 0 0 4 1 -1 1 0 
1 -1 1 0 1 0 1 -2 1 0 1 -1 1 0 1 0 
1 -1 1 0 1 -1 1 0 1 0 0 -3 1 0 1 -1 
1 0 1 0 1 -1 1 0 1 1 1 -1 1 0 1 -1 
1 0 1 2 1 0 1 -1 1 0 1 0 1 -1 1 0 
1 -1 0 -10 1 0 1 0 1 -1 1 0 1 -1 1 -2 
1 -1 1 0 1 0 1 -1 1 0 1 -1 1 0 1 -2 
1 -1 1 0 1 0 1 -1 1 0 1 0 1 -1 1 0 
1 0 1 -1 1 0 1 0 1 -1 0 -3 1 0 1 0 
1 -1 1 0 1 0 1 -1 1 0 1 0 1 -1 0 -5 
1 0 1 0 1 0 1 0 1 -1 1 0 0 -8 1 0 
1 0 1 0 1 0 1 0 1 0 1 0 416 670 159 MP stroke
6.25 w
/c10 { 0.000000 1.000000 0.000000 sr} bdef
c10
1 0 1 1 1 0 1 0 1 0 1 0 1 0 1 0 
1 0 1 1 1 0 1 0 1 0 1 0 1 0 1 1 
1 0 1 0 1 1 1 0 1 0 1 0 1 0 1 1 
1 0 1 0 1 0 1 0 1 1 1 0 1 0 1 0 
1 0 1 0 1 0 1 0 1 0 1 0 1 0 1 -1 
1 0 1 0 1 0 1 0 1 0 1 0 1 0 1 1 
1 0 1 0 1 0 1 1 1 0 1 1 1 0 1 1 
1 0 1 1 1 0 1 1 1 0 1 0 1 1 1 0 
1 0 1 0 1 1 1 0 1 0 1 0 1 0 1 0 
1 0 1 0 1 0 1 0 1 0 1 0 1 0 1 0 
1 0 1 0 1 0 1 0 -1 0 2 0 1 0 1 0 
1 0 1 0 1 0 1 0 1 1 1 0 1 0 1 1 
1 0 1 0 1 1 1 0 1 0 1 1 1 0 1 0 
1 0 1 0 1 1 1 0 1 0 1 0 1 0 1 0 
1 0 1 0 1 0 1 0 1 0 1 -1 1 0 1 0 
1 -1 1 -1 1 0 1 0 1 -1 1 0 1 0 1 0 
1 0 1 0 1 0 1 0 1 0 1 0 1 1 1 0 
1 1 1 0 1 0 1 1 1 1 1 0 1 1 1 0 
1 1 1 0 1 1 1 1 1 0 1 1 1 0 1 1 
1 0 1 1 1 1 1 0 1 0 1 1 1 0 1 0 
1 1 1 0 1 1 1 0 1 0 1 1 1 0 1 1 
1 0 1 1 1 0 1 0 1 1 1 0 1 0 1 1 
1 0 1 1 1 0 1 0 1 0 1 1 1 0 1 0 
1 1 1 0 1 1 1 0 1 1 1 0 1 1 1 0 
1 1 1 0 1 1 1 1 1 0 1 1 1 0 1 1 
1 0 1 1 1 0 1 1 1 0 1 1 1 0 1 1 
1 1 1 0 1 1 1 1 1 0 -1 0 2 2 1 0 
1 1 1 1 1 1 1 1 1 0 1 1 1 0 1 1 
1 1 1 1 1 0 1 1 1 0 1 1 1 0 1 0 
1 1 1 0 1 1 1 0 1 0 1 1 1 0 1 0 
1 1 1 0 1 1 1 0 1 0 1 1 1 0 1 1 
1 0 1 0 1 1 1 0 1 0 1 1 1 0 1 1 
1 0 1 0 1 0 1 0 1 1 1 0 1 0 1 0 
1 0 1 0 1 0 1 1 1 0 1 0 1 0 1 0 
1 0 1 0 1 0 1 0 1 0 1 0 1 1 1 0 
1 0 1 1 1 0 1 0 1 0 1 1 1 0 1 0 
1 0 1 0 1 0 1 0 1 0 1 0 1 0 1 0 
1 0 1 0 1 0 2599 558 300 MP stroke
1 0 1 0 1 0 1 0 1 1 1 0 1 1 1 0 
1 1 1 0 1 1 1 1 1 0 1 0 1 1 1 1 
1 0 1 0 1 1 1 0 1 1 1 1 0 -1 1 1 
1 0 0 1 0 -1 1 1 1 0 1 1 1 0 1 1 
1 1 1 0 1 1 1 0 1 1 1 1 1 0 1 0 
1 0 1 1 1 1 1 1 1 1 1 1 1 1 1 0 
1 1 1 1 1 1 1 1 1 1 1 1 0 1 2 2 
1 1 1 1 1 1 1 0 1 1 1 0 1 1 1 0 
1 0 1 1 1 0 1 0 1 0 1 1 1 0 1 0 
1 0 1 0 1 0 1 0 1 1 1 0 1 0 2 0 
1 0 1 0 1 0 1 0 1 1 1 0 1 0 1 0 
1 1 1 0 1 0 1 1 1 0 1 0 1 1 1 0 
1 0 1 1 1 0 1 0 1 1 1 0 1 0 1 1 
1 0 1 0 1 0 1 1 1 0 1 0 1 0 1 0 
1 1 1 0 1 0 1 0 1 1 1 0 1 0 1 1 
1 0 1 0 1 0 1 1 1 0 1 0 1 0 1 0 
1 0 1 0 1 0 1 0 0 -1 0 1 1 -1 1 0 
1 0 1 0 1 0 1 0 1 0 1 1 1 0 1 0 
1 0 1 1 1 0 1 1 1 1 1 0 1 1 1 0 
0 1 0 -1 1 1 1 0 1 1 1 0 1 1 1 0 
1 1 1 0 1 0 1 1 1 1 1 0 1 1 1 0 
1 1 1 1 1 1 1 1 1 1 1 1 1 1 0 1 
2 2 1 1 1 1 1 1 1 1 1 1 1 1 1 1 
1 1 1 1 1 1 1 1 1 1 1 1 1 1 1 0 
1 1 1 0 1 0 1 1 1 0 1 0 1 0 1 0 
1 0 1 0 1 0 1 0 1 -1 1 0 1 0 1 1 
1 0 1 1 1 1 1 0 1 1 1 1 1 1 1 1 
1 1 1 1 1 1 1 1 1 1 1 1 1 1 1 1 
1 1 1 1 1 1 1 1 1 1 1 1 1 0 1 1 
1 1 1 1 1 0 1 1 1 0 1 1 1 1 1 0 
1 1 1 1 1 1 1 0 1 1 1 0 1 1 1 1 
1 0 1 1 1 0 1 1 1 0 1 0 1 0 1 0 
1 0 1 0 1 1 1 0 1 0 1 0 1 0 1 0 
1 1 1 0 1 0 1 0 1 0 1 0 1 -1 1 0 
1 0 1 0 1 0 1 0 1 1 1 0 1 0 1 0 
1 1 1 0 1 0 1 0 1 0 1 1 1 0 1 0 
1 0 1 1 1 0 1 0 1 0 1 0 1 0 1 1 
1 0 1 0 1 0 2306 429 300 MP stroke
1 0 1 0 1 0 1 0 1 0 1 1 0 -1 1 1 
1 0 1 -1 1 1 1 0 1 -1 1 0 1 0 1 0 
1 0 1 0 1 0 1 0 1 0 1 0 1 1 1 0 
1 0 1 1 1 0 1 0 1 1 1 0 1 1 1 0 
1 1 1 0 1 1 1 0 1 0 1 1 1 0 1 0 
1 1 1 0 1 0 1 1 1 0 1 0 1 1 1 0 
1 0 1 0 1 0 1 0 1 1 1 0 1 0 1 0 
1 0 1 0 1 0 1 1 1 0 1 0 1 1 1 0 
1 0 1 1 1 0 1 0 1 1 1 0 1 0 1 1 
1 0 1 0 1 0 1 1 1 0 1 0 1 0 -1 0 
2 0 1 1 1 0 1 0 1 1 1 0 1 1 1 0 
1 0 1 0 1 1 1 0 1 1 1 0 1 0 1 1 
1 0 1 1 1 0 1 1 1 0 1 1 1 0 1 1 
1 0 1 1 1 0 1 1 1 0 1 1 1 0 1 1 
1 0 1 1 1 0 1 1 1 0 1 1 1 0 1 1 
1 0 1 0 1 1 1 0 1 0 1 1 1 0 1 1 
1 0 1 0 1 0 1 1 1 0 1 0 1 0 1 1 
1 0 1 0 1 0 1 1 1 0 1 0 1 0 1 1 
1 0 1 1 1 0 1 0 1 1 1 0 1 1 1 0 
1 1 1 1 1 1 1 0 1 1 1 1 1 0 1 1 
1 0 1 0 1 1 1 0 1 0 1 1 1 0 1 0 
1 0 1 0 1 0 1 0 1 0 1 0 1 0 1 0 
1 0 1 0 1 0 1 0 1 0 1 0 1 0 1 0 
1 0 1 0 1 1 1 0 1 0 1 1 1 0 1 1 
1 0 1 1 1 0 1 1 1 0 1 1 1 0 1 1 
1 1 1 1 1 0 1 1 1 1 1 1 1 0 1 1 
1 1 1 0 1 1 1 1 1 1 1 1 1 0 1 1 
1 1 1 0 -1 0 2 2 1 0 1 1 1 1 1 0 
1 1 1 0 1 1 1 0 1 0 1 1 1 0 1 0 
1 0 1 0 1 0 1 0 1 0 1 0 1 0 1 1 
1 0 1 0 1 1 1 0 1 1 1 0 1 1 1 1 
1 0 1 0 1 1 1 1 1 0 1 1 1 0 1 0 
1 1 1 0 1 1 1 0 1 0 1 1 1 0 1 0 
1 0 1 1 1 0 1 0 1 1 1 0 1 0 1 0 
1 1 1 0 1 0 1 1 1 0 1 1 1 0 1 1 
1 0 1 0 1 0 1 0 1 1 1 0 1 0 1 0 
1 0 1 0 1 0 1 0 1 0 1 0 1 0 1 1 
1 0 1 0 1 0 2010 330 300 MP stroke
1 0 1 1 1 0 1 1 1 1 1 1 1 0 1 1 
1 1 1 1 1 1 1 1 1 1 1 1 1 1 0 1 
2 2 1 0 0 1 2 2 1 1 1 1 0 2 1 1 
1 1 0 4 5 1 1 1 0 1 2 2 1 1 1 1 
1 1 1 1 1 1 1 1 1 1 0 3 2 0 1 1 
1 1 1 1 1 1 1 0 1 1 1 1 1 1 1 1 
1 1 1 1 1 1 1 1 1 1 1 1 1 0 1 1 
1 1 1 1 1 1 1 1 1 0 1 1 1 1 1 1 
1 1 1 0 1 1 1 1 1 0 1 1 1 1 1 1 
1 0 1 1 1 1 1 0 1 1 1 1 1 1 1 0 
1 1 1 1 1 0 0 1 2 0 1 1 1 1 1 1 
1 1 1 0 1 1 1 0 -1 0 2 2 1 0 1 1 
1 1 0 -1 1 1 1 1 1 1 1 1 1 0 1 1 
1 1 1 1 1 1 1 0 -1 0 2 2 1 0 1 1 
1 1 1 1 1 1 1 1 1 1 1 1 1 1 1 1 
1 1 1 0 -1 0 2 2 1 1 1 1 1 1 1 1 
1 1 1 1 1 1 0 1 2 2 1 1 1 1 1 1 
1 0 -1 0 2 2 1 0 1 1 1 0 1 1 1 1 
1 0 1 0 1 1 1 0 1 0 1 0 1 0 1 0 
1 0 1 0 1 0 1 0 1 0 1 0 1 0 1 0 
1 0 1 0 1 0 1 0 1 0 1 0 1 0 1 0 
1 0 1 0 1 0 1 0 1 0 1 0 1 0 1 0 
1 0 1 0 1 0 1 0 1 0 1 0 1 0 1 0 
1 0 1 0 1 0 1 0 1 0 1 0 1 0 1 0 
1 0 1 0 1 0 1 0 1 0 1 0 3 0 1 0 
1 0 1 0 1 0 1 0 1 0 1 0 1 0 1 0 
1 0 1 0 1 0 1 0 1 0 1 0 1 0 1 0 
1 0 1 0 1 0 1 0 1 0 1 0 1 0 1 0 
1 0 1 0 1 0 1 0 1 0 1 0 1 0 1 0 
1 0 1 0 1 0 1 0 1 0 1 0 1 0 1 0 
1 0 1 0 1 0 1 0 1 0 1 0 1 0 1 0 
1 0 1 0 1 0 1 0 1 0 1 0 1 0 1 0 
1 0 1 0 1 0 1 0 1 0 1 0 1 0 1 0 
1 0 1 0 1 0 1 1 0 -1 1 1 1 0 -1 0 
2 0 1 0 1 -1 1 0 1 0 1 0 1 0 1 0 
1 0 1 0 1 0 1 0 1 0 1 0 1 0 1 0 
1 0 1 0 1 0 1 0 1 0 1 0 1 0 1 0 
1 0 1 0 1 0 1714 202 300 MP stroke
1 0 1 0 1 0 1 0 1 0 1 0 1 0 1 0 
1 0 1 0 1 0 1 -1 1 0 1 0 1 0 1 0 
1 0 1 -1 1 0 1 0 1 0 1 0 1 -1 1 0 
1 0 1 0 1 -1 1 0 1 0 1 0 1 0 1 -1 
1 0 1 0 1 0 1 -1 1 0 1 0 1 0 1 0 
1 0 1 0 1 0 1 0 1 0 1 0 1 0 1 0 
1 0 1 0 1 1 1 0 1 0 1 0 1 0 1 1 
1 0 1 0 1 0 1 -1 1 0 1 0 1 -1 1 0 
1 0 1 0 1 0 1 0 1 -1 1 0 1 0 1 0 
1 0 1 0 1 -1 1 0 1 0 1 -1 1 0 1 0 
1 0 1 -1 1 0 1 -1 1 0 1 0 1 -1 1 0 
1 0 1 -1 1 0 1 0 1 -1 1 0 1 0 1 -1 
1 0 1 0 1 0 1 -1 1 0 1 0 1 -1 1 0 
1 0 1 -1 1 0 1 0 1 -1 1 0 1 -1 1 0 
1 0 1 -1 1 0 1 -1 1 0 1 -1 1 0 1 0 
1 -1 1 0 1 -1 1 0 1 0 1 -1 1 0 1 0 
1 -1 1 0 1 0 1 -1 1 0 1 -1 1 0 1 0 
1 -1 1 0 1 0 1 -1 1 0 1 -1 1 0 1 -1 
1 0 1 -1 1 0 1 -1 1 0 1 0 1 -1 1 -1 
1 0 1 0 1 -1 1 0 1 -1 1 0 1 0 1 -1 
1 0 1 -1 1 0 1 -1 1 0 1 0 1 -1 1 0 
1 -1 1 0 1 0 1 -1 1 0 1 0 1 -1 1 0 
1 0 1 0 1 -1 1 0 1 0 1 -1 1 0 1 0 
1 0 1 -1 1 0 1 0 1 0 1 -1 1 0 1 -1 
1 0 1 0 1 -1 1 0 1 -1 1 0 1 -1 1 0 
1 -1 1 0 1 -1 1 0 1 -1 1 -1 1 0 1 -1 
1 0 1 -1 1 -1 1 0 1 -1 1 -1 1 0 1 -1 
1 0 1 -1 1 0 1 -1 1 -1 1 0 1 0 1 -1 
1 0 1 -1 1 0 1 -1 1 0 1 -1 1 0 1 0 
1 -1 1 0 1 -1 1 0 1 -1 1 0 1 -1 1 0 
1 -1 1 0 1 -1 1 0 1 -1 1 0 1 -1 1 -1 
1 0 1 -1 1 -1 1 0 1 -1 1 -1 1 -1 1 0 
1 -1 1 -1 1 0 1 -1 1 0 1 -1 1 0 1 -1 
1 0 1 0 1 -1 1 0 1 0 1 0 1 0 4 0 
1 0 1 0 1 0 1 0 1 0 1 -1 1 0 1 0 
1 -1 1 0 1 -1 1 0 1 -1 1 0 1 0 1 -1 
1 0 1 -1 1 -1 1 0 1 -1 1 -1 1 0 1 -1 
1 -1 1 0 1 -1 1412 305 300 MP stroke
1 -1 1 -1 1 0 1 -1 1 -1 1 0 1 -1 1 -1 
1 0 1 -1 1 0 1 0 1 -1 1 0 1 0 1 0 
1 0 1 -1 1 0 1 0 1 0 1 -1 1 0 1 0 
1 0 1 -1 1 0 1 0 1 0 1 -1 1 0 1 0 
1 -1 1 0 1 0 1 0 1 -1 1 0 1 -1 1 0 
1 0 1 -1 1 0 1 0 1 -1 1 0 1 0 1 -1 
1 0 1 0 1 0 1 0 1 -1 1 0 1 0 1 0 
1 0 1 0 1 0 1 0 1 0 1 -1 1 0 1 0 
1 0 1 0 1 -1 1 0 1 0 1 -1 1 0 1 0 
1 -1 1 0 1 0 1 0 1 0 1 -1 1 0 1 0 
1 0 1 0 1 0 1 0 1 -1 1 0 1 0 1 0 
1 -1 1 0 1 0 1 -1 1 0 1 0 1 -1 1 0 
1 -1 1 0 1 0 1 -1 1 0 1 -1 1 0 1 0 
1 -1 1 -1 1 0 1 0 1 -1 1 -1 1 0 1 0 
1 -1 1 -1 1 0 1 -1 1 0 1 0 1 -1 1 0 
1 -1 1 0 1 0 1 -1 1 0 1 0 1 0 1 -1 
1 0 1 0 1 0 1 -1 1 0 1 0 1 -1 1 0 
1 -1 1 0 1 0 1 -1 1 0 1 -1 1 0 1 0 
1 0 1 -1 1 0 1 0 1 -1 1 0 1 0 1 -1 
1 0 1 0 1 0 1 -1 1 0 1 0 1 0 1 -1 
1 0 1 -1 1 0 1 -1 1 0 1 0 1 -1 1 0 
1 -1 1 0 1 -1 1 0 1 -1 1 0 1 -1 1 0 
1 -1 1 0 1 -1 1 0 1 0 1 -1 1 0 1 0 
1 -1 1 0 1 0 1 -1 1 0 1 0 1 0 1 -1 
1 0 1 0 1 0 1 -1 1 0 1 0 1 -1 1 0 
1 0 1 -1 1 0 1 0 1 -1 1 0 1 -1 1 0 
1 -1 1 0 1 -1 1 0 1 -1 1 0 1 -1 1 -1 
1 0 1 -1 1 0 1 0 1 0 1 -1 1 0 1 0 
1 0 1 -1 1 0 1 0 1 0 1 1 1 0 1 0 
1 0 1 1 1 0 1 0 1 0 1 0 1 -1 1 0 
1 0 1 -1 1 0 1 -1 1 0 1 0 1 -1 1 0 
1 0 1 0 1 -1 1 0 1 0 1 -1 1 0 1 0 
1 0 1 0 1 0 1 0 1 0 1 0 1 0 1 0 
1 0 1 0 1 0 1 0 1 0 1 0 1 -1 1 0 
1 0 1 -1 1 -1 1 0 1 0 1 -1 1 -1 1 0 
1 0 1 -1 1 -1 1 0 1 -1 1 0 1 0 1 -1 
1 -1 1 0 1 -1 1 0 1 -1 1 0 1 -1 1 0 
1 -1 1 -1 1 0 1113 402 300 MP stroke
1 -1 1 0 1 -1 1 -1 1 0 1 -1 1 0 1 -1 
1 0 1 -1 1 0 1 0 1 -1 1 0 1 0 1 -1 
1 0 1 0 1 -1 1 0 1 -1 1 0 1 -1 1 0 
1 -1 1 0 1 -1 1 -1 1 0 1 -1 1 -1 1 0 
1 -1 1 -1 1 -1 1 0 1 -1 1 -1 1 0 1 -1 
1 -1 1 0 1 0 1 -1 1 0 1 -1 1 0 1 0 
1 -1 1 0 1 0 1 0 1 -1 1 0 1 0 1 0 
1 -1 1 0 1 0 1 0 1 0 1 0 1 0 1 0 
1 0 1 0 1 0 1 0 1 0 1 0 1 0 -1 0 
2 0 1 0 1 -1 1 0 1 0 1 0 1 -1 1 0 
1 0 1 -1 1 0 1 -1 1 0 1 -1 1 0 1 0 
1 -1 1 0 1 0 1 -1 1 0 1 0 1 -1 1 0 
1 -1 1 0 1 0 1 -1 1 -1 1 0 1 -1 1 0 
1 -1 1 0 1 -1 1 0 1 -1 1 0 1 0 1 -1 
1 0 1 -1 1 0 1 0 1 0 1 -1 1 0 1 0 
1 -1 1 0 1 -1 1 0 1 0 1 -1 1 0 1 0 
1 -1 1 0 1 -1 1 0 1 -1 1 0 1 0 1 -1 
1 0 1 -1 1 0 1 0 1 -1 1 0 1 0 1 0 
1 -1 1 0 1 0 1 -1 1 0 1 0 1 0 1 -1 
1 0 1 -1 1 0 1 0 1 -1 1 0 1 0 1 -1 
1 0 1 0 1 -1 1 0 1 0 1 -1 1 0 1 0 
1 0 1 -1 1 0 1 0 1 -1 1 0 1 0 1 -1 
1 0 1 -1 1 0 1 -1 1 0 1 -1 1 0 1 -1 
1 0 1 -1 1 0 -1 0 3 -1 1 0 1 -1 1 0 
-1 0 3 -1 1 0 1 0 1 0 1 0 1 0 1 1 
1 0 1 0 1 0 1 0 1 -1 1 0 1 -1 1 0 
1 0 1 -1 1 0 1 0 1 -1 1 0 1 0 1 -1 
1 0 1 0 1 -1 1 0 1 0 1 0 1 0 1 -1 
1 0 1 0 1 0 1 0 1 0 1 -1 1 0 1 0 
1 0 1 0 1 0 1 0 1 -1 1 0 1 -1 1 0 
1 -1 1 0 1 0 1 -1 1 0 1 -1 1 0 1 -1 
1 0 1 -1 1 0 1 -1 1 0 1 -1 1 -1 1 0 
1 -1 1 0 1 -1 1 -1 1 0 1 -1 1 0 1 -1 
1 -1 1 0 1 -1 1 -1 1 -1 1 0 1 -1 1 0 
1 -1 1 -1 1 0 1 -1 1 0 1 -1 1 -1 1 0 
1 -1 1 0 1 -1 1 0 1 -1 1 0 1 -1 1 0 
1 -1 1 0 1 -1 1 -1 1 0 1 0 1 -1 1 0 
1 -1 1 0 1 -1 815 518 300 MP stroke
1 0 1 0 1 -1 1 0 1 0 1 -1 1 0 1 0 
1 -1 1 0 1 -1 1 0 1 -1 1 0 1 -1 1 0 
1 -1 1 0 1 -1 1 0 1 -1 1 0 1 -1 1 0 
1 -1 1 0 1 0 1 0 1 -1 1 0 1 0 1 0 
1 0 1 0 1 0 1 0 1 0 1 0 1 0 1 1 
1 0 1 0 1 0 1 0 1 0 1 0 1 0 1 -1 
1 0 1 0 1 -1 1 0 1 -1 1 0 1 -1 1 0 
1 -1 1 0 1 -1 1 -1 1 0 1 -1 1 0 1 -1 
1 0 1 -1 1 0 1 -1 1 0 1 0 1 -1 1 0 
1 -1 1 0 1 0 1 0 1 -1 1 0 1 0 1 -1 
1 0 1 -1 1 0 1 -1 1 0 1 -1 1 0 1 -1 
1 0 1 -1 1 0 1 -1 1 0 1 -1 1 0 1 0 
1 -1 1 0 1 0 1 0 1 -1 1 0 1 0 1 -1 
1 0 1 0 1 0 1 -1 1 0 1 -1 1 0 1 -1 
1 0 1 -1 1 0 1 -1 1 -1 1 0 1 -1 1 0 
1 -1 1 -1 1 0 1 -1 1 -1 1 0 1 -1 1 -1 
1 0 1 -1 1 -1 1 0 1 -1 1 0 -1 0 2 -2 
1 0 1 -1 1 -1 1 -1 1 0 1 -1 1 -1 1 0 
1 -1 1 -1 1 -1 1 -1 1 0 1 -1 1 -1 1 0 
1 -1 1 -1 1 0 1 -1 1 0 1 -1 1 -1 1 0 
1 -1 1 0 1 -1 1 0 1 -1 1 0 1 0 1 -1 
1 0 1 -1 1 0 1 -1 1 0 1 -1 1 0 1 -1 
1 0 1 -1 1 -1 1 0 1 -1 1 -1 1 0 1 -1 
1 0 1 -1 1 -1 1 0 1 0 1 0 1 -1 1 0 
1 0 1 0 1 0 1 0 1 0 1 0 1 0 1 0 
1 0 1 0 1 0 1 0 1 0 1 0 1 0 1 0 
1 -1 1 0 1 0 1 -1 1 -1 1 -1 1 0 1 -1 
1 -1 1 -1 1 0 1 1 -1 0 2 -2 1 -1 1 2 
0 3 1 0 1 -1 1 -1 1 -1 1 0 1 -1 1 -1 
1 0 1 -1 1 -1 1 -1 1 0 1 -1 1 -1 1 -1 
1 0 1 -1 1 -1 1 0 1 -1 1 0 1 -1 1 -1 
1 -1 1 -1 1 0 1 -1 1 -1 1 0 1 -1 1 -1 
1 -1 1 -1 1 -1 1 0 -1 0 2 -2 1 0 1 -1 
1 -1 1 -1 1 -1 1 -1 1 -1 1 0 -1 0 2 -2 
1 0 1 -1 1 -1 1 -1 1 -1 1 -1 1 -1 1 0 
1 -1 1 -1 1 -1 1 0 1 -1 1 -1 1 -1 1 0 
1 -1 1 -1 1 0 1 -1 1 0 1 -1 1 -1 1 0 
1 -1 1 -1 1 -1 521 663 300 MP stroke
-1 0 2 3 1 0 1 -1 1 -1 1 -1 1 -1 1 -1 
1 0 1 -1 1 -1 1 -1 1 -1 1 -1 1 -1 1 -1 
1 0 1 -1 1 -1 1 -1 1 0 1 -1 1 -1 1 0 
-1 0 2 -2 1 0 1 -1 1 -1 1 -1 1 -1 1 0 
1 -1 1 -1 1 -1 1 -1 1 0 1 -1 1 -1 1 -1 
1 -1 1 -1 1 0 1 -1 1 -1 1 -1 1 0 1 -1 
1 -1 1 -1 1 -1 1 -1 1 -1 1 0 1 -1 1 -1 
1 -1 1 0 1 -1 1 -1 1 -1 1 -1 1 -1 1 0 
1 -1 1 -1 1 0 1 -1 1 -1 1 0 1 -1 1 0 
1 -1 1 0 1 -1 1 -1 1 0 1 -1 1 0 -1 0 
2 0 1 -1 1 -1 1 0 1 -1 1 -1 1 -1 1 -1 
1 -1 1 -1 1 -1 1 -1 1 0 0 -1 431 729 95 MP stroke
gr

6.25 w
c10
0 sg
1491  119 mt 
(North plot) s
1521  885 mt 
(Time [s]) s
 285  609 mt  -90 rotate
(North [m]) s
90 rotate
%%IncludeResource: font Helvetica
/Helvetica /ISOLatin1Encoding 41.6667 FMSR

 410  745 mt 
( ) s
2890  191 mt 
( ) s
2.08333 w
1 sg
0 553 2479 0 0 -553 416 1582 4 MP
PP
-2479 0 0 553 2479 0 0 -553 416 1582 5 MP stroke
1.38889 w
DO
0 sg
 416 1582 mt  416 1029 L
 416 1029 mt  416 1029 L
 641 1582 mt  641 1029 L
 641 1029 mt  641 1029 L
 866 1582 mt  866 1029 L
 866 1029 mt  866 1029 L
1092 1582 mt 1092 1029 L
1092 1029 mt 1092 1029 L
1317 1582 mt 1317 1029 L
1317 1029 mt 1317 1029 L
1542 1582 mt 1542 1029 L
1542 1029 mt 1542 1029 L
1768 1582 mt 1768 1029 L
1768 1029 mt 1768 1029 L
1993 1582 mt 1993 1029 L
1993 1029 mt 1993 1029 L
2218 1582 mt 2218 1029 L
2218 1029 mt 2218 1029 L
2444 1582 mt 2444 1029 L
2444 1029 mt 2444 1029 L
2669 1582 mt 2669 1029 L
2669 1029 mt 2669 1029 L
2895 1582 mt 2895 1029 L
2895 1029 mt 2895 1029 L
 416 1572 mt 2895 1572 L
2895 1572 mt 2895 1572 L
 416 1374 mt 2895 1374 L
2895 1374 mt 2895 1374 L
 416 1177 mt 2895 1177 L
2895 1177 mt 2895 1177 L
SO
2.08333 w
 416 1582 mt 2895 1582 L
 416 1029 mt 2895 1029 L
 416 1582 mt  416 1029 L
2895 1582 mt 2895 1029 L
 416 1582 mt 2895 1582 L
 416 1582 mt  416 1029 L
 416 1582 mt  416 1557 L
 416 1029 mt  416 1053 L
%%IncludeResource: font Helvetica
/Helvetica /ISOLatin1Encoding 75 FMSR

 396 1663 mt 
(0) s
 641 1582 mt  641 1557 L
 641 1029 mt  641 1053 L
 600 1663 mt 
(50) s
 866 1582 mt  866 1557 L
 866 1029 mt  866 1053 L
 804 1663 mt 
(100) s
1092 1582 mt 1092 1557 L
1092 1029 mt 1092 1053 L
1030 1663 mt 
(150) s
1317 1582 mt 1317 1557 L
1317 1029 mt 1317 1053 L
1255 1663 mt 
(200) s
1542 1582 mt 1542 1557 L
1542 1029 mt 1542 1053 L
1480 1663 mt 
(250) s
1768 1582 mt 1768 1557 L
1768 1029 mt 1768 1053 L
1706 1663 mt 
(300) s
1993 1582 mt 1993 1557 L
1993 1029 mt 1993 1053 L
1931 1663 mt 
(350) s
2218 1582 mt 2218 1557 L
2218 1029 mt 2218 1053 L
2156 1663 mt 
(400) s
2444 1582 mt 2444 1557 L
2444 1029 mt 2444 1053 L
2382 1663 mt 
(450) s
2669 1582 mt 2669 1557 L
2669 1029 mt 2669 1053 L
2607 1663 mt 
(500) s
2895 1582 mt 2895 1557 L
2895 1029 mt 2895 1053 L
2833 1663 mt 
(550) s
 416 1572 mt  440 1572 L
2895 1572 mt 2870 1572 L
 277 1599 mt 
(-20) s
 416 1374 mt  440 1374 L
2895 1374 mt 2870 1374 L
 363 1401 mt 
(0) s
 416 1177 mt  440 1177 L
2895 1177 mt 2870 1177 L
 321 1204 mt 
(20) s
 416 1582 mt 2895 1582 L
 416 1029 mt 2895 1029 L
 416 1582 mt  416 1029 L
2895 1582 mt 2895 1029 L
gs 416 1029 2480 554 rc
gr

gs 390 1036 2533 574 rc
c8
 415 1532 mt  431 1548 L
 431 1532 mt  415 1548 L
 421 1536 mt  437 1552 L
 437 1536 mt  421 1552 L
 430 1508 mt  446 1524 L
 446 1508 mt  430 1524 L
 437 1554 mt  453 1570 L
 453 1554 mt  437 1570 L
 444 1524 mt  460 1540 L
 460 1524 mt  444 1540 L
 451 1529 mt  467 1545 L
 467 1529 mt  451 1545 L
 457 1560 mt  473 1576 L
 473 1560 mt  457 1576 L
 465 1517 mt  481 1533 L
 481 1517 mt  465 1533 L
 470 1526 mt  486 1542 L
 486 1526 mt  470 1542 L
 476 1543 mt  492 1559 L
 492 1543 mt  476 1559 L
 486 1536 mt  502 1552 L
 502 1536 mt  486 1552 L
 491 1524 mt  507 1540 L
 507 1524 mt  491 1540 L
 499 1532 mt  515 1548 L
 515 1532 mt  499 1548 L
 504 1530 mt  520 1546 L
 520 1530 mt  504 1546 L
 510 1530 mt  526 1546 L
 526 1530 mt  510 1546 L
 516 1526 mt  532 1542 L
 532 1526 mt  516 1542 L
 522 1522 mt  538 1538 L
 538 1522 mt  522 1538 L
 527 1514 mt  543 1530 L
 543 1514 mt  527 1530 L
 535 1512 mt  551 1528 L
 551 1512 mt  535 1528 L
 540 1507 mt  556 1523 L
 556 1507 mt  540 1523 L
 545 1503 mt  561 1519 L
 561 1503 mt  545 1519 L
 551 1505 mt  567 1521 L
 567 1505 mt  551 1521 L
 557 1497 mt  573 1513 L
 573 1497 mt  557 1513 L
 563 1494 mt  579 1510 L
 579 1494 mt  563 1510 L
 583 1485 mt  599 1501 L
 599 1485 mt  583 1501 L
 594 1479 mt  610 1495 L
 610 1479 mt  594 1495 L
 599 1496 mt  615 1512 L
 615 1496 mt  599 1512 L
 621 1480 mt  637 1496 L
 637 1480 mt  621 1496 L
 643 1466 mt  659 1482 L
 659 1466 mt  643 1482 L
 650 1462 mt  666 1478 L
 666 1462 mt  650 1478 L
 656 1460 mt  672 1476 L
 672 1460 mt  656 1476 L
 662 1461 mt  678 1477 L
 678 1461 mt  662 1477 L
 668 1453 mt  684 1469 L
 684 1453 mt  668 1469 L
 674 1449 mt  690 1465 L
 690 1449 mt  674 1465 L
 679 1449 mt  695 1465 L
 695 1449 mt  679 1465 L
 686 1443 mt  702 1459 L
 702 1443 mt  686 1459 L
 691 1443 mt  707 1459 L
 707 1443 mt  691 1459 L
 697 1445 mt  713 1461 L
 713 1445 mt  697 1461 L
 702 1439 mt  718 1455 L
 718 1439 mt  702 1455 L
 710 1437 mt  726 1453 L
 726 1437 mt  710 1453 L
 715 1436 mt  731 1452 L
 731 1436 mt  715 1452 L
 722 1430 mt  738 1446 L
 738 1430 mt  722 1446 L
 727 1438 mt  743 1454 L
 743 1438 mt  727 1454 L
 734 1425 mt  750 1441 L
 750 1425 mt  734 1441 L
 739 1423 mt  755 1439 L
 755 1423 mt  739 1439 L
 744 1418 mt  760 1434 L
 760 1418 mt  744 1434 L
 750 1415 mt  766 1431 L
 766 1415 mt  750 1431 L
 756 1414 mt  772 1430 L
 772 1414 mt  756 1430 L
 761 1425 mt  777 1441 L
 777 1425 mt  761 1441 L
 767 1414 mt  783 1430 L
 783 1414 mt  767 1430 L
 773 1414 mt  789 1430 L
 789 1414 mt  773 1430 L
 780 1404 mt  796 1420 L
 796 1404 mt  780 1420 L
 786 1403 mt  802 1419 L
 802 1403 mt  786 1419 L
 792 1399 mt  808 1415 L
 808 1399 mt  792 1415 L
 798 1408 mt  814 1424 L
 814 1408 mt  798 1424 L
 805 1397 mt  821 1413 L
 821 1397 mt  805 1413 L
 813 1391 mt  829 1407 L
 829 1391 mt  813 1407 L
 819 1379 mt  835 1395 L
 835 1379 mt  819 1395 L
 826 1379 mt  842 1395 L
 842 1379 mt  826 1395 L
 832 1387 mt  848 1403 L
 848 1387 mt  832 1403 L
 837 1377 mt  853 1393 L
 853 1377 mt  837 1393 L
 842 1376 mt  858 1392 L
 858 1376 mt  842 1392 L
 849 1376 mt  865 1392 L
 865 1376 mt  849 1392 L
 855 1373 mt  871 1389 L
 871 1373 mt  855 1389 L
 862 1371 mt  878 1387 L
 878 1371 mt  862 1387 L
 869 1372 mt  885 1388 L
 885 1372 mt  869 1388 L
 896 1353 mt  912 1369 L
 912 1353 mt  896 1369 L
 901 1366 mt  917 1382 L
 917 1366 mt  901 1382 L
 907 1352 mt  923 1368 L
 923 1352 mt  907 1368 L
 914 1357 mt  930 1373 L
 930 1357 mt  914 1373 L
 919 1347 mt  935 1363 L
 935 1347 mt  919 1363 L
 926 1339 mt  942 1355 L
 942 1339 mt  926 1355 L
 931 1341 mt  947 1357 L
 947 1341 mt  931 1357 L
 955 1327 mt  971 1343 L
 971 1327 mt  955 1343 L
 961 1323 mt  977 1339 L
 977 1323 mt  961 1339 L
 966 1322 mt  982 1338 L
 982 1322 mt  966 1338 L
 989 1315 mt 1005 1331 L
1005 1315 mt  989 1331 L
 995 1315 mt 1011 1331 L
1011 1315 mt  995 1331 L
1001 1313 mt 1017 1329 L
1017 1313 mt 1001 1329 L
1006 1313 mt 1022 1329 L
1022 1313 mt 1006 1329 L
1030 1300 mt 1046 1316 L
1046 1300 mt 1030 1316 L
1036 1296 mt 1052 1312 L
1052 1296 mt 1036 1312 L
1060 1287 mt 1076 1303 L
1076 1287 mt 1060 1303 L
1066 1286 mt 1082 1302 L
1082 1286 mt 1066 1302 L
1087 1280 mt 1103 1296 L
1103 1280 mt 1087 1296 L
1095 1272 mt 1111 1288 L
1111 1272 mt 1095 1288 L
1102 1272 mt 1118 1288 L
1118 1272 mt 1102 1288 L
1109 1279 mt 1125 1295 L
1125 1279 mt 1109 1295 L
1133 1264 mt 1149 1280 L
1149 1264 mt 1133 1280 L
1157 1253 mt 1173 1269 L
1173 1253 mt 1157 1269 L
1166 1264 mt 1182 1280 L
1182 1264 mt 1166 1280 L
1171 1248 mt 1187 1264 L
1187 1248 mt 1171 1264 L
1176 1253 mt 1192 1269 L
1192 1253 mt 1176 1269 L
1181 1246 mt 1197 1262 L
1197 1246 mt 1181 1262 L
1190 1246 mt 1206 1262 L
1206 1246 mt 1190 1262 L
1195 1242 mt 1211 1258 L
1211 1242 mt 1195 1258 L
1202 1241 mt 1218 1257 L
1218 1241 mt 1202 1257 L
1225 1225 mt 1241 1241 L
1241 1225 mt 1225 1241 L
1230 1223 mt 1246 1239 L
1246 1223 mt 1230 1239 L
1236 1221 mt 1252 1237 L
1252 1221 mt 1236 1237 L
1244 1216 mt 1260 1232 L
1260 1216 mt 1244 1232 L
1250 1218 mt 1266 1234 L
1266 1218 mt 1250 1234 L
1274 1208 mt 1290 1224 L
1290 1208 mt 1274 1224 L
1282 1198 mt 1298 1214 L
1298 1198 mt 1282 1214 L
1287 1197 mt 1303 1213 L
1303 1197 mt 1287 1213 L
1310 1180 mt 1326 1196 L
1326 1180 mt 1310 1196 L
1318 1179 mt 1334 1195 L
1334 1179 mt 1318 1195 L
1323 1184 mt 1339 1200 L
1339 1184 mt 1323 1200 L
1329 1176 mt 1345 1192 L
1345 1176 mt 1329 1192 L
1335 1177 mt 1351 1193 L
1351 1177 mt 1335 1193 L
1341 1174 mt 1357 1190 L
1357 1174 mt 1341 1190 L
1347 1171 mt 1363 1187 L
1363 1171 mt 1347 1187 L
1354 1167 mt 1370 1183 L
1370 1167 mt 1354 1183 L
1360 1170 mt 1376 1186 L
1376 1170 mt 1360 1186 L
1367 1161 mt 1383 1177 L
1383 1161 mt 1367 1177 L
1392 1155 mt 1408 1171 L
1408 1155 mt 1392 1171 L
1399 1151 mt 1415 1167 L
1415 1151 mt 1399 1167 L
1405 1149 mt 1421 1165 L
1421 1149 mt 1405 1165 L
1413 1150 mt 1429 1166 L
1429 1150 mt 1413 1166 L
1420 1148 mt 1436 1164 L
1436 1148 mt 1420 1164 L
1426 1156 mt 1442 1172 L
1442 1156 mt 1426 1172 L
1436 1142 mt 1452 1158 L
1452 1142 mt 1436 1158 L
1441 1140 mt 1457 1156 L
1457 1140 mt 1441 1156 L
1449 1134 mt 1465 1150 L
1465 1134 mt 1449 1150 L
1456 1125 mt 1472 1141 L
1472 1125 mt 1456 1141 L
1462 1120 mt 1478 1136 L
1478 1120 mt 1462 1136 L
1470 1123 mt 1486 1139 L
1486 1123 mt 1470 1139 L
1475 1122 mt 1491 1138 L
1491 1122 mt 1475 1138 L
1483 1114 mt 1499 1130 L
1499 1114 mt 1483 1130 L
1489 1118 mt 1505 1134 L
1505 1118 mt 1489 1134 L
1496 1111 mt 1512 1127 L
1512 1111 mt 1496 1127 L
1504 1107 mt 1520 1123 L
1520 1107 mt 1504 1123 L
1509 1104 mt 1525 1120 L
1525 1104 mt 1509 1120 L
1517 1100 mt 1533 1116 L
1533 1100 mt 1517 1116 L
1523 1100 mt 1539 1116 L
1539 1100 mt 1523 1116 L
1529 1097 mt 1545 1113 L
1545 1097 mt 1529 1113 L
1537 1092 mt 1553 1108 L
1553 1092 mt 1537 1108 L
1544 1090 mt 1560 1106 L
1560 1090 mt 1544 1106 L
1552 1086 mt 1568 1102 L
1568 1086 mt 1552 1102 L
1558 1086 mt 1574 1102 L
1574 1086 mt 1558 1102 L
1564 1080 mt 1580 1096 L
1580 1080 mt 1564 1096 L
1588 1069 mt 1604 1085 L
1604 1069 mt 1588 1085 L
1594 1072 mt 1610 1088 L
1610 1072 mt 1594 1088 L
1600 1070 mt 1616 1086 L
1616 1070 mt 1600 1086 L
1605 1069 mt 1621 1085 L
1621 1069 mt 1605 1085 L
1611 1065 mt 1627 1081 L
1627 1065 mt 1611 1081 L
1616 1061 mt 1632 1077 L
1632 1061 mt 1616 1077 L
1624 1060 mt 1640 1076 L
1640 1060 mt 1624 1076 L
1629 1058 mt 1645 1074 L
1645 1058 mt 1629 1074 L
1635 1063 mt 1651 1079 L
1651 1063 mt 1635 1079 L
1640 1054 mt 1656 1070 L
1656 1054 mt 1640 1070 L
1646 1063 mt 1662 1079 L
1662 1063 mt 1646 1079 L
1652 1057 mt 1668 1073 L
1668 1057 mt 1652 1073 L
1857 1135 mt 1873 1151 L
1873 1135 mt 1857 1151 L
1947 1168 mt 1963 1184 L
1963 1168 mt 1947 1184 L
1969 1170 mt 1985 1186 L
1985 1170 mt 1969 1186 L
1978 1179 mt 1994 1195 L
1994 1179 mt 1978 1195 L
2000 1189 mt 2016 1205 L
2016 1189 mt 2000 1205 L
2006 1187 mt 2022 1203 L
2022 1187 mt 2006 1203 L
2014 1193 mt 2030 1209 L
2030 1193 mt 2014 1209 L
2039 1205 mt 2055 1221 L
2055 1205 mt 2039 1221 L
2048 1209 mt 2064 1225 L
2064 1209 mt 2048 1225 L
2054 1207 mt 2070 1223 L
2070 1207 mt 2054 1223 L
2062 1199 mt 2078 1215 L
2078 1199 mt 2062 1215 L
2070 1217 mt 2086 1233 L
2086 1217 mt 2070 1233 L
2075 1218 mt 2091 1234 L
2091 1218 mt 2075 1234 L
2084 1216 mt 2100 1232 L
2100 1216 mt 2084 1232 L
2094 1226 mt 2110 1242 L
2110 1226 mt 2094 1242 L
2099 1222 mt 2115 1238 L
2115 1222 mt 2099 1238 L
2107 1224 mt 2123 1240 L
2123 1224 mt 2107 1240 L
2112 1223 mt 2128 1239 L
2128 1223 mt 2112 1239 L
2120 1218 mt 2136 1234 L
2136 1218 mt 2120 1234 L
2129 1229 mt 2145 1245 L
2145 1229 mt 2129 1245 L
2135 1233 mt 2151 1249 L
2151 1233 mt 2135 1249 L
2142 1241 mt 2158 1257 L
2158 1241 mt 2142 1257 L
2147 1237 mt 2163 1253 L
2163 1237 mt 2147 1253 L
2154 1240 mt 2170 1256 L
2170 1240 mt 2154 1256 L
2159 1246 mt 2175 1262 L
2175 1246 mt 2159 1262 L
2181 1256 mt 2197 1272 L
2197 1256 mt 2181 1272 L
2190 1263 mt 2206 1279 L
2206 1263 mt 2190 1279 L
2199 1270 mt 2215 1286 L
2215 1270 mt 2199 1286 L
2205 1264 mt 2221 1280 L
2221 1264 mt 2205 1280 L
2212 1268 mt 2228 1284 L
2228 1268 mt 2212 1284 L
2217 1267 mt 2233 1283 L
2233 1267 mt 2217 1283 L
2225 1270 mt 2241 1286 L
2241 1270 mt 2225 1286 L
2231 1271 mt 2247 1287 L
2247 1271 mt 2231 1287 L
2239 1266 mt 2255 1282 L
2255 1266 mt 2239 1282 L
2247 1287 mt 2263 1303 L
2263 1287 mt 2247 1303 L
2256 1288 mt 2272 1304 L
2272 1288 mt 2256 1304 L
2262 1295 mt 2278 1311 L
2278 1295 mt 2262 1311 L
2270 1295 mt 2286 1311 L
2286 1295 mt 2270 1311 L
2276 1296 mt 2292 1312 L
2292 1296 mt 2276 1312 L
2283 1295 mt 2299 1311 L
2299 1295 mt 2283 1311 L
2288 1300 mt 2304 1316 L
2304 1300 mt 2288 1316 L
2293 1302 mt 2309 1318 L
2309 1302 mt 2293 1318 L
2299 1308 mt 2315 1324 L
2315 1308 mt 2299 1324 L
2320 1297 mt 2336 1313 L
2336 1297 mt 2320 1313 L
2329 1314 mt 2345 1330 L
2345 1314 mt 2329 1330 L
2334 1312 mt 2350 1328 L
2350 1312 mt 2334 1328 L
2340 1308 mt 2356 1324 L
2356 1308 mt 2340 1324 L
2346 1316 mt 2362 1332 L
2362 1316 mt 2346 1332 L
2354 1320 mt 2370 1336 L
2370 1320 mt 2354 1336 L
2362 1320 mt 2378 1336 L
2378 1320 mt 2362 1336 L
2368 1324 mt 2384 1340 L
2384 1324 mt 2368 1340 L
2375 1338 mt 2391 1354 L
2391 1338 mt 2375 1354 L
2381 1337 mt 2397 1353 L
2397 1337 mt 2381 1353 L
2387 1342 mt 2403 1358 L
2403 1342 mt 2387 1358 L
2393 1354 mt 2409 1370 L
2409 1354 mt 2393 1370 L
2399 1386 mt 2415 1402 L
2415 1386 mt 2399 1402 L
2406 1359 mt 2422 1375 L
2422 1359 mt 2406 1375 L
2414 1360 mt 2430 1376 L
2430 1360 mt 2414 1376 L
2422 1361 mt 2438 1377 L
2438 1361 mt 2422 1377 L
2428 1358 mt 2444 1374 L
2444 1358 mt 2428 1374 L
2449 1373 mt 2465 1389 L
2465 1373 mt 2449 1389 L
2458 1376 mt 2474 1392 L
2474 1376 mt 2458 1392 L
2466 1373 mt 2482 1389 L
2482 1373 mt 2466 1389 L
2474 1377 mt 2490 1393 L
2490 1377 mt 2474 1393 L
2481 1383 mt 2497 1399 L
2497 1383 mt 2481 1399 L
2487 1383 mt 2503 1399 L
2503 1383 mt 2487 1399 L
2493 1386 mt 2509 1402 L
2509 1386 mt 2493 1402 L
2501 1389 mt 2517 1405 L
2517 1389 mt 2501 1405 L
2508 1388 mt 2524 1404 L
2524 1388 mt 2508 1404 L
2531 1401 mt 2547 1417 L
2547 1401 mt 2531 1417 L
2539 1408 mt 2555 1424 L
2555 1408 mt 2539 1424 L
2545 1417 mt 2561 1433 L
2561 1417 mt 2545 1433 L
2585 1433 mt 2601 1449 L
2601 1433 mt 2585 1449 L
2591 1441 mt 2607 1457 L
2607 1441 mt 2591 1457 L
2599 1442 mt 2615 1458 L
2615 1442 mt 2599 1458 L
2604 1439 mt 2620 1455 L
2620 1439 mt 2604 1455 L
2612 1448 mt 2628 1464 L
2628 1448 mt 2612 1464 L
2619 1447 mt 2635 1463 L
2635 1447 mt 2619 1463 L
2626 1455 mt 2642 1471 L
2642 1455 mt 2626 1471 L
2633 1459 mt 2649 1475 L
2649 1459 mt 2633 1475 L
2639 1460 mt 2655 1476 L
2655 1460 mt 2639 1476 L
2647 1462 mt 2663 1478 L
2663 1462 mt 2647 1478 L
2654 1462 mt 2670 1478 L
2670 1462 mt 2654 1478 L
2661 1458 mt 2677 1474 L
2677 1458 mt 2661 1474 L
2670 1461 mt 2686 1477 L
2686 1461 mt 2670 1477 L
2676 1468 mt 2692 1484 L
2692 1468 mt 2676 1484 L
2681 1470 mt 2697 1486 L
2697 1470 mt 2681 1486 L
2687 1472 mt 2703 1488 L
2703 1472 mt 2687 1488 L
2693 1481 mt 2709 1497 L
2709 1481 mt 2693 1497 L
2699 1480 mt 2715 1496 L
2715 1480 mt 2699 1496 L
2705 1485 mt 2721 1501 L
2721 1485 mt 2705 1501 L
2711 1488 mt 2727 1504 L
2727 1488 mt 2711 1504 L
2718 1490 mt 2734 1506 L
2734 1490 mt 2718 1506 L
2726 1493 mt 2742 1509 L
2742 1493 mt 2726 1509 L
2732 1494 mt 2748 1510 L
2748 1494 mt 2732 1510 L
2740 1508 mt 2756 1524 L
2756 1508 mt 2740 1524 L
2750 1510 mt 2766 1526 L
2766 1510 mt 2750 1526 L
2755 1499 mt 2771 1515 L
2771 1499 mt 2755 1515 L
2762 1492 mt 2778 1508 L
2778 1492 mt 2762 1508 L
2768 1522 mt 2784 1538 L
2784 1522 mt 2768 1538 L
2789 1516 mt 2805 1532 L
2805 1516 mt 2789 1532 L
2797 1516 mt 2813 1532 L
2813 1516 mt 2797 1532 L
2803 1512 mt 2819 1528 L
2819 1512 mt 2803 1528 L
2824 1528 mt 2840 1544 L
2840 1528 mt 2824 1544 L
2832 1529 mt 2848 1545 L
2848 1529 mt 2832 1545 L
2838 1521 mt 2854 1537 L
2854 1521 mt 2838 1537 L
2845 1526 mt 2861 1542 L
2861 1526 mt 2845 1542 L
2850 1529 mt 2866 1545 L
2866 1529 mt 2850 1545 L
2871 1528 mt 2887 1544 L
2887 1528 mt 2871 1544 L
gr

c8
gs 416 1029 2480 554 rc
8.33333 w
c9
1 0 1 1 1 0 1 0 1 0 1 0 1 1 1 0 
1 0 1 0 1 0 1 0 1 1 1 0 1 0 1 0 
1 0 1 -1 1 0 1 0 1 0 1 1 1 0 1 0 
1 0 1 1 1 0 1 0 1 0 1 0 1 1 1 0 
1 0 1 0 1 1 1 0 1 0 1 0 1 1 1 0 
1 0 1 0 1 0 -1 0 2 0 1 0 1 0 1 0 
1 1 1 0 1 0 0 -3 1 0 1 0 1 1 1 0 
1 0 1 1 1 1 1 0 1 0 1 0 1 1 1 0 
1 0 1 1 0 3 1 1 1 0 1 0 1 0 1 1 
1 0 1 0 1 0 1 0 1 1 1 0 1 0 1 0 
1 1 1 0 1 0 1 0 1 1 1 0 1 0 1 0 
1 -2 1 0 1 1 1 0 1 0 1 1 1 -2 1 1 
1 0 1 0 1 1 1 0 1 0 1 1 1 0 1 0 
1 1 1 0 1 0 1 1 1 0 1 1 1 0 1 0 
1 0 1 1 1 0 1 1 1 0 1 0 1 0 1 1 
1 0 1 1 1 0 0 5 1 0 1 0 1 1 1 0 
1 0 1 0 0 -6 1 1 1 0 1 0 1 1 1 0 
1 1 1 0 0 -3 1 0 1 1 1 0 1 1 1 0 
-1 0 2 2 1 0 1 0 1 1 1 0 1 1 1 0 
1 1 1 0 1 1 1 3 1 1 1 0 1 1 1 0 
1 0 1 1 1 0 1 1 1 1 1 0 1 0 1 1 
1 0 1 1 1 0 1 0 1 1 1 0 1 1 1 0 
1 1 1 0 1 1 1 0 1 0 1 1 1 0 1 1 
1 1 1 0 1 0 1 1 1 0 1 1 1 1 1 0 
1 1 1 0 1 1 1 0 1 0 1 1 1 0 1 0 
1 1 1 0 1 2 1 1 1 0 1 0 1 1 1 0 
1 0 1 1 1 0 1 0 1 1 1 0 1 0 1 0 
1 1 1 0 1 0 -1 0 2 0 1 0 1 1 1 0 
1 1 1 0 1 -2 1 1 1 0 1 1 1 0 1 0 
1 1 1 0 1 1 1 -3 1 1 1 0 1 1 1 0 
1 1 1 0 1 -1 1 1 1 0 1 1 1 0 1 1 
1 0 1 0 1 0 1 1 1 1 1 0 1 0 1 1 
1 0 1 1 1 1 1 0 1 1 1 0 1 1 1 1 
1 0 1 1 1 0 1 1 1 0 1 1 1 1 1 1 
1 0 1 1 1 0 1 1 1 0 1 -1 1 1 1 0 
1 1 1 0 1 1 1 0 1 1 1 0 1 1 1 0 
1 1 1 0 1 1 1 0 0 -2 1 1 1 0 1 1 
1 0 1 1 1 1 2606 1449 300 MP stroke
1 0 1 1 1 0 1 1 1 1 1 0 1 1 1 2 
1 1 1 1 1 0 1 0 1 1 1 1 1 1 1 0 
1 1 1 0 1 1 1 0 1 1 1 0 1 1 1 0 
1 1 1 0 1 1 1 1 1 0 1 0 1 1 1 1 
1 0 1 1 1 0 1 1 1 0 1 1 1 0 1 0 
1 1 1 1 1 0 1 1 1 0 1 0 1 1 1 1 
1 0 1 1 1 0 1 1 1 0 0 3 1 0 1 1 
1 0 1 1 1 0 1 0 0 2 1 1 1 0 1 1 
1 0 1 0 1 1 1 0 1 0 0 5 1 0 1 1 
1 0 1 0 1 1 1 0 1 0 1 0 1 1 1 0 
1 0 1 1 1 0 1 0 1 1 1 0 2 0 1 0 
1 1 1 0 1 0 1 1 1 -1 1 0 1 1 1 0 
1 0 1 0 1 1 1 0 1 1 1 0 1 0 1 1 
1 0 1 0 1 1 1 0 1 0 1 1 1 0 1 0 
1 1 1 0 1 0 1 1 1 0 1 0 1 0 1 1 
1 0 1 1 1 0 1 0 1 0 1 1 1 -1 1 0 
1 1 1 0 1 0 1 1 1 0 1 0 0 -2 1 0 
1 1 1 0 1 0 1 1 1 0 1 0 1 1 1 -1 
1 1 1 0 1 0 1 1 1 0 1 1 1 0 1 0 
0 -3 1 0 1 1 1 0 1 1 1 0 1 0 1 1 
1 1 1 0 1 0 1 1 1 1 1 0 1 0 1 1 
1 1 1 0 1 0 1 1 1 1 1 0 1 -4 1 1 
1 0 1 1 1 0 1 1 0 -4 1 0 1 1 1 1 
1 1 1 0 1 1 1 1 1 1 0 -4 1 1 1 1 
1 0 1 1 1 1 1 1 1 1 1 1 0 -2 1 0 
1 1 1 1 1 1 1 1 1 1 1 1 0 13 1 0 
1 0 1 1 1 1 1 0 1 1 1 5 1 0 1 1 
1 0 1 1 1 0 -1 0 2 0 1 0 1 0 1 1 
1 1 1 0 1 1 1 1 1 0 1 1 1 0 1 1 
0 3 1 0 1 1 1 0 1 1 1 0 1 0 1 1 
1 1 1 0 1 1 1 0 1 0 1 1 1 0 1 1 
1 0 1 1 1 0 1 0 1 1 1 0 1 1 1 1 
1 0 1 0 1 1 1 0 1 0 -1 0 2 2 1 0 
1 1 1 0 1 0 1 1 1 -2 1 1 1 0 1 0 
1 1 1 0 1 0 1 0 1 0 1 1 1 0 1 0 
0 4 1 0 1 0 1 0 1 0 1 1 1 0 1 0 
1 0 1 0 0 -7 1 0 1 0 1 1 1 0 1 0 
1 1 1 0 1 1 2320 1318 300 MP stroke
1 0 1 1 1 0 1 0 1 1 1 0 1 1 1 0 
1 1 1 0 1 0 1 1 1 0 1 2 1 0 1 1 
1 0 1 0 1 0 1 1 1 0 1 1 1 0 1 0 
1 1 1 0 1 1 1 0 1 0 -1 0 2 0 1 0 
1 1 1 0 1 1 1 0 1 1 1 -1 1 1 1 0 
1 1 1 0 1 1 1 1 1 0 1 1 1 0 1 1 
1 0 1 1 1 0 0 3 1 0 1 0 1 1 1 0 
1 1 1 2 1 0 1 1 1 0 1 0 1 1 1 0 
1 0 1 1 1 0 1 4 1 0 1 0 1 0 1 1 
1 0 1 0 1 1 0 -4 1 0 1 1 1 0 1 0 
1 1 1 0 1 1 1 0 1 -1 1 0 1 1 1 0 
1 1 1 0 1 -1 1 1 1 0 1 1 1 0 1 0 
1 1 1 0 1 -1 1 1 1 0 1 1 1 0 -1 0 
2 0 1 0 1 1 1 0 1 1 1 0 1 1 1 -1 
1 0 1 1 1 0 1 1 1 0 0 3 1 0 1 0 
1 1 1 0 1 1 1 0 1 1 1 0 1 1 0 3 
1 0 1 0 1 1 1 0 1 0 1 1 1 0 1 1 
1 0 0 3 1 0 1 1 1 0 1 0 1 1 1 0 
1 0 1 1 1 0 1 1 1 0 1 0 1 1 1 0 
1 0 1 1 1 0 1 0 1 1 1 0 1 0 1 1 
1 1 1 1 1 0 1 0 1 1 1 0 1 0 1 1 
1 0 1 0 1 1 1 0 1 0 1 0 1 0 1 1 
1 0 0 3 1 0 1 1 1 0 1 0 1 0 1 1 
1 0 1 1 1 1 1 0 1 0 1 0 1 0 1 1 
1 1 1 0 1 0 1 0 1 0 1 1 1 0 1 0 
1 -4 1 1 1 0 1 0 1 1 1 0 1 0 1 1 
0 -2 1 0 1 0 1 1 1 0 1 1 1 -1 1 0 
1 1 1 0 1 0 1 1 1 0 1 1 0 -2 1 0 
1 1 1 0 1 1 1 0 1 2 1 0 1 1 1 0 
1 1 1 0 1 0 1 1 1 0 1 1 1 -1 1 1 
1 0 1 1 1 0 1 0 1 1 1 0 -1 0 2 2 
1 0 1 1 1 0 1 1 1 0 0 3 1 0 1 1 
1 0 1 0 1 1 1 0 1 0 1 1 1 -5 1 1 
1 0 1 1 1 0 1 0 1 1 1 0 1 0 1 0 
1 1 1 0 1 1 1 0 1 2 1 0 1 1 1 0 
1 1 1 0 1 0 1 1 1 5 1 0 1 1 1 0 
1 0 1 1 1 0 1 0 1 1 1 0 1 0 1 0 
1 1 1 0 1 0 2033 1201 300 MP stroke
1 1 1 0 1 0 1 0 1 1 1 0 1 0 1 1 
1 0 1 0 1 0 -1 0 2 3 1 1 1 0 1 0 
1 0 1 1 1 0 1 0 1 1 1 0 1 1 1 0 
1 0 1 4 1 0 1 0 1 0 1 0 1 0 1 1 
1 0 1 0 1 0 1 0 1 0 1 1 1 0 1 0 
1 0 1 0 1 0 1 1 1 0 1 0 1 0 1 0 
0 5 5 0 1 0 1 0 1 0 1 1 1 0 1 0 
1 0 1 0 1 0 1 0 -1 0 3 1 1 0 1 0 
1 0 1 0 1 0 1 0 1 0 1 0 1 0 1 0 
1 1 1 0 1 0 1 0 0 5 1 0 1 0 1 0 
1 0 1 0 1 0 1 0 1 0 1 0 1 0 1 0 
1 0 1 0 1 0 1 0 1 0 1 0 1 0 1 0 
1 0 1 0 1 0 1 0 1 0 1 0 1 0 1 0 
1 0 1 0 1 0 1 0 1 0 1 0 1 0 1 0 
1 0 1 0 1 0 1 0 1 0 1 0 1 0 1 0 
1 0 1 0 1 0 1 0 1 1 1 1 1 0 1 1 
1 0 1 1 1 1 1 0 1 1 1 1 1 0 1 1 
1 0 1 1 1 1 1 0 1 1 1 0 1 1 1 1 
1 0 1 1 1 0 1 1 1 0 1 1 1 1 1 0 
1 1 1 0 1 1 1 1 1 0 1 1 1 0 1 1 
1 0 1 1 1 1 1 0 1 1 1 0 0 1 2 90 
1 0 1 0 1 0 1 0 1 0 1 0 1 0 1 0 
1 0 1 0 1 0 1 0 1 0 1 0 1 0 1 0 
1 0 1 0 1 0 1 0 1 0 1 0 1 0 1 0 
1 0 1 0 1 0 1 0 1 0 1 0 1 0 1 0 
1 0 1 0 1 0 1 0 1 0 1 0 1 0 1 0 
1 0 1 0 1 0 1 0 1 0 1 0 1 0 1 0 
1 0 3 0 1 0 1 0 1 0 1 0 1 0 1 0 
1 0 1 0 1 0 1 0 1 0 1 0 1 0 1 0 
1 0 1 0 1 0 1 0 1 0 1 0 1 0 1 0 
1 0 1 0 1 0 1 0 1 0 1 0 1 0 1 0 
1 0 1 0 1 0 1 0 1 0 1 0 1 0 1 0 
1 0 1 0 1 0 1 0 1 0 1 0 1 0 1 0 
1 0 1 0 1 0 1 0 1 0 1 0 1 0 1 0 
1 0 1 0 1 0 1 0 1 0 1 0 1 0 1 0 
1 0 1 0 1 0 1 0 1 0 1 0 1 0 1 0 
1 0 1 0 1 0 1 0 1 0 1 0 1 0 1 0 
1 0 1 0 1 0 1731 1055 300 MP stroke
1 0 1 0 1 0 1 0 1 0 1 0 1 0 1 0 
1 0 1 0 1 0 1 0 1 0 1 0 1 0 1 0 
1 0 1 0 1 0 1 0 1 0 1 0 1 0 1 0 
1 0 1 0 1 0 1 0 1 -1 1 0 1 0 1 0 
1 0 1 -1 1 0 1 0 1 0 1 0 1 -1 1 0 
1 0 1 0 1 0 1 -1 1 0 1 0 1 0 1 0 
1 -1 1 0 1 0 1 0 1 0 1 -1 1 0 1 0 
1 0 1 0 1 -1 1 0 1 0 1 0 1 0 1 -1 
1 0 1 0 1 0 1 0 1 0 1 -1 1 0 1 0 
1 0 1 0 1 0 1 -1 1 0 0 4 1 0 1 -1 
1 0 1 0 1 -1 1 -1 1 0 1 -1 1 0 1 0 
1 0 1 1 1 0 1 -1 1 0 1 0 1 -1 1 0 
1 0 1 0 1 -1 1 0 1 0 1 -1 1 0 1 -1 
1 0 1 0 1 -1 1 0 1 -1 1 0 1 -1 1 0 
1 0 1 -1 1 0 1 0 1 -1 1 0 1 -1 1 1 
1 0 1 -1 1 0 1 -1 1 1 1 0 1 -1 1 0 
1 0 1 -1 1 2 1 -1 1 0 1 -1 1 0 1 -1 
1 -1 1 -1 1 0 1 0 1 -1 1 0 1 -1 1 0 
1 -1 1 0 1 -1 1 0 1 0 1 -1 1 0 1 -1 
1 0 1 0 1 -1 1 0 1 -1 1 0 1 -1 1 0 
1 -1 1 0 1 -1 1 0 1 -1 1 0 1 0 1 0 
1 -1 1 0 1 -1 1 0 1 -1 1 0 1 -1 1 0 
1 0 1 -1 1 0 1 -1 1 0 1 -1 1 0 1 -1 
1 0 1 0 1 -1 1 -1 1 0 1 -1 1 0 1 0 
1 -1 1 0 1 0 1 -1 1 0 1 -1 1 0 1 0 
1 -1 1 0 1 -1 1 0 1 -1 1 0 1 0 1 -1 
1 0 1 -1 1 0 1 -1 1 0 1 0 1 -1 1 0 
1 -1 1 0 1 -1 1 0 1 -1 1 0 1 -1 1 0 
1 -1 1 0 1 0 1 -1 1 0 1 -1 1 0 1 -1 
1 0 1 -1 1 0 1 1 1 0 1 -1 1 -1 1 0 
1 -1 1 -1 1 -1 1 0 1 -1 1 0 1 -1 1 0 
1 -1 1 1 1 -1 1 -1 1 0 1 0 -1 0 2 0 
1 -1 1 -1 1 0 1 -1 1 0 1 -1 1 0 1 -3 
1 0 1 -1 1 0 1 -1 1 0 0 -3 1 0 1 -1 
1 0 1 0 1 -1 1 0 0 0 2 -3 1 0 1 0 
1 -1 1 0 1 0 1 -1 1 0 1 -1 1 0 1 -1 
1 0 1 0 0 -2 1 0 4 -1 1 0 1 -1 1 0 
1 0 1 0 0 4 1434 1151 300 MP stroke
1 0 1 -1 1 0 1 0 1 -1 1 2 1 -1 1 0 
1 -1 1 0 1 0 1 -1 1 0 1 2 1 -1 1 0 
1 -1 1 0 1 0 1 -1 1 0 -1 0 2 0 1 -1 
1 0 1 -1 1 0 1 -1 1 0 1 0 1 -1 1 0 
1 -1 1 0 1 0 1 -1 1 -1 1 0 1 0 1 -1 
1 0 1 -1 1 0 1 0 1 -1 1 0 1 0 1 -1 
1 0 1 -1 1 0 1 0 1 -1 1 0 1 -1 1 0 
1 0 1 -1 1 0 1 -1 1 -1 1 0 1 -1 1 0 
1 0 1 -1 1 0 1 1 1 -1 1 0 1 0 1 -1 
1 0 1 -1 1 0 1 0 1 -1 1 0 1 -1 1 0 
1 -1 1 0 1 0 1 -1 1 0 1 0 1 0 1 -1 
1 0 1 0 1 -1 1 1 1 -1 1 0 1 0 1 -1 
1 0 1 -1 1 0 1 -1 1 -1 1 0 1 0 1 -1 
0 2 1 0 1 -1 1 0 1 0 1 -1 1 -1 1 0 
1 -1 1 0 1 -1 1 0 1 -1 1 0 -1 0 2 -4 
1 -1 1 0 1 -1 1 0 1 0 1 -1 1 -1 1 0 
1 0 1 -1 1 -1 1 0 1 0 1 -1 1 -1 1 0 
1 0 1 -1 1 -1 1 0 1 0 1 -1 1 -1 1 0 
1 -1 1 0 1 -1 0 -2 1 0 1 -1 1 0 1 0 
1 -1 1 0 1 -1 1 0 0 2 1 -1 1 0 1 -1 
1 0 1 -1 1 0 1 -1 1 0 1 0 1 -1 1 0 
1 -1 1 0 1 -1 1 0 1 -1 1 0 1 -1 1 0 
1 -1 1 0 1 -1 1 0 1 -1 1 1 1 -1 1 0 
1 -1 1 0 1 -1 1 -1 1 -1 1 0 1 -1 1 0 
1 0 1 -1 1 0 1 -1 1 0 1 -1 1 0 1 -1 
1 0 0 -2 1 0 1 -1 1 0 1 -1 1 0 1 -5 
1 0 1 0 1 -1 1 0 1 0 1 -1 1 0 1 -1 
1 0 1 0 1 0 1 -1 1 0 1 -1 1 0 1 0 
1 -1 1 0 1 0 1 -1 1 0 1 -1 1 0 1 0 
1 -1 1 0 1 0 1 -1 1 0 1 -1 1 -1 1 0 
1 0 1 0 1 -1 1 0 1 -1 1 0 1 0 1 -1 
1 0 1 0 1 -1 1 -1 1 -1 1 0 1 0 1 0 
1 -1 1 0 1 0 1 -1 1 0 0 -4 1 0 1 0 
1 0 1 0 1 -1 0 7 1 0 1 -1 1 0 1 0 
1 -1 1 0 1 0 1 -1 1 0 1 -3 1 0 1 0 
1 -1 1 0 1 0 1 0 1 -1 1 0 1 0 1 -1 
1 0 1 0 1 -1 1 0 1 0 1 0 1 -1 1 0 
1 0 1 -1 1 0 1143 1272 300 MP stroke
1 0 1 0 -1 0 2 0 1 0 1 0 1 -1 1 0 
1 0 1 -1 1 0 1 0 1 -1 1 0 1 0 1 -1 
1 0 1 0 1 -1 1 0 1 0 1 -1 1 0 1 0 
1 -1 1 0 1 3 1 0 1 -1 1 0 1 0 1 -1 
1 0 1 -1 0 1 1 -1 1 0 1 0 1 -1 1 0 
1 -1 1 0 0 -2 1 0 1 0 1 -1 1 0 1 0 
1 -1 1 0 1 -1 1 2 1 0 1 -1 1 0 1 -1 
1 0 1 0 1 -1 1 0 1 -1 1 0 1 -1 1 0 
1 -1 1 0 1 0 1 -1 1 0 1 -1 1 0 1 0 
1 -1 1 0 1 0 1 -1 1 0 1 -1 0 -2 1 0 
1 0 1 -1 1 0 1 -1 1 0 1 0 1 -1 1 0 
1 -1 1 0 1 0 1 -1 1 0 1 0 1 -1 1 0 
1 -1 1 0 1 0 1 -1 1 0 1 0 1 -1 1 -1 
1 -1 1 0 1 0 1 -1 1 0 1 -1 1 0 1 0 
1 -1 1 0 1 0 1 -1 1 0 1 0 1 -1 1 0 
1 -1 1 0 1 0 1 -1 1 0 1 0 1 -1 1 0 
1 -1 1 0 1 0 1 -1 1 2 1 -1 1 0 1 -1 
1 0 1 0 1 0 1 0 1 -1 1 0 1 -1 1 0 
0 2 1 -1 1 0 1 -1 1 0 1 0 1 -1 0 2 
1 0 1 -1 1 0 1 0 1 -1 1 -1 1 0 1 -1 
1 0 1 -1 1 0 1 -1 1 0 1 -1 1 0 1 -1 
1 0 1 -1 1 0 1 -1 1 -1 1 0 1 0 -1 0 
2 -2 1 0 1 -1 1 0 1 0 -1 0 2 -3 1 0 
1 0 1 -1 1 -1 1 0 1 -2 1 -1 1 0 1 -1 
1 0 1 -1 1 0 1 -1 1 0 1 0 1 -1 1 0 
1 -1 1 0 1 -1 1 0 1 0 1 -1 1 0 1 -1 
1 0 1 -1 1 0 1 -1 1 0 1 -1 1 0 1 -1 
1 0 1 -3 1 0 1 -1 1 0 1 0 1 -1 1 -2 
2 0 1 -1 1 0 1 0 2 0 1 -1 1 0 1 0 
1 -1 1 0 0 -3 1 0 1 0 1 0 1 -1 1 0 
1 0 0 6 1 -1 1 0 1 -1 1 0 1 0 1 -3 
1 -1 1 0 1 0 1 -1 1 0 1 -1 1 0 1 0 
1 -1 1 0 1 0 1 -1 1 0 1 -1 1 0 1 0 
1 -1 1 0 1 0 1 -1 1 0 1 -1 1 0 1 0 
1 0 1 -1 0 2 1 0 1 -1 1 0 1 -1 1 0 
1 0 1 -1 1 1 1 -1 1 0 1 -1 1 0 1 -1 
1 0 -1 0 2 0 1 0 1 0 1 -1 1 -1 1 1 
1 0 1 -1 1 -1 854 1382 300 MP stroke
1 0 1 0 1 -1 1 0 1 -1 1 0 1 -1 1 0 
1 -1 1 -1 1 0 1 -1 1 0 1 -1 0 2 1 0 
1 0 1 -1 1 -1 1 0 1 -1 1 -1 1 -1 1 -1 
1 0 1 -1 1 0 1 -1 0 -4 1 0 1 -1 1 0 
1 0 1 -1 1 0 0 -2 1 0 1 0 1 -1 1 0 
1 -1 1 0 1 0 1 -1 1 -1 1 -1 1 0 1 0 
1 -1 1 0 1 0 0 -1 0 1 1 2 1 0 1 -1 
1 0 1 -1 1 0 0 -2 1 0 1 0 1 -1 1 0 
1 0 1 -1 1 -1 1 -1 1 0 1 0 1 -1 1 0 
0 -2 1 -1 1 0 1 0 1 -1 1 0 1 0 1 -1 
1 0 1 0 1 0 1 -1 1 0 1 0 1 -1 1 0 
1 -1 1 0 1 0 1 -1 0 4 1 0 1 -1 1 0 
1 -1 1 0 1 -1 1 0 1 0 1 -1 1 -1 1 0 
1 -1 1 -1 1 0 1 -1 1 0 1 -1 1 -1 1 0 
1 -1 1 0 1 -1 1 -1 1 0 1 -1 1 0 1 0 
-1 0 2 -2 1 -1 1 0 1 0 1 -1 1 0 1 -1 
1 3 1 0 1 -1 1 0 1 -1 1 -1 1 0 1 0 
1 -1 1 0 1 -1 1 0 1 0 1 -1 1 0 1 -1 
1 0 1 0 1 0 1 -1 1 0 1 -1 1 0 1 -1 
1 0 1 0 1 -1 1 0 1 -1 1 0 0 2 1 -1 
1 0 1 -1 1 0 1 -1 1 0 1 -1 1 0 1 0 
1 -1 1 -1 1 0 1 -1 1 0 1 -1 1 0 1 -1 
1 0 1 -1 1 0 1 -1 1 0 1 -1 1 -1 1 0 
1 -1 1 0 1 -1 1 0 1 -1 1 -1 1 0 1 -1 
1 0 1 -1 1 1 1 0 1 -1 1 0 1 -1 1 0 
1 -1 1 -1 1 0 1 -1 1 0 1 -1 1 -1 1 -1 
1 0 1 -1 1 0 1 -1 1 0 0 -4 1 0 1 0 
1 -1 1 0 1 0 1 -1 1 0 1 -1 1 0 1 0 
1 -1 1 0 1 -1 1 0 1 0 1 -1 1 0 1 -1 
1 0 1 0 1 -1 1 0 1 -1 1 0 1 -1 1 0 
1 0 1 -1 1 0 1 0 1 -1 1 0 1 0 1 -1 
1 0 1 -1 1 0 1 0 1 -1 1 0 1 0 1 -1 
1 0 1 -1 1 6 1 -1 1 0 1 -1 1 -1 0 -2 
1 0 1 0 1 -1 1 0 1 -1 1 0 1 -1 1 -1 
1 0 1 -1 1 0 0 -5 1 0 1 -1 1 0 1 -1 
1 0 1 0 1 -1 1 0 1 -1 1 0 1 0 1 -1 
1 0 1 -1 1 0 1 0 1 -1 1 0 1 0 1 -1 
1 -3 1 0 1 -1 568 1517 300 MP stroke
1 0 1 0 1 0 0 -3 1 0 1 -1 1 0 1 0 
1 0 1 -1 1 -1 1 0 1 -1 1 0 1 0 1 0 
0 -3 1 0 1 0 1 0 1 -1 1 0 0 -2 1 0 
1 0 1 0 1 -1 1 0 1 -2 1 0 1 0 1 0 
1 0 1 0 1 0 1 0 0 -2 1 0 1 0 1 0 
1 0 1 0 1 0 1 0 1 -1 1 0 1 0 1 0 
1 0 1 0 1 0 1 0 1 -1 1 0 1 1 1 0 
1 0 1 -1 1 0 1 0 1 1 1 0 1 0 1 0 
-1 0 2 0 1 0 1 0 1 0 1 0 1 0 1 0 
1 0 1 0 1 -1 1 0 1 -1 1 0 1 0 1 2 
1 0 1 -1 1 0 1 0 1 0 1 0 1 0 1 0 
1 -1 0 5 1 0 1 -1 1 0 1 0 1 0 1 0 
1 -1 1 0 1 0 1 0 1 -1 1 -4 1 0 1 0 
1 -1 1 0 1 0 1 0 1 0 0 15 1 -1 1 0 
1 0 1 -1 1 -1 1 6 1 -1 1 -1 1 0 1 -1 
1 -1 1 0 1 -1 1 2 1 0 1 -1 1 -1 1 -1 
1 0 1 -1 1 -1 1 0 1 -1 1 -1 1 -1 1 -1 
1 -1 0 -9 1 0 1 0 1 -1 1 0 1 -1 1 0 
1 0 1 -1 1 -1 0 -4 1 0 1 -1 1 0 1 -1 
1 0 1 0 0 -10 1 0 1 0 1 0 1 0 1 0 
1 0 1 0 416 1565 163 MP stroke
6.25 w
c10
1 0 1 0 1 0 1 0 1 0 1 0 1 0 1 0 
1 0 1 0 1 0 1 0 1 1 1 0 1 0 1 0 
1 0 1 0 1 1 1 0 1 0 1 0 1 1 1 0 
1 0 1 0 1 1 1 0 1 0 1 0 1 0 1 0 
1 0 1 0 1 0 1 0 1 0 1 0 1 0 1 0 
1 -1 1 0 1 0 1 0 1 0 1 0 1 1 1 0 
1 0 1 1 1 0 1 1 1 0 1 1 1 0 1 1 
1 1 1 0 1 1 1 0 1 1 1 1 1 0 1 0 
1 1 1 0 1 0 1 0 1 1 1 0 1 0 1 0 
1 0 1 0 1 0 1 0 1 0 1 0 1 0 1 0 
1 0 1 0 1 0 1 0 1 0 1 0 1 0 1 0 
1 1 1 0 1 0 1 1 1 0 1 1 1 0 1 1 
1 0 1 1 1 0 1 1 1 0 1 1 1 0 1 0 
1 1 1 0 1 1 1 0 1 0 1 1 1 0 1 1 
1 0 1 0 1 1 1 0 1 0 1 0 1 0 1 0 
1 -1 1 0 1 0 1 0 1 0 1 0 1 0 1 0 
1 1 1 0 1 1 1 0 1 0 1 1 1 1 1 0 
1 1 1 1 1 0 1 1 1 1 1 0 1 1 1 1 
1 1 1 0 1 1 1 0 1 1 1 1 1 0 1 0 
1 1 1 0 1 0 1 1 1 0 1 1 1 0 1 1 
1 0 1 1 1 0 1 1 1 0 1 1 1 0 1 1 
1 0 1 0 1 1 1 1 1 0 1 1 1 0 1 1 
1 0 1 1 1 0 1 0 1 1 1 1 1 0 1 0 
1 1 1 0 1 1 1 0 1 1 1 1 1 0 1 1 
1 0 1 1 1 0 1 0 1 1 1 0 1 0 1 0 
1 1 1 0 1 0 1 0 1 0 1 0 1 1 1 0 
1 0 1 0 1 0 1 0 1 0 1 0 1 0 1 0 
1 0 1 0 1 0 1 0 1 1 1 0 1 0 1 0 
1 0 1 0 1 0 1 0 1 0 1 1 1 0 1 1 
1 0 1 0 1 1 1 0 1 1 1 0 1 1 1 0 
1 1 1 0 1 1 1 1 1 1 1 0 1 1 1 0 
1 1 1 1 1 0 1 1 1 1 1 1 1 0 1 1 
1 0 1 1 1 0 1 1 1 0 1 0 1 1 1 0 
1 0 1 0 1 1 1 0 1 0 1 1 1 0 1 1 
1 0 1 0 1 1 1 0 1 1 1 0 1 0 1 1 
1 0 1 1 1 0 1 1 1 1 1 0 1 1 1 1 
1 0 1 1 1 1 1 1 1 0 1 1 1 1 1 0 
1 1 1 0 1 1 2597 1442 300 MP stroke
1 0 1 1 1 0 1 1 1 0 1 1 1 0 1 1 
1 0 1 1 1 0 1 1 1 0 1 1 1 1 1 0 
1 1 1 1 1 0 1 1 1 0 1 1 1 1 1 1 
1 0 1 1 1 1 1 0 1 1 1 1 1 0 -1 0 
2 2 1 0 1 1 1 0 1 1 1 1 1 1 1 1 
1 1 1 1 1 1 1 0 1 1 1 1 1 1 1 1 
1 0 1 1 1 1 1 1 1 0 1 1 1 1 1 0 
1 1 1 0 1 0 1 1 1 0 1 0 1 1 1 0 
1 0 1 0 1 1 1 0 1 0 1 0 1 0 1 1 
1 0 1 0 1 0 2 0 1 1 1 0 1 0 1 1 
1 0 1 0 1 0 1 1 1 0 1 1 1 0 1 1 
1 0 1 0 1 1 1 0 1 0 1 1 1 0 1 0 
1 1 1 0 1 0 1 1 1 0 1 1 1 0 1 0 
1 0 1 1 1 0 1 0 1 0 1 0 1 1 1 0 
1 0 1 0 1 0 1 0 1 0 1 0 1 0 1 0 
1 0 1 0 1 0 1 1 1 0 1 0 1 0 1 0 
1 0 1 0 1 0 1 0 1 0 1 0 1 0 1 0 
1 0 1 1 1 0 1 0 1 1 1 0 1 1 1 0 
1 1 1 0 1 0 1 1 1 0 1 0 1 1 1 0 
1 0 1 1 1 0 1 0 1 1 1 0 1 0 1 1 
1 0 1 1 1 0 1 1 1 1 1 1 1 1 1 1 
1 1 1 1 1 0 1 1 1 1 1 1 1 1 1 1 
1 1 1 1 1 1 1 1 1 1 1 1 1 1 1 1 
1 1 1 1 1 1 1 1 1 1 1 0 1 1 1 1 
1 1 1 0 1 1 1 0 1 1 1 0 1 0 1 1 
1 0 1 1 1 1 1 0 1 1 1 1 1 0 1 1 
1 0 1 1 1 1 1 0 1 1 1 0 1 1 1 0 
1 1 1 0 1 1 1 0 1 1 1 0 1 1 1 0 
1 1 1 0 1 1 1 0 1 1 1 1 1 0 1 0 
1 1 1 1 1 0 1 0 1 1 1 0 1 1 1 0 
1 0 1 1 1 0 1 0 1 0 1 1 1 0 1 0 
1 1 1 0 1 0 1 1 1 0 1 0 1 0 1 0 
1 1 1 -1 1 0 1 0 1 0 1 0 1 -1 1 0 
1 0 1 0 1 0 1 0 1 0 1 1 1 0 1 1 
1 0 1 1 1 1 1 0 1 0 1 1 1 1 1 0 
1 1 1 0 1 1 1 0 1 1 1 0 1 1 1 0 
1 1 1 0 1 0 1 1 1 0 1 0 1 0 1 0 
1 1 1 0 1 0 2298 1309 300 MP stroke
1 0 1 1 1 0 1 0 1 0 1 1 1 0 1 0 
1 1 1 0 1 1 1 1 1 0 1 1 1 0 1 1 
1 1 1 0 1 1 1 1 1 1 1 1 1 0 1 1 
1 1 1 1 1 1 1 0 1 1 1 1 1 0 1 1 
1 1 1 0 1 1 1 0 1 1 1 0 1 1 1 0 
1 0 1 0 1 1 1 0 1 0 1 0 1 -1 1 0 
1 0 1 0 1 0 1 1 1 0 1 0 1 0 1 0 
1 0 1 0 1 1 0 -1 1 1 1 0 1 0 1 0 
1 0 1 0 1 0 1 1 1 0 1 0 1 0 1 0 
1 1 1 0 1 0 1 0 1 1 1 0 1 1 1 0 
1 1 1 1 1 0 1 1 1 0 1 1 1 1 1 1 
1 1 1 1 1 0 1 1 1 1 1 1 1 1 1 1 
1 0 1 1 1 1 1 1 1 1 1 0 1 1 1 0 
1 1 1 1 1 0 1 1 1 1 1 0 1 0 1 1 
1 0 1 1 1 0 1 0 1 0 1 1 1 0 1 1 
1 0 1 0 1 0 1 1 1 0 1 1 1 0 1 0 
1 1 1 0 1 0 1 1 1 0 1 0 1 1 1 0 
1 1 1 0 1 0 1 1 1 0 -1 0 2 2 1 0 
1 1 1 0 1 1 1 1 1 0 1 1 1 0 1 1 
1 0 1 1 1 0 1 1 1 0 1 0 1 0 1 0 
1 0 1 0 1 0 1 0 1 0 1 0 1 -1 1 0 
1 0 1 0 1 0 1 -1 1 0 1 0 1 0 1 0 
1 0 1 0 1 0 1 1 1 0 1 0 1 0 1 0 
1 1 1 0 1 0 1 1 1 0 1 0 1 1 1 0 
1 1 1 0 1 1 1 0 1 1 1 1 1 0 1 0 
1 1 1 0 1 1 1 0 1 0 1 1 1 0 1 1 
1 0 1 1 1 1 1 0 1 1 1 0 1 1 1 0 
1 1 1 0 1 0 1 0 1 1 1 0 1 0 1 0 
1 0 1 0 1 0 1 0 1 0 1 0 1 1 1 0 
1 1 1 1 1 0 1 1 1 0 1 1 1 1 1 1 
1 0 1 1 1 1 1 1 1 1 1 0 1 1 1 1 
1 1 1 0 1 1 1 0 1 1 1 0 1 0 1 1 
1 0 1 0 1 1 1 0 1 1 1 0 1 0 1 1 
1 0 1 1 1 1 1 0 1 1 1 0 1 1 1 1 
1 0 1 1 1 0 1 1 1 1 1 1 1 0 1 1 
1 0 1 1 1 0 1 1 1 1 1 0 1 1 1 0 
1 1 1 0 1 1 1 0 1 0 1 1 1 0 1 1 
1 0 1 1 1 0 2001 1183 300 MP stroke
1 1 1 1 1 1 1 0 -1 0 2 2 1 0 1 1 
1 1 1 1 1 0 1 1 1 1 1 1 1 1 1 1 
0 2 5 0 0 1 1 1 1 0 1 1 1 1 1 1 
1 1 1 0 1 1 1 1 1 1 0 2 2 1 1 1 
1 0 -1 0 2 2 1 0 1 1 1 1 1 1 1 1 
1 1 1 1 1 1 1 1 1 1 1 1 1 1 1 1 
1 1 1 1 1 1 0 1 2 2 1 1 1 1 1 1 
1 1 1 1 1 1 1 1 1 1 1 1 1 1 1 1 
1 1 1 1 1 1 1 1 1 1 1 1 1 1 1 1 
1 1 1 1 1 1 1 1 1 1 1 1 1 1 1 1 
1 1 1 1 1 1 1 1 1 0 -1 0 2 2 1 0 
1 1 0 1 2 2 1 1 1 0 1 1 1 1 1 1 
1 1 1 1 1 1 1 1 1 1 1 1 0 1 2 2 
1 1 1 0 1 1 0 1 2 2 1 1 1 1 1 1 
1 0 -1 0 2 2 1 1 1 1 1 1 1 1 1 1 
1 1 1 1 0 1 2 2 1 1 1 1 1 0 0 1 
2 2 1 0 1 1 1 1 1 0 1 1 1 1 1 0 
1 0 1 0 1 0 1 0 1 0 1 0 1 0 1 0 
1 0 1 0 1 0 1 0 1 0 1 1 1 -1 1 1 
1 0 1 0 1 0 1 0 1 0 1 0 1 0 1 0 
1 0 1 0 1 0 1 0 1 0 1 0 1 0 1 0 
1 0 1 0 1 0 1 0 1 0 1 0 1 0 1 0 
1 0 1 0 1 0 1 0 1 0 1 0 1 0 1 0 
1 0 1 0 1 0 1 0 3 0 1 0 1 0 1 0 
1 0 1 0 1 0 1 0 1 0 1 0 1 0 1 0 
1 0 1 0 1 0 1 0 1 0 1 0 1 0 1 0 
1 0 1 0 1 0 1 0 1 0 1 0 1 0 1 0 
1 0 1 0 1 0 1 0 1 0 1 0 1 0 1 0 
1 0 1 0 1 0 1 0 1 0 1 0 1 0 1 0 
1 0 1 0 1 0 1 0 1 0 1 0 1 0 1 0 
1 0 1 0 1 0 1 0 1 0 1 0 1 0 1 0 
1 0 1 0 1 0 1 0 1 0 1 -1 1 0 1 0 
1 0 1 0 1 0 1 0 1 0 1 0 1 0 1 0 
1 0 1 0 1 0 1 0 1 0 1 0 1 0 1 0 
1 0 1 0 1 0 1 0 1 0 1 0 1 0 1 0 
1 0 1 0 1 1 1 0 1 0 1 0 1 0 1 0 
1 0 1 0 1 0 1 0 1 0 1 0 1 0 1 0 
1 0 1 -1 1 0 1702 1056 300 MP stroke
1 0 1 0 1 0 1 -1 1 0 1 0 1 0 1 -1 
1 0 1 0 1 0 1 0 1 -1 1 0 1 0 1 0 
1 -1 1 0 1 0 1 0 1 0 1 -1 1 0 1 0 
1 0 1 0 1 0 1 -1 1 0 1 0 1 0 1 0 
1 0 1 0 1 0 1 0 1 1 1 0 1 0 1 0 
1 0 1 0 1 0 1 0 1 0 1 0 1 0 1 0 
1 0 1 -1 1 0 1 0 1 0 1 -1 1 0 1 0 
1 0 1 -1 1 0 1 0 1 -1 1 0 1 0 1 0 
1 -1 1 0 1 -1 1 0 1 0 1 -1 1 0 1 0 
1 -1 1 0 1 0 1 -1 1 0 1 0 1 0 1 -1 
1 0 1 0 1 0 1 0 1 -1 1 0 1 0 1 0 
1 0 1 0 1 0 1 0 1 -1 1 0 1 0 1 -1 
1 0 1 0 1 -1 1 0 1 -1 1 0 1 -1 1 0 
1 -1 1 0 1 -1 1 0 1 -1 1 0 1 -1 1 0 
1 0 1 -1 1 0 1 -1 1 0 1 -1 1 0 1 0 
1 -1 1 0 1 -1 1 0 1 -1 1 0 1 -1 1 0 
1 0 1 -1 1 0 1 0 1 -1 1 0 1 0 1 -1 
1 0 1 -1 1 0 1 -1 1 0 1 -1 1 0 1 -1 
1 0 1 -1 1 0 1 -1 1 0 1 -1 1 0 1 -1 
1 0 1 -1 1 0 1 0 1 -1 1 -1 1 0 1 0 
1 -1 1 -1 1 0 1 0 1 -1 1 0 1 -1 1 -1 
1 0 1 -1 1 0 1 -1 1 0 1 -1 1 0 1 -1 
1 0 1 -1 1 0 1 -1 1 0 1 -1 1 0 1 -1 
1 0 1 -1 1 0 1 -1 1 0 1 -1 1 0 1 0 
1 -1 1 -1 1 0 1 0 1 -1 1 0 1 -1 1 0 
1 -1 1 0 1 -1 1 0 1 -1 1 -1 1 0 1 -1 
1 0 1 -1 1 -1 1 -1 1 0 1 -1 1 0 1 -1 
1 -1 1 0 1 -1 1 -1 1 -1 1 0 1 -1 1 0 
1 -1 1 -1 1 0 1 -1 1 -1 1 0 1 -1 1 0 
1 -1 1 0 1 -1 1 -1 1 0 1 0 1 -1 1 0 
1 -1 1 0 1 -1 1 0 1 0 1 -1 1 0 1 -1 
1 0 1 0 1 -1 1 0 1 0 1 0 1 -1 1 0 
1 0 1 0 1 0 -1 0 5 1 1 0 1 0 1 0 
1 0 1 0 1 0 1 0 1 0 1 -1 0 1 1 -1 
1 0 1 0 1 0 1 0 1 0 1 0 1 0 1 -1 
1 0 1 0 1 0 1 -1 1 0 1 -1 1 0 1 0 
1 -1 1 0 1 0 1 -1 1 0 1 0 1 -1 1 0 
1 -1 1 0 1 0 1402 1159 300 MP stroke
1 -1 1 0 1 -1 1 0 1 -1 1 0 1 -1 1 0 
1 -1 1 0 1 0 1 -1 1 -1 1 0 1 0 1 -1 
1 0 1 -1 1 0 1 -1 1 0 1 -1 1 0 1 0 
1 -1 1 0 1 0 1 -1 1 0 1 0 1 0 1 0 
1 0 1 -1 1 0 1 0 1 -1 1 0 1 0 1 -1 
1 0 1 0 1 -1 1 0 1 0 1 -1 1 0 1 0 
1 0 1 -1 1 0 1 0 1 0 1 -1 1 0 1 0 
1 0 1 -1 1 0 1 -1 1 0 1 0 1 -1 1 0 
1 -1 1 0 1 0 1 -1 1 0 1 -1 1 0 1 -1 
1 -1 1 -1 1 -1 1 0 1 -1 1 -1 1 -1 1 0 
1 -1 1 -1 1 -1 1 0 1 -1 1 0 1 -1 1 0 
1 -1 1 0 1 -1 1 0 1 -1 1 0 1 -1 1 0 
1 -1 1 0 1 -1 1 -1 1 0 1 0 1 -1 1 -1 
1 0 1 -1 1 0 1 -1 1 0 1 -1 1 0 1 0 
1 -1 1 0 1 0 1 0 1 -1 1 0 1 0 1 -1 
1 0 1 -1 1 0 1 -1 1 0 1 -1 1 0 1 -1 
1 0 1 -1 1 0 1 -1 1 0 1 0 1 -1 1 0 
1 -1 1 0 1 -1 1 0 1 -1 1 -1 1 0 1 -1 
1 0 1 -1 1 -1 1 -1 1 0 1 -1 1 -1 1 0 
1 -1 1 -1 1 0 1 -1 1 -1 1 0 1 -1 1 -1 
1 -1 1 0 1 -1 1 -1 1 0 1 -1 1 0 1 -1 
1 0 1 -1 1 0 1 0 1 -1 1 0 1 0 1 -1 
1 0 1 -1 1 0 1 0 1 -1 1 0 1 -1 1 0 
1 0 1 -1 1 -1 1 0 1 0 1 -1 1 -1 1 0 
1 0 1 -1 1 0 1 -1 1 0 1 -1 1 0 1 0 
1 -1 1 0 1 -1 1 0 1 0 1 -1 1 0 1 -1 
1 -1 1 0 1 0 1 0 1 -1 1 0 1 0 1 0 
1 0 1 -1 1 0 1 0 1 0 1 0 1 0 1 0 
1 0 1 0 1 0 1 -1 1 0 1 -1 1 0 1 -1 
1 0 1 -1 1 0 1 -1 1 0 1 0 1 -1 1 0 
1 0 1 -1 1 0 1 0 1 -1 1 0 1 0 1 -1 
1 0 1 -1 1 0 1 0 1 0 1 -1 1 0 1 0 
1 0 1 -1 1 0 1 0 1 0 1 -1 1 0 1 0 
1 -1 1 0 1 0 1 0 1 -1 1 0 1 0 1 0 
1 0 1 -1 1 0 1 0 1 0 1 0 1 0 1 0 
1 0 1 0 1 0 1 0 1 0 1 -1 1 0 1 0 
1 -1 1 0 1 0 1 -1 1 0 1 -1 1 0 1 -1 
1 0 1 0 1 -1 1103 1282 300 MP stroke
1 0 1 0 1 -1 1 0 1 0 1 -1 1 0 1 -1 
1 0 1 0 1 -1 1 0 1 -1 1 0 1 -1 1 0 
1 -1 1 0 1 0 1 -1 1 0 1 -1 1 0 1 0 
1 -1 1 0 1 -1 1 0 1 -1 1 -1 1 0 1 -1 
1 0 1 -1 1 0 1 -1 1 0 1 0 1 -1 1 0 
1 0 1 -1 1 0 1 -1 1 0 1 0 1 -1 1 0 
1 -1 1 0 1 -1 1 -1 1 0 1 0 1 -1 1 0 
1 -1 1 -1 1 0 1 0 1 -1 1 0 1 0 1 -1 
1 0 1 -1 1 0 1 0 1 0 1 -1 1 0 1 0 
1 -1 1 0 1 0 1 0 1 0 1 0 1 -1 0 1 
1 -1 1 0 1 0 1 0 1 0 1 0 1 0 1 0 
1 0 1 0 1 0 1 0 1 -1 1 0 1 0 1 0 
1 0 1 0 1 -1 1 0 1 0 1 0 1 -1 1 0 
1 0 1 -1 1 0 1 -1 1 -1 1 0 1 -1 1 0 
1 -1 1 -1 1 0 1 -1 1 0 1 -1 1 -1 1 0 
1 -1 1 -1 1 0 1 -1 1 0 1 -1 1 -1 1 0 
1 -1 1 0 -1 0 2 -2 1 0 1 -1 1 0 1 -1 
1 -1 1 0 1 -1 1 0 1 -1 1 -1 1 0 1 -1 
1 0 1 -1 1 0 1 -1 1 0 1 -1 1 0 1 -1 
1 0 1 -1 1 0 1 -1 1 0 1 -1 1 -1 1 -1 
1 0 1 -1 1 0 1 -1 1 -1 1 0 1 -1 1 -1 
1 -1 1 0 1 -1 1 0 1 -1 1 0 1 -1 1 0 
1 0 1 0 -1 0 3 -1 1 0 1 0 1 -1 2 0 
1 0 1 -1 1 0 1 0 1 0 1 0 1 0 1 0 
1 -1 1 0 1 -1 1 0 1 -1 1 -1 1 0 1 -1 
1 0 1 0 1 -1 1 0 1 0 1 -1 1 0 1 0 
1 -1 1 0 1 0 1 0 1 -1 1 0 1 0 1 -1 
1 0 1 0 1 0 1 0 1 0 1 0 1 -1 1 0 
1 0 1 0 1 0 1 -1 1 0 1 0 1 -1 1 0 
1 0 1 0 1 -1 1 0 1 -1 1 0 1 0 1 -1 
1 0 1 -1 1 0 1 -1 1 0 1 -1 1 0 1 -1 
1 0 1 -1 1 -1 1 0 1 0 1 -1 1 -1 1 0 
1 -1 1 0 1 -1 1 -1 1 0 1 -1 1 0 1 -1 
1 -1 1 0 1 -1 1 -1 1 -1 1 0 1 -1 1 0 
1 -1 1 -1 1 0 1 -1 1 0 1 -1 1 0 1 -1 
1 0 1 -1 1 0 1 -1 1 0 1 -1 1 0 1 0 
1 -1 1 0 1 0 1 -1 1 0 1 0 1 0 1 -1 
1 0 1 -1 1 0 805 1408 300 MP stroke
1 -1 1 -1 1 0 1 -1 1 -1 1 0 1 -1 1 0 
1 -1 1 0 1 -1 1 0 1 -1 1 0 1 -1 1 0 
1 0 1 -1 1 0 1 0 1 0 1 0 1 0 1 -1 
1 0 1 0 1 0 1 0 1 0 1 0 1 0 1 -1 
1 0 1 0 1 0 1 -1 1 0 1 -1 1 -1 1 0 
1 -1 1 -1 1 0 1 -1 1 0 1 -1 1 -1 1 0 
1 -1 1 -1 1 0 1 -1 1 0 1 0 1 -1 1 0 
1 -1 1 0 1 -1 1 0 1 0 1 -1 1 0 1 0 
1 0 1 0 1 0 1 -1 1 0 1 0 1 -1 1 0 
1 0 1 -1 1 0 1 0 1 -1 1 0 1 -1 1 0 
1 0 1 -1 1 0 1 -1 1 0 1 0 1 -1 1 -1 
1 0 1 -1 1 0 1 0 1 -1 1 0 1 -1 1 0 
1 -1 1 0 1 -1 1 0 1 -1 1 -1 1 0 1 -1 
1 0 1 -1 1 -1 1 0 1 0 1 -1 1 -1 1 0 
1 0 1 -1 1 -1 1 0 1 0 1 -1 1 0 1 -1 
1 -1 1 0 1 0 1 0 1 -1 1 0 1 -1 1 0 
1 -1 1 0 1 -1 1 0 1 0 1 -1 1 0 1 -1 
1 0 1 -1 1 -1 1 0 1 -1 1 -1 1 -1 1 0 
1 -1 1 0 1 -1 1 -1 1 -1 1 0 1 -1 1 0 
1 -1 1 0 1 -1 1 0 1 -1 1 0 1 0 1 -1 
1 0 1 0 1 -1 1 0 1 0 1 -1 1 0 1 -1 
1 0 1 0 1 -1 1 0 1 -1 1 0 1 -1 1 0 
1 0 1 -1 1 0 1 -1 1 0 1 -1 1 0 1 -1 
1 0 1 -1 1 0 1 -1 1 -1 1 0 1 -1 1 0 
1 -1 1 0 1 -1 1 0 1 -1 1 -1 1 0 1 -1 
1 -1 1 0 1 -1 1 -1 1 0 1 0 1 -1 1 -1 
0 -2 1 -1 1 0 1 1 1 2 0 5 1 0 1 -1 
1 0 1 -1 1 0 1 -1 1 0 1 -1 1 0 1 -1 
1 0 1 -1 1 -1 1 -1 1 0 1 -1 1 -1 1 -1 
1 -1 1 0 1 -1 1 0 1 -1 1 0 1 -1 1 0 
1 -1 1 0 1 0 1 0 1 -1 1 0 1 -1 1 0 
1 0 1 -1 1 0 1 0 1 -1 1 0 1 0 1 0 
1 0 1 -1 1 0 1 0 1 0 1 0 1 1 0 -1 
1 1 1 0 1 0 1 0 1 0 1 0 1 -1 1 0 
1 0 1 0 1 0 1 0 1 0 -1 0 2 0 1 0 
1 0 1 1 1 1 1 0 0 2 1 0 1 -1 1 0 
-1 0 2 -2 0 -1 1 -2 1 0 1 1 1 0 1 0 
1 0 1 1 1 0 513 1521 300 MP stroke
1 0 1 1 1 0 1 0 1 0 1 0 1 1 1 -1 
1 0 -1 0 2 0 1 1 1 0 1 0 1 0 1 0 
1 1 1 0 1 1 1 0 1 0 1 0 1 1 1 0 
1 0 1 1 1 0 1 0 1 0 1 0 1 0 1 1 
1 0 1 0 1 0 1 1 1 0 1 1 1 0 1 1 
1 0 1 0 1 1 1 0 1 0 1 0 1 1 1 -1 
1 0 1 0 1 -1 1 0 1 0 1 -1 1 -1 1 0 
1 -1 1 -1 1 -1 1 0 1 -1 1 -1 1 -1 1 -1 
1 0 1 -1 1 -1 1 -1 1 -1 1 -1 1 0 1 -1 
1 -1 1 -1 1 0 1 -1 1 -1 1 0 1 -1 1 0 
1 -1 1 0 1 0 1 -1 1 0 1 0 1 0 1 0 
1 0 1 0 1 1 1 0 1 1 1 0 1 0 1 1 
1 0 1 0 416 1530 99 MP stroke
gr

6.25 w
c10
0 sg
1509  972 mt 
(East plot) s
1521 1738 mt 
(Time [s]) s
 241 1444 mt  -90 rotate
(East [m]) s
90 rotate
2.08333 w
1 sg
0 228 824 0 0 -228 1244 710 4 MP
PP
-824 0 0 228 824 0 0 -228 1244 710 5 MP stroke
1.38889 w
DO
SO
2.08333 w
0 sg
1244  710 mt 2068  710 L
1244  482 mt 2068  482 L
1244  710 mt 1244  482 L
2068  710 mt 2068  482 L
1244  710 mt 2068  710 L
1244  710 mt 1244  482 L
1244  710 mt 2068  710 L
1244  482 mt 2068  482 L
1244  710 mt 1244  482 L
2068  710 mt 2068  482 L
%%IncludeResource: font Helvetica
/Helvetica /ISOLatin1Encoding 58.3333 FMSR

1411  545 mt 
(Diver measured) s
gs 1244 482 825 229 rc
gs 1307 497 53 53 rc
c8
1325  515 mt 1341  531 L
1341  515 mt 1325  531 L
gr

c8
gr

c8
0 sg
1411  618 mt 
(Diver estimated) s
gs 1244 482 825 229 rc
8.33333 w
c9
129 0 1269 596 2 MP stroke
gr

8.33333 w
c9
0 sg
1411  690 mt 
(ASV) s
%%IncludeResource: font Helvetica-Oblique
/Helvetica-Oblique /ISOLatin1Encoding 58.3333 FMSR

1527  690 mt 
( PlaDyPos) s
%%IncludeResource: font Helvetica
/Helvetica /ISOLatin1Encoding 58.3333 FMSR

1796  690 mt 
( estimated) s
gs 1244 482 825 229 rc
6.25 w
c10
129 0 1269 668 2 MP stroke
2.08333 w
gr

2.08333 w
c10

end %%Color Dict

eplot
%%EndObject

epage
end

showpage

%%Trailer
%%EOF
