%!PS-Adobe-3.0 EPSF-3.0
%%Creator: MATLAB, The MathWorks, Inc. Version 8.3.0.532 (R2014a). Operating System: Linux 3.13.0-49-generic #83-Ubuntu SMP Fri Apr 10 20:11:33 UTC 2015 x86_64.
%%Title: /home/dnad/Documents/publication/ram2014_data/figures/Figure3_1_NE_virtual.eps
%%CreationDate: 04/23/2015  14:06:13
%%DocumentNeededFonts: Helvetica
%%DocumentProcessColors: Cyan Magenta Yellow Black
%%LanguageLevel: 2
%%Pages: 1
%%BoundingBox:   -52   183   625   615
%%EndComments

%%BeginProlog
% MathWorks dictionary
/MathWorks 160 dict begin
% definition operators
/bdef {bind def} bind def
/ldef {load def} bind def
/xdef {exch def} bdef
/xstore {exch store} bdef
% operator abbreviations
/c  /clip ldef
/cc /concat ldef
/cp /closepath ldef
/gr /grestore ldef
/gs /gsave ldef
/mt /moveto ldef
/np /newpath ldef
/cm /currentmatrix ldef
/sm /setmatrix ldef
/rm /rmoveto ldef
/rl /rlineto ldef
/s {show newpath} bdef
/sc {setcmykcolor} bdef
/sr /setrgbcolor ldef
/sg /setgray ldef
/w /setlinewidth ldef
/j /setlinejoin ldef
/cap /setlinecap ldef
/rc {rectclip} bdef
/rf {rectfill} bdef
% page state control
/pgsv () def
/bpage {/pgsv save def} bdef
/epage {pgsv restore} bdef
/bplot /gsave ldef
/eplot {stroke grestore} bdef
% orientation switch
/portraitMode 0 def /landscapeMode 1 def /rotateMode 2 def
% coordinate system mappings
/dpi2point 0 def
% font control
/FontSize 0 def
/FMS {/FontSize xstore findfont [FontSize 0 0 FontSize neg 0 0]
  makefont setfont} bdef
/reencode {exch dup where {pop load} {pop StandardEncoding} ifelse
  exch dup 3 1 roll findfont dup length dict begin
  { 1 index /FID ne {def}{pop pop} ifelse } forall
  /Encoding exch def currentdict end definefont pop} bdef
/isroman {findfont /CharStrings get /Agrave known} bdef
/FMSR {3 1 roll 1 index dup isroman {reencode} {pop pop} ifelse
  exch FMS} bdef
/csm {1 dpi2point div -1 dpi2point div scale neg translate
 dup landscapeMode eq {pop -90 rotate}
  {rotateMode eq {90 rotate} if} ifelse} bdef
% line types: solid, dotted, dashed, dotdash
/SO { [] 0 setdash } bdef
/DO { [.5 dpi2point mul 4 dpi2point mul] 0 setdash } bdef
/DA { [6 dpi2point mul] 0 setdash } bdef
/DD { [.5 dpi2point mul 4 dpi2point mul 6 dpi2point mul 4
  dpi2point mul] 0 setdash } bdef
% macros for lines and objects
/L {lineto stroke} bdef
/MP {3 1 roll moveto 1 sub {rlineto} repeat} bdef
/AP {{rlineto} repeat} bdef
/PDlw -1 def
/W {/PDlw currentlinewidth def setlinewidth} def
/PP {closepath eofill} bdef
/DP {closepath stroke} bdef
/MR {4 -2 roll moveto dup  0 exch rlineto exch 0 rlineto
  neg 0 exch rlineto closepath} bdef
/FR {MR stroke} bdef
/PR {MR fill} bdef
/L1i {{currentfile picstr readhexstring pop} image} bdef
/tMatrix matrix def
/MakeOval {newpath tMatrix currentmatrix pop translate scale
0 0 1 0 360 arc tMatrix setmatrix} bdef
/FO {MakeOval stroke} bdef
/PO {MakeOval fill} bdef
/PD {currentlinewidth 2 div 0 360 arc fill
   PDlw -1 eq not {PDlw w /PDlw -1 def} if} def
/FA {newpath tMatrix currentmatrix pop translate scale
  0 0 1 5 -2 roll arc tMatrix setmatrix stroke} bdef
/PA {newpath tMatrix currentmatrix pop	translate 0 0 moveto scale
  0 0 1 5 -2 roll arc closepath tMatrix setmatrix fill} bdef
/FAn {newpath tMatrix currentmatrix pop translate scale
  0 0 1 5 -2 roll arcn tMatrix setmatrix stroke} bdef
/PAn {newpath tMatrix currentmatrix pop translate 0 0 moveto scale
  0 0 1 5 -2 roll arcn closepath tMatrix setmatrix fill} bdef
/vradius 0 def /hradius 0 def /lry 0 def
/lrx 0 def /uly 0 def /ulx 0 def /rad 0 def
/MRR {/vradius xdef /hradius xdef /lry xdef /lrx xdef /uly xdef
  /ulx xdef newpath tMatrix currentmatrix pop ulx hradius add uly
  vradius add translate hradius vradius scale 0 0 1 180 270 arc 
  tMatrix setmatrix lrx hradius sub uly vradius add translate
  hradius vradius scale 0 0 1 270 360 arc tMatrix setmatrix
  lrx hradius sub lry vradius sub translate hradius vradius scale
  0 0 1 0 90 arc tMatrix setmatrix ulx hradius add lry vradius sub
  translate hradius vradius scale 0 0 1 90 180 arc tMatrix setmatrix
  closepath} bdef
/FRR {MRR stroke } bdef
/PRR {MRR fill } bdef
/MlrRR {/lry xdef /lrx xdef /uly xdef /ulx xdef /rad lry uly sub 2 div def
  newpath tMatrix currentmatrix pop ulx rad add uly rad add translate
  rad rad scale 0 0 1 90 270 arc tMatrix setmatrix lrx rad sub lry rad
  sub translate rad rad scale 0 0 1 270 90 arc tMatrix setmatrix
  closepath} bdef
/FlrRR {MlrRR stroke } bdef
/PlrRR {MlrRR fill } bdef
/MtbRR {/lry xdef /lrx xdef /uly xdef /ulx xdef /rad lrx ulx sub 2 div def
  newpath tMatrix currentmatrix pop ulx rad add uly rad add translate
  rad rad scale 0 0 1 180 360 arc tMatrix setmatrix lrx rad sub lry rad
  sub translate rad rad scale 0 0 1 0 180 arc tMatrix setmatrix
  closepath} bdef
/FtbRR {MtbRR stroke } bdef
/PtbRR {MtbRR fill } bdef
/stri 6 array def /dtri 6 array def
/smat 6 array def /dmat 6 array def
/tmat1 6 array def /tmat2 6 array def /dif 3 array def
/asub {/ind2 exch def /ind1 exch def dup dup
  ind1 get exch ind2 get sub exch } bdef
/tri_to_matrix {
  2 0 asub 3 1 asub 4 0 asub 5 1 asub
  dup 0 get exch 1 get 7 -1 roll astore } bdef
/compute_transform {
  dmat dtri tri_to_matrix tmat1 invertmatrix 
  smat stri tri_to_matrix tmat2 concatmatrix } bdef
/ds {stri astore pop} bdef
/dt {dtri astore pop} bdef
/db {2 copy /cols xdef /rows xdef mul dup 3 mul string
  currentfile 
  3 index 0 eq {/ASCIIHexDecode filter}
  {/ASCII85Decode filter 3 index 2 eq {/RunLengthDecode filter} if }
  ifelse exch readstring pop
  dup 0 3 index getinterval /rbmap xdef
  dup 2 index dup getinterval /gbmap xdef
  1 index dup 2 mul exch getinterval /bbmap xdef pop pop}bdef
/it {gs np dtri aload pop moveto lineto lineto cp c
  cols rows 8 compute_transform 
  rbmap gbmap bbmap true 3 colorimage gr}bdef
/il {newpath moveto lineto stroke}bdef
currentdict end def
%%EndProlog

%%BeginSetup
MathWorks begin

0 cap

end
%%EndSetup

%%Page: 1 1
%%BeginPageSetup
%%PageBoundingBox:   -52   183   625   615
MathWorks begin
bpage
%%EndPageSetup

%%BeginObject: obj1
bplot

/dpi2point 4.16667 def
portraitMode -0320 2550 csm

  101   -16  2825  1800 rc
85 dict begin %Colortable dictionary
/c0 { 0.000000 0.000000 0.000000 sr} bdef
/c1 { 1.000000 1.000000 1.000000 sr} bdef
/c2 { 0.900000 0.000000 0.000000 sr} bdef
/c3 { 0.000000 0.820000 0.000000 sr} bdef
/c4 { 0.000000 0.000000 0.800000 sr} bdef
/c5 { 0.910000 0.820000 0.320000 sr} bdef
/c6 { 1.000000 0.260000 0.820000 sr} bdef
/c7 { 0.000000 0.820000 0.820000 sr} bdef
c0
1 j
1 sg
   0    0 3200 1802 rf
2.08333 w
0 1468 2479 0 0 -1468 416 1603 4 MP
PP
-2479 0 0 1468 2479 0 0 -1468 416 1603 5 MP stroke
1.38889 w
DO
0 sg
 416 1603 mt  416  135 L
 416  135 mt  416  135 L
 795 1603 mt  795  135 L
 795  135 mt  795  135 L
1175 1603 mt 1175  135 L
1175  135 mt 1175  135 L
1554 1603 mt 1554  135 L
1554  135 mt 1554  135 L
1934 1603 mt 1934  135 L
1934  135 mt 1934  135 L
2314 1603 mt 2314  135 L
2314  135 mt 2314  135 L
2693 1603 mt 2693  135 L
2693  135 mt 2693  135 L
 416 1490 mt 2895 1490 L
2895 1490 mt 2895 1490 L
 416 1264 mt 2895 1264 L
2895 1264 mt 2895 1264 L
 416 1038 mt 2895 1038 L
2895 1038 mt 2895 1038 L
 416  812 mt 2895  812 L
2895  812 mt 2895  812 L
 416  586 mt 2895  586 L
2895  586 mt 2895  586 L
 416  360 mt 2895  360 L
2895  360 mt 2895  360 L
 416  135 mt 2895  135 L
2895  135 mt 2895  135 L
SO
2.08333 w
 416 1603 mt 2895 1603 L
 416  135 mt 2895  135 L
 416 1603 mt  416  135 L
2895 1603 mt 2895  135 L
 416 1603 mt 2895 1603 L
 416 1603 mt  416  135 L
 416 1603 mt  416 1578 L
 416  135 mt  416  159 L
%%IncludeResource: font Helvetica
/Helvetica /ISOLatin1Encoding 75 FMSR

 375 1684 mt 
(55) s
 795 1603 mt  795 1578 L
 795  135 mt  795  159 L
 754 1684 mt 
(60) s
1175 1603 mt 1175 1578 L
1175  135 mt 1175  159 L
1134 1684 mt 
(65) s
1554 1603 mt 1554 1578 L
1554  135 mt 1554  159 L
1513 1684 mt 
(70) s
1934 1603 mt 1934 1578 L
1934  135 mt 1934  159 L
1893 1684 mt 
(75) s
2314 1603 mt 2314 1578 L
2314  135 mt 2314  159 L
2273 1684 mt 
(80) s
2693 1603 mt 2693 1578 L
2693  135 mt 2693  159 L
2652 1684 mt 
(85) s
 416 1490 mt  440 1490 L
2895 1490 mt 2870 1490 L
 256 1517 mt 
(-8.2) s
 416 1264 mt  440 1264 L
2895 1264 mt 2870 1264 L
 215 1291 mt 
(-8.18) s
 416 1038 mt  440 1038 L
2895 1038 mt 2870 1038 L
 215 1065 mt 
(-8.16) s
 416  812 mt  440  812 L
2895  812 mt 2870  812 L
 215  839 mt 
(-8.14) s
 416  586 mt  440  586 L
2895  586 mt 2870  586 L
 215  613 mt 
(-8.12) s
 416  360 mt  440  360 L
2895  360 mt 2870  360 L
 256  387 mt 
(-8.1) s
 416  135 mt  440  135 L
2895  135 mt 2870  135 L
 215  162 mt 
(-8.08) s
 416 1603 mt 2895 1603 L
 416  135 mt 2895  135 L
 416 1603 mt  416  135 L
2895 1603 mt 2895  135 L
1510   78 mt 
(E-N plot) s
gs 416 135 2480 1469 rc
gr

/c8 { 1.000000 0.000000 0.000000 sr} bdef
c8
 510 1475 mt  526 1491 L
 526 1475 mt  510 1491 L
 604 1042 mt  620 1058 L
 620 1042 mt  604 1058 L
 698 1046 mt  714 1062 L
 714 1046 mt  698 1062 L
 790 1015 mt  806 1031 L
 806 1015 mt  790 1031 L
 880  994 mt  896 1010 L
 896  994 mt  880 1010 L
 969  965 mt  985  981 L
 985  965 mt  969  981 L
1063  891 mt 1079  907 L
1079  891 mt 1063  907 L
1151  965 mt 1167  981 L
1167  965 mt 1151  981 L
1242  965 mt 1258  981 L
1258  965 mt 1242  981 L
1336  957 mt 1352  973 L
1352  957 mt 1336  973 L
1424  965 mt 1440  981 L
1440  965 mt 1424  981 L
1515  965 mt 1531  981 L
1531  965 mt 1515  981 L
1607  965 mt 1623  981 L
1623  965 mt 1607  981 L
1702 1189 mt 1718 1205 L
1718 1189 mt 1702 1205 L
1791  863 mt 1807  879 L
1807  863 mt 1791  879 L
1880  965 mt 1896  981 L
1896  965 mt 1880  981 L
1971  965 mt 1987  981 L
1987  965 mt 1971  981 L
2064  468 mt 2080  484 L
2080  468 mt 2064  484 L
2153  965 mt 2169  981 L
2169  965 mt 2153  981 L
2247  955 mt 2263  971 L
2263  955 mt 2247  971 L
2335  965 mt 2351  981 L
2351  965 mt 2335  981 L
2429 1073 mt 2445 1089 L
2445 1073 mt 2429 1089 L
2518  965 mt 2534  981 L
2534  965 mt 2518  981 L
2611  967 mt 2627  983 L
2627  967 mt 2611  983 L
2703  981 mt 2719  997 L
2719  981 mt 2703  997 L
2791  965 mt 2807  981 L
2807  965 mt 2791  981 L
2703 1049 mt 2719 1065 L
2719 1049 mt 2703 1065 L
2605  945 mt 2621  961 L
2621  945 mt 2605  961 L
2518  965 mt 2534  981 L
2534  965 mt 2518  981 L
2423 1020 mt 2439 1036 L
2439 1020 mt 2423 1036 L
2335  965 mt 2351  981 L
2351  965 mt 2335  981 L
2243  944 mt 2259  960 L
2259  944 mt 2243  960 L
2151  921 mt 2167  937 L
2167  921 mt 2151  937 L
gs 416 135 2480 1469 rc
gr

1971  965 mt 1987  981 L
1987  965 mt 1971  981 L
1880  736 mt 1896  752 L
1896  736 mt 1880  752 L
1787  852 mt 1803  868 L
1803  852 mt 1787  868 L
1696  990 mt 1712 1006 L
1712  990 mt 1696 1006 L
1607  965 mt 1623  981 L
1623  965 mt 1607  981 L
1515  965 mt 1531  981 L
1531  965 mt 1515  981 L
1423 1055 mt 1439 1071 L
1439 1055 mt 1423 1071 L
1332  941 mt 1348  957 L
1348  941 mt 1332  957 L
1242  965 mt 1258  981 L
1258  965 mt 1242  981 L
1149  943 mt 1165  959 L
1165  943 mt 1149  959 L
1060  965 mt 1076  981 L
1076  965 mt 1060  981 L
 969  965 mt  985  981 L
 985  965 mt  969  981 L
 878  965 mt  894  981 L
 894  965 mt  878  981 L
 785  930 mt  801  946 L
 801  930 mt  785  946 L
 695  965 mt  711  981 L
 711  965 mt  695  981 L
 604  965 mt  620  981 L
 620  965 mt  604  981 L
 511  916 mt  527  932 L
 527  916 mt  511  932 L
 604  965 mt  620  981 L
 620  965 mt  604  981 L
 695  965 mt  711  981 L
 711  965 mt  695  981 L
 787  965 mt  803  981 L
 803  965 mt  787  981 L
 878  965 mt  894  981 L
 894  965 mt  878  981 L
 969  965 mt  985  981 L
 985  965 mt  969  981 L
1060  965 mt 1076  981 L
1076  965 mt 1060  981 L
1151  965 mt 1167  981 L
1167  965 mt 1151  981 L
1245  864 mt 1261  880 L
1261  864 mt 1245  880 L
1333  916 mt 1349  932 L
1349  916 mt 1333  932 L
1424  965 mt 1440  981 L
1440  965 mt 1424  981 L
1517  891 mt 1533  907 L
1533  891 mt 1517  907 L
1609 1020 mt 1625 1036 L
1625 1020 mt 1609 1036 L
1700  909 mt 1716  925 L
1716  909 mt 1700  925 L
1789  965 mt 1805  981 L
1805  965 mt 1789  981 L
1882  957 mt 1898  973 L
1898  957 mt 1882  973 L
1971  965 mt 1987  981 L
1987  965 mt 1971  981 L
2064 1060 mt 2080 1076 L
2080 1060 mt 2064 1076 L
2153  965 mt 2169  981 L
2169  965 mt 2153  981 L
2244  965 mt 2260  981 L
2260  965 mt 2244  981 L
2335  965 mt 2351  981 L
2351  965 mt 2335  981 L
2427  965 mt 2443  981 L
2443  965 mt 2427  981 L
2518  965 mt 2534  981 L
2534  965 mt 2518  981 L
2611 1010 mt 2627 1026 L
2627 1010 mt 2611 1026 L
2701 1096 mt 2717 1112 L
2717 1096 mt 2701 1112 L
2793  992 mt 2809 1008 L
2809  992 mt 2793 1008 L
2700  965 mt 2716  981 L
2716  965 mt 2700  981 L
2609  965 mt 2625  981 L
2625  965 mt 2609  981 L
2518  965 mt 2534  981 L
2534  965 mt 2518  981 L
2427  965 mt 2443  981 L
2443  965 mt 2427  981 L
2334  812 mt 2350  828 L
2350  812 mt 2334  828 L
2244  965 mt 2260  981 L
2260  965 mt 2244  981 L
2153  965 mt 2169  981 L
2169  965 mt 2153  981 L
2062  965 mt 2078  981 L
2078  965 mt 2062  981 L
1969  926 mt 1985  942 L
1985  926 mt 1969  942 L
1880  965 mt 1896  981 L
1896  965 mt 1880  981 L
1789  965 mt 1805  981 L
1805  965 mt 1789  981 L
1698  965 mt 1714  981 L
1714  965 mt 1698  981 L
1605  966 mt 1621  982 L
1621  966 mt 1605  982 L
1515  965 mt 1531  981 L
1531  965 mt 1515  981 L
1422 1002 mt 1438 1018 L
1438 1002 mt 1422 1018 L
1330 1078 mt 1346 1094 L
1346 1078 mt 1330 1094 L
1241  849 mt 1257  865 L
1257  849 mt 1241  865 L
1151  965 mt 1167  981 L
1167  965 mt 1151  981 L
1060  965 mt 1076  981 L
1076  965 mt 1060  981 L
 967  963 mt  983  979 L
 983  963 mt  967  979 L
 875 1005 mt  891 1021 L
 891 1005 mt  875 1021 L
 787  965 mt  803  981 L
 803  965 mt  787  981 L
 695  965 mt  711  981 L
 711  965 mt  695  981 L
 604  965 mt  620  981 L
 620  965 mt  604  981 L
 513  965 mt  529  981 L
 529  965 mt  513  981 L
 604  965 mt  620  981 L
 620  965 mt  604  981 L
 698  957 mt  714  973 L
 714  957 mt  698  973 L
 787  965 mt  803  981 L
 803  965 mt  787  981 L
 880  933 mt  896  949 L
 896  933 mt  880  949 L
 969  965 mt  985  981 L
 985  965 mt  969  981 L
1060  965 mt 1076  981 L
1076  965 mt 1060  981 L
1154  910 mt 1170  926 L
1170  910 mt 1154  926 L
1245  926 mt 1261  942 L
1261  926 mt 1245  942 L
1336  959 mt 1352  975 L
1352  959 mt 1336  975 L
1424  965 mt 1440  981 L
1440  965 mt 1424  981 L
1518  959 mt 1534  975 L
1534  959 mt 1518  975 L
1609 1093 mt 1625 1109 L
1625 1093 mt 1609 1109 L
1698  965 mt 1714  981 L
1714  965 mt 1698  981 L
1789  965 mt 1805  981 L
1805  965 mt 1789  981 L
1880  965 mt 1896  981 L
1896  965 mt 1880  981 L
1973  896 mt 1989  912 L
1989  896 mt 1973  912 L
2065  985 mt 2081 1001 L
2081  985 mt 2065 1001 L
2153  965 mt 2169  981 L
2169  965 mt 2153  981 L
2244  965 mt 2260  981 L
2260  965 mt 2244  981 L
2338  650 mt 2354  666 L
2354  650 mt 2338  666 L
2429  910 mt 2445  926 L
2445  910 mt 2429  926 L
2519  903 mt 2535  919 L
2535  903 mt 2519  919 L
2612  972 mt 2628  988 L
2628  972 mt 2612  988 L
2704 1104 mt 2720 1120 L
2720 1104 mt 2704 1120 L
2793  969 mt 2809  985 L
2809  969 mt 2793  985 L
2700  965 mt 2716  981 L
2716  965 mt 2700  981 L
2607 1067 mt 2623 1083 L
2623 1067 mt 2607 1083 L
2514  958 mt 2530  974 L
2530  958 mt 2514  974 L
2427  965 mt 2443  981 L
2443  965 mt 2427  981 L
2332 1008 mt 2348 1024 L
2348 1008 mt 2332 1024 L
2244  965 mt 2260  981 L
2260  965 mt 2244  981 L
2153  965 mt 2169  981 L
2169  965 mt 2153  981 L
2062  965 mt 2078  981 L
2078  965 mt 2062  981 L
1971  965 mt 1987  981 L
1987  965 mt 1971  981 L
1877 1079 mt 1893 1095 L
1893 1079 mt 1877 1095 L
1789  965 mt 1805  981 L
1805  965 mt 1789  981 L
1698  965 mt 1714  981 L
1714  965 mt 1698  981 L
1607 1036 mt 1623 1052 L
1623 1036 mt 1607 1052 L
1513 1034 mt 1529 1050 L
1529 1034 mt 1513 1050 L
1424  965 mt 1440  981 L
1440  965 mt 1424  981 L
1333  965 mt 1349  981 L
1349  965 mt 1333  981 L
1242  965 mt 1258  981 L
1258  965 mt 1242  981 L
1151  965 mt 1167  981 L
1167  965 mt 1151  981 L
1058 1153 mt 1074 1169 L
1074 1153 mt 1058 1169 L
 967 1074 mt  983 1090 L
 983 1074 mt  967 1090 L
 878  965 mt  894  981 L
 894  965 mt  878  981 L
 787  965 mt  803  981 L
 803  965 mt  787  981 L
 693  930 mt  709  946 L
 709  930 mt  693  946 L
 604  965 mt  620  981 L
 620  965 mt  604  981 L
 511  895 mt  527  911 L
 527  895 mt  511  911 L
gs 416 135 2480 1469 rc
8.33333 w
/c9 { 0.000000 0.000000 1.000000 sr} bdef
c9
-1 0 -2 1 -2 0 -3 1 -2 0 -2 0 -2 1 -3 0 
-2 0 -2 1 -3 0 -2 1 -2 0 -2 0 -3 1 -2 0 
-2 0 -3 1 -2 0 -2 1 -2 0 -3 0 -2 1 -2 0 
-3 0 -2 1 -2 0 -2 1 -3 0 -2 0 -2 1 -3 0 
-2 0 -2 1 -2 0 -3 1 -2 0 -2 0 -3 1 -2 0 
-2 0 -2 1 -3 0 -2 1 -2 0 -3 0 -4 -63 -2 1 
-3 1 -2 0 -2 1 -2 1 -3 1 -2 1 -2 0 -2 1 
-3 1 -2 1 -2 1 -2 0 -3 1 -2 1 -2 1 -2 1 
-3 0 -2 1 -2 1 -2 1 -3 1 -2 0 -2 1 -2 1 
-3 1 -2 1 -2 0 -2 1 -3 1 -2 1 -2 1 -2 0 
-3 1 -2 1 -2 1 -2 1 -3 0 -2 1 0 123 -3 0 
-2 0 -2 0 -2 0 -3 0 -2 0 -2 0 -3 0 -2 0 
-2 0 -2 0 -3 0 -2 0 -2 0 -3 0 -2 0 -2 -1 
-2 0 -3 0 -2 0 -2 0 -2 0 -3 0 -2 0 -2 0 
-3 0 -2 0 -2 0 -5 0 -2 0 -5 0 -2 0 -4 0 
-5 0 -2 0 -5 1 -2 0 -5 0 -4 0 -2 0 -3 0 
-2 0 -2 0 -3 0 -4 0 -2 0 -3 0 -2 0 -2 0 
-2 0 -3 0 -2 0 -2 0 -3 0 -2 0 -2 0 -2 0 
-3 0 -2 0 -2 0 -3 0 -2 0 -2 -1 -2 0 -3 0 
-2 0 -2 0 -2 0 -3 0 -2 0 -2 0 -3 2 -2 0 
-2 0 -2 -1 -3 0 -2 0 -2 0 -3 0 -2 0 -2 0 
-2 0 -3 0 -2 0 -2 0 -2 0 -3 0 -2 0 -2 0 
-3 0 -2 0 -2 0 -2 0 -3 0 -2 0 -2 0 -3 0 
-2 0 -2 0 -2 0 -3 0 -2 0 -2 -1 -2 0 -3 0 
-2 0 -2 0 -3 0 -2 0 -2 0 -2 0 -3 1 -2 0 
-2 0 -3 0 -2 0 -2 0 -2 0 -3 0 -2 0 -2 0 
-2 0 -3 0 -2 0 -2 0 -3 0 -2 0 -2 0 -2 0 
-3 0 -2 0 -2 0 -3 -1 -2 0 -2 0 -2 0 -3 0 
-2 0 -2 0 -2 0 -3 0 -2 0 -2 0 -3 0 -2 0 
-2 0 -2 0 -3 0 -2 0 -2 0 -3 0 -2 1 -2 -1 
-2 0 -3 0 -2 0 -2 0 -2 0 -3 0 -2 0 -2 0 
-3 0 -2 0 -2 0 -2 0 -3 0 -2 0 -2 0 -3 0 
-2 0 -2 0 -2 0 -3 -1 -2 0 -2 0 -2 0 -3 0 
-2 0 -2 0 -3 0 -2 0 -2 0 -2 0 -3 0 -2 0 
-2 0 -3 0 -2 0 -2 0 -2 0 -3 0 -2 0 -2 0 
-2 -1 -3 0 -2 0 -2 0 -3 0 -2 0 -2 0 -2 0 
-3 0 -2 0 -2 0 -3 0 -2 0 -2 0 -2 0 -3 0 
-2 0 -2 0 -2 0 1113 973 300 MP stroke
-3 0 -2 -1 -2 0 -3 0 -2 0 -2 0 -2 0 -3 0 
-2 0 -2 0 -3 0 -2 0 -2 0 -2 0 -3 0 -2 0 
-2 0 -2 0 -3 0 -2 -2 -2 0 -3 0 -2 0 -2 0 
-2 0 -3 0 -2 0 -2 0 -3 0 -2 0 -2 0 -2 0 
-3 0 -2 0 -2 0 -2 0 -3 -1 -2 0 -2 0 -3 0 
-2 0 -2 0 -2 0 -3 0 -2 0 -2 0 -3 0 -2 0 
-2 0 -2 0 -3 0 -2 0 -2 0 -2 0 -3 0 -2 0 
-2 0 -3 0 -2 0 -2 -4 -2 0 -3 0 -2 0 -2 0 
-3 0 -2 0 -2 0 -2 0 -3 0 -2 0 -2 0 -2 0 
-3 0 -2 0 -2 0 -3 0 -2 0 -2 0 -2 0 -3 0 
-2 0 -2 0 -3 0 -2 0 -2 -1 -2 0 -3 0 -2 0 
-2 0 -2 0 -3 0 -2 0 -2 0 -3 0 -2 0 -2 0 
-2 0 -3 0 -2 0 -2 -7 -3 1 -2 0 -2 0 -2 0 
-3 0 -2 0 -2 0 -2 0 -3 0 -2 0 -2 0 -3 0 
-2 0 -2 0 -2 0 -3 0 -2 0 -2 0 -3 0 -2 0 
-2 0 -2 0 -3 0 -2 0 -2 0 -2 0 -3 0 -2 0 
-2 0 -3 0 -2 0 -2 0 -2 0 -3 0 -2 0 -2 1 
-3 0 -2 0 -2 0 -2 -11 -3 0 -2 0 -2 0 -3 0 
-2 0 -2 0 -2 0 -3 1 -2 0 -2 0 -2 0 -3 0 
-2 0 -2 0 -3 0 -2 0 -7 1 -7 0 -2 0 -2 0 
-2 0 -3 0 -2 1 -2 0 -2 0 -3 0 -4 0 -5 0 
-4 0 -3 1 -2 0 -5 -16 -2 0 -2 0 -5 1 -2 0 
-2 0 -3 0 -4 1 -2 0 -3 0 -2 1 -2 0 -2 0 
-3 0 -2 0 -2 1 -3 0 -2 0 -2 0 -2 0 -3 1 
-2 0 -2 0 -2 0 -3 0 -2 1 -2 0 -3 0 -2 0 
-2 0 -2 1 -3 0 -2 0 -2 0 -3 1 -2 0 -2 0 
-2 0 -2 32 -5 0 -2 0 -3 0 -2 0 -2 0 -2 0 
-3 0 -2 0 -2 0 -3 0 -2 0 -2 0 -2 0 -3 0 
-2 0 -2 0 -2 0 -3 0 -2 0 -2 0 -3 0 -2 0 
-2 0 -2 0 -3 0 -2 0 -2 0 -3 0 -2 0 -2 -1 
-2 0 -3 0 -2 0 -2 0 -3 0 -2 0 -2 0 -2 0 
-2 2 -3 0 -2 0 -2 0 -2 0 -3 0 -2 0 -2 0 
-3 0 -2 0 -2 0 -2 0 -3 0 -2 0 -2 0 -3 0 
-2 0 -2 0 -2 0 -3 0 -2 0 -2 0 -3 0 -2 0 
-2 0 -2 0 -3 0 -2 0 -2 0 -3 0 -2 0 -2 0 
-2 0 -3 0 -2 0 -2 0 -3 0 -2 0 -4 0 -2 2 
-3 0 -2 0 -2 0 -2 0 -3 0 -2 0 -2 0 -3 0 
-2 0 -2 0 -2 0 1821 967 300 MP stroke
-3 0 -2 0 -2 0 -3 0 -2 0 -2 -1 -2 0 -3 0 
-2 0 -2 0 -3 0 -2 0 -2 0 -3 0 -2 0 -2 0 
-2 0 -3 0 -2 0 -2 0 -3 0 -2 0 -2 0 -2 0 
-3 0 -2 0 -2 0 -3 0 -2 3 -2 0 -2 0 -3 0 
-2 0 -2 0 -2 0 -3 0 -2 0 -2 0 -3 0 -2 0 
-2 0 -3 0 -2 0 -2 -1 -2 0 -3 0 -2 0 -2 0 
-3 0 -2 0 -2 0 -2 0 -3 0 -2 0 -2 0 -3 0 
-2 0 -2 0 -3 0 -2 0 -2 0 -2 0 -3 0 -2 -1 
-2 0 -3 0 -2 0 -2 0 -4 5 -2 0 -2 -1 -3 0 
-2 0 -4 0 -3 0 -4 0 -3 0 -2 0 -2 0 -2 0 
-3 -1 -2 0 -2 0 -2 0 -3 0 -2 0 -2 0 -2 0 
-3 0 -2 0 -2 0 -3 0 -2 -1 -2 0 -2 0 -3 0 
-2 0 -2 0 -2 0 -3 0 -2 0 -2 0 -3 0 -2 0 
-2 0 -2 -1 -8 5 -2 0 -2 0 -2 0 -2 0 -3 0 
-2 0 -2 0 -2 0 -2 -1 -3 0 -2 0 -2 0 -2 0 
-2 0 -2 0 -3 0 -2 0 -2 -1 -2 0 -2 0 -3 0 
-2 0 -2 0 -2 0 -2 0 -2 -1 -3 0 -2 0 -2 0 
-2 0 -2 0 -3 0 -2 0 -2 0 -2 -1 -2 0 -2 0 
-3 0 -2 0 -12 5 -2 0 -2 0 -2 0 -2 0 -2 -1 
-2 0 -2 0 -2 0 -2 0 -2 0 -2 0 -2 -1 -2 0 
-2 0 -2 0 -2 0 -2 0 -2 0 -2 -1 -2 0 -2 0 
-2 0 -2 0 -2 0 -2 0 -2 -1 -2 0 -2 0 -2 0 
-2 0 -2 0 -2 -1 -2 0 -2 0 -2 0 -2 0 -2 0 
-2 0 -2 -1 -9 5 -2 0 -2 0 -1 0 -2 0 -2 0 
-2 -1 -2 0 -2 0 -2 0 -2 0 -2 0 -2 -1 -2 0 
-1 0 -2 0 -2 0 -2 -1 -2 0 -2 0 -2 0 -2 0 
-2 0 -2 -1 -1 0 -2 0 -2 0 -2 0 -2 0 -2 -1 
-2 0 -2 0 -2 0 -2 0 -2 -1 -1 0 -2 0 -2 0 
-2 0 -2 0 35 7 -3 0 -2 -1 -2 0 -3 0 -2 0 
-3 -1 -2 0 -3 0 -2 0 -3 -1 -44 -4 -3 -1 -2 0 
-2 0 -5 -1 -3 0 -2 0 -3 0 -2 -1 -3 0 -2 0 
-3 -1 -2 0 -3 0 -2 0 -5 -1 -2 0 -3 0 -2 -1 
-3 0 -2 0 -3 0 -2 -1 -3 0 -2 0 -6 -1 -5 -1 
-2 0 -5 -1 -5 0 -2 0 -3 -1 -4 0 -3 0 -2 -1 
-5 0 -3 0 -4 -1 -5 0 -3 -1 -2 0 -2 0 -8 -1 
-2 0 -2 0 -3 -1 -2 0 -3 0 -2 0 -2 -1 -3 0 
-2 0 -3 0 -2 -1 -2 0 -3 0 -37 -7 -1 0 -2 0 
-2 0 -2 -1 -2 0 2579 993 300 MP stroke
-2 0 -1 0 -2 0 -2 -1 -2 0 -2 0 -1 0 -2 0 
-2 0 -2 -1 -2 0 -2 0 -1 0 -2 0 -4 -1 -2 0 
-1 0 -2 0 -2 -1 -2 0 -2 0 -2 0 -3 0 -2 -1 
-2 0 -2 0 -1 0 -2 0 -2 -1 -2 0 -2 0 -2 0 
-1 0 -98 -19 -1 -1 -1 0 -1 0 -1 0 -1 0 -1 0 
-1 0 -140 47 4 0 3 0 2 0 2 0 2 0 3 0 
2 0 2 0 2 0 3 0 2 0 2 0 2 0 3 0 
2 0 2 0 2 0 3 0 2 0 2 0 2 0 5 0 
4 0 5 0 2 0 2 0 2 0 3 0 2 0 2 0 
2 0 3 0 2 0 2 0 1 0 2 0 2 0 2 0 
3 0 2 0 2 0 2 0 3 0 2 0 2 0 5 0 
4 0 3 0 2 0 2 0 3 0 2 0 4 0 3 0 
2 0 2 0 2 0 3 0 4 0 3 0 2 0 2 0 
2 0 3 0 2 0 2 0 3 0 2 0 2 0 5 0 
2 0 2 0 2 0 2 0 3 0 2 0 2 0 3 0 
2 0 2 0 2 0 3 0 2 0 2 -1 3 0 2 0 
2 0 2 0 3 0 2 0 2 0 3 0 2 0 2 0 
2 0 5 0 2 0 3 0 2 0 2 0 5 0 4 0 
3 0 2 0 2 0 2 0 3 0 1 0 2 0 3 0 
2 0 2 0 3 0 2 0 2 0 5 0 2 0 2 0 
5 0 2 0 3 0 2 0 2 0 2 0 3 0 2 0 
2 0 3 0 2 0 2 0 3 0 2 0 2 0 2 0 
3 0 2 0 2 0 3 0 4 0 3 0 4 0 2 0 
3 0 1 -1 3 0 2 0 2 0 3 0 2 0 2 0 
3 0 2 0 5 0 2 0 2 0 2 0 3 0 2 0 
2 0 3 0 2 0 5 0 2 0 2 0 3 0 2 0 
2 0 5 0 2 0 2 0 5 0 5 0 2 0 2 0 
3 0 2 0 5 0 4 -2 2 0 2 0 2 0 3 0 
2 0 2 0 3 0 2 0 4 0 3 0 2 0 5 0 
2 0 4 0 5 0 2 0 3 0 2 0 2 0 2 0 
3 0 2 0 2 0 3 0 4 0 2 0 3 0 2 0 
2 0 3 0 2 0 2 0 2 0 5 -2 3 0 2 0 
2 0 2 0 3 0 2 0 2 0 3 0 4 0 2 0 
3 0 4 0 3 0 2 0 2 0 2 0 3 0 4 0 
2 0 10 1 2 0 2 0 2 0 3 0 2 0 2 0 
2 0 3 0 2 0 2 0 3 0 2 0 2 0 5 -4 
3 0 4 0 2 0 2 0 3 0 2 0 2 0 2 0 
3 0 2 0 2 0 2220 981 300 MP stroke
2 0 5 0 2 0 2 0 2 0 3 0 2 1 2 0 
2 0 2 0 5 0 2 0 2 0 3 0 2 0 2 0 
2 0 2 0 3 0 2 0 4 0 3 0 2 0 -1 7 
5 0 2 0 2 0 2 0 3 0 2 0 2 0 3 0 
2 0 2 0 2 0 3 0 2 0 2 0 2 0 3 0 
2 0 2 0 3 0 2 0 4 0 3 0 2 0 2 0 
5 0 2 0 2 0 3 0 2 0 2 0 2 0 3 0 
2 0 2 0 5 0 2 0 4 0 2 0 3 0 4 0 
2 0 3 0 2 0 2 0 2 0 5 0 4 0 3 0 
2 0 4 0 3 0 2 0 2 0 5 0 2 0 2 0 
2 0 3 0 2 0 2 0 2 0 3 0 2 0 2 0 
4 0 5 0 2 0 5 0 5 0 3 0 2 0 4 0 
2 0 3 0 2 0 2 0 2 0 2 0 2 0 3 0 
2 0 2 0 2 0 5 0 4 0 4 0 2 0 3 0 
2 0 2 0 4 0 3 0 2 0 2 0 2 0 2 0 
3 0 2 0 2 0 2 0 2 0 2 0 -3 0 5 0 
2 0 5 0 2 0 2 0 2 0 3 0 2 0 2 0 
5 0 4 0 3 0 2 0 2 0 3 0 9 0 2 0 
2 0 2 0 3 0 2 0 2 0 3 0 2 0 2 0 
2 0 3 0 2 0 2 0 3 0 2 0 2 0 2 0 
3 0 2 0 2 0 2 0 3 0 2 0 2 0 3 0 
2 0 2 0 2 0 3 0 2 0 2 0 3 0 2 0 
2 0 2 0 3 0 2 0 2 0 2 0 3 0 2 0 
2 0 3 0 2 0 2 0 2 0 3 0 2 0 2 0 
3 0 2 0 2 0 2 0 3 0 2 0 2 0 2 0 
3 0 2 0 2 0 3 0 2 0 2 0 2 0 3 0 
2 0 2 0 3 0 2 0 2 0 2 0 3 0 2 0 
2 0 2 0 3 0 2 0 2 0 3 0 2 0 2 0 
2 0 3 0 2 0 2 0 3 0 2 0 2 0 2 0 
3 0 2 0 2 0 2 0 3 0 2 0 5 0 2 0 
2 0 2 0 3 0 2 0 2 0 3 0 2 0 2 0 
2 0 3 0 2 0 2 0 2 0 3 0 2 0 2 0 
3 0 2 0 2 0 2 0 3 0 2 0 2 0 3 0 
2 0 2 0 2 0 3 0 2 0 2 0 2 0 3 0 
2 0 2 0 3 0 2 0 2 0 2 0 3 0 2 0 
2 0 3 0 2 0 2 0 2 0 3 0 2 0 2 0 
3 0 2 0 2 0 2 0 3 0 2 0 2 0 3 0 
2 0 2 0 2 0 1485 973 300 MP stroke
3 0 2 0 2 0 2 0 3 0 2 0 2 0 3 0 
2 0 2 0 2 0 3 0 2 0 2 0 2 0 3 0 
2 0 2 0 3 0 2 0 2 0 2 0 3 0 2 0 
2 0 3 0 2 0 2 0 3 0 2 0 2 0 2 0 
3 0 2 0 2 0 2 0 3 0 2 0 2 0 3 0 
2 0 2 0 2 0 3 0 2 0 2 1 2 0 3 0 
2 0 2 0 3 0 2 0 2 0 2 0 3 0 2 0 
2 0 2 0 3 0 2 0 2 0 3 0 2 0 2 0 
3 0 2 0 2 0 2 0 5 0 2 0 2 0 3 0 
2 0 2 0 3 0 2 0 2 0 2 0 3 0 2 0 
2 0 2 0 3 0 2 0 2 0 2 0 3 0 2 0 
2 0 3 0 2 0 2 0 2 0 3 0 2 0 2 0 
2 0 3 0 2 0 2 0 3 0 1 1 3 0 2 0 
2 0 3 0 2 0 2 0 2 0 3 0 2 0 2 0 
2 0 3 0 2 0 2 0 3 0 2 0 2 0 2 0 
3 0 2 0 4 0 3 0 2 0 2 0 3 0 2 0 
2 0 2 0 3 0 2 0 2 0 3 0 2 0 2 1 
2 0 3 0 2 0 2 0 0 1 3 0 2 0 2 0 
3 0 2 0 2 0 3 0 2 0 2 0 3 0 2 0 
2 0 2 0 3 0 2 0 2 0 3 0 2 0 2 0 
3 0 2 0 2 0 3 0 2 0 2 0 5 0 2 0 
5 0 2 0 2 0 3 0 2 0 2 0 5 0 2 0 
2 0 -2 3 2 0 3 0 2 0 3 0 2 0 2 0 
3 0 2 0 2 0 3 0 2 0 3 0 2 0 2 0 
3 0 2 0 3 0 2 0 2 -1 3 0 2 0 3 0 
2 0 2 0 3 0 2 0 2 0 3 0 2 0 3 0 
2 0 2 0 3 0 2 0 3 0 2 0 2 0 3 0 
2 0 -3 3 2 0 3 0 2 0 3 0 2 0 3 0 
2 0 2 0 3 0 2 0 3 -1 2 0 3 0 2 0 
3 0 2 0 3 0 2 0 3 0 2 0 3 0 2 0 
3 0 2 0 3 -1 2 0 3 0 2 0 3 0 2 0 
3 0 2 0 3 0 2 0 3 0 2 0 3 0 2 0 
3 -1 5 2 3 0 2 0 2 0 3 0 2 0 3 0 
2 0 3 0 2 -1 2 0 3 0 2 0 3 0 2 0 
3 0 2 0 3 0 2 0 2 0 3 -1 2 0 3 0 
2 0 3 0 2 0 2 0 3 0 2 0 3 0 2 0 
3 -1 2 0 3 0 2 0 2 0 3 0 2 0 3 0 
2 0 38 -1 2 0 747 969 300 MP stroke
2 0 2 0 2 0 2 0 1 0 2 0 2 0 2 0 
2 0 1 0 2 0 2 -1 2 0 2 0 2 0 1 0 
2 0 2 0 2 0 2 0 2 0 1 0 2 0 2 0 
2 0 2 0 2 -1 1 0 2 0 2 0 2 0 2 0 
1 0 2 0 2 0 2 0 2 0 2 0 99 -3 1 0 
1 0 1 0 1 0 1 0 1 0 142 -5 -2 0 -3 0 
-2 0 -2 0 -3 0 -2 0 -2 0 -2 0 -3 0 -2 1 
-2 0 -2 0 -3 0 -2 0 -2 0 -3 0 -2 0 -2 0 
-2 0 -3 0 -2 0 -2 0 -3 1 -2 0 -2 0 -2 0 
-3 0 -2 0 -2 0 -2 0 -3 0 -2 0 -2 0 -3 0 
-2 0 -2 1 -2 0 -3 0 -2 0 -2 -3 -2 0 -3 0 
-2 1 -2 0 -3 0 -2 0 -2 0 -2 0 -3 0 -2 0 
-2 0 -3 0 -2 1 -2 0 -2 0 -3 0 -2 0 -2 0 
-2 0 -3 0 -2 0 -2 0 -3 0 -2 1 -2 0 -2 0 
-3 0 -2 0 -2 0 -3 0 -2 0 -2 0 -2 0 -3 1 
-2 0 -2 0 -2 0 -3 0 -2 0 -2 -2 -2 1 -3 0 
-2 0 -2 0 -3 0 -2 0 -2 0 -2 0 -3 0 -2 1 
-2 0 -3 0 -2 0 -4 0 -5 0 -2 0 -3 0 -2 1 
-2 0 -2 0 -3 0 -2 0 -2 0 -2 0 -3 0 -2 0 
-2 1 -3 0 -2 0 -2 0 -2 0 -3 0 -2 0 -2 0 
-3 0 -2 1 -2 0 -2 0 -3 0 -2 0 -2 0 -2 0 
-3 0 -2 1 -2 0 -3 0 -2 0 -2 0 -2 0 -5 0 
-2 0 -2 1 -3 0 -2 0 -2 0 -3 0 -2 0 -2 0 
-2 0 -3 0 -2 0 -2 1 -3 0 -2 0 -2 0 -2 0 
-3 0 -2 0 -2 0 -3 0 -2 1 -2 0 -2 0 -3 0 
-2 0 -2 0 -3 4 -2 0 -2 0 -2 0 -3 0 -2 0 
-2 0 -3 0 -2 0 -2 0 -2 1 -3 0 -2 0 -2 0 
-3 0 -2 0 -2 0 -2 0 -3 0 -2 0 -2 0 -3 0 
-2 1 -2 0 -2 0 -3 0 -2 0 -2 0 -2 0 -3 0 
-2 0 -2 0 -3 0 -2 0 -2 1 -2 0 -3 0 -2 0 
-2 0 -3 0 -3 9 -2 0 -2 0 -2 0 -3 0 -2 0 
-2 0 -3 0 -2 0 -2 0 -2 0 -3 0 -2 0 -2 0 
-2 0 -3 0 -2 0 -2 0 -3 0 -2 0 -2 0 -2 0 
-3 0 -2 0 -2 0 -2 0 -3 0 -2 0 -2 0 -2 0 
-3 0 -2 0 -2 0 -3 0 -2 0 -2 0 -2 0 -3 0 
-2 0 -2 0 -1 -31 -5 1 -2 0 -2 0 -2 0 -3 1 
-2 0 -2 0 -3 0 -2 1 -2 0 -3 0 -2 0 -2 1 
-2 0 -3 0 -2 0 1015 979 300 MP stroke
-2 1 -3 0 -2 0 -2 0 -3 0 -2 1 -2 0 -2 0 
-3 0 -2 1 -2 0 -3 0 -2 0 -2 1 -2 0 -3 0 
-2 0 -2 1 -3 0 -2 0 -2 0 -3 1 -2 -1 -2 0 
-2 1 -3 0 -2 0 -2 0 -2 1 -3 0 -2 0 -2 0 
-3 1 -4 0 -3 0 -2 1 -2 0 -2 0 -3 0 -2 1 
-2 0 -3 0 -2 0 -2 1 -3 0 -2 0 -2 0 -2 1 
-3 0 -2 0 -2 0 -3 0 -2 1 -2 0 -3 0 -2 0 
-2 1 -2 0 -3 0 -2 0 -2 1 -5 6 -2 0 -2 1 
-3 0 -2 0 -2 0 -2 0 -3 0 -2 1 -2 0 -2 0 
-3 0 -2 0 -2 1 -3 0 -2 0 -2 0 -2 0 -3 1 
-2 0 -2 0 -2 0 -3 0 -2 1 -2 0 -2 0 -3 0 
-2 0 -2 1 -2 0 -3 0 -2 0 -2 0 -3 1 -2 0 
-2 0 -2 0 -3 0 -2 1 -2 16 -2 0 -3 0 -2 1 
-2 0 -2 0 -3 0 -2 0 -2 0 -2 0 -3 0 -2 0 
-2 0 -3 0 -2 1 -2 0 -2 0 -3 0 -2 0 -2 0 
-2 0 -3 0 -2 0 -2 0 -2 0 -3 0 -2 1 -2 0 
-2 0 -3 0 -2 0 -2 0 -3 0 -2 0 -2 0 -2 0 
-3 0 -4 1 -2 0 -1 32 -2 -1 -2 0 -2 0 -3 0 
-2 0 -2 0 -3 0 -2 0 -2 -1 -3 0 -2 0 -2 0 
-2 0 -3 0 -2 0 -2 -1 -3 0 -2 0 -2 0 -3 0 
-2 0 -2 0 -2 0 -3 -1 -2 0 -2 0 -3 0 -2 0 
-2 0 -3 0 -2 -1 -4 0 -3 0 -2 0 -2 0 -3 0 
-2 0 -2 -1 -3 0 -3 50 -3 0 -2 -1 -2 0 -3 0 
-2 -1 -2 0 -2 -1 -3 0 -2 -1 -2 0 -2 -1 -3 0 
-2 -1 -2 0 -3 -1 -2 0 -2 -1 -2 0 -3 -1 -2 0 
-2 -1 -2 0 -3 0 -2 -1 -2 0 -3 -1 -2 0 -2 -1 
-2 0 -3 -1 -2 0 -2 -1 -2 0 -3 -1 -2 0 -2 -1 
-3 0 -2 -1 -2 0 -1 -34 -2 0 -3 0 -2 -1 -2 0 
-2 0 -3 0 -2 -1 -2 0 -3 0 -2 0 -2 -1 -3 0 
-2 0 -2 0 -2 -1 -3 0 -2 0 -2 0 -3 -1 -2 0 
-2 0 -3 0 -2 0 -2 -1 -2 0 -3 0 -2 0 -2 -1 
-3 0 -2 0 -2 0 -2 -1 -3 0 -2 0 -2 0 -3 -1 
-2 0 -2 0 -3 0 -6 40 -2 -1 -3 0 -2 -1 -2 0 
-2 -1 -3 0 -2 -1 -2 0 -2 -1 -2 0 -3 -1 -2 0 
-2 -1 -2 0 -3 -1 -2 0 -2 -1 -2 0 -2 -1 -3 -1 
-2 0 -2 -1 -2 0 -2 -1 -3 0 -2 -1 -2 0 -2 -1 
-3 0 -2 -1 -2 0 -2 -1 -2 0 -3 -1 -2 0 -2 -1 
-2 0 -3 -1 -2 0 1707 895 300 MP stroke
1 -75 -2 0 -2 0 -3 0 -2 0 -2 0 -2 0 -3 0 
-2 0 -2 0 -3 0 -2 0 -2 0 -2 0 -3 0 -2 0 
-2 0 -2 0 -3 0 -2 0 -2 0 -3 0 -2 0 -2 0 
-2 0 -3 -1 -2 0 -2 0 -3 0 -2 0 -2 0 -2 0 
-3 0 -2 0 -2 0 -2 0 -3 0 -2 0 -2 0 -3 0 
-2 1 -2 0 -2 0 -3 0 -2 0 -2 0 -3 0 -2 0 
-2 0 -2 0 -3 0 -2 0 -2 0 -3 0 -2 0 -2 0 
-2 0 -3 0 -2 0 -2 0 -2 0 -3 0 -2 0 -2 0 
-3 0 -2 -1 -2 0 -2 0 -3 0 -2 0 -2 0 -3 0 
-2 0 -2 0 -2 0 -3 0 -2 0 -2 0 -2 0 -3 0 
-2 1 -2 0 -3 0 -2 0 -2 0 -3 0 -2 0 -2 0 
-2 0 -3 0 -2 0 -2 0 -2 0 -3 0 -2 0 -2 0 
-3 0 -2 -1 -2 0 -2 0 -3 0 -2 0 -2 0 -2 0 
-3 0 -2 0 -2 0 -3 0 -2 0 -2 0 -2 0 -3 0 
-2 0 -2 0 -2 0 -3 0 -2 0 -2 0 -3 0 -2 0 
-2 0 -3 0 -2 0 -2 0 -2 0 -3 0 -2 0 -2 0 
-2 0 -3 0 -2 0 -2 0 -3 0 -2 0 -2 0 -2 0 
-3 0 -2 0 -2 0 -2 -1 -3 0 -2 0 -2 0 -3 0 
-2 0 -2 0 -2 0 -3 0 -2 0 -2 0 -2 0 -3 0 
-2 0 -2 0 -2 0 -3 0 -2 0 -2 0 -3 0 -2 0 
-2 0 -2 0 -2 -1 -3 0 -2 0 -2 0 -2 0 -3 0 
-2 0 -2 0 -3 0 -2 0 -2 0 -2 0 -3 0 -2 0 
-2 0 -2 0 -3 0 -2 0 -2 0 -3 0 -2 0 -2 -1 
-2 0 -3 0 -2 0 -2 0 -2 0 -3 0 -2 0 -2 0 
-3 0 -2 0 -2 0 -2 0 -3 0 -2 0 -2 0 -2 0 
-1 -2 -2 0 -2 0 -3 0 -2 0 -2 0 -3 0 -2 0 
-2 0 -3 0 -2 0 -2 0 -2 0 -3 0 -2 0 -2 0 
-3 0 -2 0 -2 -1 -3 0 -2 0 -2 0 -2 0 -3 0 
-2 0 -2 0 -3 0 -2 0 -2 0 -3 0 -2 0 -2 0 
-3 0 -2 0 -2 0 -2 0 -3 0 -2 0 -2 0 -3 0 
3 -4 -3 0 -2 0 -2 0 -3 0 -2 0 -3 0 -2 0 
-2 0 -3 0 -2 0 -3 0 -2 0 -2 0 -3 0 -2 0 
-2 0 -3 0 -2 0 -3 0 -2 0 -2 0 -3 0 -2 0 
-3 0 -2 0 -2 0 -3 0 -2 0 -3 0 -2 0 -2 0 
-3 0 -2 0 -2 0 -3 0 -2 0 -3 0 -2 0 -2 0 
3 -6 -2 0 -3 0 -2 0 -3 0 -2 0 -3 0 -2 0 
-3 0 -2 1 -3 0 -2 0 -3 0 -2 0 -3 0 -2 0 
-3 0 -2 0 -3 0 2381 986 300 MP stroke
-2 0 -3 0 -2 0 -3 0 -2 0 -3 0 -2 0 -3 0 
-2 0 -3 1 -2 0 -3 0 -2 0 -3 0 -2 0 -2 0 
-3 0 -2 0 -3 0 -2 0 -3 0 -5 -4 -3 0 -2 1 
-3 0 -2 0 -3 0 -2 0 -2 0 -3 0 -2 0 -3 0 
-2 0 -3 0 -2 1 -3 0 -2 0 -2 0 -3 0 -2 0 
-3 0 -2 0 -3 0 -2 0 -3 1 -2 0 -2 0 -3 0 
-2 0 -3 0 -2 0 -3 0 -2 0 -2 0 -3 0 -2 1 
-3 0 -2 0 -3 0 -2 0 -3 0 -38 -2 -2 1 -2 0 
-1 0 -2 0 -2 0 -2 0 -2 0 -2 0 -1 0 -2 0 
-2 0 -2 0 -2 0 -1 0 -2 1 -2 0 -2 0 -2 0 
-2 0 -1 0 -2 0 -2 0 -2 0 -2 0 -2 0 -1 0 
-2 0 -2 0 -2 1 -2 0 -1 0 -2 0 -2 0 -2 0 
-4 0 -1 0 -2 0 -2 0 -100 -3 -1 0 -1 0 -1 0 
-1 0 -1 0 -1 0 -143 -13 3 0 2 0 5 0 2 0 
2 0 3 0 2 0 2 0 3 0 2 0 2 0 3 0 
2 0 2 0 2 0 3 0 2 0 2 0 3 0 2 0 
2 0 3 0 2 0 2 0 3 0 2 0 2 0 2 0 
3 0 4 0 3 0 2 0 2 0 3 0 2 0 2 0 
3 0 2 -20 2 0 2 0 3 0 2 0 2 0 3 0 
2 1 2 0 2 0 3 0 2 0 2 0 3 0 2 1 
2 0 5 0 2 0 3 0 2 1 2 0 3 0 2 0 
2 0 2 0 3 0 2 1 2 0 3 0 2 0 2 0 
3 0 2 0 2 1 3 0 2 0 2 0 3 0 2 0 
6 -30 2 1 3 0 2 0 2 1 2 0 3 0 2 1 
2 0 2 1 3 0 2 0 2 1 2 0 3 0 2 1 
2 0 2 0 3 1 2 0 2 0 2 1 3 0 2 0 
2 1 2 0 3 0 2 1 2 0 2 0 3 1 2 0 
2 1 2 0 3 0 2 1 2 0 2 0 3 1 2 0 
3 -5 2 0 3 1 2 0 2 0 2 1 2 0 3 1 
2 0 2 0 2 1 3 0 2 0 2 1 2 0 5 1 
2 0 2 1 2 0 3 1 2 0 2 0 2 1 3 0 
2 0 2 1 2 0 2 1 3 0 2 0 2 1 2 0 
3 1 2 0 2 0 2 1 3 0 2 0 2 1 -1 52 
2 0 3 0 2 0 4 0 3 0 2 0 2 0 3 0 
2 1 2 0 2 0 3 0 2 0 2 0 2 0 3 0 
2 0 2 0 3 0 2 0 2 0 2 0 3 0 2 0 
2 0 3 0 2 0 2 0 2 0 3 0 2 0 2 0 
3 0 2 0 2 0 2444 968 300 MP stroke
2 1 3 0 2 0 2 3 2 1 3 0 2 0 2 0 
2 0 3 0 2 0 2 0 3 0 2 0 2 0 2 0 
3 0 2 0 2 0 3 0 2 0 2 0 2 0 3 0 
2 0 2 0 3 0 2 0 2 0 3 0 2 0 2 0 
2 0 3 0 2 0 2 0 3 0 2 0 2 0 2 0 
3 0 2 0 2 0 3 7 2 0 2 0 3 0 2 0 
2 0 3 0 2 0 2 0 2 0 3 0 2 0 2 0 
3 -1 2 0 2 0 2 0 3 0 2 0 2 0 3 0 
2 0 2 0 2 0 3 0 2 0 2 0 3 0 2 0 
2 0 2 0 3 0 2 0 2 0 3 0 2 0 2 0 
2 0 3 0 2 0 4 10 3 0 2 0 2 0 2 0 
3 0 2 0 2 0 2 0 3 -1 2 0 2 0 2 0 
3 0 2 0 2 0 2 0 3 0 2 0 2 -1 2 0 
3 0 2 0 2 0 2 0 3 0 2 0 2 0 2 -1 
3 0 2 0 2 0 2 0 3 0 2 0 2 0 2 0 
3 -1 2 0 2 0 1 -27 4 1 3 0 2 0 2 0 
2 0 3 0 2 0 2 0 3 0 2 0 2 0 2 0 
3 0 2 0 2 0 2 1 3 0 2 0 2 0 3 0 
2 0 2 0 2 0 3 0 2 0 2 0 2 0 5 0 
9 1 2 0 3 0 2 0 2 0 3 0 2 -1 2 0 
2 0 3 0 2 0 2 0 2 0 3 0 2 0 2 0 
2 0 3 0 2 0 2 1 3 0 2 0 2 0 2 0 
3 0 2 0 2 0 3 0 2 0 2 0 2 0 3 1 
2 0 2 0 3 0 2 0 2 0 2 0 3 0 2 0 
2 0 2 0 3 0 2 1 2 0 3 0 2 -1 2 0 
2 0 2 1 3 0 2 0 2 0 3 0 2 0 2 0 
2 0 3 0 2 0 2 0 3 0 2 1 2 0 2 0 
3 0 2 0 2 0 3 0 2 0 2 0 2 0 3 0 
2 0 2 1 3 0 2 0 2 0 2 0 3 0 2 0 
2 0 3 0 2 0 2 0 2 0 3 1 1 1 3 0 
2 0 2 0 3 1 2 0 2 0 3 0 2 0 2 0 
2 0 3 0 2 0 2 0 3 0 2 0 2 0 2 1 
3 0 2 0 2 0 3 0 2 0 2 0 3 0 2 0 
2 0 2 0 3 0 2 0 2 0 3 1 2 0 2 0 
2 0 3 0 2 0 2 0 3 0 2 0 2 5 2 0 
3 0 2 0 2 0 3 0 4 0 3 1 2 0 2 0 
2 0 3 0 2 0 2 0 3 0 2 0 2 0 2 0 
3 0 2 0 2 0 1749 960 300 MP stroke
3 0 2 0 2 0 2 0 3 0 2 0 2 0 3 0 
2 0 2 0 3 0 2 0 2 1 2 0 3 0 2 0 
2 0 3 0 4 9 2 0 2 0 3 0 2 0 2 0 
2 0 3 0 2 0 2 0 2 0 3 0 2 0 2 0 
3 0 2 0 2 0 2 0 3 0 2 0 2 0 2 0 
3 0 2 0 2 0 2 0 3 0 2 0 2 0 2 0 
3 0 2 0 2 0 2 0 3 -1 2 0 2 0 2 0 
3 0 3 17 2 -1 2 0 3 0 2 0 2 0 2 0 
3 0 2 -1 2 0 3 0 2 0 2 0 2 0 3 0 
2 0 2 -1 3 0 2 0 2 0 2 0 3 0 2 0 
2 -1 3 0 2 0 2 0 2 0 3 0 2 0 2 -1 
3 0 2 0 2 0 2 0 3 0 2 0 2 0 3 -1 
2 0 4 24 2 0 3 -1 2 0 2 0 2 -1 3 0 
2 0 2 0 2 -1 3 0 2 0 2 -1 2 0 3 0 
2 -1 2 0 2 0 3 0 2 -1 2 0 2 0 3 -1 
2 0 2 0 2 0 3 -1 2 0 2 0 2 -1 3 0 
2 0 2 -1 2 0 3 0 2 0 2 -1 2 0 3 0 
2 -1 1 -44 2 0 2 0 3 0 2 0 2 0 3 0 
2 0 2 0 2 0 3 0 2 0 2 0 2 0 3 0 
2 0 2 0 3 0 2 0 2 0 2 0 3 0 2 0 
2 0 2 0 3 0 2 0 2 0 3 0 2 0 2 0 
2 0 3 0 2 0 2 0 2 0 3 0 2 0 2 0 
3 0 2 0 2 0 3 0 2 0 2 0 2 0 3 0 
2 0 2 0 2 0 3 0 2 0 2 0 3 0 2 0 
2 0 2 0 3 0 2 0 2 0 2 0 3 0 6 0 
3 0 2 0 2 0 3 0 2 0 2 0 2 0 3 0 
2 0 2 0 2 0 3 0 2 0 2 0 3 0 1 0 
3 0 2 0 2 0 3 0 2 0 2 0 2 0 3 0 
2 0 2 0 2 0 3 0 2 0 2 0 3 0 2 0 
2 0 2 0 3 0 2 0 2 0 3 0 2 0 2 0 
2 0 3 0 2 0 2 0 2 0 3 0 2 0 2 0 
3 0 2 0 2 0 2 0 3 0 2 0 2 0 0 1 
3 0 2 0 2 0 3 0 2 0 2 0 3 0 2 0 
2 0 3 0 2 0 2 0 2 0 3 0 4 0 3 0 
2 0 2 0 3 0 2 0 2 0 3 0 2 0 2 0 
2 -1 3 0 2 0 2 0 3 0 2 0 2 0 3 0 
2 0 2 0 3 0 2 0 2 0 2 0 -2 1 2 0 
3 0 2 0 3 0 1064 971 300 MP stroke
2 0 5 0 2 0 2 0 3 0 2 0 3 0 2 0 
2 0 3 0 2 0 3 0 2 0 2 0 3 0 2 0 
3 0 2 0 2 0 3 0 2 0 2 0 3 0 2 0 
3 0 2 -1 2 0 3 0 2 0 3 0 2 0 2 0 
3 0 2 0 -3 1 2 0 3 0 2 0 3 0 2 0 
3 0 2 0 2 0 3 0 2 0 3 0 2 0 3 0 
2 0 3 0 5 -1 2 0 3 0 2 0 3 0 2 0 
3 0 2 0 3 0 2 0 3 0 2 0 3 0 2 0 
3 0 2 0 3 0 2 0 3 0 2 0 3 0 2 0 
3 0 5 0 2 0 3 0 2 0 3 0 2 0 3 0 
2 0 3 0 2 0 2 0 3 0 2 0 3 0 2 0 
3 0 2 0 3 0 2 0 2 0 3 -1 2 0 3 0 
2 0 3 0 2 0 2 0 3 0 2 0 3 0 2 0 
3 0 2 0 3 0 2 0 2 0 3 0 2 0 3 0 
2 0 38 -1 2 0 2 0 2 0 2 0 2 0 1 0 
2 0 2 0 2 0 2 0 1 0 2 0 2 0 2 0 
2 0 2 0 1 0 2 0 2 0 2 0 4 0 1 0 
2 0 2 0 2 0 2 0 2 0 1 0 2 0 2 0 
2 0 2 0 1 0 2 0 2 0 2 0 2 0 2 0 
99 -3 1 0 1 0 1 0 1 0 1 0 1 0 142 -6 
-2 0 -3 0 -2 0 -2 0 -2 0 -3 0 -2 0 -2 0 
-2 0 -3 0 -2 0 -2 1 -3 0 -2 0 -2 0 -2 0 
-3 0 -2 0 -2 0 -3 0 -2 0 -2 0 -2 0 -3 0 
-2 0 -2 0 -3 0 -2 0 -11 1 -2 0 -3 0 -2 0 
-2 0 -3 0 -2 0 -2 -6 -2 0 -2 0 -3 0 -2 0 
-2 0 -3 0 -2 0 -2 0 -2 0 -3 0 -2 1 -2 0 
-3 0 -2 0 -2 0 -2 0 -3 0 -2 0 -2 0 -3 0 
-2 0 -2 1 -2 0 -3 0 -2 0 -2 0 -3 0 -2 0 
-2 0 -2 0 -3 0 -2 0 -2 0 -3 1 -2 0 -2 0 
-2 0 -3 0 -2 0 -2 -8 -2 0 -2 0 -3 0 -2 0 
-2 1 -3 0 -2 0 -2 0 -2 0 -3 0 -2 0 -2 1 
-3 0 -2 0 -2 0 -3 0 -2 0 -2 0 -2 1 -3 0 
-2 0 -2 0 -3 0 -2 0 -2 0 -2 1 -3 0 -2 0 
-2 0 -3 0 -2 0 -2 1 -3 0 -2 0 -2 0 -2 0 
-3 0 -2 0 -2 1 -3 -10 -2 0 -2 0 -3 0 -2 1 
-2 0 -3 0 -2 0 -2 0 -2 1 -3 0 -2 0 -2 0 
-3 0 -2 1 -2 0 -2 0 -3 0 -2 1 -2 0 -3 0 
-2 0 -2 0 -2 1 756 991 300 MP stroke
-3 0 -2 0 -2 0 -5 1 -2 0 -2 0 -3 0 -2 1 
-2 0 -3 0 -2 0 -2 0 -2 1 -3 0 -2 0 -5 -10 
-2 0 -2 0 -3 0 -2 1 -2 0 -2 0 -3 1 -2 0 
-2 0 -2 0 -3 1 -2 0 -2 0 -2 1 -3 0 -2 0 
-2 0 -2 1 -2 0 -3 0 -2 1 -2 0 -2 0 -3 0 
-2 1 -2 0 -2 0 -3 1 -2 0 -2 0 -2 0 -3 1 
-2 0 -2 0 -2 1 -3 0 -2 0 -2 0 -2 1 -1 -2 
-2 0 -2 1 -2 0 -3 0 -2 0 -2 1 -3 0 -2 0 
-2 1 -2 0 -3 0 -2 1 -2 0 -3 0 -2 0 -2 1 
-2 0 -3 0 -2 1 -2 0 -2 0 -3 1 -2 0 -2 0 
-3 0 -2 1 -2 0 -2 0 -3 1 -2 0 -2 0 -3 1 
-2 0 -2 0 -2 1 -3 0 -2 0 -2 0 -2 1 -2 -3 
-3 0 -2 0 -2 1 -3 0 -2 0 -2 1 -2 0 -3 0 
-2 1 -2 0 -3 0 -4 1 -2 0 -3 1 -2 0 -2 0 
-3 1 -2 0 -2 0 -2 1 -3 0 -2 0 -2 1 -3 0 
-2 0 -2 1 -2 0 -3 0 -2 1 -2 0 -2 0 -3 1 
-2 0 -2 0 -3 1 -2 0 -2 0 -2 0 -2 5 -2 0 
-3 0 -2 1 -2 0 -3 0 -2 1 -2 0 -2 0 -3 0 
-2 1 -2 0 -3 0 -2 1 -2 0 -3 0 -2 1 -2 0 
-2 0 -3 0 -2 1 -2 0 -3 0 -2 1 -2 0 -2 0 
-3 1 -2 0 -2 0 -3 0 -2 1 -2 0 -2 0 -3 1 
-2 0 -2 0 -3 1 -2 0 -2 0 -3 0 -1 17 -2 0 
-3 0 -2 0 -2 0 -3 1 -2 0 -2 0 -3 0 -2 0 
-2 1 -2 0 -3 0 -2 0 -2 0 -3 0 -2 1 -2 0 
-3 0 -2 0 -2 0 -2 1 -3 0 -2 0 -2 0 -3 0 
-2 1 -2 0 -3 0 -2 0 -2 0 -3 1 -2 0 -2 0 
-2 0 -3 0 -2 1 -2 0 -3 0 -2 0 -3 33 -2 0 
-2 0 -3 0 -2 0 -2 0 -2 0 -3 0 -2 0 -2 0 
-3 0 -2 0 -2 0 -2 0 -3 0 -2 0 -2 0 -3 0 
-2 0 -2 0 -3 0 -2 0 -2 0 -2 0 -3 0 -2 0 
-2 0 -3 -1 -2 0 -2 0 -3 0 -2 0 -2 0 -2 0 
-3 0 -2 0 -2 0 -3 0 -2 0 -2 0 -7 56 -2 0 
-2 -1 -3 0 -2 -1 -2 0 -2 0 -3 -1 -2 0 -2 -1 
-9 -1 -2 -1 -2 0 -3 0 -2 -1 -2 0 -2 -1 -2 0 
-3 -1 -2 0 -2 0 -2 -1 -3 0 -2 -1 -2 0 -2 0 
-2 -1 -3 0 -2 -1 -2 0 -2 0 -3 -1 -2 0 -2 -1 
-4 0 -3 -1 2 -139 -4 1 -3 0 -2 1 -2 0 -3 1 
-2 0 -2 1 -2 0 1452 991 300 MP stroke
-3 1 -2 1 -2 0 -3 1 -2 0 -2 1 -2 0 -3 1 
-2 0 -2 1 -3 0 -2 1 -2 0 -2 1 -3 0 -2 1 
-2 0 -5 2 -2 0 -2 1 -3 0 -2 1 -2 0 -3 1 
-2 0 -2 1 -3 0 -2 1 -2 0 -2 0 -2 0 -3 1 
-2 0 -2 1 -3 0 -2 1 -2 1 -3 0 -2 1 -2 0 
-2 1 -3 0 -2 1 -2 0 -3 1 -2 0 -2 1 -2 0 
-3 1 -2 1 -2 0 -3 1 -2 0 -2 1 -3 0 -2 1 
-2 0 -2 1 -3 0 -2 1 -2 0 -3 1 -2 1 -2 0 
-2 1 -3 0 -2 1 -2 0 -3 1 -3 14 -3 1 -2 0 
-2 0 -2 1 -3 0 -2 1 -2 0 -2 1 -3 0 -2 1 
-2 0 -3 0 -2 1 -2 0 -2 1 -3 0 -2 1 -2 0 
-2 0 -3 1 -2 0 -2 1 -3 0 -2 1 -2 0 -2 1 
-3 0 -2 0 -2 1 -2 0 -5 1 -2 1 -3 0 -2 0 
-4 1 -3 1 -2 0 -7 36 -3 0 -2 0 -2 0 -2 0 
-2 1 -2 0 -3 0 -2 0 -2 0 -2 1 -5 0 -2 0 
-2 0 -2 0 -2 1 -3 0 -2 0 -2 0 -2 0 -2 1 
-2 0 -3 0 -2 0 -2 0 -2 1 -2 0 -3 0 -2 0 
-2 0 -2 0 -2 1 -2 0 -3 0 -2 0 -2 0 -2 1 
-2 0 -3 0 -12 62 -2 0 -2 -1 -2 0 -2 0 -2 0 
-2 -1 -2 0 -2 0 -2 0 -2 0 -2 -1 -2 0 -2 0 
-2 0 -2 0 -2 -1 -2 0 -2 0 -2 0 -2 -1 -2 0 
-2 0 -2 0 -2 0 -2 -1 -2 0 -2 0 -2 0 -2 -1 
-2 0 -2 0 -2 0 -2 0 -2 -1 -2 0 -2 0 -2 0 
-2 0 -2 -1 -11 104 -1 -1 -2 -1 -2 -1 -2 -1 -2 0 
-2 -1 -2 -1 -1 -1 -2 0 -2 -1 -2 -1 -2 -1 -2 -1 
-2 0 -2 -1 -3 -2 -2 -1 -2 0 -2 -1 -2 -1 -2 -1 
-1 0 -2 -1 -2 -1 -2 -1 -2 -1 -2 0 -2 -1 -2 -1 
-1 -1 -2 -1 -2 0 -2 -1 -2 -1 -2 -1 -2 0 -1 -1 
-2 -1 26 215 -2 -2 -3 -2 -2 -2 -2 -3 -3 -2 -2 -2 
-2 -2 -2 -3 -3 -2 -2 -2 -2 -2 -3 -3 -2 -2 -2 -2 
-3 -3 -2 -2 -2 -2 -3 -2 -2 -3 -2 -2 -3 -2 -2 -2 
-2 -3 -2 -2 -3 -2 -4 -5 -3 -2 -2 -2 -2 -2 -3 -3 
-2 -2 -35 -34 -2 -2 -2 -2 -5 -325 -2 0 -3 0 -2 0 
-2 0 -2 0 -3 0 -2 0 -2 0 -2 0 -3 0 -2 0 
-2 0 -3 0 -2 0 -2 0 -2 0 -3 0 -2 0 -2 0 
-2 0 -3 0 -2 0 -2 0 -3 0 -2 0 -2 0 -2 0 
-3 0 -2 0 -2 -1 -2 0 -3 0 -2 0 -2 0 -3 0 
-2 0 -2 0 -2 0 2149 975 300 MP stroke
-3 0 -2 0 -2 0 -2 0 -1 -2 -2 0 -2 0 -3 0 
-2 0 -2 0 -3 0 -2 0 -2 0 -3 0 -2 0 -2 0 
-2 0 -3 0 -2 0 -2 0 -3 0 -2 0 -2 0 -3 0 
-2 0 -2 0 -2 0 -3 0 -2 0 -2 0 -3 0 -2 0 
-2 -1 -3 0 -2 0 -2 0 -3 0 -2 0 -2 0 -2 0 
-3 0 -2 0 -5 0 3 -4 -3 0 -2 0 -2 0 -3 0 
-2 0 -3 0 -2 0 -2 0 -3 0 -2 0 -3 0 -2 0 
-2 0 -3 0 -2 0 -2 0 -3 0 -2 0 -3 0 -2 0 
-2 0 -3 0 -2 0 -3 0 -2 0 -2 0 -3 0 -2 0 
-3 0 -2 0 -2 0 -3 1 -2 0 -2 0 -3 0 -2 0 
-3 0 -2 0 -2 0 3 -6 -2 0 -3 0 -2 0 -3 0 
-2 0 -3 1 -2 0 -3 0 -2 0 -3 0 -2 0 -3 0 
-2 0 -3 0 -2 0 -3 0 -2 0 -3 0 -2 1 -3 0 
-2 0 -3 0 -2 0 -3 0 -2 0 -3 0 -2 0 -3 0 
-2 0 -3 0 -2 0 -3 1 -2 0 -2 0 -3 0 -2 0 
-3 0 -2 0 -3 0 -5 -3 -3 0 -2 0 -3 0 -2 0 
-3 0 -2 0 -2 0 -3 0 -2 1 -3 0 -2 0 -3 0 
-2 0 -3 0 -2 0 -2 0 -3 1 -2 0 -3 0 -2 0 
-3 0 -2 0 -2 0 -3 0 -2 0 -3 1 -2 0 -3 0 
-2 0 -3 0 -2 0 -2 0 -3 0 -2 0 -3 1 -2 0 
-3 0 -2 0 -2 0 -39 -1 -2 0 -1 0 -2 1 -2 0 
-2 0 -2 0 -1 0 -2 0 -2 0 -2 0 -2 0 -2 0 
-1 0 -2 0 -2 1 -2 0 -2 0 -2 0 -1 0 -2 0 
-2 0 -2 0 -2 0 -2 0 -1 0 -2 0 -2 1 -2 0 
-2 0 -1 0 -2 0 -2 0 -2 0 -2 0 -2 0 -1 0 
-2 0 -2 1 -2 0 -99 -1 -1 0 -1 0 -1 0 -1 0 
-1 0 -1 0 -142 -5 2 0 2 0 2 0 3 0 2 -1 
2 0 3 0 2 0 2 0 2 0 3 0 2 0 2 0 
3 0 2 0 2 0 2 0 3 0 2 0 2 0 3 0 
2 0 2 0 2 0 3 0 2 0 2 0 2 0 3 -1 
2 0 2 0 3 0 2 0 2 0 2 0 3 0 2 0 
2 0 3 0 2 -11 2 0 2 0 2 0 3 0 2 0 
2 0 3 0 2 0 2 0 5 0 2 0 2 0 3 0 
2 0 2 0 3 0 2 0 2 0 2 0 3 0 2 0 
2 0 3 1 2 0 2 0 2 0 3 0 2 0 2 0 
3 0 2 0 2 0 2 0 3 0 2 0 2 0 3 0 
2 0 2 -18 3 0 2 0 2 0 2 0 3 0 2 0 
2 1 3 0 2 0 2687 1015 300 MP stroke
2 0 2 0 3 0 2 1 2 0 3 0 2 0 2 0 
2 0 3 1 2 0 2 0 3 0 2 0 2 0 2 1 
3 0 2 0 2 0 3 0 2 0 2 1 2 0 3 0 
2 0 2 0 3 0 2 1 2 0 2 0 4 -27 3 0 
2 0 2 1 2 0 3 1 2 0 2 0 2 1 3 0 
2 0 2 1 2 0 3 0 2 1 2 0 2 0 3 1 
2 0 2 0 3 1 2 0 2 0 2 1 3 0 2 0 
2 1 2 0 3 0 2 1 2 0 2 0 3 1 2 0 
2 1 2 0 3 0 2 1 2 0 2 0 1 50 3 0 
2 0 2 0 2 0 3 0 2 0 2 0 3 0 2 0 
2 0 2 0 3 0 2 0 2 0 2 0 3 0 2 0 
2 0 3 0 2 0 2 0 2 0 3 0 2 0 2 0 
3 0 2 0 2 0 2 0 3 0 2 0 2 0 2 0 
3 0 2 0 2 0 3 0 2 0 2 0 2 -1 3 0 
2 0 2 0 3 0 2 0 2 0 2 0 3 0 2 0 
2 0 2 0 3 1 2 0 2 0 3 0 2 0 2 0 
2 0 3 0 2 0 2 0 3 0 2 0 2 0 2 0 
3 0 2 0 2 0 2 0 3 0 2 0 2 0 3 0 
2 0 2 0 2 0 3 0 2 0 2 0 3 -1 2 0 
2 0 2 0 3 0 2 0 2 0 2 0 3 0 2 0 
2 0 3 1 2 0 2 0 2 0 3 0 2 0 2 0 
3 0 2 0 2 0 2 0 3 0 2 0 2 0 2 0 
3 0 2 0 2 0 3 0 2 0 2 0 2 0 3 0 
2 0 2 0 3 0 2 0 2 0 2 0 3 0 2 0 
2 0 2 0 3 0 2 0 2 0 3 0 2 0 2 0 
2 0 3 0 2 0 2 0 3 0 2 0 2 0 2 0 
3 0 2 0 2 0 2 0 3 0 2 0 2 0 3 0 
2 0 2 0 2 0 3 1 2 0 2 0 3 0 2 0 
2 0 2 0 3 0 2 0 2 0 2 0 3 0 2 0 
2 0 3 0 2 0 2 0 2 0 3 0 2 0 2 0 
3 0 2 0 2 0 2 0 3 0 2 0 2 0 2 0 
3 0 2 0 2 0 3 0 2 0 2 0 2 0 3 0 
2 0 11 1 3 0 2 0 2 0 2 0 3 0 2 0 
2 0 3 0 2 0 2 0 2 0 3 0 2 1 2 0 
2 0 3 0 2 0 2 0 3 0 2 0 2 0 2 0 
3 0 2 0 2 0 2 0 3 0 2 0 2 0 3 0 
2 0 2 0 2 0 3 0 2 0 2 0 3 0 2 0 
2 0 2 0 3 0 1997 971 300 MP stroke
2 1 2 0 3 0 2 0 2 0 2 0 3 0 2 1 
2 0 2 1 3 0 2 0 2 0 2 0 3 0 2 0 
2 0 3 0 2 0 2 0 2 0 3 0 2 0 2 0 
3 0 2 0 2 0 2 0 3 0 2 0 2 0 2 0 
3 0 2 0 2 0 3 0 2 0 2 0 2 0 3 0 
2 0 2 0 3 0 2 0 2 0 2 0 3 0 2 4 
2 0 2 0 3 0 2 0 2 0 2 0 3 0 2 0 
2 0 3 0 2 0 2 0 3 0 2 0 2 0 2 0 
3 0 2 0 2 0 3 0 2 0 2 0 2 0 3 0 
2 0 2 0 3 0 2 0 2 0 2 0 3 0 2 0 
2 0 3 0 2 0 2 0 2 0 3 0 2 0 2 6 
3 0 2 0 2 0 3 0 2 0 2 0 2 0 3 0 
2 0 2 0 3 0 2 0 2 -1 2 0 3 0 2 0 
2 0 2 0 3 0 2 0 2 0 3 0 2 0 2 0 
2 0 3 0 2 0 2 0 3 0 2 0 2 0 2 0 
3 0 2 0 2 -1 3 0 2 0 2 0 2 0 4 10 
2 -1 3 0 2 0 2 0 3 0 2 0 2 0 2 0 
3 0 2 -1 2 0 2 0 3 0 2 0 2 0 2 0 
3 0 2 0 2 0 2 -1 3 0 2 0 2 0 2 0 
3 0 2 0 2 0 2 0 3 -1 2 0 2 0 2 0 
3 0 2 0 2 0 3 0 2 0 2 -1 2 0 1 -9 
3 0 2 0 2 0 3 0 2 0 2 0 2 0 3 0 
2 0 2 0 3 0 2 0 2 0 2 -1 3 0 2 0 
2 0 2 0 3 0 2 0 2 0 3 0 2 0 2 0 
2 0 3 0 2 0 2 0 2 0 3 0 2 0 2 0 
3 0 2 0 2 0 2 -1 3 0 2 0 2 0 3 5 
2 0 2 0 2 0 3 0 2 0 2 0 3 0 2 0 
2 0 2 -1 3 0 2 0 2 0 2 0 3 0 2 0 
2 0 3 0 2 0 2 0 2 0 3 0 2 -1 2 0 
2 0 3 0 2 0 2 0 3 0 2 0 2 0 2 0 
3 0 2 0 2 -1 3 0 2 0 2 0 2 0 2 6 
3 0 2 0 2 0 3 0 2 0 2 0 2 0 3 -1 
2 0 2 0 3 0 2 0 2 0 2 0 3 0 2 0 
2 -1 2 0 3 0 2 0 2 0 3 0 2 0 2 0 
2 -1 3 0 2 0 2 0 3 0 2 0 2 0 2 0 
3 -1 2 0 2 0 2 0 3 0 2 0 2 0 2 7 
2 0 3 0 2 0 2 0 3 -1 2 0 2 0 2 0 
3 0 2 -1 2 0 1317 957 300 MP stroke
3 0 2 0 2 0 2 0 3 -1 2 0 2 0 3 0 
2 0 2 0 2 -1 3 0 2 0 2 0 3 0 2 0 
2 -1 2 0 3 0 2 0 2 0 3 -1 2 0 2 0 
2 0 3 0 2 0 2 -1 1 9 3 0 2 -1 2 0 
3 0 2 0 2 -1 3 0 2 0 2 0 2 0 3 -1 
2 0 2 0 3 0 2 -1 2 0 3 0 2 0 2 -1 
3 0 2 0 2 0 2 -1 3 0 2 0 2 0 3 0 
2 -1 2 0 3 0 2 0 2 -1 3 0 2 0 2 0 
2 -1 3 0 2 0 2 0 2 8 2 0 2 -1 3 0 
2 0 2 0 2 -1 3 0 2 0 2 -1 3 0 2 0 
2 -1 3 0 2 0 2 0 3 -1 2 0 2 0 3 -1 
2 0 2 0 3 0 2 -1 2 0 3 0 2 -1 2 0 
3 0 2 0 2 -1 3 0 2 0 2 -1 3 0 2 0 
2 -1 3 0 2 0 2 0 4 5 2 0 3 -1 2 0 
2 0 3 -1 2 0 2 0 2 -1 3 0 2 0 2 -1 
3 0 2 0 2 -1 3 0 2 0 2 -1 2 0 3 0 
2 -1 2 0 3 0 2 -1 2 0 3 0 2 -1 2 0 
2 0 3 -1 2 0 2 0 3 -1 2 0 2 0 3 -1 
2 0 2 0 2 -1 3 0 -1 22 3 -1 2 -1 2 0 
3 -1 2 0 2 -1 3 0 2 -1 2 0 3 -1 2 0 
2 -1 3 0 2 -1 2 0 3 -1 2 0 2 -1 3 0 
2 -1 3 0 2 -1 2 0 3 -1 2 0 2 -1 3 0 
2 -1 2 0 3 -1 2 -1 2 0 3 -1 2 0 2 -1 
3 0 2 -1 2 0 3 -1 12 -1 2 -1 2 0 3 -1 
2 0 2 -1 2 0 2 -1 2 0 3 -1 2 0 2 -1 
2 0 2 -1 2 0 3 -1 2 0 2 -1 2 0 2 -1 
2 0 3 -1 2 0 2 -1 2 0 2 -1 3 0 2 -1 
2 0 2 -1 2 0 2 -1 3 0 2 -1 2 0 2 -1 
2 0 2 -1 3 0 2 0 36 -16 1 0 2 -1 1 0 
2 0 1 0 2 -1 2 0 1 0 2 -1 1 0 2 0 
2 0 1 -1 2 0 1 0 2 0 1 -1 2 0 2 0 
1 -1 2 0 1 0 2 0 2 -1 1 0 2 0 1 -1 
2 0 1 0 2 0 2 -1 1 0 2 0 1 -1 2 0 
1 0 2 0 2 -1 1 0 57 -22 1 0 1 0 1 0 
1 0 1 0 1 -1 1 0 1 0 1 0 1 0 1 0 
1 0 1 0 1 0 1 0 1 -1 1 0 1 0 1 0 
1 0 1 0 1 0 90 -31 522 1074 293 MP stroke
gr

8.33333 w
c9
0 sg
 179 1008 mt  -90 rotate
(East [m]) s
90 rotate
1509 1759 mt 
(North[m]) s
%%IncludeResource: font Helvetica
/Helvetica /ISOLatin1Encoding 41.6667 FMSR

 410 1619 mt 
( ) s
2890  150 mt 
( ) s
2.08333 w
1 sg
0 157 858 0 0 -157 2017 1584 4 MP
PP
-858 0 0 157 858 0 0 -157 2017 1584 5 MP stroke
1.38889 w
DO
SO
2.08333 w
0 sg
2017 1584 mt 2875 1584 L
2017 1427 mt 2875 1427 L
2017 1584 mt 2017 1427 L
2875 1584 mt 2875 1427 L
2017 1584 mt 2875 1584 L
2017 1584 mt 2017 1427 L
2017 1584 mt 2875 1584 L
2017 1427 mt 2875 1427 L
2017 1584 mt 2017 1427 L
2875 1584 mt 2875 1427 L
%%IncludeResource: font Helvetica
/Helvetica /ISOLatin1Encoding 58.3333 FMSR

2189 1490 mt 
(Virtual diver measurement) s
gs 2017 1427 859 158 rc
gs 2083 1443 53 53 rc
c8
2101 1461 mt 2117 1477 L
2117 1461 mt 2101 1477 L
gr

c8
gr

c8
0 sg
2189 1564 mt 
(Virtual diver estimate) s
gs 2017 1427 859 158 rc
8.33333 w
c9
132 0 2043 1541 2 MP stroke
2.08333 w
gr

c9

end %%Color Dict

eplot
%%EndObject

epage
end

showpage

%%Trailer
%%EOF
