%!PS-Adobe-3.0 EPSF-3.0
%%Creator: MATLAB, The MathWorks, Inc. Version 8.3.0.532 (R2014a). Operating System: Linux 3.13.0-49-generic #83-Ubuntu SMP Fri Apr 10 20:11:33 UTC 2015 x86_64.
%%Title: /home/dnad/Documents/publication/ram2014_data/figures/Figure6_c_video_error_box.eps
%%CreationDate: 04/23/2015  14:06:56
%%DocumentNeededFonts: Helvetica
%%DocumentProcessColors: Cyan Magenta Yellow Black
%%LanguageLevel: 2
%%Pages: 1
%%BoundingBox:   -17   194   622   615
%%EndComments

%%BeginProlog
% MathWorks dictionary
/MathWorks 160 dict begin
% definition operators
/bdef {bind def} bind def
/ldef {load def} bind def
/xdef {exch def} bdef
/xstore {exch store} bdef
% operator abbreviations
/c  /clip ldef
/cc /concat ldef
/cp /closepath ldef
/gr /grestore ldef
/gs /gsave ldef
/mt /moveto ldef
/np /newpath ldef
/cm /currentmatrix ldef
/sm /setmatrix ldef
/rm /rmoveto ldef
/rl /rlineto ldef
/s {show newpath} bdef
/sc {setcmykcolor} bdef
/sr /setrgbcolor ldef
/sg /setgray ldef
/w /setlinewidth ldef
/j /setlinejoin ldef
/cap /setlinecap ldef
/rc {rectclip} bdef
/rf {rectfill} bdef
% page state control
/pgsv () def
/bpage {/pgsv save def} bdef
/epage {pgsv restore} bdef
/bplot /gsave ldef
/eplot {stroke grestore} bdef
% orientation switch
/portraitMode 0 def /landscapeMode 1 def /rotateMode 2 def
% coordinate system mappings
/dpi2point 0 def
% font control
/FontSize 0 def
/FMS {/FontSize xstore findfont [FontSize 0 0 FontSize neg 0 0]
  makefont setfont} bdef
/reencode {exch dup where {pop load} {pop StandardEncoding} ifelse
  exch dup 3 1 roll findfont dup length dict begin
  { 1 index /FID ne {def}{pop pop} ifelse } forall
  /Encoding exch def currentdict end definefont pop} bdef
/isroman {findfont /CharStrings get /Agrave known} bdef
/FMSR {3 1 roll 1 index dup isroman {reencode} {pop pop} ifelse
  exch FMS} bdef
/csm {1 dpi2point div -1 dpi2point div scale neg translate
 dup landscapeMode eq {pop -90 rotate}
  {rotateMode eq {90 rotate} if} ifelse} bdef
% line types: solid, dotted, dashed, dotdash
/SO { [] 0 setdash } bdef
/DO { [.5 dpi2point mul 4 dpi2point mul] 0 setdash } bdef
/DA { [6 dpi2point mul] 0 setdash } bdef
/DD { [.5 dpi2point mul 4 dpi2point mul 6 dpi2point mul 4
  dpi2point mul] 0 setdash } bdef
% macros for lines and objects
/L {lineto stroke} bdef
/MP {3 1 roll moveto 1 sub {rlineto} repeat} bdef
/AP {{rlineto} repeat} bdef
/PDlw -1 def
/W {/PDlw currentlinewidth def setlinewidth} def
/PP {closepath eofill} bdef
/DP {closepath stroke} bdef
/MR {4 -2 roll moveto dup  0 exch rlineto exch 0 rlineto
  neg 0 exch rlineto closepath} bdef
/FR {MR stroke} bdef
/PR {MR fill} bdef
/L1i {{currentfile picstr readhexstring pop} image} bdef
/tMatrix matrix def
/MakeOval {newpath tMatrix currentmatrix pop translate scale
0 0 1 0 360 arc tMatrix setmatrix} bdef
/FO {MakeOval stroke} bdef
/PO {MakeOval fill} bdef
/PD {currentlinewidth 2 div 0 360 arc fill
   PDlw -1 eq not {PDlw w /PDlw -1 def} if} def
/FA {newpath tMatrix currentmatrix pop translate scale
  0 0 1 5 -2 roll arc tMatrix setmatrix stroke} bdef
/PA {newpath tMatrix currentmatrix pop	translate 0 0 moveto scale
  0 0 1 5 -2 roll arc closepath tMatrix setmatrix fill} bdef
/FAn {newpath tMatrix currentmatrix pop translate scale
  0 0 1 5 -2 roll arcn tMatrix setmatrix stroke} bdef
/PAn {newpath tMatrix currentmatrix pop translate 0 0 moveto scale
  0 0 1 5 -2 roll arcn closepath tMatrix setmatrix fill} bdef
/vradius 0 def /hradius 0 def /lry 0 def
/lrx 0 def /uly 0 def /ulx 0 def /rad 0 def
/MRR {/vradius xdef /hradius xdef /lry xdef /lrx xdef /uly xdef
  /ulx xdef newpath tMatrix currentmatrix pop ulx hradius add uly
  vradius add translate hradius vradius scale 0 0 1 180 270 arc 
  tMatrix setmatrix lrx hradius sub uly vradius add translate
  hradius vradius scale 0 0 1 270 360 arc tMatrix setmatrix
  lrx hradius sub lry vradius sub translate hradius vradius scale
  0 0 1 0 90 arc tMatrix setmatrix ulx hradius add lry vradius sub
  translate hradius vradius scale 0 0 1 90 180 arc tMatrix setmatrix
  closepath} bdef
/FRR {MRR stroke } bdef
/PRR {MRR fill } bdef
/MlrRR {/lry xdef /lrx xdef /uly xdef /ulx xdef /rad lry uly sub 2 div def
  newpath tMatrix currentmatrix pop ulx rad add uly rad add translate
  rad rad scale 0 0 1 90 270 arc tMatrix setmatrix lrx rad sub lry rad
  sub translate rad rad scale 0 0 1 270 90 arc tMatrix setmatrix
  closepath} bdef
/FlrRR {MlrRR stroke } bdef
/PlrRR {MlrRR fill } bdef
/MtbRR {/lry xdef /lrx xdef /uly xdef /ulx xdef /rad lrx ulx sub 2 div def
  newpath tMatrix currentmatrix pop ulx rad add uly rad add translate
  rad rad scale 0 0 1 180 360 arc tMatrix setmatrix lrx rad sub lry rad
  sub translate rad rad scale 0 0 1 0 180 arc tMatrix setmatrix
  closepath} bdef
/FtbRR {MtbRR stroke } bdef
/PtbRR {MtbRR fill } bdef
/stri 6 array def /dtri 6 array def
/smat 6 array def /dmat 6 array def
/tmat1 6 array def /tmat2 6 array def /dif 3 array def
/asub {/ind2 exch def /ind1 exch def dup dup
  ind1 get exch ind2 get sub exch } bdef
/tri_to_matrix {
  2 0 asub 3 1 asub 4 0 asub 5 1 asub
  dup 0 get exch 1 get 7 -1 roll astore } bdef
/compute_transform {
  dmat dtri tri_to_matrix tmat1 invertmatrix 
  smat stri tri_to_matrix tmat2 concatmatrix } bdef
/ds {stri astore pop} bdef
/dt {dtri astore pop} bdef
/db {2 copy /cols xdef /rows xdef mul dup 3 mul string
  currentfile 
  3 index 0 eq {/ASCIIHexDecode filter}
  {/ASCII85Decode filter 3 index 2 eq {/RunLengthDecode filter} if }
  ifelse exch readstring pop
  dup 0 3 index getinterval /rbmap xdef
  dup 2 index dup getinterval /gbmap xdef
  1 index dup 2 mul exch getinterval /bbmap xdef pop pop}bdef
/it {gs np dtri aload pop moveto lineto lineto cp c
  cols rows 8 compute_transform 
  rbmap gbmap bbmap true 3 colorimage gr}bdef
/il {newpath moveto lineto stroke}bdef
currentdict end def
%%EndProlog

%%BeginSetup
MathWorks begin

0 cap

end
%%EndSetup

%%Page: 1 1
%%BeginPageSetup
%%PageBoundingBox:   -17   194   622   615
MathWorks begin
bpage
%%EndPageSetup

%%BeginObject: obj1
bplot

/dpi2point 4.16667 def
portraitMode -0320 2550 csm

  249   -16  2664  1754 rc
85 dict begin %Colortable dictionary
/c0 { 0.000000 0.000000 0.000000 sr} bdef
/c1 { 1.000000 1.000000 1.000000 sr} bdef
/c2 { 0.900000 0.000000 0.000000 sr} bdef
/c3 { 0.000000 0.820000 0.000000 sr} bdef
/c4 { 0.000000 0.000000 0.800000 sr} bdef
/c5 { 0.910000 0.820000 0.320000 sr} bdef
/c6 { 1.000000 0.260000 0.820000 sr} bdef
/c7 { 0.000000 0.820000 0.820000 sr} bdef
c0
1 j
1 sg
   0    0 3200 1802 rf
2.08333 w
0 1405 2479 0 0 -1405 416 1540 4 MP
PP
-2479 0 0 1405 2479 0 0 -1405 416 1540 5 MP stroke
1.38889 w
DO
0 sg
 416 1540 mt 2895 1540 L
2895 1540 mt 2895 1540 L
 416  837 mt 2895  837 L
2895  837 mt 2895  837 L
 416  135 mt 2895  135 L
2895  135 mt 2895  135 L
SO
2.08333 w
 416 1540 mt 2895 1540 L
 416  135 mt 2895  135 L
 416 1540 mt  416  135 L
2895 1540 mt 2895  135 L
 416 1540 mt 2895 1540 L
 416 1540 mt  416  135 L
 416 1540 mt  440 1540 L
2895 1540 mt 2870 1540 L
%%IncludeResource: font Helvetica
/Helvetica /ISOLatin1Encoding 75 FMSR

 363 1567 mt 
(0) s
 416  837 mt  440  837 L
2895  837 mt 2870  837 L
 363  864 mt 
(2) s
 416  135 mt  440  135 L
2895  135 mt 2870  135 L
 363  162 mt 
(4) s
 416 1540 mt 2895 1540 L
 416  135 mt 2895  135 L
 416 1540 mt  416  135 L
2895 1540 mt 2895  135 L
gs 416 135 2480 1406 rc
DA
12.5 w
0 -396 1035 1106 2 MP stroke
0 -482 2275 794 2 MP stroke
0 -168 1035 1537 2 MP stroke
0 -265 2275 1522 2 MP stroke
SO
186 0 942 710 2 MP stroke
186 0 2182 312 2 MP stroke
186 0 942 1537 2 MP stroke
186 0 2182 1522 2 MP stroke
/c8 { 0.000000 0.000000 1.000000 sr} bdef
c8
-372 0 0 263 372 0 0 -263 849 1369 5 MP stroke
-372 0 0 463 372 0 0 -463 2089 1257 5 MP stroke
/c9 { 1.000000 0.000000 0.000000 sr} bdef
c9
372 0 849 1257 2 MP stroke
372 0 2089 1053 2 MP stroke
2.08333 w
gr

c9
1023  708 mt 1047  708 L
1035  696 mt 1035  720 L
1023  707 mt 1047  707 L
1035  695 mt 1035  719 L
1023  706 mt 1047  706 L
1035  694 mt 1035  718 L
1023  705 mt 1047  705 L
1035  693 mt 1035  717 L
1023  704 mt 1047  704 L
1035  692 mt 1035  716 L
1023  703 mt 1047  703 L
1035  691 mt 1035  715 L
1023  701 mt 1047  701 L
1035  689 mt 1035  713 L
1023  700 mt 1047  700 L
1035  688 mt 1035  712 L
1023  699 mt 1047  699 L
1035  687 mt 1035  711 L
1023  693 mt 1047  693 L
1035  681 mt 1035  705 L
1023  690 mt 1047  690 L
1035  678 mt 1035  702 L
1023  689 mt 1047  689 L
1035  677 mt 1035  701 L
1023  687 mt 1047  687 L
1035  675 mt 1035  699 L
1023  685 mt 1047  685 L
1035  673 mt 1035  697 L
1023  683 mt 1047  683 L
1035  671 mt 1035  695 L
1023  679 mt 1047  679 L
1035  667 mt 1035  691 L
1023  678 mt 1047  678 L
1035  666 mt 1035  690 L
1023  677 mt 1047  677 L
1035  665 mt 1035  689 L
1023  676 mt 1047  676 L
1035  664 mt 1035  688 L
1023  674 mt 1047  674 L
1035  662 mt 1035  686 L
1023  673 mt 1047  673 L
1035  661 mt 1035  685 L
1023  672 mt 1047  672 L
1035  660 mt 1035  684 L
1023  671 mt 1047  671 L
1035  659 mt 1035  683 L
1023  667 mt 1047  667 L
1035  655 mt 1035  679 L
1023  666 mt 1047  666 L
1035  654 mt 1035  678 L
1023  663 mt 1047  663 L
1035  651 mt 1035  675 L
1023  662 mt 1047  662 L
1035  650 mt 1035  674 L
1023  661 mt 1047  661 L
1035  649 mt 1035  673 L
1023  660 mt 1047  660 L
1035  648 mt 1035  672 L
1023  657 mt 1047  657 L
1035  645 mt 1035  669 L
1023  654 mt 1047  654 L
1035  642 mt 1035  666 L
1023  650 mt 1047  650 L
1035  638 mt 1035  662 L
1023  647 mt 1047  647 L
1035  635 mt 1035  659 L
1023  646 mt 1047  646 L
1035  634 mt 1035  658 L
1023  643 mt 1047  643 L
1035  631 mt 1035  655 L
1023  641 mt 1047  641 L
1035  629 mt 1035  653 L
1023  638 mt 1047  638 L
1035  626 mt 1035  650 L
1023  637 mt 1047  637 L
1035  625 mt 1035  649 L
1023  633 mt 1047  633 L
1035  621 mt 1035  645 L
1023  632 mt 1047  632 L
1035  620 mt 1035  644 L
1023  630 mt 1047  630 L
1035  618 mt 1035  642 L
1023  626 mt 1047  626 L
1035  614 mt 1035  638 L
1023  621 mt 1047  621 L
1035  609 mt 1035  633 L
1023  620 mt 1047  620 L
1035  608 mt 1035  632 L
1023  618 mt 1047  618 L
1035  606 mt 1035  630 L
1023  611 mt 1047  611 L
1035  599 mt 1035  623 L
1023  610 mt 1047  610 L
1035  598 mt 1035  622 L
1023  606 mt 1047  606 L
1035  594 mt 1035  618 L
1023  605 mt 1047  605 L
1035  593 mt 1035  617 L
1023  600 mt 1047  600 L
1035  588 mt 1035  612 L
1023  599 mt 1047  599 L
1035  587 mt 1035  611 L
1023  595 mt 1047  595 L
1035  583 mt 1035  607 L
1023  594 mt 1047  594 L
1035  582 mt 1035  606 L
1023  593 mt 1047  593 L
1035  581 mt 1035  605 L
1023  587 mt 1047  587 L
1035  575 mt 1035  599 L
1023  579 mt 1047  579 L
1035  567 mt 1035  591 L
1023  575 mt 1047  575 L
1035  563 mt 1035  587 L
1023  571 mt 1047  571 L
1035  559 mt 1035  583 L
1023  569 mt 1047  569 L
1035  557 mt 1035  581 L
1023  568 mt 1047  568 L
1035  556 mt 1035  580 L
1023  564 mt 1047  564 L
1035  552 mt 1035  576 L
1023  561 mt 1047  561 L
1035  549 mt 1035  573 L
1023  560 mt 1047  560 L
1035  548 mt 1035  572 L
1023  559 mt 1047  559 L
1035  547 mt 1035  571 L
1023  538 mt 1047  538 L
1035  526 mt 1035  550 L
1023  518 mt 1047  518 L
1035  506 mt 1035  530 L
1023  513 mt 1047  513 L
1035  501 mt 1035  525 L
1023  502 mt 1047  502 L
1035  490 mt 1035  514 L
1023  491 mt 1047  491 L
1035  479 mt 1035  503 L
1023  489 mt 1047  489 L
1035  477 mt 1035  501 L
1023  469 mt 1047  469 L
1035  457 mt 1035  481 L
1023  458 mt 1047  458 L
1035  446 mt 1035  470 L
1023  453 mt 1047  453 L
1035  441 mt 1035  465 L
1023  441 mt 1047  441 L
1035  429 mt 1035  453 L
1023  428 mt 1047  428 L
1035  416 mt 1035  440 L
1023  416 mt 1047  416 L
1035  404 mt 1035  428 L
1023  412 mt 1047  412 L
1035  400 mt 1035  424 L
1023  398 mt 1047  398 L
1035  386 mt 1035  410 L
1023  189 mt 1047  189 L
1035  177 mt 1035  201 L
gs 416 135 2480 1406 rc
gr

0 sg
 704 1713 mt 
(Setup 2 \(M = 0.8 m\)) s
1944 1713 mt 
(Setup 3 \(M = 1.4 m\)) s
 960   78 mt 
(Video measured tracking error distribution) s
 327  984 mt  -90 rotate
(Error [m]) s
90 rotate

end %%Color Dict

eplot
%%EndObject

epage
end

showpage

%%Trailer
%%EOF
