%!PS-Adobe-3.0 EPSF-3.0
%%Creator: MATLAB, The MathWorks, Inc. Version 8.3.0.532 (R2014a). Operating System: Linux 3.13.0-49-generic #83-Ubuntu SMP Fri Apr 10 20:11:33 UTC 2015 x86_64.
%%Title: /home/dnad/Documents/publication/ram2014_data/figures/Figure1_2b_NE_time_diver.eps
%%CreationDate: 04/23/2015  14:06:41
%%DocumentNeededFonts: Helvetica
%%DocumentProcessColors: Cyan Magenta Yellow Black
%%LanguageLevel: 2
%%Pages: 1
%%BoundingBox:   -37   188   625   606
%%EndComments

%%BeginProlog
% MathWorks dictionary
/MathWorks 160 dict begin
% definition operators
/bdef {bind def} bind def
/ldef {load def} bind def
/xdef {exch def} bdef
/xstore {exch store} bdef
% operator abbreviations
/c  /clip ldef
/cc /concat ldef
/cp /closepath ldef
/gr /grestore ldef
/gs /gsave ldef
/mt /moveto ldef
/np /newpath ldef
/cm /currentmatrix ldef
/sm /setmatrix ldef
/rm /rmoveto ldef
/rl /rlineto ldef
/s {show newpath} bdef
/sc {setcmykcolor} bdef
/sr /setrgbcolor ldef
/sg /setgray ldef
/w /setlinewidth ldef
/j /setlinejoin ldef
/cap /setlinecap ldef
/rc {rectclip} bdef
/rf {rectfill} bdef
% page state control
/pgsv () def
/bpage {/pgsv save def} bdef
/epage {pgsv restore} bdef
/bplot /gsave ldef
/eplot {stroke grestore} bdef
% orientation switch
/portraitMode 0 def /landscapeMode 1 def /rotateMode 2 def
% coordinate system mappings
/dpi2point 0 def
% font control
/FontSize 0 def
/FMS {/FontSize xstore findfont [FontSize 0 0 FontSize neg 0 0]
  makefont setfont} bdef
/reencode {exch dup where {pop load} {pop StandardEncoding} ifelse
  exch dup 3 1 roll findfont dup length dict begin
  { 1 index /FID ne {def}{pop pop} ifelse } forall
  /Encoding exch def currentdict end definefont pop} bdef
/isroman {findfont /CharStrings get /Agrave known} bdef
/FMSR {3 1 roll 1 index dup isroman {reencode} {pop pop} ifelse
  exch FMS} bdef
/csm {1 dpi2point div -1 dpi2point div scale neg translate
 dup landscapeMode eq {pop -90 rotate}
  {rotateMode eq {90 rotate} if} ifelse} bdef
% line types: solid, dotted, dashed, dotdash
/SO { [] 0 setdash } bdef
/DO { [.5 dpi2point mul 4 dpi2point mul] 0 setdash } bdef
/DA { [6 dpi2point mul] 0 setdash } bdef
/DD { [.5 dpi2point mul 4 dpi2point mul 6 dpi2point mul 4
  dpi2point mul] 0 setdash } bdef
% macros for lines and objects
/L {lineto stroke} bdef
/MP {3 1 roll moveto 1 sub {rlineto} repeat} bdef
/AP {{rlineto} repeat} bdef
/PDlw -1 def
/W {/PDlw currentlinewidth def setlinewidth} def
/PP {closepath eofill} bdef
/DP {closepath stroke} bdef
/MR {4 -2 roll moveto dup  0 exch rlineto exch 0 rlineto
  neg 0 exch rlineto closepath} bdef
/FR {MR stroke} bdef
/PR {MR fill} bdef
/L1i {{currentfile picstr readhexstring pop} image} bdef
/tMatrix matrix def
/MakeOval {newpath tMatrix currentmatrix pop translate scale
0 0 1 0 360 arc tMatrix setmatrix} bdef
/FO {MakeOval stroke} bdef
/PO {MakeOval fill} bdef
/PD {currentlinewidth 2 div 0 360 arc fill
   PDlw -1 eq not {PDlw w /PDlw -1 def} if} def
/FA {newpath tMatrix currentmatrix pop translate scale
  0 0 1 5 -2 roll arc tMatrix setmatrix stroke} bdef
/PA {newpath tMatrix currentmatrix pop	translate 0 0 moveto scale
  0 0 1 5 -2 roll arc closepath tMatrix setmatrix fill} bdef
/FAn {newpath tMatrix currentmatrix pop translate scale
  0 0 1 5 -2 roll arcn tMatrix setmatrix stroke} bdef
/PAn {newpath tMatrix currentmatrix pop translate 0 0 moveto scale
  0 0 1 5 -2 roll arcn closepath tMatrix setmatrix fill} bdef
/vradius 0 def /hradius 0 def /lry 0 def
/lrx 0 def /uly 0 def /ulx 0 def /rad 0 def
/MRR {/vradius xdef /hradius xdef /lry xdef /lrx xdef /uly xdef
  /ulx xdef newpath tMatrix currentmatrix pop ulx hradius add uly
  vradius add translate hradius vradius scale 0 0 1 180 270 arc 
  tMatrix setmatrix lrx hradius sub uly vradius add translate
  hradius vradius scale 0 0 1 270 360 arc tMatrix setmatrix
  lrx hradius sub lry vradius sub translate hradius vradius scale
  0 0 1 0 90 arc tMatrix setmatrix ulx hradius add lry vradius sub
  translate hradius vradius scale 0 0 1 90 180 arc tMatrix setmatrix
  closepath} bdef
/FRR {MRR stroke } bdef
/PRR {MRR fill } bdef
/MlrRR {/lry xdef /lrx xdef /uly xdef /ulx xdef /rad lry uly sub 2 div def
  newpath tMatrix currentmatrix pop ulx rad add uly rad add translate
  rad rad scale 0 0 1 90 270 arc tMatrix setmatrix lrx rad sub lry rad
  sub translate rad rad scale 0 0 1 270 90 arc tMatrix setmatrix
  closepath} bdef
/FlrRR {MlrRR stroke } bdef
/PlrRR {MlrRR fill } bdef
/MtbRR {/lry xdef /lrx xdef /uly xdef /ulx xdef /rad lrx ulx sub 2 div def
  newpath tMatrix currentmatrix pop ulx rad add uly rad add translate
  rad rad scale 0 0 1 180 360 arc tMatrix setmatrix lrx rad sub lry rad
  sub translate rad rad scale 0 0 1 0 180 arc tMatrix setmatrix
  closepath} bdef
/FtbRR {MtbRR stroke } bdef
/PtbRR {MtbRR fill } bdef
/stri 6 array def /dtri 6 array def
/smat 6 array def /dmat 6 array def
/tmat1 6 array def /tmat2 6 array def /dif 3 array def
/asub {/ind2 exch def /ind1 exch def dup dup
  ind1 get exch ind2 get sub exch } bdef
/tri_to_matrix {
  2 0 asub 3 1 asub 4 0 asub 5 1 asub
  dup 0 get exch 1 get 7 -1 roll astore } bdef
/compute_transform {
  dmat dtri tri_to_matrix tmat1 invertmatrix 
  smat stri tri_to_matrix tmat2 concatmatrix } bdef
/ds {stri astore pop} bdef
/dt {dtri astore pop} bdef
/db {2 copy /cols xdef /rows xdef mul dup 3 mul string
  currentfile 
  3 index 0 eq {/ASCIIHexDecode filter}
  {/ASCII85Decode filter 3 index 2 eq {/RunLengthDecode filter} if }
  ifelse exch readstring pop
  dup 0 3 index getinterval /rbmap xdef
  dup 2 index dup getinterval /gbmap xdef
  1 index dup 2 mul exch getinterval /bbmap xdef pop pop}bdef
/it {gs np dtri aload pop moveto lineto lineto cp c
  cols rows 8 compute_transform 
  rbmap gbmap bbmap true 3 colorimage gr}bdef
/il {newpath moveto lineto stroke}bdef
currentdict end def
%%EndProlog

%%BeginSetup
MathWorks begin

0 cap

end
%%EndSetup

%%Page: 1 1
%%BeginPageSetup
%%PageBoundingBox:   -37   188   625   606
MathWorks begin
bpage
%%EndPageSetup

%%BeginObject: obj1
bplot

/dpi2point 4.16667 def
portraitMode -0320 2550 csm

  163    25  2763  1738 rc
86 dict begin %Colortable dictionary
/c0 { 0.000000 0.000000 0.000000 sr} bdef
/c1 { 1.000000 1.000000 1.000000 sr} bdef
/c2 { 0.900000 0.000000 0.000000 sr} bdef
/c3 { 0.000000 0.820000 0.000000 sr} bdef
/c4 { 0.000000 0.000000 0.800000 sr} bdef
/c5 { 0.910000 0.820000 0.320000 sr} bdef
/c6 { 1.000000 0.260000 0.820000 sr} bdef
/c7 { 0.000000 0.820000 0.820000 sr} bdef
c0
1 j
1 sg
   0    0 3200 1802 rf
2.08333 w
0 553 2479 0 0 -553 416 729 4 MP
PP
-2479 0 0 553 2479 0 0 -553 416 729 5 MP stroke
1.38889 w
DO
0 sg
 416  729 mt  416  176 L
 416  176 mt  416  176 L
 668  729 mt  668  176 L
 668  176 mt  668  176 L
 921  729 mt  921  176 L
 921  176 mt  921  176 L
1174  729 mt 1174  176 L
1174  176 mt 1174  176 L
1427  729 mt 1427  176 L
1427  176 mt 1427  176 L
1680  729 mt 1680  176 L
1680  176 mt 1680  176 L
1933  729 mt 1933  176 L
1933  176 mt 1933  176 L
2186  729 mt 2186  176 L
2186  176 mt 2186  176 L
2439  729 mt 2439  176 L
2439  176 mt 2439  176 L
2692  729 mt 2692  176 L
2692  176 mt 2692  176 L
 416  673 mt 2895  673 L
2895  673 mt 2895  673 L
 416  452 mt 2895  452 L
2895  452 mt 2895  452 L
 416  231 mt 2895  231 L
2895  231 mt 2895  231 L
SO
2.08333 w
 416  729 mt 2895  729 L
 416  176 mt 2895  176 L
 416  729 mt  416  176 L
2895  729 mt 2895  176 L
 416  729 mt 2895  729 L
 416  729 mt  416  176 L
 416  729 mt  416  704 L
 416  176 mt  416  200 L
%%IncludeResource: font Helvetica
/Helvetica /ISOLatin1Encoding 75 FMSR

 396  810 mt 
(0) s
 668  729 mt  668  704 L
 668  176 mt  668  200 L
 627  810 mt 
(50) s
 921  729 mt  921  704 L
 921  176 mt  921  200 L
 859  810 mt 
(100) s
1174  729 mt 1174  704 L
1174  176 mt 1174  200 L
1112  810 mt 
(150) s
1427  729 mt 1427  704 L
1427  176 mt 1427  200 L
1365  810 mt 
(200) s
1680  729 mt 1680  704 L
1680  176 mt 1680  200 L
1618  810 mt 
(250) s
1933  729 mt 1933  704 L
1933  176 mt 1933  200 L
1871  810 mt 
(300) s
2186  729 mt 2186  704 L
2186  176 mt 2186  200 L
2124  810 mt 
(350) s
2439  729 mt 2439  704 L
2439  176 mt 2439  200 L
2377  810 mt 
(400) s
2692  729 mt 2692  704 L
2692  176 mt 2692  200 L
2630  810 mt 
(450) s
 416  673 mt  440  673 L
2895  673 mt 2870  673 L
 321  700 mt 
(20) s
 416  452 mt  440  452 L
2895  452 mt 2870  452 L
 321  479 mt 
(40) s
 416  231 mt  440  231 L
2895  231 mt 2870  231 L
 321  258 mt 
(60) s
 416  729 mt 2895  729 L
 416  176 mt 2895  176 L
 416  729 mt  416  176 L
2895  729 mt 2895  176 L
gs 416 176 2480 554 rc
gr

gs 390 180 2533 515 rc
/c8 { 1.000000 0.000000 0.000000 sr} bdef
c8
 408  607 mt  424  623 L
 424  607 mt  408  623 L
 411  613 mt  427  629 L
 427  613 mt  411  629 L
 417  602 mt  433  618 L
 433  602 mt  417  618 L
 465  586 mt  481  602 L
 481  586 mt  465  602 L
 472  580 mt  488  596 L
 488  580 mt  472  596 L
 480  584 mt  496  600 L
 496  584 mt  480  600 L
 486  585 mt  502  601 L
 502  585 mt  486  601 L
 493  579 mt  509  595 L
 509  579 mt  493  595 L
 499  573 mt  515  589 L
 515  573 mt  499  589 L
 506  563 mt  522  579 L
 522  563 mt  506  579 L
 512  660 mt  528  676 L
 528  660 mt  512  676 L
 521  559 mt  537  575 L
 537  559 mt  521  575 L
 546  556 mt  562  572 L
 562  556 mt  546  572 L
 554  551 mt  570  567 L
 570  551 mt  554  567 L
 562  552 mt  578  568 L
 578  552 mt  562  568 L
 571  546 mt  587  562 L
 587  546 mt  571  562 L
 578  542 mt  594  558 L
 594  542 mt  578  558 L
 586  543 mt  602  559 L
 602  543 mt  586  559 L
 592  531 mt  608  547 L
 608  531 mt  592  547 L
 599  557 mt  615  573 L
 615  557 mt  599  573 L
 605  544 mt  621  560 L
 621  544 mt  605  560 L
 630  610 mt  646  626 L
 646  610 mt  630  626 L
 639  524 mt  655  540 L
 655  524 mt  639  540 L
 645  517 mt  661  533 L
 661  517 mt  645  533 L
 651  516 mt  667  532 L
 667  516 mt  651  532 L
 657  515 mt  673  531 L
 673  515 mt  657  531 L
 664  518 mt  680  534 L
 680  518 mt  664  534 L
 692  641 mt  708  657 L
 708  641 mt  692  657 L
 697  500 mt  713  516 L
 713  500 mt  697  516 L
 704  508 mt  720  524 L
 720  508 mt  704  524 L
 711  507 mt  727  523 L
 727  507 mt  711  523 L
 718  500 mt  734  516 L
 734  500 mt  718  516 L
 745  487 mt  761  503 L
 761  487 mt  745  503 L
 751  483 mt  767  499 L
 767  483 mt  751  499 L
 777  469 mt  793  485 L
 793  469 mt  777  485 L
 784  467 mt  800  483 L
 800  467 mt  784  483 L
 810  477 mt  826  493 L
 826  477 mt  810  493 L
 834  453 mt  850  469 L
 850  453 mt  834  469 L
 841  457 mt  857  473 L
 857  457 mt  841  473 L
 849  448 mt  865  464 L
 865  448 mt  849  464 L
 856  449 mt  872  465 L
 872  449 mt  856  465 L
 864  458 mt  880  474 L
 880  458 mt  864  474 L
 873  446 mt  889  462 L
 889  446 mt  873  462 L
 880  447 mt  896  463 L
 896  447 mt  880  463 L
 905  445 mt  921  461 L
 921  445 mt  905  461 L
 914  442 mt  930  458 L
 930  442 mt  914  458 L
 921  451 mt  937  467 L
 937  451 mt  921  467 L
 927  442 mt  943  458 L
 943  442 mt  927  458 L
 934  447 mt  950  463 L
 950  447 mt  934  463 L
 941  449 mt  957  465 L
 957  449 mt  941  465 L
 948  453 mt  964  469 L
 964  453 mt  948  469 L
 955  445 mt  971  461 L
 971  445 mt  955  461 L
 966  438 mt  982  454 L
 982  438 mt  966  454 L
 972  430 mt  988  446 L
 988  430 mt  972  446 L
 980  426 mt  996  442 L
 996  426 mt  980  442 L
 987  428 mt 1003  444 L
1003  428 mt  987  444 L
 993  424 mt 1009  440 L
1009  424 mt  993  440 L
 999  416 mt 1015  432 L
1015  416 mt  999  432 L
1006  414 mt 1022  430 L
1022  414 mt 1006  430 L
1013  409 mt 1029  425 L
1029  409 mt 1013  425 L
1019  410 mt 1035  426 L
1035  410 mt 1019  426 L
1025  408 mt 1041  424 L
1041  408 mt 1025  424 L
1032  411 mt 1048  427 L
1048  411 mt 1032  427 L
1042  401 mt 1058  417 L
1058  401 mt 1042  417 L
1048  411 mt 1064  427 L
1064  411 mt 1048  427 L
1058  413 mt 1074  429 L
1074  413 mt 1058  429 L
1064  410 mt 1080  426 L
1080  410 mt 1064  426 L
1072  406 mt 1088  422 L
1088  406 mt 1072  422 L
1078  403 mt 1094  419 L
1094  403 mt 1078  419 L
1088  403 mt 1104  419 L
1104  403 mt 1088  419 L
1097  406 mt 1113  422 L
1113  406 mt 1097  422 L
1103  401 mt 1119  417 L
1119  401 mt 1103  417 L
1112  390 mt 1128  406 L
1128  390 mt 1112  406 L
1118  386 mt 1134  402 L
1134  386 mt 1118  402 L
1125  395 mt 1141  411 L
1141  395 mt 1125  411 L
1131  386 mt 1147  402 L
1147  386 mt 1131  402 L
1139  386 mt 1155  402 L
1155  386 mt 1139  402 L
1148  412 mt 1164  428 L
1164  412 mt 1148  428 L
1155  382 mt 1171  398 L
1171  382 mt 1155  398 L
1162  382 mt 1178  398 L
1178  382 mt 1162  398 L
1170  373 mt 1186  389 L
1186  373 mt 1170  389 L
1176  388 mt 1192  404 L
1192  388 mt 1176  404 L
1183  377 mt 1199  393 L
1199  377 mt 1183  393 L
1191  371 mt 1207  387 L
1207  371 mt 1191  387 L
1200  361 mt 1216  377 L
1216  361 mt 1200  377 L
1207  369 mt 1223  385 L
1223  369 mt 1207  385 L
1214  358 mt 1230  374 L
1230  358 mt 1214  374 L
1274  396 mt 1290  412 L
1290  396 mt 1274  412 L
1283  326 mt 1299  342 L
1299  326 mt 1283  342 L
1311  333 mt 1327  349 L
1327  333 mt 1311  349 L
1317  329 mt 1333  345 L
1333  329 mt 1317  345 L
1325  311 mt 1341  327 L
1341  311 mt 1325  327 L
1334  318 mt 1350  334 L
1350  318 mt 1334  334 L
1342  320 mt 1358  336 L
1358  320 mt 1342  336 L
1353  317 mt 1369  333 L
1369  317 mt 1353  333 L
1382  315 mt 1398  331 L
1398  315 mt 1382  331 L
1430  329 mt 1446  345 L
1446  329 mt 1430  345 L
1455  296 mt 1471  312 L
1471  296 mt 1455  312 L
1460  304 mt 1476  320 L
1476  304 mt 1460  320 L
1468  302 mt 1484  318 L
1484  302 mt 1468  318 L
1480  296 mt 1496  312 L
1496  296 mt 1480  312 L
1506  284 mt 1522  300 L
1522  284 mt 1506  300 L
1514  280 mt 1530  296 L
1530  280 mt 1514  296 L
1539  271 mt 1555  287 L
1555  271 mt 1539  287 L
1546  262 mt 1562  278 L
1562  262 mt 1546  278 L
1552  263 mt 1568  279 L
1568  263 mt 1552  279 L
1559  256 mt 1575  272 L
1575  256 mt 1559  272 L
1565  264 mt 1581  280 L
1581  264 mt 1565  280 L
1573  257 mt 1589  273 L
1589  257 mt 1573  273 L
1580  248 mt 1596  264 L
1596  248 mt 1580  264 L
1586  246 mt 1602  262 L
1602  246 mt 1586  262 L
1592  242 mt 1608  258 L
1608  242 mt 1592  258 L
1599  238 mt 1615  254 L
1615  238 mt 1599  254 L
1606  230 mt 1622  246 L
1622  230 mt 1606  246 L
1612  236 mt 1628  252 L
1628  236 mt 1612  252 L
1618  237 mt 1634  253 L
1634  237 mt 1618  253 L
1641  228 mt 1657  244 L
1657  228 mt 1641  244 L
1652  229 mt 1668  245 L
1668  229 mt 1652  245 L
1658  214 mt 1674  230 L
1674  214 mt 1658  230 L
1666  209 mt 1682  225 L
1682  209 mt 1666  225 L
1675  208 mt 1691  224 L
1691  208 mt 1675  224 L
1683  220 mt 1699  236 L
1699  220 mt 1683  236 L
1691  233 mt 1707  249 L
1707  233 mt 1691  249 L
1697  198 mt 1713  214 L
1713  198 mt 1697  214 L
1704  216 mt 1720  232 L
1720  216 mt 1704  232 L
1710  219 mt 1726  235 L
1726  219 mt 1710  235 L
1717  232 mt 1733  248 L
1733  232 mt 1717  248 L
1724  221 mt 1740  237 L
1740  221 mt 1724  237 L
1731  226 mt 1747  242 L
1747  226 mt 1731  242 L
1741  221 mt 1757  237 L
1757  221 mt 1741  237 L
1747  227 mt 1763  243 L
1763  227 mt 1747  243 L
1755  223 mt 1771  239 L
1771  223 mt 1755  239 L
1762  213 mt 1778  229 L
1778  213 mt 1762  229 L
1771  218 mt 1787  234 L
1787  218 mt 1771  234 L
1778  218 mt 1794  234 L
1794  218 mt 1778  234 L
1825  227 mt 1841  243 L
1841  227 mt 1825  243 L
1834  230 mt 1850  246 L
1850  230 mt 1834  246 L
1840  238 mt 1856  254 L
1856  238 mt 1840  254 L
1849  241 mt 1865  257 L
1865  241 mt 1849  257 L
1892  245 mt 1908  261 L
1908  245 mt 1892  261 L
1901  248 mt 1917  264 L
1917  248 mt 1901  264 L
1907  253 mt 1923  269 L
1923  253 mt 1907  269 L
1953  261 mt 1969  277 L
1969  261 mt 1953  277 L
1958  270 mt 1974  286 L
1974  270 mt 1958  286 L
1968  270 mt 1984  286 L
1984  270 mt 1968  286 L
1974  280 mt 1990  296 L
1990  280 mt 1974  296 L
1980  266 mt 1996  282 L
1996  266 mt 1980  282 L
1988  279 mt 2004  295 L
2004  279 mt 1988  295 L
2010  287 mt 2026  303 L
2026  287 mt 2010  303 L
2021  296 mt 2037  312 L
2037  296 mt 2021  312 L
2026  299 mt 2042  315 L
2042  299 mt 2026  315 L
2033  306 mt 2049  322 L
2049  306 mt 2033  322 L
2039  307 mt 2055  323 L
2055  307 mt 2039  323 L
2046  309 mt 2062  325 L
2062  309 mt 2046  325 L
2052  311 mt 2068  327 L
2068  311 mt 2052  327 L
2059  313 mt 2075  329 L
2075  313 mt 2059  329 L
2065  316 mt 2081  332 L
2081  316 mt 2065  332 L
2073  316 mt 2089  332 L
2089  316 mt 2073  332 L
2078  323 mt 2094  339 L
2094  323 mt 2078  339 L
2087  320 mt 2103  336 L
2103  320 mt 2087  336 L
2092  321 mt 2108  337 L
2108  321 mt 2092  337 L
2116  332 mt 2132  348 L
2132  332 mt 2116  348 L
2125  332 mt 2141  348 L
2141  332 mt 2125  348 L
2132  339 mt 2148  355 L
2148  339 mt 2132  355 L
2139  347 mt 2155  363 L
2155  347 mt 2139  363 L
2146  348 mt 2162  364 L
2162  348 mt 2146  364 L
2159  351 mt 2175  367 L
2175  351 mt 2159  367 L
2166  350 mt 2182  366 L
2182  350 mt 2166  366 L
2171  354 mt 2187  370 L
2187  354 mt 2171  370 L
2181  344 mt 2197  360 L
2197  344 mt 2181  360 L
2188  351 mt 2204  367 L
2204  351 mt 2188  367 L
2192  358 mt 2208  374 L
2208  358 mt 2192  374 L
2198  370 mt 2214  386 L
2214  370 mt 2198  386 L
2215  362 mt 2231  378 L
2231  362 mt 2215  378 L
2219  369 mt 2235  385 L
2235  369 mt 2219  385 L
2229  371 mt 2245  387 L
2245  371 mt 2229  387 L
2244  395 mt 2260  411 L
2260  395 mt 2244  411 L
2250  391 mt 2266  407 L
2266  391 mt 2250  407 L
2256  400 mt 2272  416 L
2272  400 mt 2256  416 L
2261  399 mt 2277  415 L
2277  399 mt 2261  415 L
2271  397 mt 2287  413 L
2287  397 mt 2271  413 L
2277  402 mt 2293  418 L
2293  402 mt 2277  418 L
2284  404 mt 2300  420 L
2300  404 mt 2284  420 L
2309  415 mt 2325  431 L
2325  415 mt 2309  431 L
2315  415 mt 2331  431 L
2331  415 mt 2315  431 L
2339  445 mt 2355  461 L
2355  445 mt 2339  461 L
2350  441 mt 2366  457 L
2366  441 mt 2350  457 L
2359  438 mt 2375  454 L
2375  438 mt 2359  454 L
2366  450 mt 2382  466 L
2382  450 mt 2366  466 L
2376  436 mt 2392  452 L
2392  436 mt 2376  452 L
2382  430 mt 2398  446 L
2398  430 mt 2382  446 L
2388  434 mt 2404  450 L
2404  434 mt 2388  450 L
2394  431 mt 2410  447 L
2410  431 mt 2394  447 L
2401  423 mt 2417  439 L
2417  423 mt 2401  439 L
2407  433 mt 2423  449 L
2423  433 mt 2407  449 L
2415  442 mt 2431  458 L
2431  442 mt 2415  458 L
2446  447 mt 2462  463 L
2462  447 mt 2446  463 L
2455  451 mt 2471  467 L
2471  451 mt 2455  467 L
2484  453 mt 2500  469 L
2500  453 mt 2484  469 L
2487  474 mt 2503  490 L
2503  474 mt 2487  490 L
2492  475 mt 2508  491 L
2508  475 mt 2492  491 L
2499  482 mt 2515  498 L
2515  482 mt 2499  498 L
2505  485 mt 2521  501 L
2521  485 mt 2505  501 L
2511  489 mt 2527  505 L
2527  489 mt 2511  505 L
2518  494 mt 2534  510 L
2534  494 mt 2518  510 L
2525  488 mt 2541  504 L
2541  488 mt 2525  504 L
2532  483 mt 2548  499 L
2548  483 mt 2532  499 L
2538  487 mt 2554  503 L
2554  487 mt 2538  503 L
2563  490 mt 2579  506 L
2579  490 mt 2563  506 L
2571  490 mt 2587  506 L
2587  490 mt 2571  506 L
2577  501 mt 2593  517 L
2593  501 mt 2577  517 L
2584  498 mt 2600  514 L
2600  498 mt 2584  514 L
2590  501 mt 2606  517 L
2606  501 mt 2590  517 L
2598  496 mt 2614  512 L
2614  496 mt 2598  512 L
2606  509 mt 2622  525 L
2622  509 mt 2606  525 L
2610  520 mt 2626  536 L
2626  520 mt 2610  536 L
2638  511 mt 2654  527 L
2654  511 mt 2638  527 L
2645  506 mt 2661  522 L
2661  506 mt 2645  522 L
2674  527 mt 2690  543 L
2690  527 mt 2674  543 L
2681  529 mt 2697  545 L
2697  529 mt 2681  545 L
2689  532 mt 2705  548 L
2705  532 mt 2689  548 L
2695  534 mt 2711  550 L
2711  534 mt 2695  550 L
2703  535 mt 2719  551 L
2719  535 mt 2703  551 L
2709  543 mt 2725  559 L
2725  543 mt 2709  559 L
2715  525 mt 2731  541 L
2731  525 mt 2715  541 L
2721  529 mt 2737  545 L
2737  529 mt 2721  545 L
2729  542 mt 2745  558 L
2745  542 mt 2729  558 L
2735  531 mt 2751  547 L
2751  531 mt 2735  547 L
2749  525 mt 2765  541 L
2765  525 mt 2749  541 L
2753  540 mt 2769  556 L
2769  540 mt 2753  556 L
2759  542 mt 2775  558 L
2775  542 mt 2759  558 L
2768  546 mt 2784  562 L
2784  546 mt 2768  562 L
2774  550 mt 2790  566 L
2790  550 mt 2774  566 L
2785  557 mt 2801  573 L
2801  557 mt 2785  573 L
2809  558 mt 2825  574 L
2825  558 mt 2809  574 L
2813  557 mt 2829  573 L
2829  557 mt 2813  573 L
2828  559 mt 2844  575 L
2844  559 mt 2828  575 L
2832  561 mt 2848  577 L
2848  561 mt 2832  577 L
2838  572 mt 2854  588 L
2854  572 mt 2838  588 L
2846  580 mt 2862  596 L
2862  580 mt 2846  596 L
2851  576 mt 2867  592 L
2867  576 mt 2851  592 L
2857  578 mt 2873  594 L
2873  578 mt 2857  594 L
2863  577 mt 2879  593 L
2879  577 mt 2863  593 L
2870  583 mt 2886  599 L
2886  583 mt 2870  599 L
2876  582 mt 2892  598 L
2892  582 mt 2876  598 L
2884  582 mt 2900  598 L
2900  582 mt 2884  598 L
gr

c8
gs 416 176 2480 554 rc
8.33333 w
/c9 { 0.000000 0.000000 1.000000 sr} bdef
c9
1 0 2 0 1 1 1 -1 1 1 1 0 1 0 1 1 
1 0 1 1 1 0 1 0 1 1 1 0 1 0 1 1 
1 0 1 2 1 0 1 0 1 1 2 0 1 0 1 1 
1 0 3 1 1 0 1 1 1 0 1 1 1 0 2 1 
1 1 1 0 3 1 2 4 6 2 3 3 1 0 2 0 
4 1 9 2 1 0 1 0 2 1 1 0 1 0 1 0 
1 0 1 1 1 0 2 0 2 0 4 2 4 1 4 1 
1 0 4 1 3 1 6 4 2 0 1 0 1 1 1 0 
6 2 3 2 2 0 4 1 6 2 3 2 1 0 6 -3 
1 0 1 1 1 0 1 0 1 0 1 1 1 0 1 0 
1 -1 1 0 1 0 1 1 1 0 1 0 1 1 1 1 
1 0 1 0 1 0 1 1 1 0 1 0 1 -2 1 0 
1 0 1 0 1 1 1 0 0 -3 1 0 1 1 1 0 
1 1 1 0 1 0 1 4 1 0 1 0 1 0 1 1 
1 0 1 0 1 1 1 0 1 0 1 1 1 0 1 0 
1 0 1 1 1 1 1 0 1 0 1 1 1 0 0 2 
1 0 1 0 1 1 1 0 1 0 1 0 1 1 1 0 
1 4 1 0 1 0 1 0 1 1 1 0 1 5 1 0 
1 0 1 0 1 0 1 0 1 0 1 0 1 0 1 1 
1 0 1 0 1 0 1 0 1 0 1 0 1 0 1 0 
1 1 1 0 1 0 1 0 1 0 1 0 1 0 1 0 
1 0 1 0 1 1 1 0 1 -4 1 0 1 0 1 1 
1 0 1 0 1 -5 1 0 1 0 1 1 1 0 1 0 
1 1 1 0 1 0 1 0 1 1 1 0 1 0 2 1 
2 1 2 1 1 0 1 0 1 1 1 0 1 0 2 1 
1 0 1 1 1 3 1 0 1 0 1 0 1 1 4 2 
1 1 3 0 1 -1 1 0 2 1 1 0 1 0 1 0 
1 1 1 0 1 0 1 1 1 0 1 0 1 0 1 0 
1 0 1 1 1 0 1 0 2 2 2 1 1 0 1 0 
1 0 1 1 1 -3 2 0 1 0 2 1 1 0 1 0 
2 -4 1 0 1 1 1 0 1 0 1 1 2 0 2 1 
2 1 3 1 3 1 2 1 3 1 1 0 0 -2 1 0 
1 0 1 1 1 0 2 1 1 -4 1 1 1 0 1 0 
1 1 1 1 1 0 0 -3 1 0 1 1 1 0 1 1 
1 1 1 0 1 1 1 0 1 1 1 1 1 1 1 0 
1 0 1 1 1 1 1 0 1 1 1 0 2 1 1 1 
1 1 2 1 1 0 1 1 3 3 1 0 1 1 1 0 
1 1 3 2 2 2 2495 482 300 MP stroke
3 25 29 0 4 4 5 0 15 7 1 0 1 0 1 0 
2 0 1 0 1 0 1 0 2 1 2 0 1 0 1 0 
2 0 1 2 1 0 1 0 1 0 1 0 1 0 1 0 
1 0 1 -1 2 0 1 0 1 0 1 0 0 -5 2 1 
1 0 1 0 1 0 1 0 1 0 1 -3 4 1 1 0 
0 -3 1 0 1 0 1 1 1 0 1 0 1 0 -1 0 
2 -5 1 0 1 1 1 0 1 1 1 0 1 -5 1 0 
1 1 1 0 1 1 1 1 1 0 1 1 1 0 1 0 
-1 0 2 3 2 1 1 0 1 1 1 0 1 1 1 -2 
3 1 1 1 1 0 1 1 1 0 1 1 1 -1 1 1 
2 0 1 1 1 1 1 0 1 1 1 0 1 1 1 0 
0 10 1 0 1 0 1 1 1 0 1 0 2 1 1 1 
4 1 1 0 3 1 1 1 3 1 1 0 1 1 1 0 
1 0 1 0 1 0 1 1 1 0 1 0 1 1 1 -1 
2 1 1 0 1 0 1 1 1 0 1 1 1 0 1 0 
1 1 1 1 1 0 2 1 2 1 1 0 1 0 1 1 
1 0 1 1 3 0 0 1 0 -1 1 -1 1 1 1 0 
1 1 1 0 1 0 1 1 1 -2 1 1 1 0 1 1 
1 0 1 1 4 0 1 1 1 0 1 1 1 1 1 0 
1 0 1 0 1 1 2 1 1 1 1 1 1 1 4 2 
6 12 15 7 10 4 4 2 14 5 1 0 1 1 1 0 
1 3 1 0 1 0 1 1 1 0 1 0 1 1 3 1 
5 0 2 1 5 -3 2 1 1 0 1 1 1 0 1 0 
1 0 1 1 1 0 1 1 3 -1 1 1 3 1 8 5 
4 2 1 1 2 2 2 1 1 0 1 0 1 1 1 2 
1 1 1 0 1 0 2 1 1 2 1 0 1 0 1 1 
1 0 1 0 1 1 1 -1 1 0 1 1 1 0 1 0 
1 1 1 0 1 1 1 0 1 0 1 -1 1 1 1 0 
1 1 1 0 1 0 1 1 2 0 1 1 1 0 1 1 
1 0 1 0 1 1 1 0 1 0 1 1 1 0 1 1 
1 0 1 0 1 1 1 0 1 -1 1 1 1 0 1 0 
1 1 2 -1 1 0 1 0 1 1 1 0 2 1 1 1 
1 0 1 1 1 0 2 1 2 0 1 0 1 1 1 0 
1 1 1 0 1 1 2 1 3 1 0 1 1 -1 1 0 
1 1 1 0 1 1 1 0 1 1 1 1 1 0 1 1 
1 0 1 1 1 0 1 1 1 1 1 0 1 1 1 0 
1 1 1 0 1 1 1 1 1 0 1 1 1 0 1 1 
1 2 1 0 1 1 2039 306 300 MP stroke
1 0 1 1 1 0 1 1 1 2 1 0 1 0 1 1 
1 0 1 1 1 3 1 0 1 0 2 1 1 0 1 1 
1 0 1 0 2 1 1 1 1 1 1 0 1 0 2 1 
3 1 1 0 1 1 1 0 3 1 1 0 1 0 -1 0 
5 2 1 0 5 3 0 0 3 1 1 -2 3 1 1 0 
1 0 0 2 1 0 1 1 1 0 1 0 1 1 1 0 
1 0 2 1 1 0 1 1 1 0 1 1 1 0 1 0 
1 3 1 0 1 1 1 0 1 0 1 1 10 6 1 0 
1 0 1 1 1 0 1 1 1 0 1 0 1 0 1 1 
1 0 1 0 1 1 1 0 1 0 1 1 1 0 1 0 
1 1 1 0 1 0 1 1 1 0 1 0 1 1 1 0 
1 0 1 1 1 0 1 0 1 1 1 0 1 0 1 1 
1 0 1 0 1 1 0 3 1 0 1 0 1 1 1 0 
1 0 1 0 0 4 1 0 1 0 1 0 1 0 1 0 
1 1 1 0 1 0 1 4 1 0 1 0 1 0 1 0 
1 0 1 1 1 0 1 0 1 0 1 0 1 0 1 0 
1 0 1 0 1 0 1 0 1 0 1 0 1 0 1 0 
1 0 1 0 1 0 1 0 1 1 1 0 1 0 1 0 
1 0 1 0 1 0 1 0 1 0 1 0 1 0 1 0 
1 0 1 0 1 0 1 0 1 0 1 0 1 0 0 3 
1 0 1 0 1 0 1 0 1 0 1 0 1 0 1 0 
1 0 0 3 1 0 1 0 1 0 1 1 1 0 1 0 
0 4 1 0 1 0 1 0 1 0 1 0 1 0 1 0 
1 0 1 8 1 0 1 -1 1 0 1 0 1 0 1 0 
1 0 1 0 1 0 1 0 1 0 1 0 1 0 1 -1 
1 0 1 0 1 0 1 0 1 0 1 0 1 0 1 0 
1 0 1 0 1 0 1 -1 1 0 1 0 1 0 1 0 
1 0 1 0 1 0 1 0 1 0 1 0 1 0 1 0 
1 -1 1 0 1 0 1 0 1 0 1 0 1 0 1 0 
1 0 1 0 1 0 1 -1 1 0 1 0 1 0 1 0 
1 0 1 0 1 0 1 0 1 0 1 0 1 0 1 0 
1 0 1 -1 1 0 1 0 1 0 1 0 1 0 1 0 
1 0 1 0 1 0 1 0 1 0 1 0 1 0 -1 0 
2 1 1 0 1 0 1 0 1 0 1 0 1 0 1 1 
1 0 1 0 1 0 1 -1 2 0 1 0 1 0 1 0 
1 4 1 -1 1 0 2 0 1 0 1 0 1 0 1 0 
1 0 1 0 1 0 1 0 1 0 0 5 1 -1 1 0 
1 0 1 0 1 0 1720 217 300 MP stroke
1 -1 1 3 1 -1 1 0 1 0 1 0 1 -1 1 2 
1 0 1 -1 1 0 1 0 1 -1 1 0 1 0 0 -5 
1 0 1 -1 1 0 1 0 1 0 1 0 0 7 1 -1 
1 0 1 0 1 -1 1 0 1 0 1 -1 1 0 0 3 
1 0 1 0 1 -1 1 0 1 -1 1 0 1 0 1 -1 
1 -1 1 0 1 0 1 -1 1 0 1 -1 1 0 1 0 
-1 0 2 -3 1 -1 1 0 1 0 1 -1 1 0 1 0 
1 -1 1 -2 1 0 1 -1 1 0 1 0 1 -1 1 0 
1 4 1 -1 1 0 1 0 1 -1 1 0 1 0 1 -1 
1 0 1 -1 1 3 1 0 1 -1 1 0 1 -1 1 0 
1 0 1 -1 1 0 1 -1 1 0 1 -1 1 0 1 -1 
1 0 1 -1 1 0 1 -1 1 0 1 -1 1 0 1 -1 
1 0 1 0 1 1 1 -1 1 0 1 -1 1 0 1 -1 
1 1 1 -1 1 0 1 -1 1 0 1 -1 1 -2 1 -1 
1 0 1 -1 1 0 1 -1 1 0 1 -1 1 0 1 -1 
1 0 1 -1 1 0 1 -1 1 -1 1 0 1 -1 1 -1 
1 0 1 0 1 -1 1 -1 1 0 1 -1 1 0 1 -1 
1 -1 1 0 1 -1 1 0 1 -1 1 0 1 -1 1 1 
1 -1 1 0 1 0 1 -1 1 0 1 -1 1 0 0 3 
1 -1 1 0 1 -1 1 0 1 -1 1 0 1 -1 1 -1 
1 0 1 -1 1 0 1 -1 1 0 1 0 1 -1 1 0 
1 -1 1 0 0 -1 2 -2 1 0 1 -1 1 0 1 -1 
1 0 1 -4 6 -3 3 -1 1 -1 1 0 2 -1 2 -1 
1 0 1 -1 1 0 1 -1 1 0 1 0 1 -1 1 0 
1 -1 1 0 1 -3 1 0 1 -1 1 0 1 -1 1 0 
1 0 1 -1 1 -4 1 0 1 -1 1 0 1 0 1 -1 
1 0 1 0 1 0 1 -1 1 0 1 0 1 -1 1 0 
1 0 1 -1 1 0 1 0 1 -1 1 0 1 0 1 -1 
1 0 1 0 0 0 2 -3 2 -1 2 -1 1 0 1 0 
1 0 1 0 1 -1 1 0 2 -1 2 -3 1 0 1 0 
1 0 1 -1 1 0 1 0 0 -4 1 -1 1 0 1 0 
2 -1 2 -17 1 0 1 0 1 0 1 0 1 0 1 0 
1 0 1 0 1 1 1 0 1 0 1 0 1 0 1 0 
1 0 1 0 1 0 1 0 2 1 1 0 1 0 1 0 
2 2 1 0 1 0 1 0 1 0 1 0 1 0 1 0 
1 0 1 1 1 0 1 0 1 0 1 0 1 0 1 0 
1 0 1 0 1 0 1 0 1 0 1 0 1 0 1 0 
1 0 2 0 1 0 1409 337 300 MP stroke
1 0 1 0 1 0 1 0 1 0 1 0 1 0 1 0 
1 1 1 0 1 0 1 0 1 0 1 0 1 0 1 0 
1 0 1 0 1 0 1 -6 1 0 2 0 2 0 1 0 
2 0 1 0 1 0 1 0 1 0 1 0 1 0 1 0 
1 0 1 0 1 0 1 0 1 0 1 0 1 0 1 0 
1 0 1 0 1 0 1 0 1 0 0 -4 1 0 1 0 
1 0 1 0 1 0 1 0 1 0 1 0 1 0 1 0 
1 0 0 -4 1 0 1 0 1 0 1 0 1 0 1 0 
1 0 1 -5 1 0 1 0 1 0 1 1 1 0 1 0 
1 0 1 0 -1 0 2 -6 1 0 1 1 1 0 1 0 
1 0 1 1 1 0 1 0 1 -4 1 0 1 0 1 1 
1 0 1 0 0 -3 1 0 1 0 1 0 1 0 1 0 
1 0 1 0 1 0 1 0 1 0 1 0 1 0 1 0 
1 0 1 0 1 1 1 0 1 0 1 0 1 0 1 0 
1 0 1 0 1 0 1 0 1 0 1 0 1 0 0 -14 
1 0 1 0 1 0 1 0 1 1 1 0 1 0 1 0 
1 23 1 0 1 0 1 0 1 0 1 0 1 0 1 0 
1 0 1 0 1 0 1 0 1 -1 1 0 1 0 1 -1 
1 0 1 0 1 -1 1 0 1 -1 1 0 1 0 1 -1 
1 0 1 -1 1 0 1 0 1 -1 1 0 1 0 1 -1 
1 0 1 -1 1 0 1 0 1 -1 1 0 1 -1 1 0 
1 0 1 -1 1 0 1 -1 1 0 1 0 1 -1 1 0 
1 0 1 -1 1 0 1 0 1 -1 1 0 1 -1 1 0 
1 -1 1 0 1 0 1 0 1 -1 0 -2 1 0 1 0 
1 -1 1 0 1 -1 1 0 1 0 5 -2 1 0 1 -1 
0 -3 1 0 1 -1 1 0 1 0 1 0 1 -1 1 0 
1 0 1 0 0 -3 1 0 1 0 1 0 1 0 1 -1 
1 0 1 0 1 0 0 -2 1 0 1 0 1 0 1 0 
1 -1 1 0 1 0 0 2 1 0 1 -1 1 0 1 0 
1 0 1 -1 1 -3 1 0 1 0 1 0 1 0 1 0 
1 -1 1 -1 1 0 1 0 1 0 1 -1 1 0 1 0 
1 0 0 -2 1 0 1 0 1 -1 1 0 1 0 1 0 
1 9 1 -1 1 0 1 0 1 -1 1 0 1 0 1 0 
1 -1 1 1 1 -1 1 0 1 0 1 -1 1 0 1 0 
1 0 1 -1 1 -1 1 0 1 0 1 -1 1 0 1 0 
1 0 1 0 1 0 1 -1 1 0 1 0 1 -1 1 -2 
1 0 1 0 1 -1 1 0 1 0 1 -2 1 0 1 0 
1 -1 1 0 1 0 1114 406 300 MP stroke
1 0 1 0 1 -1 1 1 1 0 1 0 1 -1 1 0 
1 0 1 1 1 0 1 0 1 0 1 -1 1 0 1 0 
1 0 1 0 -1 0 2 0 1 0 1 -1 1 0 1 0 
1 0 1 0 1 -1 1 0 1 0 1 0 1 0 1 -1 
1 0 1 0 1 0 1 0 1 0 1 0 1 -1 1 0 
1 0 1 0 1 -1 0 3 1 0 1 0 1 0 1 -1 
1 0 1 0 1 3 1 0 1 -1 1 0 1 0 1 -1 
1 0 1 -1 1 0 1 0 0 2 1 0 1 0 1 -1 
1 0 1 -1 1 0 1 -1 1 0 1 -1 1 0 1 0 
1 -1 1 0 1 -1 1 0 1 -1 1 2 1 0 1 -1 
1 0 1 -1 1 0 1 -1 1 0 1 -1 1 0 1 -1 
1 0 1 -1 0 1 1 -1 1 0 1 -1 1 0 1 -1 
1 0 1 -3 1 0 1 0 1 -1 1 0 1 -1 1 0 
0 -2 1 0 1 0 1 -1 1 0 1 0 1 -1 1 0 
1 -3 1 -1 1 0 1 0 1 -1 1 0 0 -2 1 0 
1 0 1 0 1 -1 1 0 1 0 1 -1 1 0 1 -1 
1 0 1 0 1 -1 1 -3 1 0 1 0 1 0 1 0 
1 -1 1 0 1 0 1 0 0 -4 1 0 1 0 1 0 
1 0 1 0 1 0 1 -2 1 -1 1 0 1 0 1 0 
1 0 1 0 1 0 1 0 1 0 1 0 1 0 1 0 
1 0 1 0 1 0 1 0 1 0 1 1 1 0 1 0 
1 0 1 0 1 0 1 0 1 1 1 0 1 0 1 0 
1 0 1 0 1 0 1 1 1 0 1 0 1 0 1 -1 
1 0 1 0 1 0 1 0 1 -1 1 0 1 0 1 0 
1 4 1 -1 1 0 1 0 1 0 1 0 1 -1 1 0 
1 0 1 -1 1 0 1 0 1 0 1 0 1 0 1 -1 
0 4 1 0 1 0 1 0 1 -1 1 0 1 0 1 0 
1 -1 1 0 1 0 1 0 1 -1 1 0 1 0 1 -1 
1 0 1 0 1 0 1 -1 1 0 1 0 1 0 1 -1 
1 0 1 0 1 2 1 -1 1 0 1 0 1 -1 1 0 
1 0 1 -1 1 0 1 0 1 -1 1 0 1 0 1 -1 
1 0 1 0 1 3 1 0 1 -1 1 0 1 0 1 -1 
1 0 1 -1 1 1 1 0 1 -1 1 0 1 -1 1 0 
1 0 0 -2 1 0 1 0 1 -1 1 0 1 0 1 -1 
1 0 1 0 0 3 1 0 1 -1 1 0 1 -1 1 -1 
1 0 1 -1 1 0 1 -1 1 0 1 -1 2 -1 1 0 
1 -1 1 0 1 -1 1 0 1 -1 1 0 1 -1 1 0 
1 -1 1 0 1 -1 824 471 300 MP stroke
1 0 1 0 1 -1 1 0 1 -1 1 0 2 12 1 -1 
1 -1 1 -1 1 0 1 -1 1 0 -1 0 2 -2 1 0 
1 -1 1 -1 1 0 1 -1 1 -1 1 -1 1 0 1 -1 
1 -1 1 -1 1 0 -1 0 4 -2 1 -1 1 -1 1 -4 
1 0 1 -1 1 -1 1 0 1 -1 1 -1 1 -10 1 0 
1 -1 1 0 1 0 1 -1 1 0 1 -1 1 0 1 -1 
1 0 1 -1 1 0 1 -1 1 0 1 -1 1 0 1 -1 
1 0 1 -1 1 0 1 -1 1 0 1 0 1 -1 1 0 
-1 0 2 -7 1 -1 1 0 1 -1 1 0 1 0 -1 0 
2 -12 1 0 1 0 1 -1 1 0 1 0 1 0 1 0 
1 -1 1 0 1 0 1 0 1 0 1 -1 1 0 1 0 
1 0 1 0 1 0 1 -1 1 0 1 0 1 0 1 0 
1 -1 1 0 1 0 0 -7 1 0 1 0 1 0 1 0 
1 0 1 0 1 0 1 -8 1 0 1 0 1 0 1 0 
1 0 1 0 0 -12 1 0 1 0 1 0 1 0 1 0 
1 1 1 0 0 -24 1 0 1 0 1 0 1 0 1 0 
1 61 1 -1 1 0 1 -1 1 0 1 -1 1 0 1 -1 
1 0 1 0 1 -1 1 0 1 -1 1 0 1 -1 1 0 
1 0 1 -1 1 0 1 -1 1 0 1 -1 1 0 1 0 
1 -1 1 0 1 0 1 -1 0 -3 1 0 1 -1 1 0 
1 0 1 -1 1 0 1 0 0 -5 1 0 1 -1 1 0 
1 0 1 0 1 0 0 -6 1 0 1 0 1 0 1 0 
1 0 1 -1 1 -9 1 0 1 0 1 0 1 0 1 0 
1 -16 1 0 1 0 1 0 1 1 1 0 1 0 1 0 
1 34 1 0 1 0 1 0 1 -1 1 0 1 0 1 0 
1 -1 1 0 1 0 1 0 1 -1 1 0 1 0 1 0 
1 -1 1 0 1 0 1 0 1 0 1 -1 1 0 1 0 
1 0 1 -1 1 1 1 0 1 0 1 -1 1 0 1 0 
1 6 1 0 1 -1 1 0 1 -1 1 0 1 0 -1 0 
2 -3 1 0 1 0 1 -1 1 0 1 0 1 -1 1 0 
1 0 1 0 1 -1 1 0 1 -1 1 0 1 -1 1 0 
1 -1 1 0 1 0 1 -1 1 0 1 -1 1 0 1 -1 
1 0 1 0 1 -1 1 0 1 0 1 -1 1 1 1 0 
1 -1 1 0 1 0 1 -1 1 0 1 0 0 -2 1 0 
1 0 1 0 1 -1 1 0 1 0 1 -1 1 0 1 0 
1 0 1 -1 1 0 1 -1 1 0 1 0 1 0 1 -1 
1 0 1 0 1 -1 1 0 1 0 1 -1 1 0 1 -1 
1 0 1 0 1 -1 534 571 300 MP stroke
1 0 1 0 1 -1 1 0 1 0 1 -3 1 0 1 0 
1 -1 1 0 1 0 1 -1 1 0 1 0 1 -1 1 0 
1 0 1 -1 1 0 1 0 0 -3 1 0 1 -1 1 0 
1 0 1 0 1 -1 1 0 1 -1 1 0 1 -1 1 0 
1 0 1 0 1 0 1 -1 1 0 1 0 1 0 1 -1 
1 0 0 2 1 0 1 0 1 0 1 -1 1 0 1 0 
0 2 1 0 1 -1 1 0 1 0 1 -1 1 0 1 0 
1 -1 0 -3 1 0 1 0 1 0 1 -1 1 0 1 0 
1 -1 0 -3 1 0 1 0 1 -1 1 0 1 0 1 0 
1 -1 1 0 1 0 1 0 1 -1 1 0 1 0 1 0 
1 -1 1 0 1 0 1 0 1 -1 1 0 1 0 1 0 
1 -1 1 0 1 0 1 0 1 -1 1 0 1 0 1 0 
1 -1 1 0 1 0 1 0 1 -1 1 0 1 0 1 0 
1 -1 1 0 1 0 1 0 1 -1 1 0 1 0 1 0 
1 -1 1 1 1 0 1 0 1 -1 1 0 1 0 1 0 
0 5 1 0 1 -1 1 0 416 604 125 MP stroke
6.25 w
/c10 { 0.000000 1.000000 0.000000 sr} bdef
c10
1 0 2 0 1 1 1 0 1 1 1 0 1 0 1 1 
1 0 1 0 1 1 1 0 1 1 1 0 1 0 1 1 
1 0 1 1 1 0 1 0 0 1 3 1 1 1 1 0 
-1 0 2 2 3 0 1 1 1 1 1 0 1 1 1 1 
0 1 2 1 1 0 -1 0 2 2 0 2 3 0 0 1 
2 0 0 1 6 0 0 1 3 0 1 0 -1 0 3 1 
0 1 4 0 9 0 1 0 1 1 2 0 1 0 1 0 
1 0 1 0 1 1 1 0 -1 0 3 2 2 0 0 1 
4 1 0 1 4 0 0 2 4 0 1 1 0 2 4 0 
0 2 3 0 0 1 6 1 2 0 1 0 1 0 -1 0 
2 2 6 0 0 1 3 0 2 0 4 0 6 0 3 0 
1 0 -1 0 7 1 1 0 1 0 1 0 1 1 1 0 
1 0 1 0 1 0 1 1 1 0 1 0 1 0 1 1 
1 0 1 0 1 0 1 0 1 0 1 0 1 0 1 0 
1 0 1 1 1 0 1 1 0 -1 1 1 1 0 1 1 
0 -1 1 1 1 1 1 0 1 0 1 1 1 1 1 0 
1 0 1 0 1 1 1 0 1 1 1 0 1 1 1 0 
1 1 1 1 1 0 1 0 1 1 1 1 1 0 1 1 
1 1 1 0 1 1 1 1 1 0 1 1 1 1 1 0 
1 1 1 1 1 0 1 1 1 0 1 0 1 1 1 0 
1 0 1 0 1 0 1 0 1 1 1 -1 1 0 1 0 
1 0 1 0 1 0 1 0 1 0 1 0 1 0 1 0 
1 -1 1 0 1 0 1 -1 1 0 1 0 1 -1 1 0 
1 -1 1 0 1 0 1 -1 1 0 1 0 1 0 1 -1 
1 0 1 0 1 1 1 0 1 0 1 0 1 0 1 1 
1 0 1 0 1 1 1 0 1 1 1 0 1 0 1 1 
1 0 -1 0 2 2 2 0 0 1 2 0 0 1 2 0 
1 1 1 0 1 1 1 0 -1 0 2 2 2 0 1 0 
1 1 1 0 1 0 1 0 1 0 1 1 4 0 1 1 
3 0 1 0 1 0 -1 0 3 1 1 0 1 0 1 1 
1 0 1 0 1 0 1 0 1 0 1 0 1 0 1 1 
1 0 1 0 -1 0 2 0 1 -1 2 0 2 0 1 -1 
1 0 1 0 1 0 1 0 2 0 1 0 2 1 1 0 
1 1 2 0 1 1 1 0 1 1 1 0 1 1 2 0 
2 0 0 1 2 0 3 0 0 -1 3 0 2 0 3 0 
1 0 1 -1 1 0 1 0 1 0 -1 0 3 1 1 0 
1 0 1 0 1 1 1 0 1 1 1 0 1 0 1 1 
1 0 1 1 1 1 2528 502 300 MP stroke
1 1 1 1 1 0 1 0 -1 0 2 2 1 0 1 0 
1 1 1 1 1 1 1 0 1 1 1 1 2 1 1 0 
0 2 1 1 2 0 1 1 1 0 0 3 3 0 1 1 
1 0 -1 0 2 2 1 1 0 3 3 0 0 6 2 0 
0 4 3 0 0 19 29 0 0 2 4 0 0 -1 0 1 
5 -1 0 1 15 0 1 0 1 0 1 1 0 -1 0 1 
2 0 1 0 1 0 1 0 0 1 0 -1 2 0 2 1 
1 0 1 -1 0 1 0 -1 2 0 1 0 1 0 1 -1 
1 0 1 -1 1 0 1 -1 1 0 1 -1 0 1 0 -1 
2 -1 1 0 1 -1 1 0 -1 0 3 -1 1 0 1 -1 
1 0 1 -1 1 0 1 -1 0 -1 4 0 1 -1 1 0 
1 0 1 -1 1 0 1 0 1 0 1 0 1 0 1 0 
1 0 1 0 1 1 1 0 1 0 1 1 1 1 1 0 
1 1 1 0 1 1 1 0 1 1 1 1 2 0 1 0 
1 0 1 1 1 1 0 1 1 1 3 0 1 1 1 1 
1 1 1 0 0 1 2 2 1 0 0 2 2 0 0 1 
2 2 1 0 1 1 1 0 1 1 1 0 1 1 1 0 
1 1 1 0 1 1 2 0 1 1 0 1 4 0 1 1 
3 0 1 1 3 0 1 0 1 0 1 0 1 1 1 0 
1 0 1 1 1 0 1 0 1 1 1 1 2 0 1 1 
1 0 1 0 1 1 1 0 1 1 1 0 1 0 1 1 
1 0 -1 0 3 1 2 0 1 1 1 0 1 0 1 0 
1 1 3 0 1 0 1 0 1 1 1 0 1 0 1 1 
1 0 1 0 1 1 1 0 1 1 1 1 1 0 0 3 
4 1 1 0 1 1 1 0 -1 0 2 0 1 -2 0 1 
2 2 1 0 0 3 2 0 0 1 1 1 1 1 0 9 
1 1 0 2 4 0 0 4 6 1 0 2 15 1 0 1 
10 1 0 2 4 0 0 4 14 0 1 0 1 0 1 1 
1 0 1 0 1 0 1 0 1 0 1 0 1 0 3 0 
5 0 0 -1 0 1 2 0 5 1 2 0 1 1 1 0 
1 1 1 0 1 0 1 1 1 1 0 1 1 1 3 1 
1 0 0 2 3 1 0 6 8 0 0 1 4 0 0 1 
1 1 0 2 2 0 2 0 1 1 1 0 1 1 1 0 
1 1 1 0 1 1 2 0 1 1 1 0 1 0 1 0 
1 0 1 1 1 0 1 0 1 0 1 1 1 0 1 0 
1 0 1 0 1 0 1 0 1 1 1 0 1 0 1 0 
-1 0 2 0 1 1 1 0 1 1 2 0 1 0 1 0 
1 0 1 1 1 0 2110 338 300 MP stroke
1 0 1 0 1 0 1 1 1 0 1 0 1 0 1 0 
1 0 1 1 1 0 1 0 1 1 1 0 1 0 -1 0 
3 1 1 1 1 0 1 0 1 1 2 0 1 1 1 0 
1 0 1 1 2 1 2 0 1 0 1 1 1 0 1 0 
1 0 0 1 3 1 3 1 1 0 1 1 1 0 1 1 
1 0 1 1 1 1 1 1 1 0 1 1 1 1 1 0 
1 1 1 1 1 1 1 1 1 0 1 1 1 1 1 0 
1 1 1 1 1 1 1 0 1 1 1 1 1 0 1 1 
1 0 1 1 1 0 1 1 1 0 1 1 1 0 1 1 
1 0 1 1 1 0 1 1 1 0 1 1 2 0 1 1 
1 1 1 0 1 0 -1 0 3 1 1 0 1 1 1 0 
0 1 3 1 3 0 1 1 1 0 1 1 3 0 1 0 
1 0 -1 0 5 2 1 0 -1 0 6 1 1 0 -1 0 
3 1 0 2 4 1 1 0 1 1 1 1 1 0 1 0 
1 1 1 1 1 1 1 0 0 2 2 0 1 1 1 0 
1 1 1 0 1 1 1 1 1 1 1 0 1 1 1 1 
1 0 1 1 0 4 10 1 1 0 1 1 1 0 1 1 
1 1 1 0 1 1 1 1 1 0 1 1 1 1 1 0 
1 1 1 1 1 1 1 0 1 1 1 0 1 1 1 0 
1 1 1 1 1 0 1 1 1 1 1 0 1 1 1 1 
1 0 1 1 1 1 1 0 1 1 1 0 1 0 1 1 
1 1 1 0 1 0 1 1 1 0 1 0 1 0 1 1 
1 0 1 0 1 0 1 1 1 0 1 0 1 0 1 0 
1 1 1 0 1 0 1 0 1 0 1 0 1 0 1 1 
1 0 1 0 1 0 1 1 1 0 1 0 1 1 1 0 
1 0 1 1 1 0 1 0 1 1 0 -1 1 1 1 0 
1 0 1 1 1 0 1 0 1 1 1 0 1 0 1 1 
1 0 1 0 1 1 1 0 1 0 -1 0 2 0 1 1 
1 0 1 1 1 0 1 0 1 1 1 0 1 1 1 0 
1 0 1 1 1 0 1 0 1 1 1 0 1 1 1 0 
1 0 1 0 1 1 1 0 1 0 1 0 1 1 1 0 
1 0 1 0 1 0 1 0 1 0 1 0 1 0 1 0 
1 0 1 0 1 0 1 0 1 0 1 0 1 0 1 0 
1 0 1 0 1 0 1 0 1 0 1 0 1 -1 1 0 
1 0 1 0 1 0 1 0 1 0 1 0 1 -1 1 0 
1 0 1 0 1 0 1 0 1 0 1 0 1 0 1 0 
1 0 1 0 1 0 1 0 1 0 1 0 1 0 1 0 
1 0 1 0 1 0 1786 221 300 MP stroke
1 0 1 0 -1 0 2 0 1 0 1 -1 1 0 1 0 
1 0 1 0 1 -1 1 1 1 0 1 -1 1 0 -1 0 
2 0 1 0 1 1 1 -1 1 1 1 -1 1 1 1 0 
-1 0 2 0 1 0 1 0 1 0 1 0 1 0 1 0 
1 0 1 0 1 0 1 0 1 0 1 0 1 0 -1 0 
2 0 1 1 1 0 1 0 1 0 1 1 2 0 1 1 
1 0 1 0 1 1 1 0 1 1 2 1 1 0 1 0 
1 1 1 0 1 1 1 0 1 0 1 1 1 0 1 0 
1 -1 1 0 1 1 1 -1 1 0 1 0 1 -1 1 0 
1 0 1 0 1 -1 1 0 1 0 1 0 1 0 1 0 
1 0 1 0 1 1 1 0 1 1 1 0 1 0 1 0 
1 0 1 0 1 0 1 0 1 0 1 -1 1 0 1 0 
1 -1 1 0 1 -1 1 0 1 -1 1 -1 1 0 1 -1 
1 -1 1 0 1 -1 1 0 1 -1 1 -1 1 0 1 -1 
1 0 1 -1 1 0 1 0 1 -1 1 0 1 0 1 -1 
1 0 1 0 1 0 1 0 1 0 1 0 1 -1 1 0 
1 0 1 -1 1 0 1 0 1 -1 1 0 1 0 1 -1 
1 0 1 -1 1 0 1 0 1 -1 1 -1 1 0 1 0 
1 -1 1 0 1 0 1 -1 1 0 1 -1 1 0 1 -1 
1 0 1 -1 1 0 1 -1 1 0 1 -1 1 -1 1 0 
1 -1 1 0 1 -1 1 -1 1 -1 1 0 1 -1 1 -1 
1 -1 1 0 1 -1 1 -1 1 0 1 -1 1 -1 1 -1 
1 -1 1 0 1 -1 1 0 1 -1 1 -1 1 0 1 -1 
1 0 1 -1 1 -1 1 0 1 -1 1 -1 1 0 1 -1 
1 0 1 0 1 -1 1 -1 1 0 1 -1 1 0 1 -1 
1 0 1 -1 1 0 1 -1 1 0 1 -1 1 0 1 -1 
1 -1 1 0 1 -1 1 0 1 -1 1 0 1 -1 1 0 
1 -1 1 0 1 -1 1 -1 1 0 1 -1 1 0 1 -1 
1 -1 1 0 1 -1 1 -1 1 0 1 -1 1 0 1 -1 
1 -1 1 0 1 -1 1 -1 1 0 1 -1 1 -1 0 -2 
2 -2 0 -2 6 0 3 -1 1 0 1 -1 0 -2 2 0 
2 0 1 -1 1 0 1 0 1 -1 1 0 1 -1 1 -1 
1 0 1 -1 1 -1 1 0 1 -1 1 -1 0 -1 2 -2 
1 0 1 -1 1 -1 1 0 1 -1 1 0 1 -1 1 -1 
1 0 1 -1 1 -1 1 0 1 -1 1 -1 1 -1 1 0 
1 -1 1 -1 1 -1 1 0 1 -1 1 -1 1 -1 1 -1 
1 0 1 -1 1 -1 1 0 0 -2 1 -1 2 0 0 -1 
2 0 1 -1 1 -1 1482 338 300 MP stroke
1 0 1 -1 1 0 0 -1 3 -1 0 -1 2 0 1 0 
1 -1 1 0 1 0 1 0 1 -1 1 0 1 0 1 0 
2 1 2 0 1 0 1 0 1 0 1 0 1 0 1 1 
1 0 1 0 1 0 1 0 1 0 1 0 1 1 1 0 
1 0 1 0 1 0 1 0 2 0 1 0 1 0 1 0 
2 0 1 0 1 0 1 0 1 0 1 0 -1 0 2 0 
1 0 1 -1 1 1 1 -1 1 0 1 1 1 -1 1 1 
1 -1 1 0 1 0 1 0 1 0 1 0 1 0 1 0 
1 0 -1 0 2 0 0 -1 2 1 1 0 1 0 1 0 
1 0 1 0 1 0 1 0 1 0 1 0 1 0 1 0 
1 0 1 0 1 0 1 0 1 0 1 0 1 0 1 0 
1 0 1 0 1 0 2 1 2 -1 1 0 -1 0 3 0 
1 0 1 1 1 -1 1 0 1 0 1 0 1 0 1 -1 
1 0 1 0 1 -1 1 0 1 -1 1 0 1 -1 1 -1 
1 0 1 -1 1 -1 1 0 1 -1 1 -1 1 0 1 -1 
1 -1 1 0 1 -1 1 -1 1 0 1 -1 1 0 1 0 
1 -1 1 0 1 0 1 -1 1 0 1 0 1 0 1 0 
1 0 1 0 1 -1 1 1 1 -1 1 0 1 0 1 0 
1 0 1 0 1 0 1 0 1 -1 1 0 1 0 1 0 
1 0 1 0 1 0 1 -1 1 0 1 1 1 -1 1 0 
1 0 1 0 1 0 1 -1 1 1 1 0 1 -1 1 1 
1 -1 1 1 1 0 1 0 1 1 1 0 1 1 1 0 
1 0 1 1 1 0 1 1 1 0 1 0 1 1 1 0 
1 0 1 1 1 0 1 0 1 0 1 0 1 0 1 0 
1 0 1 0 1 0 1 0 1 0 1 0 1 0 1 0 
1 -1 1 0 1 0 1 0 1 -1 1 0 1 0 1 -1 
1 0 1 0 1 -1 1 0 1 0 1 -1 1 0 1 -1 
1 0 1 0 1 -1 0 1 1 -1 1 0 1 0 1 -1 
1 0 1 0 1 -1 1 0 1 0 1 -1 1 0 1 0 
1 -1 1 0 1 0 1 -1 1 0 1 0 1 -1 1 0 
1 0 1 -1 1 0 1 0 1 -1 1 0 1 -1 1 0 
1 -1 1 0 1 -1 1 0 1 -1 1 0 1 -1 1 0 
1 -1 1 0 1 -1 1 0 1 -1 1 -1 1 0 0 -3 
5 0 1 0 1 -1 1 -1 1 0 1 0 1 -1 1 0 
1 -1 1 0 1 0 1 -1 1 0 1 -1 1 0 1 0 
1 -1 1 0 1 -1 1 0 1 0 1 -1 1 0 1 -1 
1 0 1 0 1 -1 1 0 1 -1 1 0 1 0 1 -1 
1 0 1 0 1 -1 1176 396 300 MP stroke
1 0 1 0 1 0 1 0 1 0 1 0 1 0 1 0 
1 0 1 0 1 0 1 1 1 0 1 0 1 0 1 0 
1 0 1 0 1 0 1 0 1 -1 1 0 1 0 1 0 
1 0 1 -1 1 0 1 0 1 0 -1 0 2 0 1 -1 
1 0 1 0 1 0 1 -1 1 0 1 0 1 -1 1 0 
1 0 1 -1 1 0 1 -1 1 0 1 -1 1 0 1 -1 
1 0 1 0 1 -1 1 0 1 0 1 -1 1 0 1 0 
1 0 1 0 1 0 1 0 1 0 1 0 1 0 1 0 
1 0 1 -1 1 0 1 0 1 0 1 0 1 0 1 0 
1 0 1 0 1 -1 1 0 1 0 1 0 1 0 1 -1 
1 0 1 0 1 0 1 0 1 -1 1 0 1 0 1 0 
1 0 1 0 1 0 1 0 1 0 1 1 1 0 1 0 
1 0 1 1 1 0 1 0 1 1 1 0 1 0 1 1 
1 0 1 0 1 0 1 0 1 0 1 0 1 0 1 0 
1 -1 1 0 1 0 1 0 1 -1 1 0 1 0 1 -1 
1 0 1 0 1 -1 1 0 1 -1 1 0 1 -1 1 0 
1 -1 1 0 1 0 1 -1 1 0 1 -1 1 0 1 -1 
1 0 1 -1 1 -1 1 -1 1 0 1 -1 1 -1 1 -1 
1 0 1 -1 1 -1 1 -1 1 0 1 -1 1 -1 1 -1 
1 0 1 -1 1 -1 1 0 1 -1 1 -1 1 0 1 -1 
1 0 1 -1 1 0 1 -1 1 0 1 -1 1 -1 1 0 
1 -1 1 0 1 -1 1 -1 1 0 1 -1 1 0 1 -1 
1 -1 1 0 1 -1 1 -1 1 0 1 -1 1 0 1 -1 
1 -1 1 0 1 -1 1 0 1 -1 1 0 1 -1 1 0 
1 -1 1 0 1 -1 1 0 1 -1 1 0 1 0 1 -1 
1 0 1 0 1 0 1 0 1 0 1 0 1 0 1 0 
1 0 1 0 1 0 1 0 1 0 1 0 1 0 1 0 
1 0 1 0 1 0 1 0 1 0 1 0 1 -1 1 0 
1 0 1 0 1 0 1 0 1 0 1 0 1 -1 1 0 
1 0 1 0 1 0 1 0 1 0 1 -1 1 0 1 0 
1 0 1 0 1 0 1 0 1 0 1 -1 1 0 1 0 
1 0 1 -1 1 0 1 -1 1 0 1 0 1 -1 1 0 
1 0 1 0 1 -1 1 0 1 0 1 -1 1 0 1 -1 
1 0 1 -1 1 -1 1 0 1 -1 1 -1 1 0 1 -1 
1 -1 1 0 1 -1 1 -1 1 0 1 -1 1 0 1 -1 
1 0 1 -1 1 0 1 -1 1 0 1 0 1 -1 1 0 
1 0 1 -1 1 0 1 -1 1 0 1 -1 1 0 1 -1 
1 -1 1 0 1 0 878 483 300 MP stroke
1 -1 1 0 1 -1 1 0 1 -1 1 0 1 -1 1 -1 
1 0 1 -1 1 -1 1 0 1 -1 1 0 1 -1 1 0 
1 -1 1 0 1 -1 1 -1 1 0 1 -1 1 0 1 -1 
1 0 1 -1 1 0 1 -1 1 0 1 -1 1 -1 1 0 
1 0 1 -1 1 0 1 0 1 -1 1 0 1 -1 1 0 
-1 0 3 -2 1 0 1 -1 1 0 1 -1 1 0 1 -1 
1 0 1 -1 1 0 1 -1 1 0 1 -1 1 0 1 -1 
1 0 1 -1 1 0 0 -1 3 -1 1 -1 1 -1 1 0 
1 -1 1 0 1 -1 1 -1 1 0 1 -1 1 -1 1 0 
1 -1 1 -1 1 0 1 -1 1 -1 1 0 1 -1 0 -1 
4 -1 1 -1 1 -1 1 -1 1 0 1 -1 1 -1 1 0 
1 -1 1 0 1 -1 1 -1 1 0 1 -1 1 0 1 -1 
1 -1 1 0 1 -1 1 -1 1 -1 1 0 1 -1 1 0 
1 -1 1 -1 1 -1 1 0 1 -1 1 -1 1 0 1 -1 
1 0 1 -1 1 0 1 -1 1 -1 1 0 1 -1 1 0 
1 -1 1 0 1 -1 1 0 1 -1 1 -1 1 0 1 -1 
1 -1 1 0 1 -1 1 -1 1 -1 1 -1 1 0 1 -1 
1 -1 1 -1 1 -1 1 0 1 -1 1 -1 1 0 1 -1 
1 -1 1 -1 1 0 1 0 1 0 1 0 1 0 1 0 
1 0 1 0 1 1 1 0 1 1 1 0 1 1 1 1 
1 0 -1 0 2 2 1 1 1 1 1 1 1 1 1 1 
1 1 1 1 1 1 1 0 1 1 1 0 1 0 1 0 
1 -1 0 1 1 -1 1 0 1 0 1 -1 1 0 1 -1 
1 0 1 -1 1 0 1 -1 1 0 1 -1 1 0 1 -1 
1 0 1 -1 1 0 1 -1 1 -1 1 0 1 -1 1 0 
1 0 1 -1 1 0 1 -1 1 0 1 0 1 -1 1 0 
1 -1 1 0 1 0 1 0 1 0 1 0 1 0 1 0 
1 0 1 0 1 1 1 0 1 0 1 1 1 0 1 0 
1 1 1 0 1 0 1 1 1 -1 1 1 1 0 1 -1 
1 0 1 0 1 -1 1 0 1 -1 1 0 1 -1 1 -1 
1 -1 1 0 1 -1 1 -1 1 -1 1 -1 1 0 1 -1 
1 -1 1 -1 1 0 1 -1 1 -1 1 -1 1 -1 1 0 
1 -1 1 -1 1 0 1 -1 1 -1 1 -1 1 0 1 -1 
1 -1 1 -1 1 -1 1 0 1 -1 1 -1 1 0 1 -1 
1 -1 1 0 1 -1 1 0 1 -1 1 0 1 -1 1 -1 
1 0 1 -1 1 0 1 -1 1 0 1 -1 1 0 1 -1 
1 -1 1 0 1 -1 1 0 1 -1 1 0 1 -1 1 -1 
1 0 1 -1 1 0 578 614 300 MP stroke
1 -1 1 0 1 -1 1 0 1 -1 1 -1 1 0 1 0 
1 -1 1 -1 1 0 1 -1 1 0 1 -1 1 0 1 -1 
1 0 1 -1 1 0 1 -1 1 0 1 -1 1 0 1 0 
1 -1 1 0 1 -1 1 0 1 0 1 -1 1 0 1 0 
1 -1 1 0 1 -1 1 0 1 0 1 -1 1 0 1 0 
1 -1 1 0 1 0 1 -1 1 0 1 0 1 0 1 -1 
1 0 1 0 1 -1 0 1 1 -1 1 0 1 0 1 0 
1 0 1 0 1 -1 1 1 1 -1 1 0 1 0 1 0 
1 0 1 0 1 0 1 0 1 0 1 0 1 0 1 0 
1 0 1 0 1 0 1 0 1 0 1 0 1 0 1 0 
1 0 1 0 1 0 1 0 1 -1 -1 0 2 0 1 0 
1 0 1 0 1 -1 1 0 1 0 1 -1 1 0 1 0 
1 -1 1 0 1 -1 1 0 1 -1 1 0 1 -1 1 0 
1 -1 1 -1 1 0 1 -1 1 0 1 -1 1 -1 1 -1 
1 -1 1 0 1 -1 1 -1 1 0 1 -1 1 -1 1 0 
1 -1 1 -1 1 -1 1 -1 1 0 1 -1 1 0 1 -1 
1 -1 1 -1 1 -1 1 0 1 -1 1 -1 1 -1 1 -1 
1 0 1 -1 1 -1 1 -1 1 -1 1 0 -1 0 2 -2 
1 -1 1 0 1 -1 1 -1 1 -1 1 -1 1 -1 1 -1 
1 -1 1 -1 1 -1 1 -1 1 -1 1 0 1 -1 1 0 
1 -1 1 0 1 0 1 0 1 0 -1 0 417 688 167 MP stroke
gr

6.25 w
c10
0 sg
1491  119 mt 
(North plot) s
1521  885 mt 
(Time [s]) s
 285  609 mt  -90 rotate
(North [m]) s
90 rotate
%%IncludeResource: font Helvetica
/Helvetica /ISOLatin1Encoding 41.6667 FMSR

 410  745 mt 
( ) s
2890  191 mt 
( ) s
2.08333 w
1 sg
0 553 2479 0 0 -553 416 1582 4 MP
PP
-2479 0 0 553 2479 0 0 -553 416 1582 5 MP stroke
1.38889 w
DO
0 sg
 416 1582 mt  416 1029 L
 416 1029 mt  416 1029 L
 668 1582 mt  668 1029 L
 668 1029 mt  668 1029 L
 921 1582 mt  921 1029 L
 921 1029 mt  921 1029 L
1174 1582 mt 1174 1029 L
1174 1029 mt 1174 1029 L
1427 1582 mt 1427 1029 L
1427 1029 mt 1427 1029 L
1680 1582 mt 1680 1029 L
1680 1029 mt 1680 1029 L
1933 1582 mt 1933 1029 L
1933 1029 mt 1933 1029 L
2186 1582 mt 2186 1029 L
2186 1029 mt 2186 1029 L
2439 1582 mt 2439 1029 L
2439 1029 mt 2439 1029 L
2692 1582 mt 2692 1029 L
2692 1029 mt 2692 1029 L
 416 1572 mt 2895 1572 L
2895 1572 mt 2895 1572 L
 416 1374 mt 2895 1374 L
2895 1374 mt 2895 1374 L
 416 1177 mt 2895 1177 L
2895 1177 mt 2895 1177 L
SO
2.08333 w
 416 1582 mt 2895 1582 L
 416 1029 mt 2895 1029 L
 416 1582 mt  416 1029 L
2895 1582 mt 2895 1029 L
 416 1582 mt 2895 1582 L
 416 1582 mt  416 1029 L
 416 1582 mt  416 1557 L
 416 1029 mt  416 1053 L
%%IncludeResource: font Helvetica
/Helvetica /ISOLatin1Encoding 75 FMSR

 396 1663 mt 
(0) s
 668 1582 mt  668 1557 L
 668 1029 mt  668 1053 L
 627 1663 mt 
(50) s
 921 1582 mt  921 1557 L
 921 1029 mt  921 1053 L
 859 1663 mt 
(100) s
1174 1582 mt 1174 1557 L
1174 1029 mt 1174 1053 L
1112 1663 mt 
(150) s
1427 1582 mt 1427 1557 L
1427 1029 mt 1427 1053 L
1365 1663 mt 
(200) s
1680 1582 mt 1680 1557 L
1680 1029 mt 1680 1053 L
1618 1663 mt 
(250) s
1933 1582 mt 1933 1557 L
1933 1029 mt 1933 1053 L
1871 1663 mt 
(300) s
2186 1582 mt 2186 1557 L
2186 1029 mt 2186 1053 L
2124 1663 mt 
(350) s
2439 1582 mt 2439 1557 L
2439 1029 mt 2439 1053 L
2377 1663 mt 
(400) s
2692 1582 mt 2692 1557 L
2692 1029 mt 2692 1053 L
2630 1663 mt 
(450) s
 416 1572 mt  440 1572 L
2895 1572 mt 2870 1572 L
 277 1599 mt 
(-20) s
 416 1374 mt  440 1374 L
2895 1374 mt 2870 1374 L
 363 1401 mt 
(0) s
 416 1177 mt  440 1177 L
2895 1177 mt 2870 1177 L
 321 1204 mt 
(20) s
 416 1582 mt 2895 1582 L
 416 1029 mt 2895 1029 L
 416 1582 mt  416 1029 L
2895 1582 mt 2895 1029 L
gs 416 1029 2480 554 rc
gr

gs 390 1036 2533 566 rc
c8
 408 1567 mt  424 1583 L
 424 1567 mt  408 1583 L
 411 1543 mt  427 1559 L
 427 1543 mt  411 1559 L
 417 1544 mt  433 1560 L
 433 1544 mt  417 1560 L
 465 1517 mt  481 1533 L
 481 1517 mt  465 1533 L
 472 1496 mt  488 1512 L
 488 1496 mt  472 1512 L
 480 1498 mt  496 1514 L
 496 1498 mt  480 1514 L
 486 1499 mt  502 1515 L
 502 1499 mt  486 1515 L
 493 1491 mt  509 1507 L
 509 1491 mt  493 1507 L
 499 1491 mt  515 1507 L
 515 1491 mt  499 1507 L
 506 1485 mt  522 1501 L
 522 1485 mt  506 1501 L
 512 1561 mt  528 1577 L
 528 1561 mt  512 1577 L
 521 1484 mt  537 1500 L
 537 1484 mt  521 1500 L
 546 1465 mt  562 1481 L
 562 1465 mt  546 1481 L
 554 1460 mt  570 1476 L
 570 1460 mt  554 1476 L
 562 1458 mt  578 1474 L
 578 1458 mt  562 1474 L
 571 1451 mt  587 1467 L
 587 1451 mt  571 1467 L
 578 1451 mt  594 1467 L
 594 1451 mt  578 1467 L
 586 1434 mt  602 1450 L
 602 1434 mt  586 1450 L
 592 1448 mt  608 1464 L
 608 1448 mt  592 1464 L
 599 1451 mt  615 1467 L
 615 1451 mt  599 1467 L
 605 1434 mt  621 1450 L
 621 1434 mt  605 1450 L
 630 1495 mt  646 1511 L
 646 1495 mt  630 1511 L
 639 1416 mt  655 1432 L
 655 1416 mt  639 1432 L
 645 1412 mt  661 1428 L
 661 1412 mt  645 1428 L
 651 1420 mt  667 1436 L
 667 1420 mt  651 1436 L
 657 1410 mt  673 1426 L
 673 1410 mt  657 1426 L
 664 1399 mt  680 1415 L
 680 1399 mt  664 1415 L
 692 1393 mt  708 1409 L
 708 1393 mt  692 1409 L
 697 1396 mt  713 1412 L
 713 1396 mt  697 1412 L
 704 1389 mt  720 1405 L
 720 1389 mt  704 1405 L
 711 1383 mt  727 1399 L
 727 1383 mt  711 1399 L
 718 1390 mt  734 1406 L
 734 1390 mt  718 1406 L
 745 1373 mt  761 1389 L
 761 1373 mt  745 1389 L
 751 1379 mt  767 1395 L
 767 1379 mt  751 1395 L
 777 1363 mt  793 1379 L
 793 1363 mt  777 1379 L
 784 1363 mt  800 1379 L
 800 1363 mt  784 1379 L
 810 1350 mt  826 1366 L
 826 1350 mt  810 1366 L
 834 1345 mt  850 1361 L
 850 1345 mt  834 1361 L
 841 1350 mt  857 1366 L
 857 1350 mt  841 1366 L
 849 1344 mt  865 1360 L
 865 1344 mt  849 1360 L
 856 1344 mt  872 1360 L
 872 1344 mt  856 1360 L
 864 1335 mt  880 1351 L
 880 1335 mt  864 1351 L
 873 1335 mt  889 1351 L
 889 1335 mt  873 1351 L
 880 1348 mt  896 1364 L
 896 1348 mt  880 1364 L
 905 1341 mt  921 1357 L
 921 1341 mt  905 1357 L
 914 1329 mt  930 1345 L
 930 1329 mt  914 1345 L
 921 1334 mt  937 1350 L
 937 1334 mt  921 1350 L
 927 1331 mt  943 1347 L
 943 1331 mt  927 1347 L
 934 1334 mt  950 1350 L
 950 1334 mt  934 1350 L
 941 1329 mt  957 1345 L
 957 1329 mt  941 1345 L
 948 1327 mt  964 1343 L
 964 1327 mt  948 1343 L
 955 1329 mt  971 1345 L
 971 1329 mt  955 1345 L
 966 1323 mt  982 1339 L
 982 1323 mt  966 1339 L
 972 1320 mt  988 1336 L
 988 1320 mt  972 1336 L
 980 1317 mt  996 1333 L
 996 1317 mt  980 1333 L
 987 1318 mt 1003 1334 L
1003 1318 mt  987 1334 L
 993 1314 mt 1009 1330 L
1009 1314 mt  993 1330 L
 999 1304 mt 1015 1320 L
1015 1304 mt  999 1320 L
1006 1308 mt 1022 1324 L
1022 1308 mt 1006 1324 L
1013 1302 mt 1029 1318 L
1029 1302 mt 1013 1318 L
1019 1313 mt 1035 1329 L
1035 1313 mt 1019 1329 L
1025 1302 mt 1041 1318 L
1041 1302 mt 1025 1318 L
1032 1303 mt 1048 1319 L
1048 1303 mt 1032 1319 L
1042 1299 mt 1058 1315 L
1058 1299 mt 1042 1315 L
1048 1286 mt 1064 1302 L
1064 1286 mt 1048 1302 L
1058 1282 mt 1074 1298 L
1074 1282 mt 1058 1298 L
1064 1293 mt 1080 1309 L
1080 1293 mt 1064 1309 L
1072 1282 mt 1088 1298 L
1088 1282 mt 1072 1298 L
1078 1281 mt 1094 1297 L
1094 1281 mt 1078 1297 L
1088 1275 mt 1104 1291 L
1104 1275 mt 1088 1291 L
1097 1267 mt 1113 1283 L
1113 1267 mt 1097 1283 L
1103 1272 mt 1119 1288 L
1119 1272 mt 1103 1288 L
1112 1268 mt 1128 1284 L
1128 1268 mt 1112 1284 L
1118 1258 mt 1134 1274 L
1134 1258 mt 1118 1274 L
1125 1247 mt 1141 1263 L
1141 1247 mt 1125 1263 L
1131 1251 mt 1147 1267 L
1147 1251 mt 1131 1267 L
1139 1251 mt 1155 1267 L
1155 1251 mt 1139 1267 L
1148 1268 mt 1164 1284 L
1164 1268 mt 1148 1284 L
1155 1251 mt 1171 1267 L
1171 1251 mt 1155 1267 L
1162 1250 mt 1178 1266 L
1178 1250 mt 1162 1266 L
1170 1241 mt 1186 1257 L
1186 1241 mt 1170 1257 L
1176 1247 mt 1192 1263 L
1192 1247 mt 1176 1263 L
1183 1232 mt 1199 1248 L
1199 1232 mt 1183 1248 L
1191 1231 mt 1207 1247 L
1207 1231 mt 1191 1247 L
1200 1222 mt 1216 1238 L
1216 1222 mt 1200 1238 L
1207 1232 mt 1223 1248 L
1223 1232 mt 1207 1248 L
1214 1222 mt 1230 1238 L
1230 1222 mt 1214 1238 L
1274 1123 mt 1290 1139 L
1290 1123 mt 1274 1139 L
1283 1226 mt 1299 1242 L
1299 1226 mt 1283 1242 L
1311 1221 mt 1327 1237 L
1327 1221 mt 1311 1237 L
1317 1220 mt 1333 1236 L
1333 1220 mt 1317 1236 L
1325 1227 mt 1341 1243 L
1341 1227 mt 1325 1243 L
1334 1220 mt 1350 1236 L
1350 1220 mt 1334 1236 L
1342 1213 mt 1358 1229 L
1358 1213 mt 1342 1229 L
1353 1213 mt 1369 1229 L
1369 1213 mt 1353 1229 L
1382 1190 mt 1398 1206 L
1398 1190 mt 1382 1206 L
1430 1149 mt 1446 1165 L
1446 1149 mt 1430 1165 L
1455 1159 mt 1471 1175 L
1471 1159 mt 1455 1175 L
1460 1155 mt 1476 1171 L
1476 1155 mt 1460 1171 L
1468 1156 mt 1484 1172 L
1484 1156 mt 1468 1172 L
1480 1151 mt 1496 1167 L
1496 1151 mt 1480 1167 L
1506 1139 mt 1522 1155 L
1522 1139 mt 1506 1155 L
1514 1134 mt 1530 1150 L
1530 1134 mt 1514 1150 L
1539 1125 mt 1555 1141 L
1555 1125 mt 1539 1141 L
1546 1122 mt 1562 1138 L
1562 1122 mt 1546 1138 L
1552 1118 mt 1568 1134 L
1568 1118 mt 1552 1134 L
1559 1115 mt 1575 1131 L
1575 1115 mt 1559 1131 L
1565 1119 mt 1581 1135 L
1581 1119 mt 1565 1135 L
1573 1115 mt 1589 1131 L
1589 1115 mt 1573 1131 L
1580 1111 mt 1596 1127 L
1596 1111 mt 1580 1127 L
1586 1111 mt 1602 1127 L
1602 1111 mt 1586 1127 L
1592 1104 mt 1608 1120 L
1608 1104 mt 1592 1120 L
1599 1112 mt 1615 1128 L
1615 1112 mt 1599 1128 L
1606 1102 mt 1622 1118 L
1622 1102 mt 1606 1118 L
1612 1099 mt 1628 1115 L
1628 1099 mt 1612 1115 L
1618 1095 mt 1634 1111 L
1634 1095 mt 1618 1111 L
1641 1091 mt 1657 1107 L
1657 1091 mt 1641 1107 L
1652 1093 mt 1668 1109 L
1668 1093 mt 1652 1109 L
1658 1093 mt 1674 1109 L
1674 1093 mt 1658 1109 L
1666 1089 mt 1682 1105 L
1682 1089 mt 1666 1105 L
1675 1092 mt 1691 1108 L
1691 1092 mt 1675 1108 L
1683 1080 mt 1699 1096 L
1699 1080 mt 1683 1096 L
1691 1078 mt 1707 1094 L
1707 1078 mt 1691 1094 L
1697 1074 mt 1713 1090 L
1713 1074 mt 1697 1090 L
1704 1072 mt 1720 1088 L
1720 1072 mt 1704 1088 L
1710 1070 mt 1726 1086 L
1726 1070 mt 1710 1086 L
1717 1066 mt 1733 1082 L
1733 1066 mt 1717 1082 L
1724 1059 mt 1740 1075 L
1740 1059 mt 1724 1075 L
1731 1075 mt 1747 1091 L
1747 1075 mt 1731 1091 L
1741 1065 mt 1757 1081 L
1757 1065 mt 1741 1081 L
1747 1064 mt 1763 1080 L
1763 1064 mt 1747 1080 L
1755 1061 mt 1771 1077 L
1771 1061 mt 1755 1077 L
1762 1064 mt 1778 1080 L
1778 1064 mt 1762 1080 L
1771 1060 mt 1787 1076 L
1787 1060 mt 1771 1076 L
1778 1054 mt 1794 1070 L
1794 1054 mt 1778 1070 L
1825 1066 mt 1841 1082 L
1841 1066 mt 1825 1082 L
1834 1079 mt 1850 1095 L
1850 1079 mt 1834 1095 L
1840 1086 mt 1856 1102 L
1856 1086 mt 1840 1102 L
1849 1089 mt 1865 1105 L
1865 1089 mt 1849 1105 L
1892 1111 mt 1908 1127 L
1908 1111 mt 1892 1127 L
1901 1121 mt 1917 1137 L
1917 1121 mt 1901 1137 L
1907 1124 mt 1923 1140 L
1923 1124 mt 1907 1140 L
1953 1131 mt 1969 1147 L
1969 1131 mt 1953 1147 L
1958 1146 mt 1974 1162 L
1974 1146 mt 1958 1162 L
1968 1146 mt 1984 1162 L
1984 1146 mt 1968 1162 L
1974 1144 mt 1990 1160 L
1990 1144 mt 1974 1160 L
1980 1143 mt 1996 1159 L
1996 1143 mt 1980 1159 L
1988 1156 mt 2004 1172 L
2004 1156 mt 1988 1172 L
2010 1162 mt 2026 1178 L
2026 1162 mt 2010 1178 L
2021 1168 mt 2037 1184 L
2037 1168 mt 2021 1184 L
2026 1174 mt 2042 1190 L
2042 1174 mt 2026 1190 L
2033 1172 mt 2049 1188 L
2049 1172 mt 2033 1188 L
2039 1172 mt 2055 1188 L
2055 1172 mt 2039 1188 L
2046 1179 mt 2062 1195 L
2062 1179 mt 2046 1195 L
2052 1191 mt 2068 1207 L
2068 1191 mt 2052 1207 L
2059 1180 mt 2075 1196 L
2075 1180 mt 2059 1196 L
2065 1192 mt 2081 1208 L
2081 1192 mt 2065 1208 L
2073 1189 mt 2089 1205 L
2089 1189 mt 2073 1205 L
2078 1194 mt 2094 1210 L
2094 1194 mt 2078 1210 L
2087 1188 mt 2103 1204 L
2103 1188 mt 2087 1204 L
2092 1197 mt 2108 1213 L
2108 1197 mt 2092 1213 L
2116 1204 mt 2132 1220 L
2132 1204 mt 2116 1220 L
2125 1213 mt 2141 1229 L
2141 1213 mt 2125 1229 L
2132 1219 mt 2148 1235 L
2148 1219 mt 2132 1235 L
2139 1223 mt 2155 1239 L
2155 1223 mt 2139 1239 L
2146 1222 mt 2162 1238 L
2162 1222 mt 2146 1238 L
2159 1220 mt 2175 1236 L
2175 1220 mt 2159 1236 L
2166 1227 mt 2182 1243 L
2182 1227 mt 2166 1243 L
2171 1236 mt 2187 1252 L
2187 1236 mt 2171 1252 L
2181 1233 mt 2197 1249 L
2197 1233 mt 2181 1249 L
2188 1252 mt 2204 1268 L
2204 1252 mt 2188 1268 L
2192 1254 mt 2208 1270 L
2208 1254 mt 2192 1270 L
2198 1251 mt 2214 1267 L
2214 1251 mt 2198 1267 L
2215 1245 mt 2231 1261 L
2231 1245 mt 2215 1261 L
2219 1254 mt 2235 1270 L
2235 1254 mt 2219 1270 L
2229 1256 mt 2245 1272 L
2245 1256 mt 2229 1272 L
2244 1252 mt 2260 1268 L
2260 1252 mt 2244 1268 L
2250 1264 mt 2266 1280 L
2266 1264 mt 2250 1280 L
2256 1273 mt 2272 1289 L
2272 1273 mt 2256 1289 L
2261 1276 mt 2277 1292 L
2277 1276 mt 2261 1292 L
2271 1275 mt 2287 1291 L
2287 1275 mt 2271 1291 L
2277 1274 mt 2293 1290 L
2293 1274 mt 2277 1290 L
2284 1273 mt 2300 1289 L
2300 1273 mt 2284 1289 L
2309 1285 mt 2325 1301 L
2325 1285 mt 2309 1301 L
2315 1292 mt 2331 1308 L
2331 1292 mt 2315 1308 L
2339 1300 mt 2355 1316 L
2355 1300 mt 2339 1316 L
2350 1291 mt 2366 1307 L
2366 1291 mt 2350 1307 L
2359 1296 mt 2375 1312 L
2375 1296 mt 2359 1312 L
2366 1303 mt 2382 1319 L
2382 1303 mt 2366 1319 L
2376 1305 mt 2392 1321 L
2392 1305 mt 2376 1321 L
2382 1308 mt 2398 1324 L
2398 1308 mt 2382 1324 L
2388 1307 mt 2404 1323 L
2404 1307 mt 2388 1323 L
2394 1303 mt 2410 1319 L
2410 1303 mt 2394 1319 L
2401 1304 mt 2417 1320 L
2417 1304 mt 2401 1320 L
2407 1299 mt 2423 1315 L
2423 1299 mt 2407 1315 L
2415 1308 mt 2431 1324 L
2431 1308 mt 2415 1324 L
2446 1306 mt 2462 1322 L
2462 1306 mt 2446 1322 L
2455 1312 mt 2471 1328 L
2471 1312 mt 2455 1328 L
2484 1310 mt 2500 1326 L
2500 1310 mt 2484 1326 L
2487 1329 mt 2503 1345 L
2503 1329 mt 2487 1345 L
2492 1339 mt 2508 1355 L
2508 1339 mt 2492 1355 L
2499 1340 mt 2515 1356 L
2515 1340 mt 2499 1356 L
2505 1343 mt 2521 1359 L
2521 1343 mt 2505 1359 L
2511 1346 mt 2527 1362 L
2527 1346 mt 2511 1362 L
2518 1349 mt 2534 1365 L
2534 1349 mt 2518 1365 L
2525 1344 mt 2541 1360 L
2541 1344 mt 2525 1360 L
2532 1346 mt 2548 1362 L
2548 1346 mt 2532 1362 L
2538 1352 mt 2554 1368 L
2554 1352 mt 2538 1368 L
2563 1359 mt 2579 1375 L
2579 1359 mt 2563 1375 L
2571 1360 mt 2587 1376 L
2587 1360 mt 2571 1376 L
2577 1370 mt 2593 1386 L
2593 1370 mt 2577 1386 L
2584 1372 mt 2600 1388 L
2600 1372 mt 2584 1388 L
2590 1375 mt 2606 1391 L
2606 1375 mt 2590 1391 L
2598 1379 mt 2614 1395 L
2614 1379 mt 2598 1395 L
2606 1382 mt 2622 1398 L
2622 1382 mt 2606 1398 L
2610 1381 mt 2626 1397 L
2626 1381 mt 2610 1397 L
2638 1376 mt 2654 1392 L
2654 1376 mt 2638 1392 L
2645 1375 mt 2661 1391 L
2661 1375 mt 2645 1391 L
2674 1384 mt 2690 1400 L
2690 1384 mt 2674 1400 L
2681 1395 mt 2697 1411 L
2697 1395 mt 2681 1411 L
2689 1397 mt 2705 1413 L
2705 1397 mt 2689 1413 L
2695 1391 mt 2711 1407 L
2711 1391 mt 2695 1407 L
2703 1391 mt 2719 1407 L
2719 1391 mt 2703 1407 L
2709 1407 mt 2725 1423 L
2725 1407 mt 2709 1423 L
2715 1412 mt 2731 1428 L
2731 1412 mt 2715 1428 L
2721 1402 mt 2737 1418 L
2737 1402 mt 2721 1418 L
2729 1405 mt 2745 1421 L
2745 1405 mt 2729 1421 L
2735 1419 mt 2751 1435 L
2751 1419 mt 2735 1435 L
2749 1416 mt 2765 1432 L
2765 1416 mt 2749 1432 L
2753 1429 mt 2769 1445 L
2769 1429 mt 2753 1445 L
2759 1419 mt 2775 1435 L
2775 1419 mt 2759 1435 L
2768 1427 mt 2784 1443 L
2784 1427 mt 2768 1443 L
2774 1421 mt 2790 1437 L
2790 1421 mt 2774 1437 L
2785 1425 mt 2801 1441 L
2801 1425 mt 2785 1441 L
2809 1436 mt 2825 1452 L
2825 1436 mt 2809 1452 L
2813 1442 mt 2829 1458 L
2829 1442 mt 2813 1458 L
2828 1441 mt 2844 1457 L
2844 1441 mt 2828 1457 L
2832 1448 mt 2848 1464 L
2848 1448 mt 2832 1464 L
2838 1444 mt 2854 1460 L
2854 1444 mt 2838 1460 L
2846 1454 mt 2862 1470 L
2862 1454 mt 2846 1470 L
2851 1452 mt 2867 1468 L
2867 1452 mt 2851 1468 L
2857 1456 mt 2873 1472 L
2873 1456 mt 2857 1472 L
2863 1459 mt 2879 1475 L
2879 1459 mt 2863 1475 L
2870 1470 mt 2886 1486 L
2886 1470 mt 2870 1486 L
2876 1473 mt 2892 1489 L
2892 1473 mt 2876 1489 L
2884 1477 mt 2900 1493 L
2900 1477 mt 2884 1493 L
gr

c8
gs 416 1029 2480 554 rc
8.33333 w
c9
1 0 2 0 1 1 0 2 1 0 1 0 1 1 1 0 
1 1 1 0 1 1 1 0 1 2 1 1 1 0 1 1 
1 0 1 0 -1 0 2 3 1 1 1 0 1 0 2 1 
1 1 1 0 1 0 3 1 1 1 1 0 1 0 1 1 
1 0 2 1 1 0 1 0 3 1 2 3 6 2 3 -1 
1 1 2 0 4 3 9 1 1 1 1 0 2 1 1 0 
1 1 1 0 1 0 1 1 1 0 2 -2 2 1 4 2 
4 1 4 2 1 0 4 2 3 1 6 1 2 1 1 0 
1 1 1 0 6 2 3 2 0 1 2 0 4 2 6 2 
3 6 1 0 6 2 1 0 1 0 1 1 1 0 1 0 
1 1 1 0 1 0 -1 0 2 3 1 0 1 0 1 1 
1 0 1 0 1 1 1 0 1 0 1 0 1 1 1 0 
1 0 1 0 1 -1 1 0 1 1 1 0 1 1 1 0 
0 2 1 0 1 0 1 1 1 0 1 0 1 1 1 3 
1 0 1 0 1 1 1 0 1 0 1 -1 1 0 1 0 
1 1 1 0 1 0 1 0 1 1 1 -1 1 0 1 0 
1 0 1 1 1 0 0 2 1 0 1 0 1 0 1 1 
1 0 1 0 1 0 1 1 1 4 1 0 1 0 1 0 
1 0 1 1 1 1 1 0 1 0 1 1 1 0 1 0 
1 0 1 0 1 0 1 0 1 1 1 0 1 0 1 0 
1 0 1 0 1 0 1 0 1 1 1 0 1 0 1 0 
1 0 1 0 1 0 1 0 1 1 1 0 1 0 1 0 
1 -4 1 0 1 0 1 0 1 0 1 1 1 -10 1 0 
1 1 1 0 1 0 1 1 1 1 1 0 1 0 1 1 
1 0 1 1 1 0 2 1 2 1 2 1 1 0 1 1 
1 0 1 1 1 0 2 1 1 0 1 1 1 1 1 0 
1 0 1 1 1 0 4 4 1 0 3 1 1 2 1 0 
2 1 1 0 1 0 1 1 1 0 0 2 1 0 1 0 
1 0 1 1 1 0 1 0 0 2 1 0 1 0 1 1 
1 0 1 0 2 4 2 0 1 0 1 1 1 0 1 0 
1 0 2 0 1 1 2 0 1 0 1 1 2 -1 1 0 
1 0 1 0 1 1 1 0 2 1 2 1 2 0 3 1 
3 1 2 1 3 1 1 0 1 0 1 0 1 1 1 0 
2 1 1 -2 1 1 1 0 1 0 1 1 1 0 1 0 
0 -2 1 0 1 1 1 0 1 1 1 0 1 1 1 0 
1 1 1 0 1 1 1 1 1 0 1 0 1 1 1 1 
1 0 1 1 1 0 2 1 1 1 1 1 2 1 1 0 
1 0 -1 0 4 3 2504 1344 300 MP stroke
1 1 1 0 1 0 1 1 3 3 2 1 3 16 29 0 
4 3 5 0 15 5 1 0 1 0 1 0 2 0 1 1 
1 0 1 0 2 0 2 0 1 0 1 0 2 0 1 2 
1 0 1 0 1 0 1 0 1 0 1 0 1 0 0 -2 
1 0 2 0 1 0 1 0 1 0 -1 0 3 -1 1 0 
1 0 1 0 1 0 1 0 1 -1 4 1 1 0 1 -1 
1 1 1 0 1 0 1 0 1 0 -1 0 2 0 1 1 
1 0 1 0 1 0 1 1 1 -1 1 0 1 1 1 0 
1 0 1 1 1 0 1 0 1 0 1 1 1 1 2 0 
1 1 1 0 1 0 1 0 1 -1 3 1 1 0 1 0 
1 0 1 1 1 0 0 -5 1 1 1 0 2 1 1 0 
1 1 1 0 1 0 1 1 1 0 1 0 0 4 1 0 
1 1 1 0 1 0 1 1 2 0 1 1 4 1 1 0 
3 1 1 0 3 1 1 1 1 0 1 0 1 0 -1 0 
2 2 1 1 1 0 1 0 1 1 1 0 -1 0 2 0 
2 0 1 0 1 1 1 0 1 0 1 1 1 0 1 0 
1 1 1 0 1 0 2 1 2 1 1 0 1 0 1 0 
1 1 1 0 3 1 0 -2 1 0 1 0 1 1 1 0 
1 0 1 1 1 0 1 -1 1 0 1 0 1 1 1 0 
1 1 4 1 1 0 1 1 1 0 1 1 1 0 1 0 
1 1 1 1 2 1 1 0 1 2 1 0 4 2 6 3 
15 0 10 4 4 1 14 6 1 0 1 1 1 0 1 1 
1 1 1 1 1 0 1 1 1 3 1 1 3 1 5 6 
2 1 5 1 2 0 1 1 1 0 1 1 1 1 1 0 
1 1 1 1 1 0 3 0 1 1 3 1 8 2 4 2 
1 1 2 1 2 1 1 1 1 0 1 1 1 2 1 1 
1 0 1 0 2 1 1 3 1 1 1 0 1 0 1 1 
1 0 1 0 -1 0 2 2 1 1 1 0 1 0 1 1 
1 0 1 0 1 1 1 0 1 0 1 0 1 0 1 1 
1 0 1 0 1 1 1 0 2 1 1 0 1 0 1 1 
1 0 1 1 1 0 1 0 1 1 1 0 1 0 1 1 
1 0 1 0 1 1 1 0 1 0 1 1 1 0 1 0 
1 1 2 -2 1 0 1 1 1 0 1 0 2 1 1 1 
1 0 1 1 1 0 2 1 2 0 1 0 1 1 1 0 
1 1 1 0 1 1 0 1 2 1 3 1 1 -1 1 0 
1 1 1 0 1 1 1 0 1 1 1 3 1 0 1 1 
1 0 1 1 1 0 1 0 1 1 1 0 1 1 1 0 
1 1 1 0 1 1 2047 1183 300 MP stroke
1 -1 1 0 1 1 1 0 1 1 1 -1 1 1 1 0 
1 1 1 0 1 1 1 0 1 2 1 1 1 0 1 1 
1 0 1 0 -1 0 2 2 1 0 1 1 2 1 1 0 
1 0 1 1 1 0 2 1 1 1 1 1 1 0 1 0 
2 1 3 1 1 1 1 0 1 1 3 1 1 0 1 0 
4 2 1 0 5 4 1 0 2 1 1 -3 3 2 1 0 
1 0 0 -2 1 1 1 0 1 1 1 0 1 0 1 1 
1 -1 2 1 1 1 1 0 1 1 1 0 1 1 1 0 
1 2 1 0 1 1 1 0 1 1 1 0 10 -3 1 1 
1 1 1 0 1 1 1 1 1 0 1 1 1 0 1 1 
1 0 1 1 1 1 1 0 1 1 1 0 1 1 1 1 
1 0 1 1 1 0 1 1 1 1 1 0 1 1 1 0 
1 1 1 0 1 1 1 0 1 1 1 1 1 0 1 1 
1 1 1 0 0 1 2 2 1 0 1 1 1 0 1 1 
1 0 0 5 1 0 1 1 1 0 1 1 1 0 1 1 
1 0 1 1 1 7 1 0 1 1 1 0 1 1 1 0 
1 0 1 1 1 0 1 1 1 0 1 0 1 1 1 0 
1 1 1 0 1 0 1 1 1 0 1 1 1 0 1 1 
1 0 1 0 1 1 1 0 1 1 1 0 1 0 1 1 
1 0 1 1 1 0 1 0 1 1 1 0 1 0 1 1 
1 0 1 1 1 0 1 1 1 0 1 0 0 4 1 0 
1 0 1 1 1 0 1 0 1 1 1 0 1 0 1 1 
0 5 1 0 1 0 1 1 1 0 1 0 1 0 0 9 
1 0 1 0 1 0 1 0 1 0 1 0 1 0 1 0 
1 14 1 0 1 0 1 0 1 -1 1 0 1 0 1 0 
1 -1 1 0 1 0 1 0 1 0 1 -1 1 0 1 0 
1 0 1 0 1 -1 1 0 1 0 1 0 1 -1 1 0 
1 0 1 0 1 0 1 -1 1 0 1 0 1 0 1 0 
1 -1 1 0 1 0 1 0 1 -1 1 0 1 0 1 0 
1 0 1 -1 1 0 1 0 1 0 1 -1 1 0 1 -2 
1 0 1 0 1 0 1 0 1 -1 1 0 1 0 1 -1 
1 0 1 0 1 0 1 0 1 0 1 -1 1 0 1 0 
1 0 1 0 1 -1 1 0 1 0 1 0 1 0 -1 0 
2 -2 1 0 1 0 1 0 1 0 1 0 1 0 1 0 
1 -1 1 0 1 0 1 0 1 0 1 0 1 -1 1 0 
1 0 1 0 1 -1 2 0 1 0 1 0 1 0 1 2 
1 0 1 0 2 -1 1 0 1 0 1 -3 1 0 1 0 
1 0 1 0 1 -1 1726 1081 300 MP stroke
1 0 1 0 1 0 1 -1 1 0 1 0 1 0 1 -1 
1 0 1 -1 1 0 1 0 1 0 1 -1 1 -1 1 0 
1 0 1 0 1 -1 1 0 1 0 0 -3 1 0 1 0 
1 0 1 -1 1 0 1 0 1 0 1 0 1 0 1 -1 
1 0 1 0 1 0 1 -1 1 0 1 -1 1 0 1 0 
1 0 1 -1 1 0 1 0 0 2 1 -1 1 0 1 0 
1 0 1 -1 1 0 1 0 1 0 1 -1 1 0 1 0 
1 -1 1 0 1 0 1 0 1 -1 1 1 1 0 1 0 
1 -1 1 0 1 0 1 0 1 2 1 0 1 -1 1 0 
1 0 1 0 1 -1 1 0 1 0 1 -1 1 1 1 0 
1 0 1 -1 1 0 1 -1 1 0 1 0 1 -1 1 0 
1 0 1 -1 1 0 1 0 1 -1 1 0 1 0 1 -1 
1 0 1 0 1 -1 1 0 1 0 1 -1 1 -1 1 0 
1 0 1 -1 1 0 1 0 1 -1 1 0 1 -1 1 0 
1 0 1 -1 1 -1 1 0 1 -1 1 0 1 0 1 0 
1 -1 1 2 1 -1 1 0 1 0 1 -1 1 0 1 0 
1 -1 1 -1 1 0 1 -1 1 0 1 0 1 0 1 0 
1 -1 1 0 1 0 1 -1 1 0 1 0 1 -1 1 0 
1 0 1 -1 1 0 1 1 1 -1 1 0 1 -1 1 0 
1 0 1 -1 1 0 0 2 1 0 1 -1 1 0 1 0 
1 -1 1 0 1 -1 1 0 1 -1 1 0 1 -1 1 0 
1 0 1 -1 1 0 1 -1 1 0 1 0 1 -1 1 1 
1 -1 1 0 1 -1 1 0 1 -1 1 -3 6 -2 3 -1 
1 0 1 -1 2 0 2 -1 1 -1 1 0 1 0 1 -1 
1 0 1 0 1 -1 1 0 1 0 1 -1 1 -1 1 -1 
1 0 1 0 1 -1 1 0 1 0 1 -1 1 -2 1 0 
1 0 1 -1 1 0 1 0 1 -1 1 0 1 0 1 0 
1 -1 1 0 1 0 1 -1 1 0 1 0 1 -1 1 0 
1 0 1 -1 1 0 1 0 1 0 1 -1 1 0 1 0 
2 0 2 -1 1 0 1 0 1 -1 1 0 1 0 1 -1 
2 0 2 1 1 0 1 -1 1 0 1 0 1 -1 1 0 
0 2 1 0 1 -1 1 0 2 -1 2 12 1 -1 1 0 
1 -1 1 -1 1 -1 1 0 1 0 1 -1 1 -1 1 -1 
0 0 2 -2 1 0 1 -1 1 -1 1 -1 1 0 0 -1 
3 -2 1 -1 1 0 1 -1 2 -34 1 0 1 -1 1 0 
1 0 1 0 1 -1 1 0 1 0 1 0 1 -1 1 0 
1 0 1 0 1 -1 1 0 1 0 1 0 1 -1 1 0 
1 0 1 0 1 -1 1414 1205 300 MP stroke
1 0 1 0 2 -1 1 0 1 0 1 0 1 -1 1 0 
1 0 1 0 1 -1 1 0 1 0 1 0 1 0 1 -1 
1 0 1 0 1 0 1 -1 1 0 1 0 1 0 1 -21 
1 0 2 1 2 0 1 0 2 1 1 0 1 0 1 0 
1 1 1 0 1 0 1 0 1 0 1 0 1 1 1 0 
1 0 1 0 1 0 1 1 1 0 1 0 1 0 1 0 
1 1 0 -5 1 1 1 0 1 0 1 1 1 0 1 0 
1 0 1 1 1 0 1 0 1 1 0 -5 1 1 1 0 
1 1 1 0 1 0 1 1 1 0 -1 0 2 -2 1 1 
1 0 1 1 1 0 1 1 1 0 1 1 1 0 -1 0 
2 3 1 0 1 1 1 0 1 1 1 0 1 1 1 0 
1 1 1 4 1 1 1 0 1 1 1 0 1 0 0 20 
1 0 1 0 1 0 1 0 1 0 1 0 1 0 1 0 
1 1 1 0 1 0 1 0 1 0 1 0 1 0 1 0 
1 1 1 0 1 0 1 0 1 0 1 0 1 0 1 0 
1 0 1 1 1 0 1 0 0 37 1 0 1 0 1 -1 
1 0 1 -1 1 0 1 0 1 -1 1 -49 1 0 1 0 
1 0 1 0 1 0 1 0 1 0 1 0 1 0 1 0 
1 -1 1 0 1 0 1 -1 1 0 1 -1 1 0 1 -1 
1 0 1 -1 1 0 1 -1 1 0 1 -1 1 0 1 -1 
1 0 1 -1 1 0 1 -1 1 0 1 -1 1 0 1 -1 
1 0 1 -1 1 0 1 -1 1 0 1 -1 1 0 1 -1 
1 0 1 -1 1 0 1 -1 1 0 1 0 1 -1 1 -1 
1 0 1 -1 1 0 1 0 1 -1 1 -1 1 0 1 0 
1 -1 1 0 1 -1 1 0 1 -1 1 0 1 -1 1 0 
1 -1 5 0 1 -1 1 0 0 -4 1 0 1 0 1 -1 
1 0 1 -1 1 0 1 -1 1 0 1 -1 0 -2 1 0 
1 0 1 -1 1 0 1 0 1 -1 1 0 1 -1 0 -3 
1 0 1 0 1 -1 1 0 1 0 1 -1 1 0 0 2 
1 -1 1 0 1 0 1 -1 1 0 1 0 -1 0 2 -3 
1 0 1 -1 1 0 1 0 1 0 1 -1 1 0 1 0 
1 0 1 -1 1 0 1 0 1 -1 1 0 1 -1 1 0 
1 0 1 -1 1 0 1 0 1 9 1 -1 1 -1 1 0 
1 -1 1 0 1 -1 1 0 1 0 -1 0 2 0 1 -1 
1 0 1 -1 1 0 1 -1 1 0 1 -1 1 -1 1 -1 
1 0 1 -1 1 0 1 -1 1 0 -1 0 2 -4 1 -1 
1 0 1 -1 1 0 1 -1 1 0 1 -3 1 0 1 -1 
1 0 1 -1 1 0 1120 1276 300 MP stroke
1 -1 1 0 1 -1 1 0 1 0 1 -1 1 0 1 0 
1 -1 -1 0 2 0 1 0 1 0 1 -1 1 0 1 0 
0 -3 1 0 1 0 1 -1 1 0 1 0 1 -1 1 0 
1 0 1 -1 1 -1 1 0 1 -1 1 0 1 0 1 -1 
1 0 1 0 1 -1 1 0 1 -1 1 0 1 0 1 -1 
1 0 1 0 1 -1 1 -1 1 0 1 0 1 -1 1 0 
1 0 1 -1 0 3 1 -1 1 0 1 0 1 -1 1 0 
1 -1 1 -2 1 0 1 0 1 -1 1 0 1 0 1 -1 
1 0 1 0 1 -1 0 -2 1 0 1 -1 1 0 1 0 
1 -1 1 0 1 0 1 -1 1 0 1 0 1 -1 1 0 
1 0 1 0 1 -1 1 0 1 1 1 -1 1 0 1 0 
1 -1 1 0 1 0 1 -1 1 0 1 -1 1 0 1 0 
1 -1 0 3 1 0 1 -1 1 0 1 -1 1 0 1 0 
-1 0 2 -2 1 0 1 -1 1 0 1 0 1 -1 1 0 
1 -1 1 0 1 -1 1 0 1 0 1 -1 1 0 1 -3 
1 -1 1 0 1 0 1 -1 1 0 1 -1 1 -1 1 0 
1 0 1 0 1 -1 1 0 1 -1 1 0 1 0 1 0 
1 -1 1 -2 1 0 1 -1 1 0 1 0 1 0 1 0 
1 -1 1 0 0 -3 1 0 1 0 1 0 1 0 1 0 
1 0 1 -2 1 -1 1 0 1 0 1 0 1 0 1 0 
1 0 1 0 1 0 1 0 1 0 1 0 1 -1 1 0 
1 0 1 0 1 0 1 0 1 0 1 0 1 0 1 0 
1 0 1 0 1 -1 1 0 1 0 1 0 1 0 1 0 
1 0 1 0 1 0 1 0 1 0 1 0 1 0 1 -1 
1 -1 1 0 1 0 1 0 1 0 1 0 1 1 1 0 
1 0 1 -1 1 0 1 0 1 0 0 -2 1 0 1 0 
1 0 1 0 1 -1 1 0 1 0 1 0 1 0 0 3 
1 0 1 0 1 0 1 0 1 -1 1 0 1 0 1 0 
1 0 1 0 1 -1 1 0 1 0 1 0 1 0 1 0 
1 -1 1 0 1 0 1 0 1 0 1 0 1 -1 1 0 
1 0 1 3 1 0 1 0 1 0 1 -1 1 0 1 0 
1 -1 1 0 1 0 1 -1 1 0 1 0 1 0 1 -1 
1 0 1 -1 1 0 1 0 1 -1 1 0 1 0 1 0 
1 -1 1 1 1 0 1 -1 1 0 1 0 1 0 1 -1 
1 0 1 0 1 0 1 -1 1 0 1 0 1 0 1 0 
0 3 1 0 1 -1 1 0 1 0 1 -1 1 0 1 1 
1 -1 1 0 1 0 1 -1 2 0 1 -1 1 0 1 0 
1 -1 1 0 1 0 830 1355 300 MP stroke
1 -1 1 0 1 0 1 -1 1 0 1 0 1 0 1 -1 
1 0 1 0 1 -1 1 0 2 0 1 0 1 -1 1 0 
1 0 1 -1 1 0 1 0 1 -1 1 0 1 0 1 -1 
1 0 1 0 1 -1 1 0 1 -1 1 0 1 0 1 -1 
3 0 1 -1 1 0 1 1 1 -1 1 0 1 -1 1 0 
1 0 1 -1 1 -1 1 -1 1 0 1 -1 1 0 1 0 
1 -1 1 0 1 0 1 -1 1 0 1 -1 1 0 1 0 
1 -1 1 0 1 0 1 -1 1 0 1 -1 1 0 1 0 
1 -1 1 0 1 0 1 -1 1 3 1 -1 1 0 1 -1 
1 0 1 -1 1 -4 1 0 1 -1 1 0 1 0 1 -1 
1 0 1 -1 1 0 1 0 1 -1 1 0 1 -1 1 0 
1 0 1 -1 1 0 1 0 1 -1 1 0 1 -1 1 0 
1 0 1 -1 1 0 1 -1 1 0 1 1 1 0 1 -1 
1 0 1 -1 1 0 1 0 -1 0 2 -3 1 0 1 -1 
1 0 1 0 1 -1 1 0 0 -2 1 0 1 0 1 0 
1 -1 1 0 1 0 1 0 1 -1 1 0 1 0 1 0 
1 0 1 7 1 -1 1 -1 1 -1 1 0 1 -1 1 -1 
1 0 1 -1 1 -1 1 -1 1 0 1 -1 1 -1 1 -1 
1 0 1 -1 1 -1 1 0 1 -1 1 -1 1 -1 1 0 
1 -1 1 0 1 -1 1 -1 1 -1 0 -5 1 0 1 -1 
1 0 1 -1 1 0 1 -1 1 -1 0 -4 1 -1 1 0 
1 -1 1 0 1 -1 1 0 0 -5 1 0 1 0 1 -1 
1 0 1 0 1 -1 1 -14 1 0 1 0 1 0 1 0 
1 0 1 -26 1 0 1 1 1 1 1 0 1 1 1 1 
1 0 -1 0 2 41 1 -1 1 0 1 0 1 -1 1 0 
1 -1 1 0 1 -1 1 0 1 0 1 -1 1 0 1 -1 
1 0 1 -1 1 0 1 0 1 -1 1 0 1 -1 1 0 
1 -1 1 0 1 0 1 -1 1 -1 1 -1 1 0 1 -1 
1 0 1 0 -1 0 2 4 1 0 1 -1 1 -1 1 0 
1 -1 1 0 1 2 1 0 1 -1 1 -1 1 0 1 -1 
1 -4 1 0 1 -1 1 0 1 -1 1 -1 1 0 1 0 
1 0 1 0 1 -1 1 0 1 -1 1 -1 1 0 1 -1 
1 -1 1 0 1 -1 1 0 1 -1 1 0 1 -1 1 -1 
1 1 1 -1 1 0 1 -1 1 0 1 -1 1 0 1 -1 
1 0 1 -1 1 -1 1 0 1 -1 1 0 1 -1 1 1 
1 -1 1 -1 1 0 1 -1 1 0 1 -1 1 0 1 -1 
1 0 1 -1 1 -1 1 0 1 -1 1 0 1 -1 1 -1 
1 0 1 -1 1 0 535 1482 300 MP stroke
1 -1 1 -1 1 0 1 -1 1 0 1 -1 1 3 1 -1 
1 0 1 -1 1 -1 1 0 1 -1 1 -1 1 0 1 -1 
1 -1 1 -1 1 0 1 -1 1 -1 1 -1 1 0 1 -1 
1 -1 1 0 1 -1 1 -1 0 1 1 -1 1 0 1 -1 
1 0 1 -1 1 -1 1 -1 1 -1 1 -1 1 0 1 -1 
1 -1 1 0 1 -1 1 0 1 -1 1 -1 1 0 1 -1 
0 -2 1 -1 1 0 1 -1 1 -1 1 0 1 -1 1 0 
1 -1 0 -11 1 0 1 0 1 -1 1 0 1 -1 1 0 
1 0 0 -9 1 0 1 0 1 -1 1 0 1 0 1 0 
1 -1 1 0 1 0 1 0 1 -1 1 0 1 0 1 -1 
1 0 1 0 1 0 1 -1 1 0 1 0 1 -1 1 0 
1 0 1 0 1 -1 1 0 1 0 1 -1 1 0 1 0 
1 0 1 -1 1 0 1 0 1 -1 1 0 1 0 1 -1 
1 0 1 0 1 0 1 -1 1 0 1 0 1 -1 1 0 
1 0 1 0 1 -1 1 0 1 0 1 0 1 -1 1 0 
1 -1 1 0 1 0 416 1555 124 MP stroke
6.25 w
c10
1 0 2 1 1 0 1 1 1 1 1 1 1 0 1 1 
1 1 1 1 1 0 1 1 1 0 1 1 1 1 1 0 
1 1 1 0 1 0 1 1 1 0 -1 0 3 1 1 0 
1 0 0 1 4 1 1 0 1 1 1 0 1 1 1 0 
-1 0 3 2 1 0 0 1 4 1 2 1 0 1 6 0 
3 0 1 1 2 0 0 1 4 0 9 0 1 1 1 0 
2 0 1 0 1 0 1 0 1 1 1 0 1 0 0 2 
2 0 0 1 2 0 0 2 4 0 0 2 4 0 0 2 
4 0 1 0 0 2 4 1 0 2 3 0 0 2 6 0 
2 0 1 1 1 1 0 3 1 1 0 3 6 0 0 2 
3 0 0 2 2 1 0 3 4 0 0 2 6 1 3 0 
0 2 1 -1 0 2 6 -1 1 1 1 1 1 -1 1 1 
1 0 -1 0 2 0 1 1 1 0 -1 0 2 0 1 0 
1 -1 1 1 1 -1 1 0 1 1 1 -1 1 0 1 1 
1 -1 1 0 -1 0 2 0 1 1 1 0 1 0 1 1 
1 0 1 1 1 0 1 1 1 0 1 0 1 1 1 0 
1 0 1 0 1 0 1 0 1 0 1 0 1 1 1 0 
1 0 1 0 1 1 1 0 1 1 1 0 1 0 1 1 
1 1 1 0 1 1 1 0 1 1 1 1 1 0 1 1 
1 0 1 1 1 0 1 1 1 0 1 0 1 1 1 0 
1 0 1 0 1 0 -1 0 2 0 1 0 1 0 -1 0 
2 0 1 0 1 0 1 0 1 0 1 0 1 0 1 0 
1 -1 1 0 1 0 1 0 1 -1 0 1 1 -1 1 0 
1 0 1 -1 1 -1 0 1 1 -1 1 0 1 -1 1 0 
1 -1 1 0 1 -1 1 0 1 0 1 -1 0 1 1 -1 
1 0 1 1 1 0 1 0 1 1 1 0 1 1 1 0 
1 0 1 1 1 1 1 0 1 1 1 0 1 1 1 0 
1 1 2 1 2 1 2 1 1 0 1 1 1 0 0 1 
2 2 2 0 1 0 1 0 1 1 1 1 1 0 1 1 
1 0 0 3 4 0 0 1 1 1 3 0 1 1 1 0 
-1 0 3 1 1 0 1 0 1 1 1 0 1 0 -1 0 
2 0 1 1 1 0 1 0 1 0 -1 0 2 0 1 1 
1 0 1 0 1 0 2 0 2 0 1 0 1 0 1 1 
1 0 -1 0 2 2 2 0 1 1 2 1 1 0 -1 0 
2 2 2 0 1 1 1 0 1 1 1 0 1 1 2 0 
2 1 2 0 0 1 3 0 0 1 3 0 2 0 3 0 
1 0 1 0 1 0 1 0 1 0 0 0 0 1 2 0 
1 0 1 0 1 0 2537 1362 300 MP stroke
1 0 1 1 1 0 1 0 1 1 1 0 1 1 1 0 
1 1 1 1 1 0 1 0 1 1 1 1 1 0 1 1 
1 0 1 1 1 0 1 1 1 1 1 1 2 1 1 0 
0 2 1 1 2 0 1 1 1 1 0 2 3 1 1 0 
1 1 1 1 1 0 0 2 3 1 0 3 2 0 0 2 
3 0 0 17 29 0 0 1 4 0 0 1 5 0 0 1 
15 0 1 0 1 0 1 0 0 1 2 0 1 0 1 0 
1 0 2 0 2 0 1 0 1 0 -1 0 3 -1 1 0 
1 -1 1 0 1 0 1 -1 1 0 1 0 1 -1 1 0 
2 -1 1 0 1 0 1 0 2 0 1 0 1 0 1 -1 
1 1 1 0 1 0 4 0 1 0 1 1 1 0 1 0 
1 0 1 0 1 1 1 0 1 0 1 0 1 0 1 1 
1 0 1 0 1 0 1 0 1 1 1 0 1 0 1 0 
1 0 1 0 1 0 1 0 2 0 1 0 1 0 1 0 
1 0 1 0 3 0 1 0 1 1 1 0 1 0 1 1 
1 0 1 1 0 1 2 0 1 0 1 1 1 0 1 1 
1 0 1 1 1 0 1 0 1 0 1 1 1 0 1 1 
2 0 1 1 0 1 4 0 0 1 4 1 1 1 3 0 
1 0 1 1 1 0 1 0 1 0 1 0 1 1 1 0 
1 0 1 0 1 1 2 0 1 0 1 0 1 1 1 0 
1 0 1 0 1 0 1 0 1 1 1 0 2 0 2 0 
1 0 1 0 1 1 1 0 1 0 3 1 1 0 1 1 
1 0 1 0 1 1 1 0 1 0 1 1 1 0 1 1 
1 0 1 1 1 1 0 3 4 0 1 1 1 0 1 1 
1 1 1 0 1 0 1 1 1 0 0 2 2 0 1 0 
1 1 0 1 0 -1 1 1 0 -1 4 0 0 0 0 3 
6 0 0 3 15 1 0 -1 0 2 10 0 0 3 4 0 
0 5 14 0 1 1 1 1 1 0 -1 0 2 2 1 0 
1 1 1 1 1 0 -1 0 2 2 1 1 0 1 3 0 
0 1 5 0 0 2 2 0 0 1 5 0 2 1 1 0 
1 1 1 0 1 0 1 0 1 1 1 0 0 1 4 1 
1 0 -1 0 4 2 0 5 8 0 0 1 4 0 1 1 
0 2 2 1 2 0 1 0 1 1 1 1 1 1 1 0 
1 1 0 1 3 1 1 0 1 1 1 0 1 1 1 0 
1 1 1 0 1 1 1 0 1 0 1 1 1 0 1 1 
1 0 1 0 1 1 1 0 1 1 1 0 1 1 1 0 
1 1 1 0 1 1 2 0 1 0 1 0 1 0 1 1 
1 0 1 0 1 0 2108 1209 300 MP stroke
1 1 1 0 1 0 1 0 1 0 1 0 1 0 1 1 
1 0 1 0 1 0 1 0 1 1 2 1 1 0 1 0 
1 1 1 1 2 0 1 0 1 1 1 0 0 1 3 2 
2 0 1 1 1 0 1 1 1 0 1 1 1 0 0 2 
2 0 0 1 3 0 1 1 1 1 1 0 1 1 1 1 
1 0 1 1 1 0 1 0 1 1 1 0 1 0 1 1 
1 0 1 0 1 0 1 1 1 0 1 0 1 1 1 0 
1 1 1 0 1 1 1 0 1 1 1 1 1 0 1 1 
1 1 1 0 1 1 1 1 1 0 1 1 1 0 1 1 
1 0 1 1 1 0 1 1 1 1 2 0 1 1 1 0 
1 1 1 0 -1 0 3 1 1 0 1 1 1 0 0 2 
3 1 3 0 1 1 1 0 1 1 3 0 1 0 1 1 
4 0 1 0 5 0 1 0 -1 0 3 0 0 -1 1 1 
3 -1 1 0 1 1 1 0 1 0 1 0 1 0 1 0 
1 1 1 0 2 0 1 1 1 0 1 0 1 0 1 0 
1 0 1 0 1 0 1 0 1 0 1 0 1 1 0 6 
10 1 1 0 1 1 1 1 1 1 1 1 1 0 1 1 
1 1 1 1 1 1 1 1 1 1 1 1 1 1 1 1 
1 1 1 1 1 1 1 0 1 1 1 1 1 1 1 1 
1 1 1 1 1 1 1 1 1 1 1 1 1 0 1 1 
1 1 1 1 1 1 1 1 1 1 1 1 1 1 1 1 
1 0 -1 0 2 2 1 0 1 1 1 1 1 1 1 0 
1 1 1 1 1 0 1 1 1 0 1 1 1 1 1 0 
1 1 1 0 1 1 1 1 1 0 1 1 1 0 1 1 
1 1 1 0 1 1 1 0 1 1 1 1 1 0 1 1 
1 1 1 1 1 1 1 0 1 1 1 1 1 1 1 0 
-1 0 2 2 1 1 1 0 -1 0 2 2 1 0 1 1 
1 1 1 1 1 1 1 1 1 1 1 1 1 1 0 1 
2 2 1 0 -1 0 2 2 1 1 1 1 1 1 1 1 
1 1 1 1 1 1 1 1 1 1 1 1 1 1 1 1 
1 1 1 0 1 1 1 1 1 0 1 1 1 0 1 0 
1 0 1 0 1 0 1 0 1 -1 1 0 1 0 1 0 
1 0 1 0 1 -1 1 0 1 0 1 0 1 0 1 -1 
1 0 1 0 1 0 1 0 1 -1 1 0 1 0 1 0 
1 0 1 -1 1 0 1 0 1 -1 1 0 1 0 1 -1 
1 0 1 0 1 -1 1 0 1 0 1 -1 1 0 1 0 
1 -1 1 0 1 0 1 -1 1 0 1 -1 1 0 1 -1 
1 0 1 0 1 -1 1785 1070 300 MP stroke
1 0 1 0 1 0 1 -1 1 0 1 0 1 0 1 -1 
1 0 1 0 1 0 1 -1 1 0 1 0 1 -1 1 0 
1 0 1 0 1 -1 1 0 1 0 1 0 1 -1 1 0 
1 0 1 0 1 0 1 0 1 0 1 0 1 0 1 0 
1 0 1 0 1 0 1 0 1 0 1 0 1 0 1 0 
1 0 2 0 1 0 1 0 1 -1 1 0 1 0 1 -1 
2 0 1 -1 1 0 1 0 1 0 1 0 1 -1 1 0 
1 0 1 -1 1 0 1 -1 1 0 1 0 1 -1 1 0 
1 -1 1 0 1 -1 1 0 1 -1 1 0 1 -1 1 0 
1 0 1 -1 1 0 1 0 1 -1 1 0 1 0 1 -1 
1 0 1 0 1 0 1 0 1 -1 1 0 1 0 1 0 
1 0 1 0 1 0 1 0 1 0 1 0 1 0 -1 0 
2 0 1 0 1 -1 1 0 1 0 1 0 1 0 1 -1 
1 0 1 0 1 -1 1 0 1 -1 1 0 1 0 1 -1 
1 0 1 -1 1 0 1 -1 1 0 1 -1 1 0 1 -1 
1 0 1 -1 1 0 1 -1 1 0 1 -1 1 0 1 -1 
1 0 1 -1 1 0 1 0 1 -1 1 0 1 -1 1 0 
1 0 1 -1 1 0 1 -1 1 0 1 0 1 -1 1 0 
1 0 1 -1 1 0 1 -1 1 0 1 0 1 -1 1 0 
1 0 1 -1 0 1 1 -1 1 0 1 0 1 -1 1 0 
1 0 1 0 1 -1 1 0 1 0 1 0 1 -1 1 0 
1 0 1 -1 1 0 1 0 1 -1 1 0 1 0 1 -1 
1 0 1 -1 1 0 1 -1 1 0 1 -1 1 0 1 -1 
1 -1 1 0 1 -1 1 0 1 -1 1 0 1 0 1 -1 
1 0 1 -1 1 0 1 -1 1 0 1 -1 1 -1 1 0 
1 -1 1 0 1 0 1 -1 1 0 1 -1 1 0 1 -1 
1 0 1 0 1 0 1 -1 1 0 1 0 1 -1 1 0 
1 0 1 -1 1 0 1 0 1 -1 1 0 1 0 1 0 
1 -1 1 0 1 0 1 -1 1 0 1 0 1 0 1 0 
1 -1 1 0 1 0 1 -1 1 -1 1 -1 0 -2 6 0 
0 -1 3 0 1 -1 1 0 0 -2 2 0 2 -1 1 0 
1 0 1 -1 1 0 1 -1 1 0 1 -1 1 0 1 -1 
1 0 1 0 1 -1 1 0 1 0 1 0 1 0 1 0 
1 -1 1 0 1 0 1 -1 1 0 1 0 1 -1 1 0 
1 -1 1 0 1 0 1 -1 1 0 1 0 1 -1 1 0 
1 0 1 -1 1 0 1 0 1 -1 1 0 1 0 1 -1 
1 0 1 0 1 -1 2 0 0 -1 2 0 1 0 1 -1 
1 0 1 -1 1 0 1479 1171 300 MP stroke
1 -1 2 0 0 -1 2 -1 1 0 1 0 1 -1 1 0 
1 -1 1 -1 1 0 1 -1 1 0 0 -2 2 0 0 -1 
2 -1 1 0 1 -1 1 -1 1 -1 1 -1 1 0 1 -1 
1 -1 1 0 1 -1 1 -1 1 -1 1 -1 1 0 1 -1 
1 -1 1 -1 0 -1 3 -1 1 -1 1 -1 1 0 2 0 
1 -1 1 0 1 -1 1 0 1 0 1 -1 1 0 1 -1 
1 0 1 -1 1 0 1 -1 1 0 1 -1 1 -1 1 0 
1 -1 1 -1 1 -1 1 -1 1 -1 1 0 1 -1 1 -1 
0 -2 2 0 1 -1 1 -1 1 -1 1 -1 1 -1 1 0 
1 -1 1 -1 1 -1 1 -1 1 0 1 -1 1 0 1 0 
1 -1 1 0 1 0 1 0 1 0 1 1 1 0 1 0 
-1 0 3 1 2 1 1 0 2 0 1 1 1 -1 1 1 
1 0 1 0 1 0 1 0 1 0 1 0 1 -1 1 1 
1 -1 1 0 1 0 1 0 1 0 1 -1 1 1 1 0 
1 0 1 0 -1 0 2 0 1 0 1 1 1 0 1 0 
-1 0 2 0 0 -1 1 -1 1 1 1 1 1 1 1 1 
1 1 1 1 0 1 1 -1 0 1 1 1 1 1 1 0 
1 1 1 1 0 1 2 2 1 1 1 1 1 1 1 1 
1 1 1 1 1 1 1 1 0 1 2 2 1 1 1 1 
1 0 1 1 1 1 1 0 1 1 1 0 1 1 1 0 
1 0 1 0 1 0 1 0 1 0 1 -1 1 0 1 0 
1 0 1 0 1 0 1 -1 1 0 1 0 1 0 1 -1 
1 0 1 -1 1 0 1 -1 1 -1 1 0 1 -1 1 -1 
1 0 1 -1 1 -1 1 0 1 -1 1 0 1 -1 1 0 
1 -1 1 0 1 0 1 -1 1 0 1 0 1 0 1 0 
1 0 1 0 1 0 1 -1 1 0 1 0 1 -1 1 0 
1 -1 1 0 1 0 1 -1 1 0 1 -1 1 0 1 -1 
1 0 1 -1 1 0 1 -1 1 0 1 -1 1 0 1 -1 
1 0 1 -1 1 0 1 0 1 -1 1 0 1 -1 1 0 
1 -1 1 0 1 -1 1 0 1 -1 1 0 1 0 1 -1 
1 -1 1 0 1 -1 1 0 1 0 1 -1 1 -1 1 0 
-1 0 2 0 1 -1 1 0 1 -1 1 -1 1 0 1 0 
1 -1 1 0 1 0 1 -1 1 0 1 -1 1 0 1 -1 
1 0 0 -2 5 0 1 -1 1 0 1 -1 1 0 1 -1 
1 0 1 -1 1 0 1 -1 1 0 1 -1 1 0 1 -1 
1 0 1 -1 1 0 1 -1 1 0 1 0 1 0 1 -1 
1 0 1 0 1 0 1 -1 1 0 1 0 1 -1 1 0 
1 -1 1 0 1 0 1178 1251 300 MP stroke
1 0 1 -1 1 0 1 0 1 0 1 0 1 0 1 0 
1 0 1 0 1 1 1 0 1 0 1 0 1 0 1 0 
1 0 1 0 1 -1 1 0 1 -1 1 0 1 -1 1 -1 
1 0 1 -1 1 -1 1 0 1 -1 1 -1 1 0 1 -1 
1 -1 1 -1 1 0 1 -1 1 -1 1 0 1 -1 1 -1 
1 0 1 -1 1 -1 1 0 1 -1 1 0 1 -1 1 0 
1 -1 1 0 1 -1 1 0 1 -1 1 0 1 -1 1 0 
1 -1 1 0 1 0 1 -1 1 0 1 -1 1 0 1 -1 
1 -1 1 0 1 -1 1 0 1 -1 1 0 1 -1 1 -1 
1 0 1 -1 1 0 1 0 1 -1 1 0 1 -1 1 0 
1 0 1 -1 1 0 1 -1 1 0 1 0 1 -1 1 0 
1 0 1 -1 1 0 1 0 1 -1 1 0 1 -1 1 0 
1 0 1 -1 1 0 1 -1 1 0 1 0 1 -1 1 0 
1 -1 1 0 1 -1 1 0 1 -1 1 0 1 -1 1 0 
1 -1 1 0 1 -1 1 0 1 -1 1 0 1 0 1 -1 
1 0 1 0 1 -1 1 0 1 0 1 -1 1 0 1 0 
1 -1 1 0 1 0 1 0 1 0 1 -1 1 0 1 0 
1 0 1 0 1 -1 1 0 1 0 1 -1 1 0 1 0 
1 -1 1 0 1 -1 1 0 1 -1 1 0 1 -1 1 0 
1 -1 1 0 1 -1 1 -1 1 0 1 -1 1 0 1 -1 
1 -1 1 0 1 0 1 -1 1 -1 1 0 1 -1 1 0 
1 -1 1 0 1 -1 1 0 1 -1 1 0 1 -1 1 0 
1 -1 1 0 1 -1 1 0 1 -1 1 0 1 -1 1 0 
1 -1 1 0 1 -1 1 0 1 -1 1 0 1 -1 1 0 
1 -1 1 0 1 -1 1 0 1 0 1 -1 1 0 1 0 
1 -1 1 0 1 0 1 0 1 0 1 0 1 -1 1 0 
1 0 1 0 1 0 1 0 1 0 1 0 1 0 1 0 
1 0 1 0 1 0 1 0 1 0 1 0 1 0 1 -1 
1 0 1 0 1 0 1 0 1 0 1 -1 1 0 1 0 
1 0 1 0 1 -1 1 0 1 0 1 0 1 -1 1 0 
1 0 1 0 1 0 1 -1 1 0 1 0 1 0 1 0 
1 0 1 0 1 -1 1 0 1 0 1 0 1 0 1 0 
1 0 1 0 1 0 1 0 1 0 1 0 1 0 1 0 
1 0 1 0 1 0 1 -1 1 0 1 0 1 0 1 -1 
1 0 1 0 1 0 1 0 1 -1 1 0 1 0 1 0 
1 0 -1 0 2 0 1 -1 1 0 1 0 1 0 1 0 
1 0 1 0 1 0 1 -1 1 0 1 -1 1 0 1 0 
1 -1 1 0 1 -1 880 1353 300 MP stroke
1 0 1 -1 1 0 1 -1 1 0 1 -1 1 0 1 0 
1 -1 1 0 1 0 1 -1 1 0 1 -1 1 0 1 0 
1 -1 1 0 1 -1 1 0 1 -1 1 0 1 -1 1 -1 
1 0 1 -1 1 0 1 0 1 -1 1 -1 1 0 1 -1 
1 0 1 0 1 -1 1 0 1 -1 1 0 1 -1 1 0 
1 -1 1 0 -1 0 3 -1 1 -1 1 0 1 -1 1 0 
1 -1 1 0 1 0 1 -1 1 0 1 0 1 -1 1 0 
1 0 1 -1 1 0 1 0 1 0 1 0 -1 0 3 -1 
1 0 1 0 1 0 1 0 1 0 1 0 1 0 1 -1 
-1 0 2 0 1 0 1 0 1 0 1 0 1 0 1 0 
1 0 1 0 1 0 1 0 3 0 1 0 1 0 1 -1 
1 0 1 0 1 0 1 -1 1 0 1 0 1 -1 1 0 
1 0 1 0 1 -1 1 0 1 0 1 -1 1 0 1 0 
1 -1 1 0 1 0 1 0 1 -1 1 0 1 0 1 0 
1 -1 1 0 1 0 1 -1 1 0 1 0 1 0 1 -1 
1 0 1 -1 1 0 1 0 1 -1 1 0 1 -1 1 0 
1 -1 1 0 1 -1 1 0 1 -1 1 0 1 0 1 -1 
1 0 1 0 1 -1 1 0 1 0 1 -1 1 0 1 0 
-1 0 2 0 1 -1 1 0 1 0 1 -1 1 0 1 0 
1 -1 1 0 1 -1 1 0 1 0 1 -1 -1 0 2 0 
1 0 -1 0 2 0 1 -1 1 -1 1 0 1 0 1 -1 
1 0 1 0 1 -1 1 0 1 -1 1 0 1 0 1 -1 
1 -1 1 0 1 -1 1 0 1 -1 1 -1 1 -1 1 -1 
1 0 1 -1 1 -1 1 -1 1 -1 1 0 1 -1 1 -1 
1 -1 1 -1 1 -1 1 0 1 -1 1 -1 1 -1 1 0 
1 -1 1 -1 1 -1 1 0 1 -1 1 0 1 -1 1 -1 
1 -1 1 0 1 -1 1 -1 1 0 1 -1 1 0 1 -1 
1 0 1 -1 1 0 1 -1 1 0 1 0 1 0 1 0 
1 0 1 0 1 0 1 1 1 0 1 1 1 1 1 1 
1 0 1 1 1 1 1 0 1 1 1 0 1 0 1 0 
1 0 1 0 1 0 1 -1 1 0 1 0 1 -1 1 0 
1 0 1 -1 1 0 1 0 1 -1 1 0 1 -1 1 0 
1 -1 1 0 1 -1 1 0 1 -1 1 0 1 -1 1 0 
1 0 1 -1 1 0 1 -1 1 0 1 -1 1 0 1 -1 
1 0 1 -1 1 -1 1 0 1 -1 1 -1 1 0 1 -1 
1 -1 1 -1 1 -1 1 0 1 -1 1 -1 1 -1 1 0 
1 -1 1 -1 1 0 1 -1 1 0 1 -1 1 -1 1 0 
1 -1 1 -1 1 0 583 1466 300 MP stroke
1 -1 1 -1 1 -1 1 0 1 -1 1 -1 1 0 1 -1 
1 -1 1 0 1 -1 1 -1 1 0 1 -1 1 0 1 -1 
1 -1 1 0 1 -1 1 -1 1 0 1 -1 1 0 1 -1 
1 -1 1 0 1 -1 1 0 1 -1 1 -1 1 0 1 -1 
1 -1 1 0 1 0 1 -1 1 -1 1 0 1 -1 1 0 
1 -1 1 0 1 -1 1 -1 1 0 1 -1 1 0 1 -1 
1 -1 1 0 1 -1 1 0 1 -1 1 -1 1 0 1 -1 
1 -1 1 -1 1 0 1 -1 1 -1 1 0 1 -1 1 -1 
1 -1 1 0 1 -1 1 -1 1 0 1 -1 1 -1 1 0 
1 -1 1 -1 1 -1 1 -1 1 -1 1 0 1 -1 1 -1 
1 -1 1 0 1 -1 1 -1 1 -1 1 -1 1 -1 1 -1 
1 0 1 -1 1 -1 1 -1 1 -1 1 -1 1 0 1 -1 
1 -1 1 0 1 -1 1 0 0 -1 2 0 1 -1 1 -1 
1 0 1 -1 1 0 1 0 1 -1 1 0 1 0 -1 0 
2 0 1 -1 1 0 1 0 1 0 -1 0 2 0 1 -1 
1 0 1 0 1 0 -1 0 2 0 1 -1 1 0 1 0 
1 0 1 -1 1 0 1 0 1 0 1 -1 1 0 1 0 
1 0 1 -1 1 0 1 0 1 -1 1 0 1 0 1 -1 
1 0 1 0 1 0 -1 0 2 0 1 -1 1 0 1 0 
1 -1 1 0 1 0 1 -1 1 0 1 -1 1 0 1 0 
1 -1 1 0 1 -1 1 0 1 -1 1 0 1 -1 1 0 
1 0 1 0 1 -1 416 1556 172 MP stroke
gr

6.25 w
c10
0 sg
1509  972 mt 
(East plot) s
1521 1738 mt 
(Time [s]) s
 241 1444 mt  -90 rotate
(East [m]) s
90 rotate
2.08333 w
1 sg
0 228 824 0 0 -228 1244 710 4 MP
PP
-824 0 0 228 824 0 0 -228 1244 710 5 MP stroke
1.38889 w
DO
SO
2.08333 w
0 sg
1244  710 mt 2068  710 L
1244  482 mt 2068  482 L
1244  710 mt 1244  482 L
2068  710 mt 2068  482 L
1244  710 mt 2068  710 L
1244  710 mt 1244  482 L
1244  710 mt 2068  710 L
1244  482 mt 2068  482 L
1244  710 mt 1244  482 L
2068  710 mt 2068  482 L
%%IncludeResource: font Helvetica
/Helvetica /ISOLatin1Encoding 58.3333 FMSR

1411  545 mt 
(Diver measured) s
gs 1244 482 825 229 rc
gs 1307 497 53 53 rc
c8
1325  515 mt 1341  531 L
1341  515 mt 1325  531 L
gr

c8
gr

c8
0 sg
1411  618 mt 
(Diver estimated) s
gs 1244 482 825 229 rc
8.33333 w
c9
129 0 1269 596 2 MP stroke
gr

8.33333 w
c9
0 sg
1411  690 mt 
(ASV) s
%%IncludeResource: font Helvetica-Oblique
/Helvetica-Oblique /ISOLatin1Encoding 58.3333 FMSR

1527  690 mt 
( PlaDyPos) s
%%IncludeResource: font Helvetica
/Helvetica /ISOLatin1Encoding 58.3333 FMSR

1796  690 mt 
( estimated) s
gs 1244 482 825 229 rc
6.25 w
c10
129 0 1269 668 2 MP stroke
2.08333 w
gr

2.08333 w
c10

end %%Color Dict

eplot
%%EndObject

epage
end

showpage

%%Trailer
%%EOF
