%!PS-Adobe-3.0 EPSF-3.0
%%Creator: MATLAB, The MathWorks, Inc. Version 8.3.0.532 (R2014a). Operating System: Linux 3.13.0-49-generic #83-Ubuntu SMP Fri Apr 10 20:11:33 UTC 2015 x86_64.
%%Title: /home/dnad/Documents/publication/ram2014_data/figures/Figure3_3_distance_virtual.eps
%%CreationDate: 04/23/2015  14:06:18
%%DocumentNeededFonts: Helvetica
%%DocumentProcessColors: Cyan Magenta Yellow Black
%%LanguageLevel: 2
%%Pages: 1
%%BoundingBox:   -62   183   629   615
%%EndComments

%%BeginProlog
% MathWorks dictionary
/MathWorks 160 dict begin
% definition operators
/bdef {bind def} bind def
/ldef {load def} bind def
/xdef {exch def} bdef
/xstore {exch store} bdef
% operator abbreviations
/c  /clip ldef
/cc /concat ldef
/cp /closepath ldef
/gr /grestore ldef
/gs /gsave ldef
/mt /moveto ldef
/np /newpath ldef
/cm /currentmatrix ldef
/sm /setmatrix ldef
/rm /rmoveto ldef
/rl /rlineto ldef
/s {show newpath} bdef
/sc {setcmykcolor} bdef
/sr /setrgbcolor ldef
/sg /setgray ldef
/w /setlinewidth ldef
/j /setlinejoin ldef
/cap /setlinecap ldef
/rc {rectclip} bdef
/rf {rectfill} bdef
% page state control
/pgsv () def
/bpage {/pgsv save def} bdef
/epage {pgsv restore} bdef
/bplot /gsave ldef
/eplot {stroke grestore} bdef
% orientation switch
/portraitMode 0 def /landscapeMode 1 def /rotateMode 2 def
% coordinate system mappings
/dpi2point 0 def
% font control
/FontSize 0 def
/FMS {/FontSize xstore findfont [FontSize 0 0 FontSize neg 0 0]
  makefont setfont} bdef
/reencode {exch dup where {pop load} {pop StandardEncoding} ifelse
  exch dup 3 1 roll findfont dup length dict begin
  { 1 index /FID ne {def}{pop pop} ifelse } forall
  /Encoding exch def currentdict end definefont pop} bdef
/isroman {findfont /CharStrings get /Agrave known} bdef
/FMSR {3 1 roll 1 index dup isroman {reencode} {pop pop} ifelse
  exch FMS} bdef
/csm {1 dpi2point div -1 dpi2point div scale neg translate
 dup landscapeMode eq {pop -90 rotate}
  {rotateMode eq {90 rotate} if} ifelse} bdef
% line types: solid, dotted, dashed, dotdash
/SO { [] 0 setdash } bdef
/DO { [.5 dpi2point mul 4 dpi2point mul] 0 setdash } bdef
/DA { [6 dpi2point mul] 0 setdash } bdef
/DD { [.5 dpi2point mul 4 dpi2point mul 6 dpi2point mul 4
  dpi2point mul] 0 setdash } bdef
% macros for lines and objects
/L {lineto stroke} bdef
/MP {3 1 roll moveto 1 sub {rlineto} repeat} bdef
/AP {{rlineto} repeat} bdef
/PDlw -1 def
/W {/PDlw currentlinewidth def setlinewidth} def
/PP {closepath eofill} bdef
/DP {closepath stroke} bdef
/MR {4 -2 roll moveto dup  0 exch rlineto exch 0 rlineto
  neg 0 exch rlineto closepath} bdef
/FR {MR stroke} bdef
/PR {MR fill} bdef
/L1i {{currentfile picstr readhexstring pop} image} bdef
/tMatrix matrix def
/MakeOval {newpath tMatrix currentmatrix pop translate scale
0 0 1 0 360 arc tMatrix setmatrix} bdef
/FO {MakeOval stroke} bdef
/PO {MakeOval fill} bdef
/PD {currentlinewidth 2 div 0 360 arc fill
   PDlw -1 eq not {PDlw w /PDlw -1 def} if} def
/FA {newpath tMatrix currentmatrix pop translate scale
  0 0 1 5 -2 roll arc tMatrix setmatrix stroke} bdef
/PA {newpath tMatrix currentmatrix pop	translate 0 0 moveto scale
  0 0 1 5 -2 roll arc closepath tMatrix setmatrix fill} bdef
/FAn {newpath tMatrix currentmatrix pop translate scale
  0 0 1 5 -2 roll arcn tMatrix setmatrix stroke} bdef
/PAn {newpath tMatrix currentmatrix pop translate 0 0 moveto scale
  0 0 1 5 -2 roll arcn closepath tMatrix setmatrix fill} bdef
/vradius 0 def /hradius 0 def /lry 0 def
/lrx 0 def /uly 0 def /ulx 0 def /rad 0 def
/MRR {/vradius xdef /hradius xdef /lry xdef /lrx xdef /uly xdef
  /ulx xdef newpath tMatrix currentmatrix pop ulx hradius add uly
  vradius add translate hradius vradius scale 0 0 1 180 270 arc 
  tMatrix setmatrix lrx hradius sub uly vradius add translate
  hradius vradius scale 0 0 1 270 360 arc tMatrix setmatrix
  lrx hradius sub lry vradius sub translate hradius vradius scale
  0 0 1 0 90 arc tMatrix setmatrix ulx hradius add lry vradius sub
  translate hradius vradius scale 0 0 1 90 180 arc tMatrix setmatrix
  closepath} bdef
/FRR {MRR stroke } bdef
/PRR {MRR fill } bdef
/MlrRR {/lry xdef /lrx xdef /uly xdef /ulx xdef /rad lry uly sub 2 div def
  newpath tMatrix currentmatrix pop ulx rad add uly rad add translate
  rad rad scale 0 0 1 90 270 arc tMatrix setmatrix lrx rad sub lry rad
  sub translate rad rad scale 0 0 1 270 90 arc tMatrix setmatrix
  closepath} bdef
/FlrRR {MlrRR stroke } bdef
/PlrRR {MlrRR fill } bdef
/MtbRR {/lry xdef /lrx xdef /uly xdef /ulx xdef /rad lrx ulx sub 2 div def
  newpath tMatrix currentmatrix pop ulx rad add uly rad add translate
  rad rad scale 0 0 1 180 360 arc tMatrix setmatrix lrx rad sub lry rad
  sub translate rad rad scale 0 0 1 0 180 arc tMatrix setmatrix
  closepath} bdef
/FtbRR {MtbRR stroke } bdef
/PtbRR {MtbRR fill } bdef
/stri 6 array def /dtri 6 array def
/smat 6 array def /dmat 6 array def
/tmat1 6 array def /tmat2 6 array def /dif 3 array def
/asub {/ind2 exch def /ind1 exch def dup dup
  ind1 get exch ind2 get sub exch } bdef
/tri_to_matrix {
  2 0 asub 3 1 asub 4 0 asub 5 1 asub
  dup 0 get exch 1 get 7 -1 roll astore } bdef
/compute_transform {
  dmat dtri tri_to_matrix tmat1 invertmatrix 
  smat stri tri_to_matrix tmat2 concatmatrix } bdef
/ds {stri astore pop} bdef
/dt {dtri astore pop} bdef
/db {2 copy /cols xdef /rows xdef mul dup 3 mul string
  currentfile 
  3 index 0 eq {/ASCIIHexDecode filter}
  {/ASCII85Decode filter 3 index 2 eq {/RunLengthDecode filter} if }
  ifelse exch readstring pop
  dup 0 3 index getinterval /rbmap xdef
  dup 2 index dup getinterval /gbmap xdef
  1 index dup 2 mul exch getinterval /bbmap xdef pop pop}bdef
/it {gs np dtri aload pop moveto lineto lineto cp c
  cols rows 8 compute_transform 
  rbmap gbmap bbmap true 3 colorimage gr}bdef
/il {newpath moveto lineto stroke}bdef
currentdict end def
%%EndProlog

%%BeginSetup
MathWorks begin

0 cap

end
%%EndSetup

%%Page: 1 1
%%BeginPageSetup
%%PageBoundingBox:   -62   183   629   615
MathWorks begin
bpage
%%EndPageSetup

%%BeginObject: obj1
bplot

/dpi2point 4.16667 def
portraitMode -0320 2550 csm

   61   -16  2881  1800 rc
85 dict begin %Colortable dictionary
/c0 { 0.000000 0.000000 0.000000 sr} bdef
/c1 { 1.000000 1.000000 1.000000 sr} bdef
/c2 { 0.900000 0.000000 0.000000 sr} bdef
/c3 { 0.000000 0.820000 0.000000 sr} bdef
/c4 { 0.000000 0.000000 0.800000 sr} bdef
/c5 { 0.910000 0.820000 0.320000 sr} bdef
/c6 { 1.000000 0.260000 0.820000 sr} bdef
/c7 { 0.000000 0.820000 0.820000 sr} bdef
c0
1 j
1 sg
   0    0 3200 1802 rf
2.08333 w
0 1468 2478 0 0 -1468 416 1603 4 MP
PP
-2478 0 0 1468 2478 0 0 -1468 416 1603 5 MP stroke
1.38889 w
DO
0 sg
 416 1603 mt  416  135 L
 416  135 mt  416  135 L
 823 1603 mt  823  135 L
 823  135 mt  823  135 L
1231 1603 mt 1231  135 L
1231  135 mt 1231  135 L
1639 1603 mt 1639  135 L
1639  135 mt 1639  135 L
2046 1603 mt 2046  135 L
2046  135 mt 2046  135 L
2454 1603 mt 2454  135 L
2454  135 mt 2454  135 L
2862 1603 mt 2862  135 L
2862  135 mt 2862  135 L
 416 1603 mt 2895 1603 L
2895 1603 mt 2895 1603 L
 416 1424 mt 2895 1424 L
2895 1424 mt 2895 1424 L
 416 1236 mt 2895 1236 L
2895 1236 mt 2895 1236 L
 416  869 mt 2895  869 L
2895  869 mt 2895  869 L
 416  502 mt 2895  502 L
2895  502 mt 2895  502 L
SO
2.08333 w
 416 1603 mt 2894 1603 L
 416  135 mt 2894  135 L
 416 1603 mt  416  135 L
2894 1603 mt 2894  135 L
 416 1603 mt 2894 1603 L
 416 1603 mt  416  135 L
 416 1603 mt  416 1578 L
 416  135 mt  416  159 L
%%IncludeResource: font Helvetica
/Helvetica /ISOLatin1Encoding 75 FMSR

 396 1684 mt 
(0) s
 823 1603 mt  823 1578 L
 823  135 mt  823  159 L
 761 1684 mt 
(100) s
1231 1603 mt 1231 1578 L
1231  135 mt 1231  159 L
1169 1684 mt 
(200) s
1639 1603 mt 1639 1578 L
1639  135 mt 1639  159 L
1577 1684 mt 
(300) s
2046 1603 mt 2046 1578 L
2046  135 mt 2046  159 L
1984 1684 mt 
(400) s
2454 1603 mt 2454 1578 L
2454  135 mt 2454  159 L
2392 1684 mt 
(500) s
2862 1603 mt 2862 1578 L
2862  135 mt 2862  159 L
2800 1684 mt 
(600) s
 416 1603 mt  440 1603 L
2895 1603 mt 2870 1603 L
 363 1630 mt 
(0) s
 416 1424 mt  440 1424 L
2895 1424 mt 2870 1424 L
 175 1451 mt 
(0.4852) s
 416 1236 mt  440 1236 L
2895 1236 mt 2870 1236 L
 363 1263 mt 
(1) s
 416  869 mt  440  869 L
2895  869 mt 2870  869 L
 363  896 mt 
(2) s
 416  502 mt  440  502 L
2895  502 mt 2870  502 L
 363  529 mt 
(3) s
 416 1603 mt 2894 1603 L
 416  135 mt 2894  135 L
 416 1603 mt  416  135 L
2894 1603 mt 2894  135 L
gs 416 135 2480 1469 rc
gr

/c8 { 1.000000 0.000000 0.000000 sr} bdef
c8
 408 1554 mt  424 1570 L
 424 1554 mt  408 1570 L
 408 1161 mt  424 1177 L
 424 1161 mt  408 1177 L
 425 1099 mt  441 1115 L
 441 1099 mt  425 1115 L
 441 1192 mt  457 1208 L
 457 1192 mt  441 1208 L
 457 1319 mt  473 1335 L
 473 1319 mt  457 1335 L
 473 1408 mt  489 1424 L
 489 1408 mt  473 1424 L
 490 1496 mt  506 1512 L
 506 1496 mt  490 1512 L
 506 1542 mt  522 1558 L
 522 1542 mt  506 1558 L
 522 1566 mt  538 1582 L
 538 1566 mt  522 1582 L
 539 1558 mt  555 1574 L
 555 1558 mt  539 1574 L
 555 1564 mt  571 1580 L
 571 1564 mt  555 1580 L
 571 1552 mt  587 1568 L
 587 1552 mt  571 1568 L
 587 1571 mt  603 1587 L
 603 1571 mt  587 1587 L
 604 1573 mt  620 1589 L
 620 1573 mt  604 1589 L
 620 1582 mt  636 1598 L
 636 1582 mt  620 1598 L
 636 1534 mt  652 1550 L
 652 1534 mt  636 1550 L
 652 1574 mt  668 1590 L
 668 1574 mt  652 1590 L
 669 1589 mt  685 1605 L
 685 1589 mt  669 1605 L
 685 1536 mt  701 1552 L
 701 1536 mt  685 1552 L
 702 1557 mt  718 1573 L
 718 1557 mt  702 1573 L
 718 1573 mt  734 1589 L
 734 1573 mt  718 1589 L
 734 1559 mt  750 1575 L
 750 1559 mt  734 1575 L
 750 1574 mt  766 1590 L
 766 1574 mt  750 1590 L
 767 1548 mt  783 1564 L
 783 1548 mt  767 1564 L
 783 1526 mt  799 1542 L
 799 1526 mt  783 1542 L
 799 1470 mt  815 1486 L
 815 1470 mt  799 1486 L
 816  598 mt  832  614 L
 832  598 mt  816  614 L
 832  565 mt  848  581 L
 848  565 mt  832  581 L
 848  936 mt  864  952 L
 864  936 mt  848  952 L
 865 1331 mt  881 1347 L
 881 1331 mt  865 1347 L
 881 1480 mt  897 1496 L
 897 1480 mt  881 1496 L
 897 1498 mt  913 1514 L
 913 1498 mt  897 1514 L
 914 1547 mt  930 1563 L
 930 1547 mt  914 1563 L
 931 1562 mt  947 1578 L
 947 1562 mt  931 1578 L
 951 1506 mt  967 1522 L
 967 1506 mt  951 1522 L
 968 1550 mt  984 1566 L
 984 1550 mt  968 1566 L
 984 1583 mt 1000 1599 L
1000 1583 mt  984 1599 L
1001 1558 mt 1017 1574 L
1017 1558 mt 1001 1574 L
1017 1519 mt 1033 1535 L
1033 1519 mt 1017 1535 L
1033 1555 mt 1049 1571 L
1049 1555 mt 1033 1571 L
1050 1533 mt 1066 1549 L
1066 1533 mt 1050 1549 L
1066 1537 mt 1082 1553 L
1082 1537 mt 1066 1553 L
1082 1555 mt 1098 1571 L
1098 1555 mt 1082 1571 L
1099 1500 mt 1115 1516 L
1115 1500 mt 1099 1516 L
1115 1536 mt 1131 1552 L
1131 1536 mt 1115 1552 L
1131 1537 mt 1147 1553 L
1147 1537 mt 1131 1553 L
1147 1580 mt 1163 1596 L
1163 1580 mt 1147 1596 L
1164 1548 mt 1180 1564 L
1180 1548 mt 1164 1564 L
1180 1540 mt 1196 1556 L
1196 1540 mt 1180 1556 L
1196 1572 mt 1212 1588 L
1212 1572 mt 1196 1588 L
1213 1495 mt 1229 1511 L
1229 1495 mt 1213 1511 L
1229  853 mt 1245  869 L
1245  853 mt 1229  869 L
1245  595 mt 1261  611 L
1261  595 mt 1245  611 L
1261  763 mt 1277  779 L
1277  763 mt 1261  779 L
1278  958 mt 1294  974 L
1294  958 mt 1278  974 L
1294 1135 mt 1310 1151 L
1310 1135 mt 1294 1151 L
1310 1246 mt 1326 1262 L
1326 1246 mt 1310 1262 L
1327 1366 mt 1343 1382 L
1343 1366 mt 1327 1382 L
1343 1539 mt 1359 1555 L
1359 1539 mt 1343 1555 L
1360 1506 mt 1376 1522 L
1376 1506 mt 1360 1522 L
1376 1530 mt 1392 1546 L
1392 1530 mt 1376 1546 L
1392 1567 mt 1408 1583 L
1408 1567 mt 1392 1583 L
1409 1564 mt 1425 1580 L
1425 1564 mt 1409 1580 L
1425 1577 mt 1441 1593 L
1441 1577 mt 1425 1593 L
1441 1559 mt 1457 1575 L
1457 1559 mt 1441 1575 L
1457 1525 mt 1473 1541 L
1473 1525 mt 1457 1541 L
1473 1527 mt 1489 1543 L
1489 1527 mt 1473 1543 L
1490 1556 mt 1506 1572 L
1506 1556 mt 1490 1572 L
1506 1541 mt 1522 1557 L
1522 1541 mt 1506 1557 L
1522 1542 mt 1538 1558 L
1538 1542 mt 1522 1558 L
1539 1574 mt 1555 1590 L
1555 1574 mt 1539 1590 L
1555 1587 mt 1571 1603 L
1571 1587 mt 1555 1603 L
1571 1551 mt 1587 1567 L
1587 1551 mt 1571 1567 L
1588 1575 mt 1604 1591 L
1604 1575 mt 1588 1591 L
1604 1560 mt 1620 1576 L
1620 1560 mt 1604 1576 L
1620 1582 mt 1636 1598 L
1636 1582 mt 1620 1598 L
1636  741 mt 1652  757 L
1652  741 mt 1636  757 L
1653  721 mt 1669  737 L
1669  721 mt 1653  737 L
1669 1085 mt 1685 1101 L
1685 1085 mt 1669 1101 L
1685 1452 mt 1701 1468 L
1701 1452 mt 1685 1468 L
1702 1475 mt 1718 1491 L
1718 1475 mt 1702 1491 L
1718 1499 mt 1734 1515 L
1734 1499 mt 1718 1515 L
1734 1549 mt 1750 1565 L
1750 1549 mt 1734 1565 L
1750 1576 mt 1766 1592 L
1766 1576 mt 1750 1592 L
1767 1585 mt 1783 1601 L
1783 1585 mt 1767 1601 L
1783 1582 mt 1799 1598 L
1799 1582 mt 1783 1598 L
1799 1578 mt 1815 1594 L
1815 1578 mt 1799 1594 L
1816 1560 mt 1832 1576 L
1832 1560 mt 1816 1576 L
1832 1594 mt 1848 1610 L
1848 1594 mt 1832 1610 L
1848 1578 mt 1864 1594 L
1864 1578 mt 1848 1594 L
1865 1522 mt 1881 1538 L
1881 1522 mt 1865 1538 L
1881 1591 mt 1897 1607 L
1897 1591 mt 1881 1607 L
1898 1589 mt 1914 1605 L
1914 1589 mt 1898 1605 L
1914 1572 mt 1930 1588 L
1930 1572 mt 1914 1588 L
1930 1572 mt 1946 1588 L
1946 1572 mt 1930 1588 L
1947 1591 mt 1963 1607 L
1963 1591 mt 1947 1607 L
1963 1545 mt 1979 1561 L
1979 1545 mt 1963 1561 L
1979 1555 mt 1995 1571 L
1995 1555 mt 1979 1571 L
1995 1567 mt 2011 1583 L
2011 1567 mt 1995 1583 L
2012 1579 mt 2028 1595 L
2028 1579 mt 2012 1595 L
2028 1565 mt 2044 1581 L
2044 1565 mt 2028 1581 L
2044  678 mt 2060  694 L
2060  678 mt 2044  694 L
2061  411 mt 2077  427 L
2077  411 mt 2061  427 L
2077  480 mt 2093  496 L
2093  480 mt 2077  496 L
2093  584 mt 2109  600 L
2109  584 mt 2093  600 L
2109  669 mt 2125  685 L
2125  669 mt 2109  685 L
2126  803 mt 2142  819 L
2142  803 mt 2126  819 L
2142  911 mt 2158  927 L
2158  911 mt 2142  927 L
2159 1056 mt 2175 1072 L
2175 1056 mt 2159 1072 L
2175 1163 mt 2191 1179 L
2191 1163 mt 2175 1179 L
2191 1335 mt 2207 1351 L
2207 1335 mt 2191 1351 L
2208 1535 mt 2224 1551 L
2224 1535 mt 2208 1551 L
2224 1570 mt 2240 1586 L
2240 1570 mt 2224 1586 L
2240 1575 mt 2256 1591 L
2256 1575 mt 2240 1591 L
2256 1544 mt 2272 1560 L
2272 1544 mt 2256 1560 L
2273 1546 mt 2289 1562 L
2289 1546 mt 2273 1562 L
2290 1531 mt 2306 1547 L
2306 1531 mt 2290 1547 L
2306 1554 mt 2322 1570 L
2322 1554 mt 2306 1570 L
2322 1580 mt 2338 1596 L
2338 1580 mt 2322 1596 L
2339 1581 mt 2355 1597 L
2355 1581 mt 2339 1597 L
2356 1577 mt 2372 1593 L
2372 1577 mt 2356 1593 L
2372 1561 mt 2388 1577 L
2388 1561 mt 2372 1577 L
2388 1562 mt 2404 1578 L
2404 1562 mt 2388 1578 L
2404 1559 mt 2420 1575 L
2420 1559 mt 2404 1575 L
2421 1568 mt 2437 1584 L
2437 1568 mt 2421 1584 L
2437 1572 mt 2453 1588 L
2453 1572 mt 2437 1588 L
2453  715 mt 2469  731 L
2469  715 mt 2453  731 L
2469  663 mt 2485  679 L
2485  663 mt 2469  679 L
2486 1013 mt 2502 1029 L
2502 1013 mt 2486 1029 L
2502 1410 mt 2518 1426 L
2518 1410 mt 2502 1426 L
2525 1526 mt 2541 1542 L
2541 1526 mt 2525 1542 L
2541 1556 mt 2557 1572 L
2557 1556 mt 2541 1572 L
2557 1556 mt 2573 1572 L
2573 1556 mt 2557 1572 L
2573 1569 mt 2589 1585 L
2589 1569 mt 2573 1585 L
2590 1562 mt 2606 1578 L
2606 1562 mt 2590 1578 L
2606 1583 mt 2622 1599 L
2622 1583 mt 2606 1599 L
2622 1553 mt 2638 1569 L
2638 1553 mt 2622 1569 L
2638 1556 mt 2654 1572 L
2654 1556 mt 2638 1572 L
2655 1586 mt 2671 1602 L
2671 1586 mt 2655 1602 L
2671 1574 mt 2687 1590 L
2687 1574 mt 2671 1590 L
2687 1438 mt 2703 1454 L
2703 1438 mt 2687 1454 L
2704 1517 mt 2720 1533 L
2720 1517 mt 2704 1533 L
2720 1576 mt 2736 1592 L
2736 1576 mt 2720 1592 L
2736 1591 mt 2752 1607 L
2752 1591 mt 2736 1607 L
2753 1581 mt 2769 1597 L
2769 1581 mt 2753 1597 L
2769 1553 mt 2785 1569 L
2785 1553 mt 2769 1569 L
2785 1413 mt 2801 1429 L
2801 1413 mt 2785 1429 L
2802 1454 mt 2818 1470 L
2818 1454 mt 2802 1470 L
2818 1578 mt 2834 1594 L
2834 1578 mt 2818 1594 L
2834 1502 mt 2850 1518 L
2850 1502 mt 2834 1518 L
2851 1554 mt 2867 1570 L
2867 1554 mt 2851 1570 L
gs 416 135 2480 1469 rc
DA
17 0 16 0 16 0 17 0 16 0 16 0 17 0 16 0 
16 0 17 0 16 0 16 0 17 0 16 0 16 0 16 0 
17 0 16 0 16 0 16 0 23 0 16 0 17 0 16 0 
16 0 16 0 17 0 16 0 16 0 16 0 17 0 17 0 
16 0 16 0 17 0 17 0 16 0 16 0 16 0 17 0 
16 0 16 0 17 0 16 0 17 0 16 0 16 0 16 0 
17 0 16 0 16 0 17 0 16 0 16 0 16 0 17 0 
16 0 16 0 17 0 16 0 17 0 16 0 16 0 17 0 
16 0 16 0 17 0 16 0 16 0 16 0 17 0 16 0 
16 0 17 0 16 0 16 0 16 0 17 0 16 0 16 0 
17 0 16 0 16 0 17 0 16 0 16 0 16 0 16 0 
17 0 16 0 16 0 17 0 16 0 17 0 16 0 16 0 
17 0 16 0 16 0 16 0 17 0 16 0 16 0 17 0 
16 0 16 0 16 0 17 0 16 0 16 0 17 0 16 0 
16 0 17 0 16 0 17 0 20 0 17 0 17 0 16 0 
16 0 17 0 16 0 16 0 17 0 16 0 16 0 17 0 
16 0 16 0 16 0 17 0 16 0 17 0 16 0 16 0 
16 0 17 0 16 0 16 0 16 0 17 0 16 0 16 0 
17 0 16 0 16 0 16 0 17 0 416 1424 150 MP stroke
SO
8.33333 w
/c9 { 0.000000 0.000000 1.000000 sr} bdef
c9
1 0 0 1 0 -1 1 3 0 5 1 1 0 12 0 -2 
1 0 0 -1 0 1 1 -3 0 -5 1 0 0 -7 2 0 
0 6 0 -5 1 0 0 -1 0 3 1 -1 1 1 0 -3 
1 0 0 -13 1 0 0 -3 0 12 1 0 0 10 0 -3 
1 0 0 1 0 -1 1 6 0 -8 1 0 0 1 0 -1 
1 4 0 1 0 -1 1 4 0 -2 0 8 1 0 0 -15 
1 0 0 -2 1 0 0 -4 1 0 0 13 1 0 0 7 
1 0 0 10 1 0 0 12 0 -2 1 0 0 -6 1 0 
0 -3 1 0 1 1 0 4 0 1 1 -11 0 5 1 0 
0 10 1 0 0 1 0 -1 1 -1 0 -9 0 2 1 0 
0 -3 1 -1 0 8 1 0 0 -2 0 7 1 0 0 12 
1 0 0 15 1 0 0 -15 1 0 0 -11 1 0 0 15 
1 0 0 44 1 0 0 4 1 0 0 18 1 0 1 0 
0 -12 1 0 1 1 0 -12 0 2 1 0 0 1 0 -1 
1 3 0 1 0 -5 1 1 0 3 1 -1 0 -24 1 0 
0 -4 1 0 0 -8 2 -2 0 -1 0 1 1 -9 0 -10 
1 0 0 -17 1 0 0 12 1 0 0 -8 1 1 0 2 
1 0 0 -1 0 1 1 -4 0 -8 1 0 0 -25 0 4 
1 0 0 22 1 0 0 4 0 -16 1 0 0 8 0 -10 
1 0 0 4 0 -11 1 0 0 -4 1 1 0 2 0 -4 
1 0 0 9 0 -1 1 0 0 -10 0 5 1 0 0 27 
1 0 0 19 1 0 0 6 1 1 0 6 1 0 0 12 
1 -1 0 -1 0 1 1 -3 0 10 0 -7 1 0 0 5 
1 0 0 18 1 0 0 26 1 0 0 1 0 -1 1 8 
0 -1 0 1 1 -10 0 7 1 18 0 -4 1 0 0 -1 
1 -3 0 -1 0 1 1 -3 0 2 0 -2 1 0 0 -9 
1 0 0 -11 1 -1 0 -1 0 1 1 -1 1 -1 0 1 
0 -1 1 5 0 7 1 0 0 -1 0 1 1 -3 0 8 
0 -5 1 0 0 1 0 -1 1 3 0 -5 0 48 1 0 
0 -4 1 0 0 7 0 -3 1 0 0 -7 1 0 0 -8 
1 0 0 -10 1 0 0 -12 1 0 0 -44 1 0 0 -7 
1 0 0 -6 1 0 0 -7 1 0 0 -11 1 0 0 -11 
1 0 0 -26 1 0 0 -2 1 1 0 -10 0 -1 1 4 
0 10 1 0 0 11 0 -1 1 -1 0 5 0 -3 1 0 
0 -7 1 0 0 -12 1 -1 0 -9 1 0 0 4 1 1 
0 18 1 0 0 3 1 0 0 -1 0 1 1 -3 0 -2 
0 2 1 0 0 -6 1 0 0 -10 1 0 0 -5 1 1 
0 7 1 0 0 27 2765 1549 300 MP stroke
0 -3 1 0 0 -6 1 0 0 -12 1 0 0 -14 1 0 
0 -7 1 0 0 3 1 0 0 1 0 -1 1 7 0 -6 
1 0 0 -6 1 0 0 9 1 0 0 9 1 0 0 -6 
1 0 0 2 0 -5 1 0 0 -1 0 1 1 7 0 3 
0 -7 1 0 0 -3 0 1 1 15 0 3 0 -3 1 0 
0 -5 1 -1 0 -10 1 0 0 -16 1 0 0 -1 0 1 
1 1 0 4 1 1 0 4 1 1 0 -1 0 1 1 2 
0 6 1 0 0 10 1 -1 0 11 0 -13 1 0 0 -7 
1 0 0 3 1 0 0 4 0 -2 1 0 0 -5 0 5 
1 0 0 9 2 2 0 -2 1 0 1 0 0 -7 1 0 
0 -8 1 0 0 -1 0 1 1 -7 0 -2 0 4 1 0 
0 15 1 0 0 11 1 0 0 4 1 0 0 6 1 1 
0 -1 0 1 1 -5 0 -4 0 3 1 0 0 -1 0 1 
1 2 0 21 1 0 0 6 1 0 0 -11 1 0 0 -9 
1 1 0 5 1 3 0 4 1 0 0 -2 0 3 1 0 
0 14 1 0 0 17 1 0 0 12 0 -2 1 0 0 -3 
1 0 0 -10 1 0 1 -1 -1 0 2 0 0 7 1 0 
0 12 1 0 0 7 1 0 0 2 1 1 0 1 1 3 
0 1 1 3 0 6 1 0 0 -1 0 1 1 2 0 11 
1 0 0 -1 0 1 1 4 0 14 1 0 0 5 1 0 
0 7 1 1 0 -2 1 0 0 -11 1 0 0 -31 1 0 
0 -65 1 0 0 14 0 -48 2 0 0 1 0 -1 1 -15 
0 1 0 -5 1 1 0 -2 1 0 0 -6 0 4 1 0 
0 -7 0 5 1 0 0 -8 0 7 1 0 0 1 0 -1 
1 -5 0 15 1 0 0 -7 1 0 0 -6 0 9 1 0 
0 -8 0 12 1 0 0 7 1 5 0 11 0 -3 1 0 
0 -7 1 0 0 -7 1 0 0 -19 1 0 0 -1 0 1 
1 1 0 4 1 0 0 -1 0 1 1 1 1 -1 0 -6 
1 -1 0 -5 1 1 0 9 0 -5 1 0 0 -5 0 7 
1 0 0 1 0 -1 1 4 0 1 0 -1 1 8 0 -1 
0 1 1 -3 0 -1 0 1 1 -4 0 3 1 -1 0 -1 
1 -4 0 -1 0 1 1 -3 0 -2 0 1 1 1 1 1 
0 3 1 1 0 4 1 0 0 3 1 -1 1 -1 0 -8 
0 3 1 0 0 14 1 0 0 7 1 0 0 -1 0 1 
1 1 0 1 0 -1 1 4 0 11 1 0 0 -2 0 4 
1 0 0 -1 0 1 1 -4 0 -7 1 0 0 1 1 2 
1 1 0 4 1 -1 0 -14 1 0 0 1 0 -1 1 3 
0 -2 0 6 1 0 2634 1558 300 MP stroke
0 -2 1 -1 0 -15 1 0 0 -4 0 3 1 0 0 13 
1 0 0 2 1 1 0 2 0 -2 1 0 0 -1 0 -1 
1 8 0 -6 1 -1 0 -4 1 0 0 -7 1 0 0 5 
0 -2 1 -1 0 -5 1 0 0 -3 0 11 1 0 0 16 
1 0 0 9 0 -3 1 0 0 -17 1 0 1 0 0 -3 
1 0 0 6 0 -5 1 0 0 -13 1 -15 0 1 0 -1 
1 15 0 -1 0 1 1 -4 0 -1 0 1 1 -5 0 1 
0 -4 1 0 0 10 1 0 0 11 1 0 0 -5 1 -1 
0 -10 0 4 1 0 0 -1 0 7 1 0 0 9 1 0 
0 -7 0 4 1 0 0 -2 0 4 1 0 0 -7 0 9 
1 0 0 10 0 -1 1 -8 0 -3 1 0 0 1 0 -1 
1 -1 0 -9 0 4 1 1 0 4 1 0 0 -14 1 0 
0 -6 1 1 0 -10 0 3 1 0 0 10 1 0 0 2 
1 0 0 2 0 1 1 -12 0 -4 0 3 1 0 0 12 
1 0 0 6 1 0 0 12 1 0 0 -8 1 0 0 -10 
1 1 0 5 0 -17 1 0 0 1 0 -1 1 6 0 -3 
0 16 1 0 0 -12 1 0 0 -7 1 0 0 -1 1 -4 
1 -2 -1 0 2 2 0 3 0 -5 1 0 0 8 1 0 
0 8 1 0 0 1 1 4 0 1 0 -1 1 -1 0 1 
1 1 0 2 1 0 0 12 0 -3 2 -2 0 -9 1 -1 
0 -1 0 1 1 3 0 -5 0 1 1 2 0 2 1 0 
0 9 1 0 0 1 0 -1 1 -5 1 -1 0 1 0 -1 
1 -5 0 3 1 -1 0 1 0 -11 1 0 0 -7 1 0 
0 -1 1 -8 1 1 0 1 0 -1 1 4 1 9 -1 0 
2 0 0 12 0 -1 1 -1 0 2 0 -2 1 0 0 6 
0 -14 0 10 1 0 0 11 1 0 1 -8 -1 0 2 0 
0 -8 0 6 1 1 0 3 1 0 0 -4 0 3 1 0 
0 7 1 0 0 -8 0 4 1 0 0 12 1 1 0 -4 
0 4 1 0 0 18 1 1 0 -8 0 2 1 0 0 3 
1 1 0 -11 1 1 0 16 0 -3 1 0 0 -14 0 113 
1 0 0 7 1 0 0 11 1 1 0 2 1 0 0 4 
1 -1 0 15 0 -177 7 0 0 -13 1 0 0 9 0 -8 
1 0 0 13 1 0 0 7 1 0 0 7 1 0 0 11 
1 0 0 26 1 0 0 14 1 0 0 20 1 0 0 35 
1 0 0 8 0 -11 1 0 0 16 0 -7 1 0 0 25 
0 -2 1 0 0 18 0 -2 1 0 0 31 1 0 0 10 
1 11 0 36 1 0 0 31 1 0 0 -2 0 18 1 0 
0 -3 0 11 1 0 2501 1264 300 MP stroke
0 21 1 0 0 23 0 -16 1 0 0 25 1 0 0 26 
1 0 0 31 1 0 0 32 1 0 0 31 1 0 0 -160 
0 9 1 0 0 25 1 0 0 21 1 0 0 28 1 0 
0 44 1 0 0 24 1 0 0 39 1 0 0 20 1 0 
0 38 1 0 0 26 1 0 0 52 1 0 0 43 1 0 
0 12 1 0 0 13 1 0 0 16 1 0 0 -2 0 18 
1 0 0 21 1 0 0 -462 0 38 1 0 0 43 1 0 
0 54 1 0 0 39 1 0 0 57 1 0 0 32 1 0 
0 41 1 0 0 26 1 0 0 34 1 0 0 20 1 0 
0 15 1 0 0 15 1 0 0 1 0 -1 1 5 0 -9 
1 0 0 -13 1 0 0 -31 1 0 0 -690 0 5 1 0 
1 0 0 7 1 0 0 3 1 -1 0 -3 1 -1 0 -2 
0 2 1 0 0 13 1 0 0 -6 1 0 0 -14 1 0 
0 -13 0 1 1 8 0 -8 0 8 1 0 0 -9 0 15 
1 0 0 9 1 0 0 2 1 0 0 1 0 -1 1 -1 
1 -1 1 -5 -1 0 2 0 0 -3 1 1 0 3 0 -1 
1 -5 0 13 1 0 0 -11 0 10 1 0 0 -1 0 1 
1 -4 0 -4 1 1 0 -10 0 13 1 0 0 1 0 -1 
1 7 0 -11 1 0 0 -1 0 1 1 9 0 -4 0 2 
1 0 0 6 1 1 0 -7 1 -1 0 4 1 0 0 4 
0 -11 1 0 0 -1 0 1 1 -3 0 -7 1 1 0 3 
1 0 0 3 1 0 0 -1 1 -1 0 -2 1 -1 1 -3 
-1 0 2 0 0 -9 1 0 0 -1 0 1 1 2 0 4 
1 4 0 4 1 -1 0 23 0 -3 1 0 0 14 0 -8 
1 0 0 -1 0 1 1 -3 0 1 0 -6 1 0 0 8 
1 0 0 10 0 -1 1 -4 0 5 1 0 0 12 1 -23 
-1 0 2 2 0 11 1 -14 -1 0 2 2 1 1 0 -6 
0 -1 1 3 0 3 1 1 0 -7 0 4 2 0 0 -12 
0 4 1 0 0 6 0 -4 1 0 0 14 1 0 0 -8 
1 1 0 -7 1 1 0 1 0 -1 1 3 0 -6 0 3 
1 0 0 9 1 1 0 3 0 -9 1 0 0 -3 0 2 
1 0 0 -5 0 2 1 0 0 5 1 8 0 -11 1 0 
0 10 1 -1 0 -7 0 2 1 0 0 -14 0 12 1 0 
0 -4 1 1 0 4 0 -12 0 4 1 0 0 -6 0 2 
1 0 0 5 1 1 0 10 0 -21 1 0 0 1 0 -1 
1 3 0 2 0 -4 0 2 2 2 0 5 0 -10 1 0 
0 -1 0 1 1 -3 0 10 0 -18 1 0 0 12 0 -1 
1 -7 0 14 0 -15 2372 1587 300 MP stroke
1 0 1 1 0 1 0 -1 1 -2 0 2 1 1 0 -2 
0 5 1 0 0 -10 0 -1 1 6 0 10 1 0 0 -8 
0 3 1 0 0 -3 1 -14 0 2 1 0 1 1 0 6 
1 -1 1 -1 0 -5 1 1 0 5 0 -3 1 0 0 3 
1 0 0 -6 1 0 0 11 0 -11 1 0 0 23 0 -18 
2 0 0 -2 1 0 0 2 0 -2 1 -1 0 -1 0 1 
1 -3 0 3 0 -2 1 -1 0 -2 0 2 1 0 0 13 
1 1 0 -10 0 13 1 0 0 7 1 0 0 4 0 -10 
2 -2 0 2 1 0 0 1 0 -1 1 14 0 7 1 5 
0 -7 1 0 0 -5 0 2 1 0 0 -17 0 15 1 0 
0 15 1 0 1 -1 0 0 0 1 1 -3 0 -19 0 10 
1 0 0 -14 1 0 0 -17 1 0 0 9 1 1 0 1 
0 -2 1 1 0 -3 0 2 1 0 0 3 1 1 0 5 
1 -1 0 1 0 -5 1 0 0 -7 1 0 1 1 0 -9 
0 13 1 0 0 -7 1 -1 0 -1 0 1 1 8 1 1 
0 -1 0 1 1 -3 0 -8 0 3 1 0 0 6 1 1 
0 22 1 0 0 10 1 0 0 -7 1 1 0 -4 1 0 
0 -1 0 6 1 0 0 7 0 -5 1 0 0 3 1 -1 
0 -14 0 3 1 0 0 -4 0 8 1 0 0 -2 0 9 
1 0 0 -11 0 5 1 0 1 0 0 -4 0 5 1 0 
0 -2 0 3 1 0 0 19 1 1 0 8 0 -10 1 0 
0 8 0 -12 1 0 0 -21 1 0 0 20 1 0 0 2 
0 -6 0 4 1 0 0 -3 1 -1 0 3 0 -4 1 1 
0 3 1 1 0 23 1 0 0 -14 1 0 0 -14 1 0 
0 8 1 1 0 -1 0 1 1 -6 0 -20 1 0 0 -12 
1 -1 0 -9 0 6 1 0 0 8 1 0 0 15 1 0 
0 37 1 0 0 -9 0 18 1 0 0 -8 0 5 1 0 
0 12 1 -1 0 -2 1 1 0 -1 0 1 1 -9 0 12 
0 -3 1 0 0 4 1 0 0 15 0 -39 2 0 0 -9 
0 2 1 0 0 7 1 0 0 -11 1 -1 0 -6 0 1 
1 -1 0 -9 0 2 1 0 0 2 1 4 0 -8 1 1 
1 -1 0 -9 1 1 0 -3 0 4 1 0 0 -3 1 1 
0 6 1 -1 0 -17 1 0 0 -1 0 1 1 -10 0 1 
0 -5 1 1 1 1 0 1 0 -1 1 -5 0 3 1 -1 
0 -6 1 -1 0 5 1 0 1 -1 0 2 0 -2 1 0 
1 0 0 -1 0 2 1 1 0 6 1 -1 0 1 0 -6 
1 0 0 -1 0 1 1 -8 0 1 0 -1 1 3 0 5 
1 0 0 1 0 -1 2243 1589 300 MP stroke
1 9 0 -9 1 0 0 -2 1 0 0 -6 0 6 1 0 
0 8 1 0 0 7 0 -3 1 0 0 -5 1 1 0 4 
0 -2 2 2 0 3 0 -1 1 -1 0 3 1 1 0 -8 
1 0 0 -5 0 2 1 0 1 1 0 -2 0 4 1 0 
0 5 1 0 0 -1 0 1 1 1 0 5 1 0 0 8 
1 1 0 4 1 1 0 1 1 5 0 -1 0 1 1 -3 
0 -4 1 0 0 -3 0 7 1 0 0 9 1 0 0 6 
0 -3 1 0 0 2 1 -1 0 -4 0 1 1 1 0 11 
1 1 0 4 1 5 0 14 1 0 0 -4 0 2 1 0 
0 13 1 0 0 8 1 0 0 25 1 0 0 8 1 0 
0 19 1 0 0 6 1 0 0 20 1 0 0 9 1 0 
0 22 1 0 0 7 1 0 0 21 1 0 0 5 1 0 
0 18 1 0 0 7 1 0 0 17 1 0 0 11 1 0 
0 17 1 0 0 10 1 0 0 10 1 0 0 -1 0 3 
1 0 0 -1 0 1 1 7 0 16 1 0 0 7 1 0 
0 8 1 0 0 18 1 0 0 12 1 0 0 9 0 -2 
1 0 0 3 1 0 0 5 1 -1 0 8 1 0 0 16 
0 -1 1 -5 0 3 1 0 0 5 1 0 0 -2 0 7 
1 0 0 8 1 0 0 -4 0 3 1 1 0 9 1 0 
0 -3 0 12 1 0 0 7 1 0 0 -7 0 7 1 0 
0 13 1 0 0 18 1 0 0 9 1 0 0 -3 0 2 
1 0 0 8 1 0 0 -2 0 5 1 0 0 15 1 0 
0 7 1 0 0 14 1 0 1 1 0 2 1 4 0 6 
1 0 0 9 1 0 0 17 0 -6 1 0 0 10 1 0 
0 10 1 1 0 3 1 0 0 15 1 0 0 8 1 0 
0 13 1 0 0 9 1 0 0 26 1 0 0 7 1 0 
0 8 1 0 0 9 1 0 0 9 1 0 0 6 1 0 
0 -2 1 -1 0 15 1 0 0 11 0 -2 1 0 0 14 
1 0 0 13 0 -12 1 0 0 19 1 0 0 -15 1 0 
0 14 1 0 0 11 0 -17 1 0 0 2 1 0 0 25 
0 -26 0 24 1 0 0 5 1 0 0 6 0 -2 1 0 
0 5 1 0 0 3 0 -1 1 1 0 9 1 0 0 10 
1 1 0 5 1 0 0 10 1 0 0 6 1 0 0 5 
1 0 0 6 1 0 0 8 1 0 0 14 1 0 0 -5 
0 5 1 0 0 10 1 0 0 41 1 0 0 16 1 0 
0 9 1 1 1 1 0 2 1 1 0 -2 1 -1 0 4 
1 0 0 5 1 0 0 2 1 4 0 -3 0 2 2 2 
0 2 0 -3 1 1 2106 598 300 MP stroke
0 4 1 1 0 1 0 -4 0 1 2 0 0 1 0 -5 
1 1 1 1 0 -19 1 1 0 2 1 -1 0 2 0 -7 
0 2 1 0 0 3 0 -2 1 0 0 4 0 -7 0 5 
1 0 0 14 1 0 0 3 0 -4 0 3 1 0 0 6 
1 0 0 4 0 -5 0 4 1 0 0 9 1 0 0 4 
0 -5 1 0 0 10 1 0 0 -3 1 0 0 14 1 0 
0 -5 1 0 0 16 1 0 0 -160 1 -1 0 22 1 0 
0 8 0 -3 1 0 0 10 1 0 0 9 0 -3 1 0 
0 11 1 0 0 15 1 -1 0 18 1 0 0 14 0 -4 
1 0 0 10 1 0 0 9 0 -7 1 0 0 10 1 0 
0 11 0 -5 1 0 0 13 1 0 0 9 1 0 0 -3 
0 5 1 0 0 4 0 -467 1 0 0 -5 0 27 1 0 
0 28 1 0 0 15 1 0 0 29 1 0 0 -12 0 12 
1 0 0 31 1 0 0 -3 0 13 1 0 0 37 1 0 
0 12 1 0 0 16 1 0 0 -9 0 5 1 0 0 7 
1 0 0 -4 0 4 1 0 0 -13 1 0 0 -16 1 0 
0 -716 1 0 0 -2 0 10 1 0 0 -1 0 1 1 -3 
0 -7 1 0 0 -12 1 0 0 2 0 -3 1 -1 0 12 
1 0 1 11 -1 0 2 -2 1 -8 -1 0 2 2 0 4 
0 -9 1 0 1 -1 0 -4 0 3 1 0 1 1 0 6 
0 -4 1 0 0 4 0 -2 1 -1 0 -7 1 0 0 -5 
1 -1 0 -5 1 0 1 -1 0 2 0 -3 2 -2 0 6 
1 0 0 1 0 -2 1 0 0 -7 1 0 0 -1 0 1 
1 -6 0 9 1 0 0 1 0 -1 1 8 0 1 0 -1 
1 -2 0 2 1 0 0 -1 0 1 1 -10 0 1 0 -1 
1 4 0 4 0 -6 1 0 0 1 0 -1 1 3 1 4 
-1 0 2 0 0 5 1 -1 0 -12 0 1 1 1 0 11 
0 -7 1 0 0 4 0 -6 0 3 1 0 0 6 1 0 
0 -5 0 4 1 0 0 14 1 0 0 -8 0 5 1 -1 
0 -1 0 1 1 -5 0 -8 0 3 1 0 0 14 1 0 
0 -10 0 6 1 0 0 -1 0 1 1 -3 0 -13 1 0 
0 6 1 0 0 -5 0 3 1 0 0 5 1 0 0 10 
1 0 0 -2 1 0 0 1 0 -9 0 2 1 0 0 6 
1 0 0 2 0 -3 0 2 1 0 0 2 1 1 0 2 
0 -6 0 2 1 0 0 4 1 0 0 2 0 -4 1 1 
0 2 1 1 0 1 0 -12 0 2 1 0 0 6 1 0 
0 2 0 -11 1 0 0 7 1 0 0 3 0 -8 1 0 
0 15 1 1 0 -8 1983 1564 300 MP stroke
1 0 0 -6 0 4 1 0 0 -1 0 1 1 -7 0 8 
1 1 0 1 1 -6 -1 0 2 2 0 1 0 1 1 -6 
0 9 1 0 0 3 0 -2 2 2 0 3 0 -1 1 -9 
0 5 1 0 0 5 1 -9 -1 0 2 2 0 3 1 1 
0 -11 1 1 0 3 1 1 0 -7 0 -1 1 3 0 2 
1 -1 0 -1 0 1 1 14 0 1 0 -1 1 10 0 -15 
1 -1 0 -1 0 1 1 3 0 -14 1 0 0 -7 1 0 
0 -13 1 1 0 -1 0 1 1 -3 0 -7 0 2 1 0 
0 2 0 -3 1 0 0 5 1 -1 0 -2 0 2 1 0 
0 5 1 0 0 6 1 0 1 0 0 10 1 0 1 4 
-1 -7 0 7 2 -2 0 -18 1 0 0 13 1 0 0 -5 
1 1 0 6 1 0 0 -10 1 1 0 -5 0 4 1 0 
0 13 0 -2 1 0 0 -2 1 0 0 -21 1 0 0 -1 
0 1 1 5 0 7 1 1 0 5 1 0 0 -13 0 10 
1 0 0 15 1 0 0 1 0 -1 1 -3 0 -2 1 0 
0 2 0 -4 1 0 0 2 1 10 0 -11 1 0 0 -7 
1 -1 0 -4 1 -9 0 3 0 -3 1 0 0 8 1 1 
0 6 1 0 0 9 0 -10 1 0 0 -3 1 -1 0 -7 
0 2 1 0 0 -7 0 2 1 0 0 7 0 -2 1 0 
1 -1 0 7 0 -5 1 0 0 14 1 0 1 0 0 -7 
1 -1 0 -2 1 1 0 -6 0 1 1 1 0 2 1 0 
0 -6 1 -1 0 -1 0 1 1 -4 0 2 0 -6 1 0 
0 1 0 -1 1 7 0 -3 0 4 1 0 0 3 1 1 
0 -3 0 11 1 0 0 3 1 -1 0 -8 0 2 1 0 
0 -13 1 -1 0 8 1 0 0 5 1 1 0 3 1 -1 
0 -4 1 0 0 2 1 1 0 17 0 -4 1 0 0 -11 
1 0 0 -10 1 0 0 -8 0 9 1 0 0 -1 0 1 
1 -4 0 -4 0 8 1 0 0 7 1 0 0 8 1 0 
1 -1 0 2 1 0 0 -2 1 1 0 5 1 0 0 3 
1 1 0 4 1 0 0 1 0 -1 1 -6 0 9 1 0 
0 7 1 0 0 18 0 -4 1 0 0 7 2 0 0 -1 
1 -3 0 -5 0 3 1 0 0 7 1 0 0 2 0 -3 
1 0 0 7 1 0 0 -8 1 0 0 -7 1 0 0 -14 
1 0 1 1 0 15 0 -8 1 0 0 -2 1 0 0 -6 
1 -1 0 1 0 -10 1 0 0 -8 1 0 0 -17 1 0 
0 -6 1 0 0 10 1 -1 1 0 0 -4 1 -1 0 3 
1 0 0 2 0 -1 1 -1 0 -2 1 0 0 2 0 -2 
1 0 0 -2 1 -4 1850 1596 300 MP stroke
1 -4 -1 0 2 0 0 3 1 0 0 3 1 0 0 3 
1 -1 0 -1 0 1 1 -3 0 1 0 -1 1 -1 0 -3 
1 -1 0 5 1 -1 0 -3 1 0 0 26 1 0 0 10 
1 0 0 5 0 -9 0 4 1 0 0 11 1 0 0 3 
0 -15 1 0 0 7 1 0 0 8 0 -1 1 0 0 14 
1 0 0 10 0 -18 0 2 1 0 0 1 0 -1 1 3 
0 -15 1 0 0 8 1 0 0 2 0 -16 1 0 0 2 
1 3 0 2 0 -13 1 0 0 8 1 0 0 -21 1 0 
0 5 1 0 0 2 0 -8 1 0 0 9 1 0 0 6 
0 -12 1 0 0 -9 0 3 1 0 0 6 0 -6 1 0 
0 1 0 -1 1 4 0 13 0 -2 1 0 0 2 1 -1 
0 3 0 -7 1 0 0 15 1 0 0 13 0 1 1 -3 
0 -10 1 0 0 -29 1 0 0 -1 2 0 0 -8 1 -1 
0 -3 1 0 1 -1 0 -3 0 4 1 0 0 14 1 0 
0 12 1 0 0 -3 1 1 0 -11 1 0 0 -6 1 0 
0 -3 0 2 1 0 0 3 1 1 0 3 1 4 0 4 
1 0 0 -1 1 -1 0 -9 1 0 0 -5 0 3 1 0 
0 5 1 1 0 6 1 0 0 -9 1 0 1 0 0 -2 
0 9 1 0 0 8 1 0 0 -11 1 0 0 -7 1 0 
0 -6 1 -1 0 4 1 0 0 6 0 -7 1 0 0 -3 
1 0 0 7 1 -1 0 -2 2 -2 0 2 1 0 0 -2 
1 1 0 6 0 -5 1 0 0 -9 1 0 0 2 1 0 
0 3 1 0 0 -2 1 -1 0 6 1 1 0 4 0 -3 
1 0 0 -3 0 2 1 0 0 4 1 0 0 -1 0 1 
1 3 0 -7 1 0 0 -6 0 3 1 0 0 1 0 -1 
1 -3 0 4 0 -7 0 4 1 0 0 8 1 1 0 5 
1 0 0 -13 1 0 0 -3 1 0 1 1 1 -1 0 7 
1 0 1 -1 0 4 1 3 0 4 1 1 0 11 0 -1 
1 1 1 -1 0 1 0 -2 0 1 2 2 0 2 1 1 
0 1 0 -1 1 3 0 -2 1 0 0 1 1 -4 -1 0 
2 2 0 4 0 -1 1 -1 0 -1 0 1 1 -7 0 1 
1 3 0 6 1 1 0 6 1 -1 0 2 1 -1 0 -6 
1 1 0 -2 0 4 1 1 0 9 1 0 0 21 1 0 
0 11 1 0 0 -3 1 -1 0 -5 1 1 0 1 0 -5 
0 3 1 0 0 5 1 0 0 -12 0 9 1 0 0 -1 
0 1 1 -3 1 -1 0 -2 1 0 0 -5 0 2 1 0 
0 -2 0 4 1 0 0 4 1 1 0 14 1 0 0 4 
1 -1 0 12 1 0 1716 1495 300 MP stroke
0 14 1 0 1 0 0 -1 0 1 1 -9 0 -1 0 1 
1 -7 0 -6 1 0 0 -1 0 1 1 3 0 4 0 -13 
1 0 0 8 1 0 0 9 1 -1 1 1 0 0 0 -1 
1 -3 0 3 1 1 0 5 0 -2 1 0 0 9 1 0 
0 8 1 0 0 -6 0 5 1 -1 0 2 0 -2 1 0 
0 -12 1 -4 0 8 1 0 0 12 1 0 0 1 0 -1 
1 -2 0 -3 0 5 1 0 0 2 1 1 0 13 1 0 
0 16 1 0 0 7 1 0 0 12 1 0 0 14 1 0 
0 20 1 0 0 22 1 0 0 20 1 0 0 26 1 0 
0 28 1 0 0 26 1 0 0 16 1 0 0 30 1 0 
0 18 1 0 0 29 1 0 0 18 1 0 0 -156 0 27 
1 0 0 19 1 0 0 30 1 0 0 20 1 0 0 42 
1 0 0 18 1 0 0 27 1 0 0 33 1 0 0 33 
1 0 0 40 1 0 0 30 1 0 0 20 1 1 0 25 
1 0 0 29 1 0 0 29 1 0 0 16 1 0 0 -464 
0 24 1 0 0 25 1 0 0 55 1 0 0 32 1 0 
0 63 1 0 0 33 1 0 0 57 1 0 0 26 1 0 
0 54 1 0 0 18 1 0 0 18 1 0 0 23 1 0 
0 7 1 0 0 10 0 -2 1 0 0 -10 1 0 0 -24 
1 0 0 -644 1 0 0 22 0 -13 1 0 0 -6 1 0 
0 3 0 -5 1 0 0 -22 1 0 0 -1 0 1 1 5 
0 -5 0 3 1 0 1 -1 0 -6 1 0 0 -6 1 0 
0 -1 0 1 1 1 0 3 0 -2 1 0 0 -1 0 1 
1 7 0 2 0 -2 1 0 0 5 1 4 0 -5 1 0 
0 -1 0 1 1 -6 0 1 0 -1 1 -3 0 4 1 0 
0 4 0 0 1 0 0 6 1 0 0 2 0 -3 1 0 
1 1 0 -3 0 3 1 0 0 4 1 0 0 7 0 -3 
1 0 0 -1 0 1 1 -7 0 1 0 -1 1 3 0 13 
1 0 0 14 1 0 0 -2 1 -2 0 -3 1 -1 0 -13 
1 0 0 1 0 -1 1 -6 0 -10 0 8 1 0 0 5 
0 -6 1 0 0 19 1 0 0 1 1 -12 -1 0 2 0 
0 1 0 -1 1 -8 1 1 0 1 0 -1 1 -6 0 10 
1 0 0 12 0 -6 1 0 0 6 1 0 0 3 0 -8 
1 0 0 4 2 2 0 -9 1 1 0 6 1 0 0 -5 
0 -1 1 5 0 10 1 0 0 -3 0 9 1 1 0 5 
1 0 0 -8 1 0 0 -11 0 2 1 0 0 8 1 0 
0 9 1 0 0 -6 0 2 1 0 0 6 1 0 0 -8 
0 2 1 0 1 1 1583 1546 300 MP stroke
0 -12 0 2 1 0 0 6 1 0 0 -6 0 3 1 0 
0 6 0 -13 1 0 0 -9 1 0 0 -9 0 11 1 0 
0 -9 1 -1 0 -5 1 0 0 1 0 -7 0 2 1 0 
0 4 1 1 0 3 1 -1 0 -1 0 1 1 -4 0 -10 
1 0 1 0 1 -3 -1 0 2 0 0 7 1 1 0 1 
0 -1 1 8 0 -2 1 -1 0 -10 1 0 0 -2 0 2 
1 0 0 4 0 -1 2 0 0 -1 0 -1 1 4 0 6 
1 0 0 0 0 -1 2 -2 0 -3 1 1 0 -1 0 1 
1 2 0 4 1 1 0 8 1 0 0 2 0 -2 1 0 
0 -3 0 2 1 0 0 -19 1 0 0 -1 0 1 1 -5 
0 6 1 0 0 10 1 0 0 4 1 -1 0 -3 0 -1 
1 3 0 5 1 0 0 6 1 -1 0 -8 1 0 0 1 
0 -1 1 -2 0 12 1 0 0 1 0 -1 1 6 0 1 
0 -3 1 1 0 -1 0 1 1 1 0 6 1 0 0 2 
1 1 0 8 1 1 0 1 0 -1 1 7 0 -11 1 0 
0 -1 1 -11 1 1 1 1 1 -1 0 -2 0 -1 1 3 
0 5 1 1 0 5 1 -1 0 -6 2 -2 0 4 1 0 
1 -1 -1 0 2 2 1 1 0 4 1 1 1 1 1 -1 
0 -1 0 1 1 -6 0 7 0 -2 1 0 0 4 1 0 
0 -2 1 -3 0 -11 1 0 0 2 1 0 0 7 1 -1 
0 3 1 -1 0 -11 1 0 0 7 1 0 0 1 0 -1 
1 8 0 -3 1 0 0 -12 1 -1 0 6 0 -42 2 0 
0 -2 0 2 1 0 0 -2 0 8 1 0 0 41 1 0 
1 -1 0 -1 0 1 1 -4 1 1 1 0 0 9 1 -1 
0 -1 0 1 1 -3 0 -7 1 0 1 -1 0 -10 1 0 
0 3 1 0 0 -1 0 8 1 0 0 6 1 1 1 1 
0 1 0 -2 0 2 1 0 0 -2 0 7 1 0 0 6 
1 0 0 -3 0 2 1 1 1 1 0 -4 1 0 0 8 
1 0 1 -1 0 -1 1 -2 0 -4 0 4 1 0 0 15 
1 0 0 -4 0 8 1 0 0 3 1 1 0 -8 1 1 
0 1 0 -1 1 5 0 -18 0 2 2 2 0 -9 0 3 
2 0 0 -9 1 0 1 1 0 2 0 -7 0 2 1 0 
0 5 1 0 0 3 0 -8 0 4 1 0 1 1 0 1 
0 -9 1 -1 1 0 0 -9 1 0 0 -2 0 2 1 0 
0 3 0 -3 1 0 0 9 1 0 0 -8 1 0 0 -1 
0 1 1 -4 0 -10 1 0 0 1 0 -1 1 4 0 -6 
1 0 0 2 1 0 0 -1 1 -6 0 -5 1 -1 0 -2 
0 1 1 3 0 2 1444 1580 300 MP stroke
1 0 0 -2 0 1 1 3 0 -5 0 2 1 0 0 1 
0 -1 1 4 0 10 1 0 0 2 0 -2 1 0 0 7 
0 -5 1 0 0 -7 1 0 0 2 0 1 1 -3 0 -7 
1 0 0 3 0 -8 1 0 0 10 1 0 0 11 1 0 
0 1 0 -1 1 5 0 2 1 1 0 -1 1 -4 0 5 
1 0 0 -12 1 0 0 6 0 -3 1 0 0 -7 1 0 
0 1 0 -1 1 -2 0 8 1 0 0 1 0 -1 1 5 
0 -6 1 0 0 -1 2 -2 0 -3 1 -2 0 -1 0 2 
1 0 0 7 1 0 0 1 0 -2 1 0 0 -2 1 0 
0 -7 1 0 0 -2 0 3 1 0 0 1 0 -1 1 3 
0 9 1 0 0 1 0 -1 1 4 0 4 1 0 0 2 
1 -3 -1 0 2 0 0 -12 1 0 0 3 1 -1 0 1 
0 -1 1 5 0 -1 0 1 1 2 0 -13 1 0 0 -11 
0 4 1 0 0 7 1 6 0 -2 0 5 1 0 0 -17 
1 0 0 -2 1 -1 1 1 -1 0 2 0 0 -4 1 0 
0 1 1 6 0 2 1 0 0 -1 0 1 1 2 0 1 
2 2 0 4 1 0 0 5 1 0 0 16 1 0 0 7 
0 -2 1 0 0 2 2 0 0 -4 0 2 1 1 0 1 
0 -1 1 3 0 -9 0 4 1 0 0 15 1 0 0 -6 
0 17 1 0 0 14 1 0 0 -7 1 1 0 1 0 -4 
0 2 1 0 0 -16 0 4 1 0 0 17 1 0 0 -11 
0 4 1 0 0 14 1 0 0 -7 1 1 0 -2 1 -10 
0 -12 0 4 1 0 0 9 1 0 0 1 0 -11 0 5 
1 0 0 9 1 0 0 3 0 -11 0 3 1 0 0 6 
1 0 0 2 0 -17 1 0 0 1 0 -1 1 -4 0 3 
0 -25 2 0 0 -6 1 0 0 -9 1 0 0 -4 1 0 
0 -3 1 -8 0 9 1 0 0 23 1 0 0 7 1 0 
0 -2 0 6 1 0 0 14 1 0 0 22 1 0 0 12 
1 1 0 8 1 0 0 11 1 -1 0 10 1 0 0 13 
0 -2 1 0 0 8 1 0 0 4 1 -1 0 2 0 -4 
1 0 0 13 1 0 0 18 1 0 0 17 1 0 0 13 
1 0 0 18 1 0 0 2 1 1 0 6 1 0 0 7 
1 0 0 5 1 0 0 -5 0 7 1 0 0 15 0 -17 
0 6 1 0 0 11 1 0 0 15 1 0 0 -1 0 1 
1 5 0 12 1 0 0 -1 0 1 1 5 0 10 1 0 
0 -2 0 5 1 0 0 11 1 1 0 -3 0 4 1 0 
0 36 1 0 0 -1 0 1 1 1 0 8 1 0 0 3 
0 -7 1 0 0 7 1315 1213 300 MP stroke
1 0 0 4 0 -4 0 3 1 0 0 3 0 -3 1 0 
0 13 1 0 0 11 1 0 0 3 0 -5 0 2 1 0 
0 6 1 0 0 -3 0 2 1 0 0 10 1 0 0 7 
1 3 0 7 1 0 0 7 0 -2 1 0 0 9 1 0 
0 33 1 1 0 15 1 0 0 14 1 0 0 1 0 -1 
1 5 0 9 1 0 0 14 1 0 0 12 0 -8 1 0 
0 3 1 0 0 8 1 0 0 11 1 0 0 13 1 0 
0 8 1 0 0 6 1 1 0 -2 0 2 1 0 0 0 
0 4 1 0 0 1 0 -1 1 6 0 6 0 -1 1 0 
0 9 1 0 0 12 1 0 0 10 2 2 0 4 0 -6 
1 0 0 10 1 0 0 24 1 0 0 8 1 0 0 18 
1 0 0 -1 0 1 1 2 0 11 1 0 0 14 1 0 
0 13 1 0 0 -1 0 1 1 3 0 14 1 0 0 10 
0 -167 1 0 0 20 1 0 0 18 1 0 0 26 1 0 
0 12 1 0 0 14 1 0 0 20 1 0 0 19 1 0 
0 22 1 0 0 18 0 -6 1 0 0 14 1 0 0 12 
1 0 0 11 1 0 0 14 0 -4 1 0 0 12 1 0 
0 16 1 0 0 10 1 0 0 -460 0 29 1 0 0 26 
1 0 0 40 1 0 0 21 1 0 0 -2 0 17 1 0 
0 34 1 0 0 30 1 0 0 27 1 0 0 14 1 0 
0 3 1 1 0 1 0 -1 1 6 0 -15 1 0 0 -11 
1 0 0 -14 1 0 0 -7 0 3 1 0 0 -26 1 0 
0 -439 1 0 0 11 1 0 0 9 0 -6 1 0 0 10 
1 0 0 10 1 0 0 8 1 0 0 7 1 -1 0 4 
1 0 0 6 0 -11 1 0 0 -5 1 0 0 -32 1 0 
0 -35 1 -1 0 37 0 -50 0 26 2 0 0 7 0 -12 
1 0 0 -62 1 0 0 -11 0 54 1 -1 0 -33 1 0 
0 3 1 1 0 -9 1 0 0 -12 2 0 0 -6 2 0 
0 -4 0 3 1 0 0 -23 1 0 0 -11 1 0 0 -2 
1 1 0 7 1 1 0 5 0 -1 1 -1 0 -4 1 1 
0 2 1 3 0 3 1 1 0 -9 0 2 1 0 0 -1 
0 1 1 3 0 13 0 0 1 0 0 8 1 1 0 -6 
1 0 0 -5 0 2 1 0 0 3 0 -4 0 3 1 0 
0 9 1 1 0 2 0 -9 1 0 0 11 1 0 0 10 
1 0 0 -7 1 1 0 -15 1 0 0 4 0 -4 1 0 
0 4 0 -7 1 0 0 14 1 0 0 5 0 -4 1 0 
0 10 1 0 0 7 1 0 0 4 1 0 0 3 0 -15 
1 0 0 -8 0 5 1183 1545 300 MP stroke
1 0 0 9 0 -12 1 0 0 17 1 1 0 1 0 -1 
1 -14 0 -2 0 2 1 0 0 1 0 -1 1 -14 0 -9 
0 11 1 0 0 2 1 1 0 -11 0 8 2 2 0 -12 
0 8 1 0 0 16 1 0 0 -8 0 6 1 0 1 1 
0 -15 1 0 0 1 0 -1 1 3 0 -11 0 7 1 0 
1 5 -1 0 2 0 0 2 1 -1 0 -12 1 0 0 -5 
0 2 1 0 0 -3 0 3 1 0 0 20 0 -2 1 0 
0 -4 1 -1 0 -5 1 0 0 -14 1 0 0 -15 1 0 
1 1 0 -4 1 0 0 3 1 9 1 0 0 -11 0 1 
1 1 0 9 1 1 0 2 1 2 0 9 1 0 0 14 
1 0 0 1 0 -1 1 3 0 2 0 -4 0 2 1 0 
0 9 1 0 0 1 0 -1 1 -2 0 6 1 0 0 -1 
0 1 1 -8 0 -7 0 1 1 6 0 -12 1 0 0 -3 
0 2 1 1 0 3 0 -4 1 0 0 12 1 0 0 2 
0 -4 1 0 0 17 1 0 0 -12 1 0 0 -4 1 0 
0 -19 1 0 0 -7 1 0 0 -1 1 -10 0 1 0 -1 
1 -1 0 11 1 0 0 4 1 0 0 -1 0 7 1 0 
0 22 1 -1 0 -1 1 -8 0 3 0 -5 1 0 0 -10 
1 0 0 -14 1 -1 0 -2 1 -1 0 -18 1 0 0 12 
1 0 1 31 -1 0 2 -2 0 17 0 -14 1 0 0 1 
0 -1 1 3 0 32 1 -1 1 -1 0 8 0 -1 2 -2 
0 9 1 -1 0 6 1 0 0 6 0 -3 1 0 0 -12 
1 0 1 1 0 1 0 -1 1 -1 0 8 0 -2 1 0 
1 -1 0 4 0 -7 0 3 1 0 0 -11 1 0 0 -5 
1 -5 0 -16 1 0 0 -3 1 -2 0 -7 1 0 0 -7 
1 -1 0 -11 1 0 1 1 0 3 1 0 0 7 1 0 
0 12 1 0 0 12 1 0 0 7 1 8 0 -1 0 1 
1 1 0 -5 1 0 0 -1 0 1 1 -9 0 16 1 0 
0 -2 0 1 1 2 0 8 0 -9 0 6 2 -2 0 -6 
1 0 0 -10 1 0 0 -13 1 0 0 1 0 -4 0 3 
1 0 0 3 1 -1 0 -18 1 0 0 -2 1 0 0 -11 
1 0 1 -1 0 16 0 -24 0 2 2 0 0 10 1 0 
0 11 1 1 0 7 2 2 0 2 0 -7 1 0 0 3 
1 1 0 13 1 0 0 8 1 0 0 11 1 0 0 -12 
0 3 1 0 0 -1 0 1 1 -12 0 -19 1 0 0 1 
0 -5 0 4 1 0 0 -7 0 6 1 0 0 27 1 0 
0 -3 0 6 1 0 0 -7 1 0 0 -15 1 0 0 -1 
0 1 1 -5 0 -6 1049 1565 300 MP stroke
0 2 1 0 0 12 1 -1 0 14 1 0 0 -12 1 0 
0 -9 1 -1 0 -1 0 1 1 -6 0 10 1 -1 0 -2 
1 0 0 -4 1 -1 0 17 1 0 0 9 1 0 0 4 
0 -3 1 0 0 -9 1 -1 0 -6 0 2 1 0 0 -2 
1 -1 0 16 2 2 0 -2 1 -1 0 -9 1 0 0 -2 
1 0 0 -1 1 -3 0 -4 0 3 1 0 0 7 0 -6 
1 0 0 14 1 0 0 18 0 -8 1 0 0 -3 1 0 
0 -3 1 -5 0 4 1 0 0 5 0 -7 1 0 0 1 
0 -1 1 -1 0 1 0 -1 1 6 0 -15 0 3 1 -1 
0 2 0 -2 1 0 0 -25 1 0 0 2 0 -1 1 -13 
0 13 1 0 0 2 0 -24 1 0 0 16 1 0 0 17 
1 0 0 -16 0 14 1 0 0 1 0 -1 1 24 1 -16 
-1 0 2 0 0 -14 1 0 0 1 0 -1 1 5 0 -20 
0 8 1 0 0 -10 1 0 0 -11 1 0 0 12 1 0 
0 11 0 -10 1 0 0 -9 1 0 0 9 1 0 0 9 
0 -3 1 0 0 6 0 -7 0 4 1 0 0 -7 1 0 
0 9 1 1 0 -24 1 0 0 47 0 -9 1 -1 0 -3 
1 1 0 -11 0 1 2 2 0 -11 0 2 1 0 1 1 
0 -5 1 0 0 -4 1 0 0 -2 0 2 1 0 0 -2 
0 4 1 -1 0 14 0 -3 1 0 0 -12 1 0 0 14 
1 0 0 17 0 -2 1 0 0 -2 0 11 1 0 0 -9 
1 0 0 -41 1 0 0 -4 1 -1 1 13 -1 0 2 -2 
0 -1 0 1 1 5 0 8 1 0 0 27 1 1 1 1 
0 9 1 0 0 2 1 0 1 0 0 1 0 -1 1 -5 
0 13 1 0 0 12 1 1 0 9 0 -3 1 0 0 -14 
1 1 0 88 1 0 0 16 1 0 0 1 0 -1 1 4 
0 -10 1 -1 0 -4 1 0 0 -2 0 5 1 0 0 -7 
1 0 0 -52 0 3 1 0 0 -10 0 3 1 1 0 3 
1 1 0 1 0 -1 1 3 0 11 0 -9 1 0 0 -8 
0 2 1 0 0 1 0 -1 1 3 0 17 0 -71 6 0 
0 -16 1 0 0 11 0 -13 1 0 0 -15 0 2 1 0 
0 0 0 8 2 2 0 -6 0 2 1 0 0 8 1 0 
0 2 1 0 1 -1 0 2 0 -5 1 0 0 -1 1 -2 
0 -9 1 0 0 -5 1 -1 0 2 0 -2 1 0 0 4 
1 0 0 10 1 0 0 1 0 -1 1 4 0 3 1 -1 
0 -12 1 0 0 -7 1 0 0 -6 0 4 1 0 0 17 
1 0 0 10 1 0 0 7 0 -3 1 0 0 3 1 1 
1 0 0 -6 1 -1 913 1548 300 MP stroke
0 -3 1 1 0 -13 0 8 1 0 0 11 1 0 0 13 
1 0 0 3 0 -3 1 0 0 -7 0 12 1 0 0 14 
1 0 0 -19 0 16 1 0 0 -20 0 7 1 0 0 -11 
1 0 0 -7 0 3 1 1 0 -6 0 6 1 0 0 17 
1 0 0 -7 0 5 1 0 0 5 1 0 0 -6 0 5 
1 0 0 16 1 3 0 -9 0 2 1 0 0 5 0 -5 
1 0 0 -1 0 1 1 16 0 8 1 0 0 2 0 -6 
1 1 0 6 1 0 0 -8 1 0 0 -36 1 0 0 -27 
1 0 0 -10 1 1 0 9 0 -11 0 3 1 0 0 -3 
1 1 0 -13 1 1 0 11 1 0 0 24 1 0 0 16 
1 0 0 21 1 0 0 24 1 0 0 32 1 0 0 25 
1 0 0 26 1 0 0 22 1 0 0 22 1 0 0 7 
0 -10 0 9 1 0 0 24 1 0 0 19 1 0 0 41 
1 0 0 22 1 0 0 36 1 0 0 19 1 0 0 21 
1 0 0 5 1 -1 0 23 1 0 0 15 1 0 0 23 
1 0 0 31 1 0 0 16 1 0 0 30 1 0 0 16 
1 0 0 16 0 -174 1 0 0 9 0 -4 1 0 0 62 
1 0 0 17 1 0 0 32 1 0 0 16 1 0 0 21 
1 0 0 21 1 0 0 21 1 0 0 35 1 0 0 26 
1 0 0 44 1 0 0 36 1 0 0 37 1 0 0 16 
1 -1 0 32 1 0 0 28 1 0 0 -461 0 18 1 0 
0 68 1 0 0 40 1 0 0 65 1 0 0 34 1 0 
0 43 1 0 0 16 1 0 0 46 1 0 0 23 1 0 
0 31 1 0 0 16 1 0 0 18 1 1 1 -1 0 -10 
0 6 1 0 0 -11 1 0 0 10 0 -10 1 0 0 -706 
1 0 0 -1 0 1 1 -4 0 -6 1 -1 0 -1 0 1 
1 -10 0 1 0 -1 1 13 0 -5 1 0 0 -6 1 -1 
0 -2 0 2 1 0 0 -5 0 2 1 0 0 7 1 0 
0 24 0 -2 1 0 0 -5 0 1 1 2 0 -2 1 0 
0 -1 0 1 1 5 0 -20 1 0 1 1 0 18 0 1 
1 -5 0 -3 0 7 1 0 0 -3 1 -1 0 -2 1 -1 
0 9 0 -15 1 -1 0 8 1 0 0 1 0 -1 1 -25 
0 -5 1 -1 0 2 1 -1 0 -3 1 -1 0 3 0 -2 
1 0 0 -22 1 0 0 23 1 0 0 -5 1 1 0 2 
0 -3 1 0 0 -5 1 0 0 -2 1 -4 0 -17 1 0 
0 -7 1 0 0 -10 1 0 0 -5 1 0 0 -8 1 0 
0 -5 1 0 0 -1 0 1 1 2 0 -4 0 6 1 0 
0 -2 1 0 0 10 782 1570 300 MP stroke
1 1 0 5 1 0 0 1 2 2 0 4 0 -4 1 0 
1 0 0 -3 0 3 1 0 0 2 0 -6 1 1 0 10 
1 0 0 11 1 0 0 7 1 0 0 -12 1 0 0 -8 
1 1 0 -9 1 1 0 3 1 1 0 3 1 -1 0 4 
0 -8 1 0 0 -7 1 0 0 -18 1 0 0 -4 1 0 
0 1 0 -1 1 4 0 2 1 0 0 1 0 -1 1 -1 
0 3 1 1 0 -11 1 0 0 -9 0 2 1 0 0 6 
1 0 0 15 1 0 0 -1 2 -2 0 -6 1 0 0 -12 
1 0 0 8 1 0 1 1 -1 0 2 0 0 21 1 0 
0 -9 1 0 0 -7 1 0 0 -5 0 3 1 0 0 1 
0 -1 1 17 0 13 0 -2 1 0 0 -4 1 0 0 -12 
1 -1 0 -9 0 2 1 0 0 10 1 0 0 -1 0 1 
1 1 0 4 1 0 0 -3 1 0 0 -1 0 1 1 1 
0 0 0 -1 1 -1 0 -4 1 0 0 1 0 -2 1 1 
0 6 1 0 0 -5 2 -2 0 -5 0 3 1 0 0 -2 
0 2 1 0 0 -14 1 0 0 -6 1 0 0 5 1 0 
0 -1 0 1 1 -4 0 -3 0 3 1 0 0 7 1 1 
0 4 1 1 0 4 0 -2 1 0 0 -5 1 0 0 1 
0 -1 1 7 1 0 0 -4 1 1 0 -2 0 3 1 0 
0 7 1 0 0 9 1 0 0 2 1 0 1 1 1 0 
0 3 1 1 0 2 1 1 0 6 0 -3 1 0 0 2 
1 1 0 2 1 0 0 -4 0 4 1 0 0 10 1 0 
0 10 1 0 1 1 0 -8 2 -2 0 -6 1 0 0 -1 
0 2 1 0 0 -5 0 2 1 0 0 4 1 1 0 -5 
0 3 1 0 0 11 1 0 0 6 1 0 0 14 1 0 
0 -1 0 1 1 2 0 10 1 0 1 1 -1 0 2 0 
0 -11 1 0 0 -49 2 0 0 32 1 0 0 -5 1 0 
0 -26 1 0 0 -29 1 0 0 -10 1 0 0 8 0 -2 
1 0 0 -5 1 0 0 7 1 0 1 9 -1 0 2 0 
0 -7 1 0 0 -5 2 0 1 -1 0 1 0 -1 1 5 
1 -1 0 1 1 1 0 -6 1 0 0 -3 1 1 0 1 
0 -1 1 3 0 9 1 0 0 9 1 1 1 2 -1 0 
2 -2 0 -2 1 0 0 2 1 1 0 1 0 -1 1 3 
0 6 1 1 0 2 1 -1 0 1 0 -1 1 -2 0 -8 
1 0 0 -8 0 2 1 0 0 10 1 0 0 6 1 0 
0 7 1 1 0 4 1 1 0 11 0 -6 1 0 0 -5 
1 0 0 -15 1 0 0 -7 1 0 0 -7 1 0 0 -5 
1 0 0 -1 0 1 639 1582 300 MP stroke
1 -4 0 -6 1 1 1 1 0 -5 1 0 0 17 1 0 
0 -5 1 -1 0 -7 1 0 0 -6 1 1 0 10 1 0 
0 2 1 -1 0 -3 1 1 0 -4 0 2 1 0 0 11 
1 0 0 3 1 0 0 -4 1 0 0 -3 1 0 0 -6 
0 2 1 1 0 7 0 -3 1 0 0 -9 1 0 1 -1 
0 7 1 -1 0 1 0 -1 1 -1 0 -1 0 1 1 3 
1 1 0 7 1 0 0 1 0 -1 1 6 0 -1 0 1 
1 5 0 -11 1 0 0 -6 1 -1 0 -5 1 0 0 5 
1 0 1 -1 0 -1 0 1 1 2 0 -1 0 1 1 -6 
1 -1 0 4 1 0 0 7 1 0 0 5 1 0 0 11 
1 0 1 -1 0 -7 1 -1 0 -7 1 0 0 -5 1 0 
0 7 0 -3 1 0 0 4 1 0 1 0 1 0 0 8 
1 1 1 3 -1 0 2 -2 0 -2 1 0 1 1 0 -1 
0 1 1 -3 1 1 0 3 1 1 0 6 1 0 0 4 
1 -1 0 -4 1 -1 0 -3 2 0 0 6 1 1 0 3 
1 -1 0 2 1 -1 0 -4 1 -1 0 -4 1 -3 1 -4 
-1 0 2 2 0 8 1 0 0 4 1 0 0 2 0 -2 
1 1 1 1 1 3 -1 -3 0 3 2 -2 0 -9 1 0 
0 -6 1 -1 0 -3 1 -5 0 4 1 0 0 6 1 0 
1 11 -1 0 2 0 0 -6 1 0 0 -4 1 0 0 -4 
1 0 0 3 0 1 1 -5 1 0 1 1 0 2 1 0 
1 -1 0 -2 1 0 0 -6 1 0 1 0 0 4 1 1 
0 4 0 -3 1 0 1 -1 0 -2 1 0 1 1 1 0 
-1 -1 0 1 2 -2 0 2 0 -4 1 0 1 -5 -1 0 
2 0 0 -4 1 0 0 -3 1 1 0 5 1 0 0 3 
1 1 0 1 0 -1 1 3 0 2 1 0 1 -1 0 1 
0 -1 1 -1 0 -9 1 0 0 -3 1 1 0 9 1 0 
0 -1 0 1 1 7 1 -1 0 -4 1 0 0 2 1 3 
0 -7 1 0 0 -1 0 3 1 0 0 -3 0 4 1 0 
0 11 1 0 0 9 1 0 0 4 1 0 0 -9 1 1 
0 -4 0 4 1 0 0 5 0 -1 1 0 0 13 1 0 
0 -3 0 5 1 0 1 0 0 -9 1 0 0 8 1 0 
0 3 1 0 0 7 1 1 0 1 0 -1 1 -4 0 -1 
0 1 1 1 0 3 1 -4 -1 0 2 2 0 2 0 -4 
0 1 1 0 0 9 1 0 0 9 0 -3 1 0 0 3 
1 0 0 2 0 -2 1 -1 0 4 1 0 0 16 0 -2 
1 0 0 9 1 0 0 2 0 -1 1 -6 0 2 1 0 
0 7 1 0 0 -6 492 1489 300 MP stroke
0 7 1 0 0 8 1 0 0 -4 0 5 1 0 0 5 
1 0 0 -3 0 12 1 0 0 10 1 0 0 -6 0 6 
1 0 0 3 0 -2 1 0 0 -4 0 5 1 0 0 16 
1 0 0 -3 0 18 1 0 0 12 1 0 0 6 1 0 
0 14 1 0 0 1 0 -1 1 3 0 0 0 4 1 0 
0 -6 0 5 1 0 0 17 1 0 0 -6 0 3 1 0 
0 9 1 0 0 -7 0 7 1 0 0 4 1 0 0 2 
0 -8 1 -1 0 8 1 0 0 -2 0 6 1 0 0 7 
1 0 0 3 0 -5 0 2 1 0 0 -49 0 6 1 0 
0 7 1 0 0 14 1 0 0 4 1 -1 0 12 1 0 
0 5 0 -3 1 0 0 18 1 0 0 5 1 0 0 16 
1 0 0 7 1 0 0 12 1 0 0 4 0 -6 1 0 
0 9 1 1 0 6 1 -1 0 11 1 0 0 12 1 -1 
0 5 0 -158 1 0 0 21 1 1 0 13 1 0 0 13 
1 0 0 1 0 -1 1 9 0 26 1 0 0 20 1 0 
0 12 1 0 0 20 1 0 0 19 1 0 0 16 1 0 
0 11 1 0 0 11 1 1 0 17 1 0 0 11 1 0 
0 5 1 0 0 -262 1 0 0 13 1 0 0 17 1 0 
0 19 1 0 0 19 1 0 0 33 1 0 0 19 1 0 
0 28 1 0 0 17 1 0 0 33 1 0 0 23 1 0 
0 29 1 0 0 12 1 0 0 18 1 0 0 2 1 1 
0 -8 1 0 0 -5 1 0 0 -420 0 8 416 1582 175 MP stroke
DA
2.08333 w
1 0 1 0 1 0 1 0 1 0 1 0 1 0 1 0 
1 0 1 0 1 0 1 0 1 0 1 0 1 0 1 0 
1 0 1 0 1 0 1 0 1 0 1 0 1 0 1 0 
1 0 1 0 1 0 1 0 1 0 1 0 1 0 1 0 
1 0 1 0 1 0 1 0 1 0 1 0 1 0 1 0 
1 0 1 0 1 0 1 0 1 0 1 0 1 0 1 0 
1 0 1 0 1 0 1 0 1 0 1 0 1 0 1 0 
1 0 1 0 1 0 1 0 1 0 1 0 1 0 1 0 
1 0 1 0 1 0 1 0 1 0 1 0 1 0 1 0 
1 0 1 0 1 0 1 0 1 0 1 0 1 0 1 0 
1 0 1 0 1 0 1 0 1 0 1 0 1 0 1 0 
1 0 1 0 1 0 1 0 1 0 1 0 1 0 1 0 
1 0 1 0 1 0 1 0 1 0 1 0 1 0 1 0 
1 0 1 0 1 0 1 0 1 0 1 0 1 0 1 0 
1 0 1 0 1 0 1 0 1 0 1 0 1 0 1 0 
1 0 1 0 1 0 1 0 1 0 1 0 1 0 1 0 
1 0 1 0 1 0 1 0 1 0 1 0 1 0 1 0 
1 0 1 0 1 0 1 0 1 0 1 0 1 0 1 0 
1 0 1 0 1 0 1 0 1 0 1 0 1 0 1 0 
1 0 1 0 1 0 1 0 1 0 1 0 1 0 1 0 
1 0 1 0 1 0 1 0 1 0 1 0 1 0 1 0 
1 0 1 0 1 0 1 0 1 0 1 0 1 0 1 0 
1 0 1 0 1 0 1 0 1 0 1 0 1 0 1 0 
1 0 1 0 1 0 1 0 1 0 1 0 1 0 1 0 
1 0 1 0 1 0 1 0 1 0 1 0 1 0 1 0 
1 0 1 0 1 0 1 0 1 0 1 0 1 0 1 0 
2 0 1 0 1 0 1 0 1 0 1 0 1 0 1 0 
1 0 1 0 1 0 1 0 1 0 1 0 1 0 1 0 
1 0 1 0 1 0 1 0 1 0 1 0 1 0 1 0 
1 0 1 0 1 0 1 0 1 0 1 0 1 0 1 0 
1 0 1 0 1 0 1 0 1 0 1 0 1 0 1 0 
1 0 1 0 1 0 1 0 1 0 1 0 1 0 1 0 
1 0 1 0 1 0 1 0 1 0 1 0 1 0 1 0 
1 0 1 0 1 0 1 0 1 0 1 0 1 0 1 0 
1 0 1 0 1 0 1 0 1 0 1 0 1 0 1 0 
1 0 1 0 1 0 1 0 1 0 1 0 1 0 1 0 
1 0 1 0 1 0 1 0 1 0 1 0 1 0 1 0 
1 0 1 0 1 0 2596 1459 300 MP stroke
1 0 1 0 1 0 1 0 1 0 1 0 1 0 1 0 
1 0 1 0 1 0 1 0 1 0 1 0 1 0 1 0 
1 0 1 0 1 0 1 0 1 0 1 0 1 0 1 0 
1 0 1 0 1 0 1 0 1 0 1 0 1 0 1 0 
1 0 1 0 1 0 1 0 1 0 1 0 1 0 1 0 
1 0 1 0 1 0 1 0 1 0 1 0 1 0 1 0 
1 0 1 0 1 0 1 0 1 0 1 0 1 0 1 0 
1 0 1 0 1 0 1 0 1 0 1 0 1 0 1 0 
1 0 1 0 1 0 1 0 7 0 1 0 1 0 1 0 
1 0 1 0 1 0 1 0 1 0 1 0 1 0 1 0 
1 0 1 0 1 0 1 0 1 0 1 0 1 0 1 0 
1 0 1 0 1 0 1 0 1 0 1 0 1 0 1 0 
1 0 1 0 1 0 1 0 1 0 1 0 1 0 1 0 
1 0 1 0 1 0 1 0 1 0 1 0 1 0 1 0 
1 0 1 0 1 0 1 0 1 0 1 0 1 0 1 0 
1 0 1 0 1 0 1 0 1 0 1 0 1 0 1 0 
1 0 1 0 1 0 1 0 1 0 1 0 1 0 1 0 
1 0 1 0 1 0 1 0 1 0 1 0 1 0 1 0 
1 0 1 0 1 0 1 0 1 0 1 0 1 0 1 0 
1 0 1 0 1 0 1 0 1 0 1 0 1 0 1 0 
1 0 1 0 1 0 1 0 1 0 1 0 1 0 1 0 
1 0 1 0 1 0 1 0 1 0 1 0 1 0 1 0 
1 0 1 0 1 0 1 0 1 0 1 0 1 0 1 0 
1 0 1 0 1 0 1 0 1 0 1 0 1 0 1 0 
1 0 1 0 1 0 1 0 1 0 1 0 1 0 1 0 
1 0 1 0 1 0 1 0 1 0 1 0 1 0 1 0 
1 0 1 0 1 0 1 0 1 0 1 0 1 0 1 0 
1 0 1 0 1 0 1 0 1 0 1 0 1 0 1 0 
1 0 1 0 1 0 1 0 1 0 1 0 1 0 1 0 
1 0 1 0 1 0 1 0 2 0 1 0 1 0 1 0 
1 0 1 0 1 0 1 0 1 0 1 0 1 0 1 0 
1 0 1 0 1 0 1 0 1 0 1 0 1 0 1 0 
1 0 1 0 1 0 1 0 1 0 1 0 1 0 1 0 
1 0 1 0 1 0 1 0 1 0 1 0 1 0 1 0 
1 0 1 0 1 0 1 0 1 0 1 0 1 0 1 0 
1 0 1 0 1 0 1 0 1 0 1 0 1 0 1 0 
1 0 1 0 1 0 1 0 1 0 1 0 1 0 1 0 
1 0 1 0 1 0 2290 1459 300 MP stroke
1 0 1 0 1 0 1 0 1 0 1 0 1 0 1 0 
1 0 1 0 1 0 1 0 1 0 1 0 1 0 1 0 
2 0 1 0 1 0 1 0 1 0 1 0 1 0 1 0 
1 0 1 0 1 0 1 0 1 0 1 0 1 0 1 0 
1 0 1 0 1 0 1 0 1 0 1 0 1 0 1 0 
1 0 1 0 1 0 1 0 1 0 1 0 1 0 1 0 
1 0 1 0 1 0 1 0 1 0 1 0 1 0 1 0 
1 0 1 0 1 0 1 0 1 0 1 0 1 0 1 0 
1 0 1 0 1 0 1 0 1 0 1 0 1 0 1 0 
1 0 1 0 1 0 1 0 1 0 1 0 1 0 1 0 
1 0 1 0 1 0 1 0 1 0 1 0 1 0 1 0 
1 0 1 0 1 0 1 0 1 0 1 0 1 0 1 0 
1 0 1 0 1 0 1 0 1 0 1 0 1 0 1 0 
1 0 1 0 1 0 1 0 1 0 1 0 1 0 1 0 
1 0 1 0 1 0 1 0 1 0 1 0 1 0 1 0 
1 0 1 0 1 0 1 0 1 0 1 0 1 0 1 0 
1 0 1 0 1 0 1 0 1 0 1 0 1 0 1 0 
1 0 1 0 1 0 1 0 1 0 1 0 1 0 1 0 
1 0 1 0 1 0 1 0 1 0 1 0 1 0 1 0 
1 0 1 0 1 0 1 0 1 0 1 0 1 0 1 0 
1 0 1 0 1 0 1 0 1 0 1 0 1 0 1 0 
1 0 1 0 1 0 1 0 1 0 1 0 1 0 1 0 
1 0 1 0 1 0 1 0 1 0 1 0 1 0 1 0 
1 0 1 0 1 0 1 0 1 0 1 0 1 0 1 0 
1 0 1 0 1 0 1 0 1 0 1 0 1 0 1 0 
1 0 1 0 1 0 1 0 1 0 1 0 1 0 1 0 
1 0 1 0 1 0 1 0 1 0 1 0 1 0 1 0 
1 0 1 0 1 0 1 0 1 0 1 0 1 0 1 0 
1 0 1 0 1 0 1 0 1 0 1 0 1 0 1 0 
1 0 1 0 1 0 1 0 1 0 1 0 1 0 1 0 
1 0 1 0 1 0 1 0 1 0 1 0 1 0 1 0 
1 0 1 0 1 0 1 0 1 0 1 0 1 0 1 0 
1 0 1 0 1 0 1 0 1 0 1 0 1 0 1 0 
1 0 1 0 1 0 1 0 1 0 1 0 1 0 1 0 
1 0 1 0 1 0 1 0 1 0 1 0 1 0 1 0 
1 0 1 0 1 0 1 0 1 0 1 0 1 0 1 0 
1 0 1 0 1 0 1 0 1 0 1 0 1 0 1 0 
1 0 1 0 1 0 1990 1459 300 MP stroke
1 0 1 0 1 0 1 0 1 0 1 0 1 0 1 0 
1 0 1 0 1 0 1 0 1 0 1 0 1 0 1 0 
1 0 1 0 1 0 1 0 1 0 1 0 1 0 1 0 
1 0 1 0 1 0 1 0 1 0 1 0 1 0 1 0 
1 0 1 0 1 0 1 0 1 0 1 0 1 0 1 0 
1 0 1 0 1 0 1 0 1 0 1 0 1 0 1 0 
1 0 1 0 1 0 1 0 1 0 1 0 1 0 1 0 
1 0 1 0 1 0 1 0 1 0 1 0 1 0 1 0 
1 0 1 0 1 0 1 0 1 0 1 0 1 0 1 0 
1 0 1 0 1 0 1 0 1 0 1 0 1 0 1 0 
1 0 1 0 1 0 1 0 1 0 1 0 1 0 1 0 
1 0 1 0 1 0 1 0 1 0 1 0 1 0 1 0 
1 0 1 0 1 0 1 0 1 0 1 0 1 0 1 0 
1 0 1 0 1 0 1 0 1 0 1 0 1 0 1 0 
1 0 1 0 1 0 1 0 1 0 1 0 1 0 1 0 
1 0 1 0 1 0 1 0 1 0 1 0 1 0 1 0 
1 0 1 0 1 0 1 0 1 0 1 0 1 0 1 0 
1 0 1 0 1 0 1 0 1 0 1 0 1 0 1 0 
1 0 1 0 1 0 1 0 1 0 1 0 1 0 1 0 
1 0 1 0 1 0 1 0 1 0 1 0 1 0 1 0 
1 0 1 0 1 0 1 0 1 0 1 0 1 0 1 0 
1 0 1 0 1 0 1 0 1 0 1 0 1 0 1 0 
1 0 1 0 1 0 1 0 1 0 1 0 1 0 1 0 
1 0 1 0 1 0 1 0 1 0 1 0 1 0 1 0 
1 0 1 0 1 0 1 0 1 0 1 0 1 0 1 0 
1 0 1 0 1 0 1 0 1 0 1 0 1 0 1 0 
1 0 1 0 1 0 1 0 1 0 1 0 1 0 1 0 
1 0 1 0 1 0 1 0 1 0 1 0 1 0 1 0 
1 0 1 0 1 0 1 0 1 0 1 0 1 0 1 0 
1 0 1 0 1 0 1 0 1 0 1 0 1 0 1 0 
1 0 1 0 1 0 1 0 1 0 1 0 1 0 1 0 
1 0 1 0 1 0 1 0 1 0 1 0 1 0 1 0 
1 0 1 0 1 0 1 0 1 0 1 0 1 0 1 0 
1 0 1 0 1 0 1 0 1 0 1 0 1 0 1 0 
1 0 1 0 1 0 1 0 1 0 1 0 1 0 1 0 
1 0 1 0 1 0 1 0 1 0 1 0 1 0 1 0 
1 0 1 0 1 0 1 0 1 0 1 0 1 0 1 0 
1 0 1 0 1 0 1691 1459 300 MP stroke
1 0 1 0 1 0 1 0 1 0 1 0 1 0 1 0 
1 0 1 0 1 0 1 0 1 0 1 0 1 0 1 0 
1 0 1 0 1 0 1 0 1 0 1 0 1 0 1 0 
1 0 1 0 1 0 1 0 1 0 1 0 1 0 1 0 
1 0 1 0 1 0 1 0 1 0 1 0 1 0 1 0 
1 0 1 0 1 0 1 0 1 0 1 0 1 0 1 0 
1 0 1 0 1 0 1 0 1 0 1 0 1 0 1 0 
1 0 1 0 1 0 1 0 1 0 1 0 1 0 1 0 
1 0 1 0 1 0 1 0 1 0 1 0 1 0 1 0 
1 0 1 0 1 0 1 0 1 0 1 0 1 0 1 0 
1 0 1 0 1 0 1 0 1 0 1 0 1 0 1 0 
1 0 1 0 1 0 1 0 1 0 1 0 1 0 1 0 
1 0 1 0 1 0 1 0 1 0 1 0 1 0 1 0 
1 0 1 0 1 0 1 0 1 0 1 0 1 0 1 0 
1 0 1 0 1 0 1 0 1 0 1 0 1 0 1 0 
1 0 1 0 1 0 1 0 1 0 1 0 1 0 1 0 
1 0 1 0 1 0 1 0 1 0 1 0 1 0 1 0 
1 0 1 0 1 0 1 0 1 0 1 0 1 0 1 0 
1 0 1 0 1 0 1 0 1 0 1 0 1 0 1 0 
1 0 1 0 1 0 1 0 1 0 1 0 1 0 1 0 
1 0 1 0 1 0 1 0 1 0 1 0 1 0 1 0 
1 0 1 0 1 0 1 0 1 0 1 0 1 0 1 0 
1 0 1 0 1 0 1 0 1 0 1 0 1 0 1 0 
1 0 1 0 1 0 1 0 1 0 2 0 1 0 1 0 
1 0 1 0 1 0 1 0 1 0 1 0 1 0 1 0 
1 0 1 0 1 0 1 0 1 0 1 0 1 0 1 0 
1 0 1 0 1 0 1 0 1 0 1 0 1 0 1 0 
1 0 1 0 1 0 1 0 1 0 1 0 1 0 1 0 
1 0 1 0 1 0 1 0 1 0 1 0 1 0 1 0 
1 0 1 0 1 0 1 0 1 0 1 0 1 0 1 0 
1 0 1 0 1 0 1 0 1 0 1 0 1 0 1 0 
1 0 1 0 1 0 1 0 1 0 1 0 1 0 1 0 
1 0 1 0 1 0 1 0 1 0 1 0 1 0 1 0 
1 0 1 0 1 0 1 0 1 0 1 0 1 0 1 0 
1 0 1 0 1 0 1 0 1 0 1 0 1 0 1 0 
1 0 1 0 1 0 1 0 1 0 1 0 1 0 1 0 
1 0 1 0 1 0 1 0 1 0 1 0 1 0 1 0 
1 0 1 0 1 0 1391 1459 300 MP stroke
1 0 1 0 1 0 1 0 1 0 1 0 1 0 1 0 
1 0 1 0 1 0 1 0 1 0 1 0 1 0 1 0 
1 0 1 0 1 0 1 0 1 0 1 0 1 0 1 0 
1 0 1 0 1 0 1 0 1 0 1 0 1 0 1 0 
2 0 1 0 1 0 1 0 1 0 1 0 1 0 1 0 
1 0 1 0 1 0 1 0 1 0 1 0 1 0 1 0 
1 0 1 0 1 0 1 0 1 0 1 0 1 0 1 0 
1 0 1 0 1 0 1 0 1 0 1 0 1 0 1 0 
1 0 1 0 1 0 1 0 1 0 1 0 1 0 1 0 
1 0 1 0 1 0 1 0 1 0 1 0 1 0 1 0 
1 0 1 0 1 0 1 0 1 0 1 0 1 0 1 0 
1 0 1 0 1 0 1 0 1 0 1 0 1 0 1 0 
1 0 1 0 1 0 1 0 1 0 1 0 1 0 1 0 
1 0 1 0 1 0 1 0 1 0 1 0 1 0 1 0 
1 0 1 0 1 0 1 0 1 0 1 0 1 0 1 0 
1 0 1 0 1 0 1 0 1 0 1 0 1 0 1 0 
1 0 1 0 1 0 1 0 1 0 1 0 1 0 1 0 
1 0 1 0 1 0 1 0 1 0 1 0 1 0 1 0 
1 0 1 0 1 0 1 0 1 0 1 0 1 0 1 0 
1 0 1 0 1 0 1 0 1 0 1 0 1 0 1 0 
1 0 1 0 1 0 1 0 1 0 2 0 1 0 1 0 
1 0 1 0 1 0 1 0 1 0 1 0 1 0 1 0 
1 0 1 0 1 0 1 0 1 0 1 0 1 0 1 0 
1 0 1 0 1 0 1 0 1 0 1 0 1 0 1 0 
1 0 1 0 1 0 1 0 1 0 1 0 1 0 1 0 
1 0 1 0 1 0 1 0 1 0 1 0 1 0 1 0 
1 0 1 0 1 0 1 0 1 0 1 0 1 0 1 0 
1 0 1 0 1 0 1 0 1 0 1 0 1 0 1 0 
1 0 1 0 1 0 1 0 1 0 1 0 1 0 1 0 
1 0 1 0 1 0 1 0 1 0 1 0 1 0 1 0 
1 0 1 0 1 0 1 0 1 0 1 0 1 0 1 0 
1 0 1 0 1 0 1 0 1 0 1 0 1 0 1 0 
1 0 1 0 1 0 1 0 1 0 1 0 1 0 1 0 
1 0 1 0 1 0 1 0 1 0 1 0 1 0 1 0 
1 0 1 0 1 0 1 0 1 0 1 0 1 0 1 0 
1 0 1 0 1 0 1 0 1 0 1 0 1 0 1 0 
1 0 1 0 1 0 1 0 1 0 1 0 1 0 1 0 
1 0 1 0 1 0 1090 1459 300 MP stroke
1 0 1 0 1 0 1 0 1 0 1 0 1 0 1 0 
1 0 1 0 1 0 1 0 1 0 1 0 1 0 1 0 
1 0 1 0 1 0 1 0 2 0 1 0 1 0 1 0 
1 0 1 0 1 0 1 0 1 0 1 0 1 0 1 0 
1 0 1 0 1 0 1 0 1 0 1 0 1 0 1 0 
1 0 1 0 1 0 1 0 1 0 1 0 1 0 1 0 
1 0 1 0 1 0 1 0 1 0 1 0 1 0 1 0 
1 0 1 0 1 0 1 0 1 0 1 0 1 0 1 0 
1 0 1 0 1 0 1 0 1 0 1 0 1 0 1 0 
1 0 1 0 1 0 1 0 1 0 1 0 1 0 1 0 
1 0 1 0 1 0 1 0 1 0 1 0 1 0 1 0 
1 0 1 0 1 0 1 0 1 0 1 0 1 0 1 0 
1 0 1 0 1 0 1 0 1 0 1 0 1 0 1 0 
1 0 1 0 1 0 1 0 1 0 1 0 1 0 1 0 
1 0 1 0 1 0 1 0 1 0 1 0 1 0 1 0 
1 0 1 0 1 0 1 0 1 0 1 0 1 0 1 0 
1 0 1 0 1 0 1 0 1 0 1 0 1 0 1 0 
1 0 1 0 1 0 1 0 1 0 1 0 1 0 6 0 
1 0 1 0 1 0 1 0 1 0 1 0 1 0 1 0 
1 0 1 0 1 0 1 0 1 0 1 0 1 0 1 0 
1 0 1 0 1 0 1 0 1 0 1 0 1 0 1 0 
1 0 1 0 1 0 1 0 1 0 1 0 1 0 1 0 
1 0 1 0 1 0 1 0 1 0 1 0 1 0 1 0 
1 0 1 0 1 0 1 0 1 0 1 0 1 0 1 0 
1 0 1 0 1 0 1 0 1 0 1 0 1 0 1 0 
1 0 1 0 1 0 1 0 1 0 1 0 1 0 1 0 
1 0 1 0 1 0 1 0 1 0 1 0 1 0 1 0 
1 0 1 0 1 0 1 0 1 0 1 0 1 0 1 0 
1 0 1 0 1 0 1 0 1 0 1 0 1 0 1 0 
1 0 1 0 1 0 1 0 1 0 1 0 1 0 1 0 
1 0 1 0 1 0 1 0 1 0 1 0 1 0 1 0 
1 0 1 0 1 0 1 0 1 0 1 0 1 0 1 0 
1 0 1 0 1 0 1 0 1 0 1 0 1 0 1 0 
1 0 1 0 1 0 1 0 1 0 1 0 1 0 1 0 
1 0 1 0 1 0 1 0 1 0 1 0 1 0 1 0 
1 0 1 0 1 0 1 0 1 0 1 0 1 0 1 0 
1 0 1 0 1 0 1 0 1 0 1 0 1 0 1 0 
1 0 1 0 1 0 785 1459 300 MP stroke
1 0 1 0 1 0 1 0 1 0 1 0 1 0 1 0 
1 0 1 0 1 0 1 0 1 0 1 0 1 0 1 0 
1 0 1 0 1 0 1 0 1 0 1 0 1 0 1 0 
1 0 1 0 1 0 1 0 1 0 1 0 1 0 1 0 
1 0 1 0 1 0 1 0 1 0 1 0 1 0 1 0 
1 0 1 0 1 0 1 0 1 0 1 0 1 0 1 0 
1 0 1 0 1 0 1 0 1 0 1 0 1 0 1 0 
1 0 1 0 1 0 1 0 1 0 1 0 1 0 1 0 
1 0 1 0 1 0 1 0 1 0 1 0 1 0 1 0 
1 0 1 0 1 0 1 0 1 0 1 0 1 0 1 0 
1 0 1 0 1 0 1 0 1 0 1 0 1 0 1 0 
1 0 1 0 1 0 1 0 1 0 1 0 1 0 1 0 
1 0 1 0 1 0 1 0 1 0 1 0 2 0 1 0 
1 0 1 0 1 0 1 0 1 0 1 0 1 0 1 0 
1 0 1 0 1 0 1 0 1 0 1 0 1 0 1 0 
1 0 1 0 1 0 1 0 1 0 1 0 1 0 1 0 
1 0 1 0 1 0 1 0 1 0 1 0 1 0 1 0 
1 0 1 0 1 0 1 0 1 0 1 0 1 0 1 0 
1 0 1 0 1 0 1 0 1 0 1 0 1 0 1 0 
1 0 1 0 1 0 1 0 1 0 1 0 1 0 1 0 
1 0 1 0 1 0 1 0 1 0 1 0 1 0 1 0 
1 0 1 0 1 0 1 0 1 0 1 0 1 0 1 0 
1 0 1 0 1 0 1 0 1 0 1 0 1 0 1 0 
1 0 1 0 1 0 1 0 1 0 1 0 1 0 1 0 
1 0 1 0 1 0 1 0 1 0 1 0 1 0 1 0 
1 0 1 0 1 0 1 0 1 0 1 0 1 0 1 0 
1 0 1 0 1 0 1 0 1 0 1 0 1 0 1 0 
1 0 1 0 1 0 1 0 1 0 1 0 1 0 1 0 
1 0 1 0 1 0 1 0 1 0 1 0 1 0 1 0 
1 0 1 0 1 0 1 0 1 0 1 0 1 0 1 0 
1 0 1 0 1 0 1 0 1 0 1 0 1 0 1 0 
1 0 1 0 1 0 1 0 1 0 1 0 1 0 1 0 
1 0 1 0 1 0 1 0 1 0 1 0 1 0 1 0 
1 0 1 0 1 0 1 0 1 0 1 0 1 0 1 0 
1 0 1 0 1 0 1 0 1 0 1 0 1 0 1 0 
1 0 1 0 1 0 1 0 1 0 1 0 1 0 1 0 
1 0 1 0 1 0 1 0 1 0 1 0 1 0 1 0 
1 0 1 0 1 0 485 1459 300 MP stroke
1 0 1 0 1 0 1 0 1 0 1 0 1 0 1 0 
1 0 1 0 1 0 1 0 1 0 1 0 1 0 1 0 
1 0 1 0 1 0 1 0 1 0 1 0 1 0 1 0 
1 0 1 0 1 0 1 0 1 0 1 0 1 0 1 0 
1 0 1 0 1 0 1 0 1 0 1 0 1 0 1 0 
1 0 1 0 1 0 1 0 1 0 1 0 1 0 1 0 
1 0 1 0 1 0 1 0 1 0 1 0 1 0 1 0 
1 0 1 0 1 0 1 0 1 0 1 0 1 0 1 0 
1 0 1 0 1 0 1 0 1 0 416 1459 70 MP stroke
gr

c9
DA
0 sg
1427   78 mt 
(Tracking error) s
1521 1759 mt 
(Time [s]) s
 139 1164 mt  -90 rotate
(Tracking Error [m]) s
90 rotate
%%IncludeResource: font Helvetica
/Helvetica /ISOLatin1Encoding 41.6667 FMSR

 410 1619 mt 
( ) s
2890  150 mt 
( ) s
SO
1 sg
0 157 977 0 0 -157 1898 313 4 MP
PP
-977 0 0 157 977 0 0 -157 1898 313 5 MP stroke
1.38889 w
DO
SO
2.08333 w
0 sg
1898  313 mt 2875  313 L
1898  156 mt 2875  156 L
1898  313 mt 1898  156 L
2875  313 mt 2875  156 L
1898  313 mt 2875  313 L
1898  313 mt 1898  156 L
1898  313 mt 2875  313 L
1898  156 mt 2875  156 L
1898  313 mt 1898  156 L
2875  313 mt 2875  156 L
%%IncludeResource: font Helvetica
/Helvetica /ISOLatin1Encoding 58.3333 FMSR

2069  219 mt 
(Simulated USBL measurement) s
gs 1898 156 978 158 rc
gs 1963 172 53 53 rc
c8
1981  190 mt 1997  206 L
1997  190 mt 1981  206 L
gr

c8
gr

c8
0 sg
2069  293 mt 
(Virtual diver estimate) s
gs 1898 156 978 158 rc
8.33333 w
c9
131 0 1924 270 2 MP stroke
2.08333 w
gr

c9

end %%Color Dict

eplot
%%EndObject

epage
end

showpage

%%Trailer
%%EOF
