%!PS-Adobe-3.0 EPSF-3.0
%%Creator: MATLAB, The MathWorks, Inc. Version 8.3.0.532 (R2014a). Operating System: Linux 3.13.0-49-generic #83-Ubuntu SMP Fri Apr 10 20:11:33 UTC 2015 x86_64.
%%Title: /home/dnad/Documents/publication/ram2014_data/figures/Figure3_2_NE_time_virtual.eps
%%CreationDate: 04/23/2015  14:06:15
%%DocumentNeededFonts: Helvetica
%%DocumentProcessColors: Cyan Magenta Yellow Black
%%LanguageLevel: 2
%%Pages: 1
%%BoundingBox:   -39   189   624   605
%%EndComments

%%BeginProlog
% MathWorks dictionary
/MathWorks 160 dict begin
% definition operators
/bdef {bind def} bind def
/ldef {load def} bind def
/xdef {exch def} bdef
/xstore {exch store} bdef
% operator abbreviations
/c  /clip ldef
/cc /concat ldef
/cp /closepath ldef
/gr /grestore ldef
/gs /gsave ldef
/mt /moveto ldef
/np /newpath ldef
/cm /currentmatrix ldef
/sm /setmatrix ldef
/rm /rmoveto ldef
/rl /rlineto ldef
/s {show newpath} bdef
/sc {setcmykcolor} bdef
/sr /setrgbcolor ldef
/sg /setgray ldef
/w /setlinewidth ldef
/j /setlinejoin ldef
/cap /setlinecap ldef
/rc {rectclip} bdef
/rf {rectfill} bdef
% page state control
/pgsv () def
/bpage {/pgsv save def} bdef
/epage {pgsv restore} bdef
/bplot /gsave ldef
/eplot {stroke grestore} bdef
% orientation switch
/portraitMode 0 def /landscapeMode 1 def /rotateMode 2 def
% coordinate system mappings
/dpi2point 0 def
% font control
/FontSize 0 def
/FMS {/FontSize xstore findfont [FontSize 0 0 FontSize neg 0 0]
  makefont setfont} bdef
/reencode {exch dup where {pop load} {pop StandardEncoding} ifelse
  exch dup 3 1 roll findfont dup length dict begin
  { 1 index /FID ne {def}{pop pop} ifelse } forall
  /Encoding exch def currentdict end definefont pop} bdef
/isroman {findfont /CharStrings get /Agrave known} bdef
/FMSR {3 1 roll 1 index dup isroman {reencode} {pop pop} ifelse
  exch FMS} bdef
/csm {1 dpi2point div -1 dpi2point div scale neg translate
 dup landscapeMode eq {pop -90 rotate}
  {rotateMode eq {90 rotate} if} ifelse} bdef
% line types: solid, dotted, dashed, dotdash
/SO { [] 0 setdash } bdef
/DO { [.5 dpi2point mul 4 dpi2point mul] 0 setdash } bdef
/DA { [6 dpi2point mul] 0 setdash } bdef
/DD { [.5 dpi2point mul 4 dpi2point mul 6 dpi2point mul 4
  dpi2point mul] 0 setdash } bdef
% macros for lines and objects
/L {lineto stroke} bdef
/MP {3 1 roll moveto 1 sub {rlineto} repeat} bdef
/AP {{rlineto} repeat} bdef
/PDlw -1 def
/W {/PDlw currentlinewidth def setlinewidth} def
/PP {closepath eofill} bdef
/DP {closepath stroke} bdef
/MR {4 -2 roll moveto dup  0 exch rlineto exch 0 rlineto
  neg 0 exch rlineto closepath} bdef
/FR {MR stroke} bdef
/PR {MR fill} bdef
/L1i {{currentfile picstr readhexstring pop} image} bdef
/tMatrix matrix def
/MakeOval {newpath tMatrix currentmatrix pop translate scale
0 0 1 0 360 arc tMatrix setmatrix} bdef
/FO {MakeOval stroke} bdef
/PO {MakeOval fill} bdef
/PD {currentlinewidth 2 div 0 360 arc fill
   PDlw -1 eq not {PDlw w /PDlw -1 def} if} def
/FA {newpath tMatrix currentmatrix pop translate scale
  0 0 1 5 -2 roll arc tMatrix setmatrix stroke} bdef
/PA {newpath tMatrix currentmatrix pop	translate 0 0 moveto scale
  0 0 1 5 -2 roll arc closepath tMatrix setmatrix fill} bdef
/FAn {newpath tMatrix currentmatrix pop translate scale
  0 0 1 5 -2 roll arcn tMatrix setmatrix stroke} bdef
/PAn {newpath tMatrix currentmatrix pop translate 0 0 moveto scale
  0 0 1 5 -2 roll arcn closepath tMatrix setmatrix fill} bdef
/vradius 0 def /hradius 0 def /lry 0 def
/lrx 0 def /uly 0 def /ulx 0 def /rad 0 def
/MRR {/vradius xdef /hradius xdef /lry xdef /lrx xdef /uly xdef
  /ulx xdef newpath tMatrix currentmatrix pop ulx hradius add uly
  vradius add translate hradius vradius scale 0 0 1 180 270 arc 
  tMatrix setmatrix lrx hradius sub uly vradius add translate
  hradius vradius scale 0 0 1 270 360 arc tMatrix setmatrix
  lrx hradius sub lry vradius sub translate hradius vradius scale
  0 0 1 0 90 arc tMatrix setmatrix ulx hradius add lry vradius sub
  translate hradius vradius scale 0 0 1 90 180 arc tMatrix setmatrix
  closepath} bdef
/FRR {MRR stroke } bdef
/PRR {MRR fill } bdef
/MlrRR {/lry xdef /lrx xdef /uly xdef /ulx xdef /rad lry uly sub 2 div def
  newpath tMatrix currentmatrix pop ulx rad add uly rad add translate
  rad rad scale 0 0 1 90 270 arc tMatrix setmatrix lrx rad sub lry rad
  sub translate rad rad scale 0 0 1 270 90 arc tMatrix setmatrix
  closepath} bdef
/FlrRR {MlrRR stroke } bdef
/PlrRR {MlrRR fill } bdef
/MtbRR {/lry xdef /lrx xdef /uly xdef /ulx xdef /rad lrx ulx sub 2 div def
  newpath tMatrix currentmatrix pop ulx rad add uly rad add translate
  rad rad scale 0 0 1 180 360 arc tMatrix setmatrix lrx rad sub lry rad
  sub translate rad rad scale 0 0 1 0 180 arc tMatrix setmatrix
  closepath} bdef
/FtbRR {MtbRR stroke } bdef
/PtbRR {MtbRR fill } bdef
/stri 6 array def /dtri 6 array def
/smat 6 array def /dmat 6 array def
/tmat1 6 array def /tmat2 6 array def /dif 3 array def
/asub {/ind2 exch def /ind1 exch def dup dup
  ind1 get exch ind2 get sub exch } bdef
/tri_to_matrix {
  2 0 asub 3 1 asub 4 0 asub 5 1 asub
  dup 0 get exch 1 get 7 -1 roll astore } bdef
/compute_transform {
  dmat dtri tri_to_matrix tmat1 invertmatrix 
  smat stri tri_to_matrix tmat2 concatmatrix } bdef
/ds {stri astore pop} bdef
/dt {dtri astore pop} bdef
/db {2 copy /cols xdef /rows xdef mul dup 3 mul string
  currentfile 
  3 index 0 eq {/ASCIIHexDecode filter}
  {/ASCII85Decode filter 3 index 2 eq {/RunLengthDecode filter} if }
  ifelse exch readstring pop
  dup 0 3 index getinterval /rbmap xdef
  dup 2 index dup getinterval /gbmap xdef
  1 index dup 2 mul exch getinterval /bbmap xdef pop pop}bdef
/it {gs np dtri aload pop moveto lineto lineto cp c
  cols rows 8 compute_transform 
  rbmap gbmap bbmap true 3 colorimage gr}bdef
/il {newpath moveto lineto stroke}bdef
currentdict end def
%%EndProlog

%%BeginSetup
MathWorks begin

0 cap

end
%%EndSetup

%%Page: 1 1
%%BeginPageSetup
%%PageBoundingBox:   -39   189   624   605
MathWorks begin
bpage
%%EndPageSetup

%%BeginObject: obj1
bplot

/dpi2point 4.16667 def
portraitMode -0304 2545 csm

  138    25  2770  1731 rc
86 dict begin %Colortable dictionary
/c0 { 0.000000 0.000000 0.000000 sr} bdef
/c1 { 1.000000 1.000000 1.000000 sr} bdef
/c2 { 0.900000 0.000000 0.000000 sr} bdef
/c3 { 0.000000 0.820000 0.000000 sr} bdef
/c4 { 0.000000 0.000000 0.800000 sr} bdef
/c5 { 0.910000 0.820000 0.320000 sr} bdef
/c6 { 1.000000 0.260000 0.820000 sr} bdef
/c7 { 0.000000 0.820000 0.820000 sr} bdef
c0
1 j
1 sg
   0    0 3167 1794 rf
2.08333 w
0 549 2453 0 0 -549 412 725 4 MP
PP
-2453 0 0 549 2453 0 0 -549 412 725 5 MP stroke
1.38889 w
DO
0 sg
 412  725 mt  412  176 L
 412  176 mt  412  176 L
 814  725 mt  814  176 L
 814  176 mt  814  176 L
1217  725 mt 1217  176 L
1217  176 mt 1217  176 L
1620  725 mt 1620  176 L
1620  176 mt 1620  176 L
2023  725 mt 2023  176 L
2023  176 mt 2023  176 L
2425  725 mt 2425  176 L
2425  176 mt 2425  176 L
2828  725 mt 2828  176 L
2828  176 mt 2828  176 L
 412  618 mt 2865  618 L
2865  618 mt 2865  618 L
 412  465 mt 2865  465 L
2865  465 mt 2865  465 L
 412  313 mt 2865  313 L
2865  313 mt 2865  313 L
SO
2.08333 w
 412  725 mt 2865  725 L
 412  176 mt 2865  176 L
 412  725 mt  412  176 L
2865  725 mt 2865  176 L
 412  725 mt 2865  725 L
 412  725 mt  412  176 L
 412  725 mt  412  700 L
 412  176 mt  412  200 L
%%IncludeResource: font Helvetica
/Helvetica /ISOLatin1Encoding 75 FMSR

 392  806 mt 
(0) s
 814  725 mt  814  700 L
 814  176 mt  814  200 L
 752  806 mt 
(100) s
1217  725 mt 1217  700 L
1217  176 mt 1217  200 L
1155  806 mt 
(200) s
1620  725 mt 1620  700 L
1620  176 mt 1620  200 L
1558  806 mt 
(300) s
2023  725 mt 2023  700 L
2023  176 mt 2023  200 L
1961  806 mt 
(400) s
2425  725 mt 2425  700 L
2425  176 mt 2425  200 L
2363  806 mt 
(500) s
2828  725 mt 2828  700 L
2828  176 mt 2828  200 L
2766  806 mt 
(600) s
 412  618 mt  436  618 L
2865  618 mt 2840  618 L
 317  645 mt 
(60) s
 412  465 mt  436  465 L
2865  465 mt 2840  465 L
 317  492 mt 
(70) s
 412  313 mt  436  313 L
2865  313 mt 2840  313 L
 317  340 mt 
(80) s
 412  725 mt 2865  725 L
 412  176 mt 2865  176 L
 412  725 mt  412  176 L
2865  725 mt 2865  176 L
gs 412 176 2454 550 rc
gr

gs 386 189 2466 511 rc
/c8 { 1.000000 0.000000 0.000000 sr} bdef
c8
 404  665 mt  420  681 L
 420  665 mt  404  681 L
 404  647 mt  420  663 L
 420  647 mt  404  663 L
 420  628 mt  436  644 L
 436  628 mt  420  644 L
 436  609 mt  452  625 L
 452  609 mt  436  625 L
 453  591 mt  469  607 L
 469  591 mt  453  607 L
 468  573 mt  484  589 L
 484  573 mt  468  589 L
 485  554 mt  501  570 L
 501  554 mt  485  570 L
 501  537 mt  517  553 L
 517  537 mt  501  553 L
 517  518 mt  533  534 L
 533  518 mt  517  534 L
 533  500 mt  549  516 L
 549  500 mt  533  516 L
 549  482 mt  565  498 L
 565  482 mt  549  498 L
 565  463 mt  581  479 L
 581  463 mt  565  479 L
 581  445 mt  597  461 L
 597  445 mt  581  461 L
 598  426 mt  614  442 L
 614  426 mt  598  442 L
 614  408 mt  630  424 L
 630  408 mt  614  424 L
 629  390 mt  645  406 L
 645  390 mt  629  406 L
 646  372 mt  662  388 L
 662  372 mt  646  388 L
 662  353 mt  678  369 L
 678  353 mt  662  369 L
 678  335 mt  694  351 L
 694  335 mt  678  351 L
 694  317 mt  710  333 L
 710  317 mt  694  333 L
 710  299 mt  726  315 L
 726  299 mt  710  315 L
 726  280 mt  742  296 L
 742  280 mt  726  296 L
 742  262 mt  758  278 L
 758  262 mt  742  278 L
 759  243 mt  775  259 L
 775  243 mt  759  259 L
 775  225 mt  791  241 L
 791  225 mt  775  241 L
 791  207 mt  807  223 L
 807  207 mt  791  223 L
 807  225 mt  823  241 L
 823  225 mt  807  241 L
 823  245 mt  839  261 L
 839  245 mt  823  261 L
 839  262 mt  855  278 L
 855  262 mt  839  278 L
 855  281 mt  871  297 L
 871  281 mt  855  297 L
 871  299 mt  887  315 L
 887  299 mt  871  315 L
 888  317 mt  904  333 L
 904  317 mt  888  333 L
 904  336 mt  920  352 L
 920  336 mt  904  352 L
 921  356 mt  937  372 L
 937  356 mt  921  372 L
 941  372 mt  957  388 L
 957  372 mt  941  388 L
 957  390 mt  973  406 L
 973  390 mt  957  406 L
 973  409 mt  989  425 L
 989  409 mt  973  425 L
 990  427 mt 1006  443 L
1006  427 mt  990  443 L
1005  445 mt 1021  461 L
1021  445 mt 1005  461 L
1021  463 mt 1037  479 L
1037  463 mt 1021  479 L
1038  482 mt 1054  498 L
1054  482 mt 1038  498 L
1054  500 mt 1070  516 L
1070  500 mt 1054  516 L
1070  518 mt 1086  534 L
1086  518 mt 1070  534 L
1086  537 mt 1102  553 L
1102  537 mt 1086  553 L
1102  555 mt 1118  571 L
1118  555 mt 1102  571 L
1118  573 mt 1134  589 L
1134  573 mt 1118  589 L
1134  592 mt 1150  608 L
1150  592 mt 1134  608 L
1151  610 mt 1167  626 L
1167  610 mt 1151  626 L
1166  628 mt 1182  644 L
1182  628 mt 1166  644 L
1182  646 mt 1198  662 L
1198  646 mt 1182  662 L
1199  665 mt 1215  681 L
1215  665 mt 1199  681 L
1215  646 mt 1231  662 L
1231  646 mt 1215  662 L
1231  628 mt 1247  644 L
1247  628 mt 1231  644 L
1247  610 mt 1263  626 L
1263  610 mt 1247  626 L
1263  592 mt 1279  608 L
1279  592 mt 1263  608 L
1279  573 mt 1295  589 L
1295  573 mt 1279  589 L
1295  555 mt 1311  571 L
1311  555 mt 1295  571 L
1311  537 mt 1327  553 L
1327  537 mt 1311  553 L
1328  518 mt 1344  534 L
1344  518 mt 1328  534 L
1344  500 mt 1360  516 L
1360  500 mt 1344  516 L
1360  482 mt 1376  498 L
1376  482 mt 1360  498 L
1376  463 mt 1392  479 L
1392  463 mt 1376  479 L
1392  445 mt 1408  461 L
1408  445 mt 1392  461 L
1408  426 mt 1424  442 L
1424  426 mt 1408  442 L
1424  409 mt 1440  425 L
1440  409 mt 1424  425 L
1441  390 mt 1457  406 L
1457  390 mt 1441  406 L
1456  372 mt 1472  388 L
1472  372 mt 1456  388 L
1473  353 mt 1489  369 L
1489  353 mt 1473  369 L
1489  335 mt 1505  351 L
1505  335 mt 1489  351 L
1505  317 mt 1521  333 L
1521  317 mt 1505  333 L
1521  299 mt 1537  315 L
1537  299 mt 1521  315 L
1537  280 mt 1553  296 L
1553  280 mt 1537  296 L
1553  262 mt 1569  278 L
1569  262 mt 1553  278 L
1569  243 mt 1585  259 L
1585  243 mt 1569  259 L
1586  225 mt 1602  241 L
1602  225 mt 1586  241 L
1602  207 mt 1618  223 L
1618  207 mt 1602  223 L
1617  226 mt 1633  242 L
1633  226 mt 1617  242 L
1634  244 mt 1650  260 L
1650  244 mt 1634  260 L
1650  262 mt 1666  278 L
1666  262 mt 1650  278 L
1666  280 mt 1682  296 L
1682  280 mt 1666  296 L
1682  299 mt 1698  315 L
1698  299 mt 1682  315 L
1698  317 mt 1714  333 L
1714  317 mt 1698  333 L
1714  335 mt 1730  351 L
1730  335 mt 1714  351 L
1730  354 mt 1746  370 L
1746  354 mt 1730  370 L
1747  372 mt 1763  388 L
1763  372 mt 1747  388 L
1763  390 mt 1779  406 L
1779  390 mt 1763  406 L
1779  409 mt 1795  425 L
1795  409 mt 1779  425 L
1795  427 mt 1811  443 L
1811  427 mt 1795  443 L
1811  445 mt 1827  461 L
1827  445 mt 1811  461 L
1827  463 mt 1843  479 L
1843  463 mt 1827  479 L
1843  482 mt 1859  498 L
1859  482 mt 1843  498 L
1860  501 mt 1876  517 L
1876  501 mt 1860  517 L
1876  519 mt 1892  535 L
1892  519 mt 1876  535 L
1891  537 mt 1907  553 L
1907  537 mt 1891  553 L
1908  555 mt 1924  571 L
1924  555 mt 1908  571 L
1924  574 mt 1940  590 L
1940  574 mt 1924  590 L
1940  592 mt 1956  608 L
1956  592 mt 1940  608 L
1956  610 mt 1972  626 L
1972  610 mt 1956  626 L
1972  628 mt 1988  644 L
1988  628 mt 1972  644 L
1988  646 mt 2004  662 L
2004  646 mt 1988  662 L
2004  665 mt 2020  681 L
2020  665 mt 2004  681 L
2020  646 mt 2036  662 L
2036  646 mt 2020  662 L
2037  628 mt 2053  644 L
2053  628 mt 2037  644 L
2052  610 mt 2068  626 L
2068  610 mt 2052  626 L
2069  591 mt 2085  607 L
2085  591 mt 2069  607 L
2085  573 mt 2101  589 L
2101  573 mt 2085  589 L
2101  555 mt 2117  571 L
2117  555 mt 2101  571 L
2117  536 mt 2133  552 L
2133  536 mt 2117  552 L
2133  518 mt 2149  534 L
2149  518 mt 2133  534 L
2150  499 mt 2166  515 L
2166  499 mt 2150  515 L
2165  482 mt 2181  498 L
2181  482 mt 2165  498 L
2182  463 mt 2198  479 L
2198  463 mt 2182  479 L
2198  445 mt 2214  461 L
2214  445 mt 2198  461 L
2214  427 mt 2230  443 L
2230  427 mt 2214  443 L
2230  409 mt 2246  425 L
2246  409 mt 2230  425 L
2247  390 mt 2263  406 L
2263  390 mt 2247  406 L
2263  371 mt 2279  387 L
2279  371 mt 2263  387 L
2279  353 mt 2295  369 L
2295  353 mt 2279  369 L
2295  335 mt 2311  351 L
2311  335 mt 2295  351 L
2311  317 mt 2327  333 L
2327  317 mt 2311  333 L
2328  298 mt 2344  314 L
2344  298 mt 2328  314 L
2344  280 mt 2360  296 L
2360  280 mt 2344  296 L
2360  262 mt 2376  278 L
2376  262 mt 2360  278 L
2376  243 mt 2392  259 L
2392  243 mt 2376  259 L
2392  225 mt 2408  241 L
2408  225 mt 2392  241 L
2408  207 mt 2424  223 L
2424  207 mt 2408  223 L
2424  226 mt 2440  242 L
2440  226 mt 2424  242 L
2440  244 mt 2456  260 L
2456  244 mt 2440  260 L
2457  263 mt 2473  279 L
2473  263 mt 2457  279 L
2472  280 mt 2488  296 L
2488  280 mt 2472  296 L
2495  299 mt 2511  315 L
2511  299 mt 2495  315 L
2511  317 mt 2527  333 L
2527  317 mt 2511  333 L
2527  335 mt 2543  351 L
2543  335 mt 2527  351 L
2543  354 mt 2559  370 L
2559  354 mt 2543  370 L
2559  372 mt 2575  388 L
2575  372 mt 2559  388 L
2576  391 mt 2592  407 L
2592  391 mt 2576  407 L
2591  409 mt 2607  425 L
2607  409 mt 2591  425 L
2607  427 mt 2623  443 L
2623  427 mt 2607  443 L
2624  445 mt 2640  461 L
2640  445 mt 2624  461 L
2640  464 mt 2656  480 L
2656  464 mt 2640  480 L
2656  482 mt 2672  498 L
2672  482 mt 2656  498 L
2672  500 mt 2688  516 L
2688  500 mt 2672  516 L
2688  518 mt 2704  534 L
2704  518 mt 2688  534 L
2704  537 mt 2720  553 L
2720  537 mt 2704  553 L
2721  555 mt 2737  571 L
2737  555 mt 2721  571 L
2737  574 mt 2753  590 L
2753  574 mt 2737  590 L
2752  592 mt 2768  608 L
2768  592 mt 2752  608 L
2769  610 mt 2785  626 L
2785  610 mt 2769  626 L
2785  629 mt 2801  645 L
2801  629 mt 2785  645 L
2801  646 mt 2817  662 L
2817  646 mt 2801  662 L
2817  665 mt 2833  681 L
2833  665 mt 2817  681 L
gr

c8
gs 412 176 2454 550 rc
8.33333 w
/c9 { 0.000000 0.000000 1.000000 sr} bdef
c9
1 1 1 1 1 1 1 1 1 1 1 1 0 1 2 2 
1 0 -1 0 2 2 1 1 1 1 1 1 1 1 0 1 
2 2 1 1 1 1 1 1 0 1 2 2 1 1 1 1 
1 1 1 1 1 1 0 1 2 2 1 0 0 1 2 2 
1 1 1 1 1 1 1 1 0 1 2 2 1 1 1 1 
0 1 2 2 1 1 1 1 1 1 1 1 1 1 1 1 
0 1 2 2 1 1 1 1 1 1 1 1 1 1 1 1 
1 1 1 1 1 1 0 1 2 2 1 1 1 1 1 1 
0 1 2 2 1 0 -1 0 2 2 1 1 1 1 1 1 
1 1 0 1 2 2 1 1 1 0 -1 0 2 2 1 1 
1 1 1 1 1 1 0 1 2 2 1 1 1 1 1 1 
1 1 0 1 2 2 1 1 1 1 1 1 1 1 1 1 
1 1 0 1 2 2 1 1 1 1 1 1 1 1 1 1 
0 1 2 2 1 0 -1 0 2 2 1 1 1 1 1 1 
1 1 0 1 2 2 1 1 1 1 1 1 0 1 2 2 
1 1 1 0 -1 0 2 2 1 1 1 1 1 1 1 1 
1 1 0 1 2 2 1 1 1 1 1 1 1 1 1 1 
1 1 0 1 2 2 1 1 1 1 1 1 1 1 0 1 
2 2 1 1 1 1 1 1 1 1 1 1 1 1 0 1 
2 2 1 1 1 1 1 1 1 1 1 1 0 1 2 2 
1 0 -1 0 2 2 1 1 1 1 1 1 1 1 0 1 
2 2 1 1 1 1 1 1 1 1 0 1 2 2 1 0 
-1 0 2 2 1 1 1 1 1 1 1 1 0 1 2 2 
1 1 1 1 1 1 1 1 1 1 1 1 1 1 0 1 
2 2 1 1 1 1 1 1 1 1 0 1 2 2 1 1 
1 1 1 1 1 1 1 1 1 1 0 1 2 2 1 1 
1 1 1 1 1 1 0 1 2 2 1 1 1 1 1 1 
1 1 1 1 0 1 2 2 1 1 1 1 1 1 1 1 
1 1 0 1 2 2 1 1 1 1 1 1 1 1 1 1 
1 1 1 1 0 1 2 2 1 1 1 1 1 1 0 1 
1 1 1 0 1 1 0 1 2 2 1 1 1 1 1 1 
1 1 1 1 0 1 2 2 1 1 1 1 1 1 1 1 
1 1 1 1 0 1 2 2 1 1 1 1 1 1 1 1 
0 1 2 2 1 1 1 1 1 1 1 1 0 1 2 2 
1 0 0 1 2 2 1 1 1 1 1 1 1 1 0 1 
2 2 1 0 -1 0 2 2 1 1 1 1 1 1 1 1 
0 1 2 2 1 1 1 1 1 1 1 1 0 1 2 2 
1 1 1 0 -1 0 2576 390 300 MP stroke
2 2 1 1 1 1 1 1 0 1 2 2 1 1 1 1 
1 1 0 1 2 2 1 1 1 1 1 1 1 1 1 1 
1 1 0 1 2 2 1 1 1 1 1 1 1 1 1 1 
0 2 1 1 1 0 -1 0 2 2 1 1 1 1 1 1 
1 1 1 1 1 1 1 1 1 1 1 1 0 1 2 2 
1 0 -1 0 2 2 0 2 1 1 1 1 1 1 1 1 
1 1 1 1 1 1 1 1 1 1 1 1 1 1 1 1 
1 1 1 1 1 1 1 1 0 2 1 0 1 1 1 1 
1 1 1 1 1 1 1 1 1 1 1 1 1 0 -1 0 
2 2 1 0 0 1 2 2 1 0 1 1 0 1 0 -1 
1 -6 1 1 1 1 0 1 8 10 1 1 1 1 1 1 
0 1 2 2 1 1 1 1 0 1 2 2 1 1 1 1 
0 1 2 2 1 1 0 1 2 2 1 1 1 1 1 1 
0 1 1 1 1 1 1 1 1 1 1 1 0 1 2 2 
1 1 0 8 1 0 1 1 1 1 1 1 1 1 1 0 
-1 0 2 2 1 0 1 1 1 1 1 1 1 1 1 1 
1 1 1 0 -1 0 2 2 1 0 0 20 1 0 1 0 
1 0 1 0 1 0 1 0 1 0 1 1 1 0 1 0 
1 0 1 0 1 0 1 0 1 0 1 0 0 28 1 0 
0 -1 2 -2 1 -1 1 -1 1 -1 1 -1 1 -1 1 -1 
1 -1 0 -1 2 -2 1 -1 1 -1 1 -1 1 -1 1 -1 
1 -1 1 -1 1 -1 1 -1 0 -1 1 -1 1 -1 0 0 
2 -2 1 -1 1 -1 0 -1 1 -1 1 0 0 -1 2 -2 
1 -1 1 -1 1 -1 0 -1 2 -2 1 0 -1 0 2 -2 
1 -1 1 -1 1 -1 1 -1 1 -1 0 -1 1 -1 0 0 
2 -2 1 -1 1 -1 1 -1 1 -1 0 -1 2 -2 1 -1 
1 -1 1 -1 1 -1 1 -1 0 -1 2 -2 1 -1 1 -1 
1 -1 1 -1 1 -1 1 -1 0 -1 2 -2 1 -1 1 -1 
1 -1 1 -1 0 -1 2 -2 1 0 -1 0 2 -2 1 -1 
1 -1 1 -1 1 -1 0 -1 2 -2 1 -1 0 -1 2 -2 
1 0 1 -1 0 -1 2 -2 1 -1 1 -1 1 -1 0 -1 
2 -2 1 -1 1 -1 1 -1 1 -1 0 -1 1 -1 1 -1 
1 -1 1 -1 1 -1 1 -1 1 -1 1 -1 1 -1 1 -2 
1 -1 1 -1 1 -1 1 -1 0 -1 2 -2 1 -1 1 -1 
1 -1 1 -1 0 -1 2 -2 1 -1 1 -1 1 -1 1 -1 
0 -1 2 -2 1 0 1 -1 1 -1 1 -1 0 -1 2 -2 
1 -1 1 -1 1 -1 1 -1 1 -1 0 -1 2 -2 1 0 
-1 0 2 -2 1 -1 2291 357 300 MP stroke
1 -1 1 -1 1 -1 0 -1 2 -2 1 -1 1 -1 1 -1 
1 -1 0 -1 2 -2 1 -1 1 -1 1 -1 1 -1 1 -1 
1 -1 1 -1 0 -1 2 -2 0 -1 2 -2 1 0 -1 0 
2 -2 1 -1 1 -1 0 0 2 -2 1 -1 1 -1 1 -1 
0 -1 1 -1 1 0 -1 0 2 -2 1 -1 0 -1 1 1 
1 -1 1 -1 1 -1 1 -1 1 -1 0 -1 1 -1 1 -1 
0 -1 2 -1 1 -1 1 -1 0 -1 2 -2 1 0 -1 0 
2 -2 1 -1 1 -1 1 -1 1 -1 0 -1 2 -2 1 -1 
1 -1 1 -1 1 -1 0 -1 2 -2 1 0 0 -1 2 -2 
1 -1 1 -1 1 -1 1 -1 0 -1 2 -2 1 -1 1 -1 
1 -1 1 -1 1 -1 1 -1 0 -1 2 -2 1 -1 1 -1 
1 -1 1 -1 0 -1 2 -2 1 -1 1 -1 1 -1 1 -1 
1 -1 1 -1 1 -1 0 -1 2 -2 1 -1 1 -1 1 -1 
1 -1 0 -1 2 -2 1 0 -1 0 2 -2 1 -1 1 -1 
1 -1 1 -1 0 -1 2 -2 1 -1 1 -1 1 -1 1 -1 
0 -1 2 -2 1 0 0 -1 2 -2 1 -1 1 -1 1 -1 
1 -1 0 -1 2 -2 1 -1 1 -1 1 -1 1 -1 0 -1 
2 -2 1 0 -1 0 2 -2 1 -1 1 -1 1 -1 1 -1 
1 -1 0 -1 1 -1 1 -1 1 -1 1 -1 1 -1 0 -1 
2 -2 1 0 0 -1 2 -2 1 -1 1 -1 1 -1 1 -1 
1 -1 1 -1 0 -1 2 -2 1 -1 1 -1 1 -1 1 -1 
0 -1 2 -2 1 -1 1 -1 1 -1 1 -1 1 -1 1 -1 
1 -1 1 -1 0 -1 2 -2 1 -1 1 -1 1 -1 1 -1 
0 -1 2 -2 0 0 2 -2 1 -1 1 -1 1 -1 1 0 
-1 0 2 -2 1 -1 1 -1 1 -1 1 -1 0 -1 2 -2 
1 -1 1 -1 0 -1 2 -2 1 -1 1 -1 1 -1 1 -1 
1 0 -1 0 2 -2 1 -1 1 -1 1 -1 0 -1 2 -2 
1 -1 1 -1 0 -1 2 -2 1 -1 1 -1 0 -1 2 -2 
1 -1 0 -1 1 -1 1 -1 1 -1 0 -1 2 -2 1 -1 
1 -1 0 -1 2 -2 1 -1 1 -1 0 -1 2 -2 1 0 
0 -1 2 -2 1 -8 1 -1 1 -1 1 -1 1 -1 1 -1 
1 -1 1 -1 1 0 -1 0 2 -2 1 0 1 -1 1 -1 
1 -1 1 -1 1 -1 1 -20 1 0 1 -1 1 0 1 0 
1 0 1 0 1 0 1 0 1 0 1 0 1 0 1 0 
1 0 1 0 1 -1 1 -28 1 1 1 1 0 1 2 2 
1 0 -1 0 2 2 1 1 1 1 1 1 1 1 0 1 
2 2 1 1 1 1 1 1 1 1 0 1 2 2 1 0 
-1 0 2 2 1 1 2007 667 300 MP stroke
1 1 1 1 1 1 1 1 0 1 2 2 1 0 -1 0 
2 2 1 1 1 1 1 1 1 1 0 1 2 2 1 1 
1 1 1 1 1 1 0 1 2 2 1 1 1 1 1 1 
1 1 1 1 1 1 0 1 2 2 1 1 1 1 1 1 
1 1 0 1 2 2 1 1 1 1 1 1 1 1 1 1 
1 1 0 1 2 2 1 1 1 1 1 1 1 1 1 1 
0 1 2 2 1 0 -1 0 2 2 1 1 1 1 1 1 
1 1 0 1 2 2 1 1 1 1 1 1 1 1 0 1 
2 2 1 1 1 1 1 1 1 1 1 1 1 1 1 1 
0 1 2 2 1 1 1 1 1 1 1 1 1 1 1 1 
0 1 2 2 1 1 1 1 1 1 1 1 0 1 2 2 
1 0 -1 0 2 2 1 1 1 1 1 1 1 1 1 1 
0 1 2 2 1 1 1 1 1 1 1 1 0 1 2 2 
1 1 1 1 1 1 1 1 0 1 2 2 1 1 1 1 
0 1 2 2 1 0 -1 0 2 2 1 1 1 1 1 1 
1 1 0 1 2 2 1 1 1 0 -1 0 2 2 1 1 
1 1 1 1 1 1 0 1 2 2 1 1 1 1 1 1 
1 1 1 1 1 1 0 1 2 2 1 1 1 1 1 1 
1 1 1 1 1 1 1 1 1 1 1 1 0 1 2 2 
1 1 1 1 1 1 1 1 0 1 2 2 1 1 1 1 
1 1 0 1 1 1 1 0 -1 0 2 2 1 1 1 1 
1 1 1 1 0 1 2 2 1 1 1 1 1 1 1 1 
0 1 2 2 1 0 -1 0 2 2 1 0 -1 0 2 2 
1 1 1 1 1 1 1 1 1 1 0 1 2 2 1 1 
1 1 1 1 1 1 0 1 2 2 0 1 2 2 1 1 
1 1 1 1 1 1 1 1 1 1 0 1 2 2 1 1 
1 0 -1 0 2 2 1 1 1 1 1 1 1 1 1 1 
1 1 1 1 1 1 1 1 1 1 0 1 2 2 1 1 
1 1 1 1 1 1 0 1 2 2 1 1 1 1 1 1 
1 1 1 1 1 1 0 1 2 2 1 1 1 1 1 1 
1 1 1 1 0 1 2 2 1 1 1 1 1 1 0 1 
2 2 1 0 0 1 2 2 1 1 1 1 1 1 1 1 
0 1 2 2 1 0 -1 0 2 2 1 1 1 1 1 1 
1 1 0 1 2 2 1 1 1 1 1 1 1 1 0 1 
2 2 1 0 0 1 2 2 1 1 1 1 1 1 1 1 
0 1 2 2 1 0 -1 0 2 2 1 1 1 1 1 1 
1 1 0 1 2 2 1 1 1 1 1 1 1 1 1 1 
1 1 1 1 1 1 1720 342 300 MP stroke
0 1 2 2 1 1 1 1 1 1 1 1 1 1 0 1 
2 2 1 1 1 1 1 1 1 1 1 1 1 1 1 1 
1 1 1 1 1 1 0 1 2 2 1 1 1 1 0 1 
2 2 1 1 1 1 1 1 1 1 1 1 1 1 1 1 
1 1 0 1 2 2 1 1 1 1 0 1 2 2 1 1 
1 1 1 1 0 1 2 2 1 1 0 1 2 2 1 1 
0 1 2 2 1 1 1 1 0 1 2 2 1 1 1 1 
0 1 2 2 1 0 0 1 2 2 1 1 0 8 1 0 
1 1 1 1 1 1 1 1 1 1 1 1 1 1 1 1 
1 1 1 1 1 0 1 1 1 1 1 1 1 1 0 21 
1 0 1 0 1 0 1 0 1 0 1 0 1 0 1 0 
1 0 1 0 1 0 1 0 1 0 1 0 1 0 1 1 
1 28 0 -1 1 -1 1 0 1 -1 0 -1 2 -2 1 -1 
1 -1 1 -1 1 -1 0 -1 2 -2 1 -1 1 -1 1 -1 
1 -1 0 -1 2 -2 1 -1 1 -1 1 -1 1 -1 0 -1 
2 -2 1 0 -1 0 2 -2 1 -1 1 -1 1 -1 1 -1 
1 -1 0 -1 2 -3 1 0 -1 0 2 -2 1 -1 1 -1 
1 -1 1 -1 0 -1 2 -2 1 -1 1 -1 1 -1 1 -1 
1 -1 1 -1 1 -1 0 -1 2 -2 1 -1 1 -1 1 -1 
1 -1 1 -1 0 -1 2 -2 1 -1 1 -1 1 -1 1 -1 
1 -1 1 -1 1 -1 1 -1 1 -1 1 -1 1 -1 0 -1 
2 -2 1 -1 1 -1 1 -1 1 -1 1 -1 1 -1 0 -1 
2 -2 1 -1 1 -1 1 -1 1 -1 1 -1 0 -1 2 -2 
1 -1 1 -1 1 -1 1 -1 1 -1 1 -1 0 -1 2 -2 
1 -1 1 -1 1 -1 0 -1 2 -2 1 -1 1 -1 1 -1 
1 -1 1 -1 0 -1 2 -2 1 0 -1 0 2 -2 1 -1 
1 -1 1 -1 1 -1 1 -1 0 -1 2 -2 1 -1 1 -1 
0 -1 2 -2 1 0 -1 0 2 -2 1 -1 1 -1 1 -1 
1 -1 0 -1 2 -2 1 -1 1 -1 1 -1 0 0 2 -2 
1 -1 1 -1 1 -1 0 -1 2 -2 1 -1 1 -1 1 -1 
1 -1 1 -1 1 -1 1 -2 1 0 -1 0 2 -2 1 -1 
1 -1 1 -1 1 -1 0 -1 2 -2 1 0 -1 0 2 -2 
1 -1 1 -1 1 -1 1 -1 0 -1 2 -2 1 -1 1 -1 
1 -1 1 -1 1 -1 1 -1 0 -1 2 -2 1 -1 1 -1 
1 -1 1 -1 1 -1 0 -1 2 -2 1 -1 1 -1 1 -1 
1 -1 1 -1 1 -1 0 -1 2 -2 1 -1 1 -1 1 -1 
1 -1 0 -1 2 -2 1 -1 1 -1 1 -1 1 -1 0 -1 
2 -2 1 0 -1 0 1432 417 300 MP stroke
2 -2 1 -1 1 -1 1 -1 1 -1 1 -1 0 -1 2 -2 
1 -1 1 -1 1 -1 1 -1 0 -1 2 -2 1 -1 1 -1 
0 -1 2 -2 1 0 -1 0 2 -2 1 -1 1 -1 1 -1 
1 -1 0 -1 2 -2 1 -1 1 -1 1 -1 1 -1 1 -1 
1 -1 1 -1 1 -1 0 -1 2 -2 1 -1 1 -1 1 -1 
1 -1 1 -1 0 -1 2 -2 1 -1 1 -1 1 -1 1 -1 
0 -1 2 -2 1 -1 1 -1 1 -1 1 -1 0 -1 2 -2 
1 0 -1 0 2 -2 1 -1 1 -1 1 -1 1 -1 0 -1 
2 -2 1 0 -1 0 2 -2 1 -1 1 0 -1 0 2 -2 
1 -1 1 -1 1 -1 1 -1 0 -1 2 -2 1 -1 1 -1 
1 -1 1 -1 0 -1 2 -2 1 0 -1 0 2 -2 1 -1 
1 -1 1 -1 1 -1 1 -1 0 -1 2 -2 1 -1 1 -1 
1 -1 1 -1 1 -1 1 -1 0 -1 2 -2 1 -1 1 -1 
1 -1 1 -1 0 -1 2 -2 1 0 -1 0 2 -2 1 -1 
1 -1 1 -1 1 -1 0 -1 2 -2 1 0 -1 0 2 -2 
1 0 -1 0 2 -2 1 -1 1 -1 1 -1 1 -1 1 -1 
0 -1 2 -2 1 -1 1 -1 1 -1 1 -1 1 -1 1 -1 
1 -1 1 -1 1 -1 0 -1 1 -1 1 0 -1 0 2 -2 
1 -1 1 -1 0 -1 2 -2 1 -1 1 -1 0 -1 2 -2 
1 0 1 -1 1 -1 1 -1 1 -1 0 -1 2 -2 1 -1 
1 -1 0 -1 2 -2 1 -1 1 -1 0 -1 2 -2 1 -1 
1 -1 0 -1 2 -2 0 -1 2 -2 1 -1 1 -1 0 -1 
2 -2 1 -1 1 -1 0 -1 2 -2 1 -1 1 -1 1 -1 
1 -1 1 -1 0 -8 1 -1 1 -1 1 -1 1 0 1 -1 
1 -1 1 -1 1 -1 1 -1 1 -1 1 -1 1 -1 1 0 
-1 0 2 -2 1 0 1 -1 0 -20 1 0 1 -1 1 0 
1 0 1 0 1 0 1 0 1 0 1 0 1 0 1 0 
1 0 1 0 1 0 1 0 1 -1 1 -28 -1 0 2 2 
1 1 1 1 1 1 1 1 1 1 0 1 2 2 1 0 
-1 0 2 2 1 1 2 2 1 1 0 1 2 2 1 1 
1 1 1 1 1 1 1 1 1 1 1 1 0 1 2 2 
1 1 1 1 1 1 1 1 0 1 2 2 1 0 -1 0 
2 2 1 1 1 1 1 1 1 1 0 1 2 2 1 1 
1 1 1 1 1 1 0 1 2 2 1 1 1 1 1 1 
1 1 0 1 2 2 1 1 1 0 -1 0 2 2 1 1 
1 1 1 1 0 1 2 2 1 1 1 1 1 1 1 1 
0 1 1 1 1 1 1 1 1 1 1 1 0 1 2 2 
1 0 -1 0 2 2 1150 608 300 MP stroke
1 1 1 1 1 1 1 1 0 1 2 2 1 0 1 1 
1 1 0 1 2 2 1 1 1 1 1 1 1 1 1 1 
1 1 0 1 2 2 1 1 1 1 1 1 0 1 2 2 
1 1 1 1 1 1 1 1 1 1 1 1 1 1 0 1 
2 2 1 1 1 1 1 1 1 1 0 1 2 2 1 1 
1 1 1 1 1 1 1 1 1 1 1 1 0 1 2 2 
1 1 1 1 1 1 1 1 0 1 2 2 1 0 -1 0 
2 2 1 1 1 1 1 1 1 1 0 1 2 2 1 1 
1 1 1 1 1 1 1 1 1 1 0 1 2 2 1 1 
1 1 1 1 0 1 2 2 1 0 -1 0 2 2 1 1 
1 1 1 1 1 1 0 1 2 2 1 1 1 1 1 1 
1 1 1 1 0 2 1 1 1 0 -1 0 2 2 1 1 
2 2 1 1 1 1 1 1 1 1 0 1 2 2 1 0 
-1 0 2 2 1 1 1 1 1 0 1 1 0 1 2 2 
1 1 1 1 1 1 1 1 0 1 2 2 1 1 1 1 
1 1 1 1 0 1 2 2 1 0 -1 0 2 2 1 1 
1 1 1 1 1 1 0 1 2 2 1 1 1 1 1 1 
1 1 1 1 0 1 2 2 1 1 1 1 1 1 1 1 
0 1 2 2 1 1 1 1 1 1 1 1 0 1 2 2 
1 1 0 0 2 2 1 1 1 1 0 1 1 1 1 1 
0 1 2 2 1 0 -1 0 2 2 1 1 1 1 1 1 
1 1 1 1 1 1 0 1 2 2 1 0 -1 0 2 2 
1 1 0 2 1 1 1 1 1 1 1 1 1 1 1 1 
1 1 1 1 1 1 1 1 1 1 1 1 1 1 1 1 
1 1 1 1 0 2 1 1 1 0 1 1 1 1 1 1 
1 1 1 1 1 1 1 1 1 1 1 1 1 1 1 0 
-1 0 2 2 1 0 1 1 0 -5 1 1 1 1 1 1 
1 1 0 1 2 2 1 1 1 1 1 1 1 1 0 1 
2 2 1 1 6 7 1 0 -1 0 2 2 0 1 2 2 
1 1 1 1 1 1 1 1 1 1 1 1 0 1 2 2 
1 1 1 1 1 1 1 1 1 1 1 1 1 1 1 1 
1 1 0 1 2 2 1 1 1 1 1 1 1 1 0 1 
2 2 1 1 1 1 1 1 1 1 1 1 1 1 1 1 
1 1 0 1 2 2 1 0 0 1 2 2 1 1 0 1 
2 2 1 1 1 1 1 1 1 1 1 1 1 1 1 1 
1 1 0 1 2 2 1 1 1 1 1 1 0 1 2 2 
1 1 1 1 0 1 2 2 1 1 1 1 0 1 2 2 
0 1 2 2 1 1 859 283 300 MP stroke
1 1 0 1 2 2 1 1 1 1 1 1 0 1 2 2 
1 1 1 1 1 1 1 1 0 8 2 2 1 1 1 0 
1 1 1 1 1 1 1 1 1 1 1 1 1 1 1 1 
1 0 -1 0 2 2 1 0 1 1 0 20 1 0 1 0 
1 1 1 0 1 0 1 0 1 0 1 0 1 0 1 0 
1 0 1 0 1 0 1 0 1 0 1 1 0 28 1 0 
0 -1 2 -2 1 -1 1 -1 1 -1 1 -1 0 -1 2 -2 
1 0 -1 0 2 -2 1 -1 1 -1 1 -1 1 -1 0 -1 
2 -2 1 -1 1 0 -1 0 2 -2 1 -1 1 -1 1 -1 
1 -1 0 -1 2 -2 1 -1 1 -1 1 -1 1 -1 1 -1 
0 -1 2 -2 1 -1 1 -1 1 -1 0 -1 2 -2 1 0 
-1 0 2 -2 1 -1 1 -1 1 -1 1 -1 0 -1 2 -2 
1 -1 1 -1 0 -1 2 -2 1 -1 1 0 -1 0 2 -2 
1 -1 1 -1 1 -1 1 -1 0 -1 2 -2 1 -1 1 -1 
1 -1 1 -1 1 -1 1 -1 1 -1 1 -1 0 -1 2 -2 
1 -1 1 -1 1 -1 1 -1 1 -1 0 -1 2 -2 1 -1 
1 -1 1 -1 1 -1 1 -1 1 -1 0 -1 2 -2 1 -1 
1 -1 1 -1 1 -1 0 -1 2 -2 1 0 -1 0 2 -2 
1 -1 1 -1 1 -1 1 -1 0 -1 2 -2 1 -1 1 -1 
1 -1 1 -1 1 -1 1 -1 0 -1 2 -2 1 -1 1 -1 
1 -1 1 -1 1 -1 0 -1 2 -2 1 -1 1 -1 1 -1 
1 -1 1 -1 1 -1 0 -1 2 -2 1 -1 1 -1 1 -1 
1 -1 0 -1 2 -2 1 -1 1 -1 1 -1 1 -1 1 -1 
1 -1 0 -1 2 -2 1 -1 1 -1 1 -1 1 -1 1 -1 
2 -3 1 0 -1 0 2 -2 1 -1 1 -1 1 -1 1 -1 
0 -1 2 -2 1 -1 1 -1 1 -1 1 -1 0 -1 2 -2 
1 0 -1 0 2 -2 1 -1 1 -1 1 -1 1 -1 0 -1 
2 -2 1 -1 1 0 -1 0 2 -2 1 -1 1 -1 1 -1 
1 -1 0 -1 2 -2 1 -1 1 -1 1 -1 1 -1 0 -1 
2 -2 1 0 -1 0 2 -2 1 -1 1 -1 1 -1 1 -1 
0 -1 2 -2 1 -1 1 -1 1 -1 1 -1 0 -1 2 -2 
1 -1 1 -1 1 -1 1 -1 1 -1 1 -1 1 -1 0 -1 
2 -2 1 -1 1 -1 1 -1 1 -1 0 -1 2 -2 1 -1 
1 -1 0 -1 2 -2 1 0 -1 0 2 -2 1 -1 1 -1 
1 -1 1 -1 0 -1 2 -2 1 0 0 -1 2 -2 1 -1 
1 -1 1 -1 1 -1 1 -1 1 -1 0 -1 2 -2 1 -1 
1 -1 1 -1 1 -1 0 -1 2 -2 1 0 -1 0 2 -2 
1 -1 1 -1 1 -1 573 471 300 MP stroke
1 -1 0 -1 2 -2 1 -1 1 -1 1 -1 1 -1 1 -1 
1 -1 1 -1 0 -1 2 -2 1 -1 1 -1 1 -1 1 -1 
0 -1 2 -2 1 0 -1 0 2 -2 1 -1 1 -1 1 -1 
1 -1 0 -1 2 -2 1 -1 1 -1 1 -1 1 -1 0 -1 
2 -2 1 0 -1 0 2 -2 1 -1 1 -1 1 -1 1 -1 
0 -1 2 -2 1 -1 1 -1 1 -1 1 -1 0 -1 2 -2 
1 0 0 -1 2 -2 1 0 -1 0 2 -2 1 -1 1 -1 
1 -1 1 -1 0 -1 2 -2 1 -1 1 -1 1 -1 1 -1 
0 -1 2 -2 1 -1 1 -1 1 -1 1 -1 0 -1 2 -2 
1 0 0 -1 2 -2 1 -1 1 -1 1 -1 1 -1 0 -1 
2 -2 1 -1 1 -1 0 -1 2 -2 1 -1 1 -1 1 -1 
1 -1 0 -1 2 -2 1 -1 1 -1 1 -1 1 -1 1 -1 
0 -1 2 -2 1 -1 1 0 0 -1 2 -2 1 -1 1 -1 
1 -1 1 -1 0 -1 2 -2 1 -1 1 -1 1 -1 1 -1 
0 -1 2 -2 1 -1 0 -1 1 -2 1 -1 1 -1 1 -1 
1 -1 0 -1 2 -2 1 -1 1 0 -1 0 2 -2 1 -1 
1 -1 1 -1 1 -1 1 -1 1 -1 1 -1 0 -7 1 -1 
1 -1 1 -1 1 0 1 -1 1 -1 1 -1 1 0 1 -1 
1 -1 1 -1 1 -1 1 0 1 -1 1 -1 1 -1 0 -11 
1 0 1 0 1 -1 1 0 1 0 1 -1 1 0 1 0 
1 0 1 -1 1 0 1 0 1 -1 1 0 1 0 1 -1 
0 -18 412 673 170 MP stroke
6.25 w
/c10 { 0.000000 1.000000 0.000000 sr} bdef
c10
1 0 1 1 0 -1 0 1 2 2 1 1 0 1 1 1 
1 0 -1 0 2 2 1 0 0 1 2 2 1 1 1 0 
-1 0 2 2 1 0 -1 0 2 2 1 1 0 1 1 1 
1 1 1 1 1 1 1 0 1 1 1 1 1 1 1 1 
1 1 1 1 1 1 1 1 0 1 2 2 1 1 1 1 
1 1 0 1 2 2 1 1 1 1 1 1 1 0 1 1 
1 1 1 1 1 1 1 -1 -1 0 2 2 1 0 -1 0 
2 2 1 1 0 1 1 1 1 1 1 1 0 1 2 2 
1 1 1 1 1 1 0 1 2 2 0 1 1 1 1 1 
1 1 0 1 2 2 1 1 0 2 1 1 1 0 1 1 
1 1 1 1 0 2 1 1 1 1 1 1 1 1 0 1 
2 2 1 1 0 1 2 2 0 1 2 2 1 1 0 2 
2 2 0 1 1 1 1 1 0 1 1 1 1 1 1 1 
1 1 1 1 1 0 1 1 1 1 0 -1 1 1 1 1 
1 1 1 0 1 1 1 1 0 1 2 2 1 1 1 1 
1 1 1 1 1 1 1 1 1 1 1 1 1 0 -1 0 
2 2 1 1 1 1 1 1 1 1 0 1 2 2 1 1 
1 0 -1 0 2 2 1 1 1 1 0 1 2 2 1 0 
-1 0 2 2 1 1 1 1 1 1 0 1 1 1 1 1 
0 -1 1 1 0 1 2 2 1 1 0 1 2 2 1 1 
1 1 1 0 0 1 2 2 1 0 -1 0 2 2 1 1 
0 -1 0 1 2 2 0 1 2 2 1 1 1 1 1 1 
1 1 1 1 1 1 1 1 1 1 1 1 1 1 1 1 
1 1 0 1 2 2 1 1 0 1 2 2 1 1 1 1 
1 1 1 1 1 1 1 1 1 1 0 1 2 2 1 0 
-1 0 2 2 1 1 1 1 0 1 1 1 1 1 1 1 
1 1 1 1 1 1 0 1 1 1 1 1 0 2 2 2 
1 1 0 1 2 2 1 1 0 2 2 2 0 1 1 1 
1 1 1 1 1 1 1 1 1 1 1 1 1 1 1 1 
1 1 1 0 1 0 1 1 1 1 1 1 1 1 1 1 
1 1 0 1 2 2 1 1 1 0 0 2 2 2 1 1 
0 1 1 1 1 0 1 1 1 0 1 1 1 1 1 1 
0 1 2 2 1 1 1 1 1 1 1 0 -1 0 2 2 
1 1 1 1 1 1 0 1 1 1 1 1 1 1 1 1 
1 1 1 1 1 1 1 1 1 1 1 1 1 1 1 1 
1 1 1 0 -1 0 2 2 1 1 1 1 0 1 2 2 
1 1 1 1 0 1 2 2 0 1 2 2 1 0 1 1 
1 1 1 1 0 1 2596 414 300 MP stroke
2 2 1 1 1 1 0 1 1 1 1 1 1 1 1 1 
0 1 1 1 1 0 -1 0 2 2 1 1 1 1 0 1 
2 2 1 1 0 1 1 1 1 1 1 1 1 1 0 1 
2 2 1 1 1 1 1 1 1 1 1 1 1 1 0 1 
2 2 1 0 -1 0 2 2 1 0 -1 0 2 2 0 1 
2 2 1 0 -1 0 2 2 1 1 1 1 0 1 2 2 
1 1 1 0 0 1 2 2 1 1 1 1 0 1 2 2 
1 1 1 1 0 1 2 2 1 1 1 1 0 1 2 2 
1 1 1 0 -1 0 2 2 1 1 1 1 1 0 -1 0 
2 2 1 0 -1 0 2 2 1 1 1 1 0 1 2 2 
1 1 1 1 0 1 2 2 1 1 1 0 0 1 2 2 
1 0 1 1 1 1 1 1 1 1 1 1 1 1 1 1 
1 1 -1 0 2 0 1 1 1 1 0 1 1 -1 1 1 
0 2 1 1 0 1 2 2 1 1 0 2 7 1 1 0 
0 1 2 2 0 1 2 2 0 1 1 1 0 1 1 1 
0 1 1 1 0 1 1 1 0 1 1 1 0 2 2 2 
0 1 1 1 0 1 1 1 0 2 1 1 1 1 0 1 
0 -1 1 3 0 2 2 2 0 2 2 2 0 1 1 1 
0 1 1 1 0 2 1 1 0 1 1 1 0 2 1 1 
0 1 1 1 0 1 1 1 1 1 0 2 1 1 0 1 
1 1 0 2 1 1 1 1 0 2 1 1 0 1 1 1 
0 1 1 1 0 1 1 1 0 2 1 1 0 1 1 1 
0 2 2 2 1 1 0 1 1 1 1 1 0 2 1 1 
0 1 1 1 0 1 1 1 1 1 0 2 1 1 0 1 
2 2 0 1 2 2 1 1 1 1 1 0 1 0 1 0 
1 -1 1 -1 1 -1 1 -1 1 -1 1 -1 1 -1 1 -1 
1 -1 1 -1 0 -1 2 -2 1 -1 1 -1 1 0 -1 0 
2 -2 1 -1 1 -1 1 -1 1 -1 1 -1 1 -1 0 -1 
2 -2 1 -1 1 -1 1 -1 1 -1 1 -1 1 -1 1 -1 
1 -1 0 -1 2 -2 1 -1 0 -1 1 -1 1 -1 1 -1 
1 -1 1 -1 0 -1 2 -2 1 -1 1 -1 0 -1 2 -2 
1 -1 1 -1 1 -1 0 -1 2 -2 0 -1 2 -2 1 -1 
1 -1 1 -1 1 -1 0 -1 2 -2 1 -1 1 -1 1 -1 
0 -1 2 -2 1 -1 1 0 0 -1 2 -2 1 -1 1 -1 
1 -1 0 -1 2 -2 1 -1 1 -1 1 -1 1 -1 1 -1 
1 -1 1 -1 0 -1 2 -2 1 -1 1 -1 0 -1 2 -2 
1 0 -1 0 2 -2 1 0 -1 0 2 -2 1 -1 1 -1 
1 -1 1 -1 1 -1 2339 303 300 MP stroke
1 -1 1 -1 1 -1 0 -1 2 -2 1 -1 1 -1 1 -1 
1 -1 1 -1 0 -1 2 -2 1 -1 1 -1 1 0 -1 0 
2 -2 1 -1 1 -1 0 -1 2 -2 1 0 1 -1 1 -1 
1 -1 1 -1 1 -1 1 -1 0 -1 2 -2 1 -1 1 0 
-1 0 2 -2 1 0 -1 0 2 -2 0 -1 2 -2 1 -1 
1 -1 1 -1 1 -1 1 -1 1 -1 0 -1 1 -1 1 -1 
1 -1 1 -1 1 -1 1 -1 0 -1 1 -1 1 -1 1 0 
0 -1 2 -2 1 -1 0 -1 1 -1 1 -1 1 -1 1 -1 
0 -2 2 -2 0 -1 1 -1 1 0 -1 0 2 -2 1 -1 
1 -1 0 -1 1 -1 1 -1 1 -1 1 -1 1 -1 0 -1 
2 -2 1 -1 1 -1 1 -1 1 -1 1 -1 1 -1 1 -1 
1 -1 1 0 -1 0 2 -2 1 -1 0 -1 1 -1 1 -1 
0 -1 1 -1 1 -1 1 -1 0 -1 2 -2 1 -1 0 -1 
2 -1 1 0 1 -1 1 -1 1 -1 1 0 -1 0 2 -2 
1 -1 1 -1 1 -1 1 -1 1 -1 1 -1 1 -1 1 -1 
1 -1 1 -1 1 -1 1 -1 1 -1 1 -1 1 -1 1 -1 
1 -1 1 -1 1 -1 1 -1 0 -1 1 -1 1 -1 1 -1 
1 0 -1 0 2 -2 1 -1 1 -1 1 -1 1 -1 0 -1 
2 -2 1 0 -1 0 2 -2 1 0 -1 0 2 -2 1 -1 
1 -1 1 -1 1 -1 1 -1 0 -1 2 -2 1 -1 1 -1 
0 -1 2 -2 1 -1 0 -1 1 -1 1 0 0 -2 1 -1 
1 -1 0 -1 1 -1 0 -1 1 -1 1 -1 1 -1 0 -1 
1 -1 1 -1 0 -2 2 -2 0 -1 1 -1 1 -1 0 -2 
1 -1 1 -1 0 -1 1 -1 0 -1 2 -2 0 -1 1 -1 
0 -1 2 -2 0 -1 1 -1 0 -1 1 -1 0 -1 2 -2 
1 -1 0 -1 2 -2 0 -1 1 -1 1 -1 0 -1 1 -1 
0 -1 2 -2 0 -1 2 -2 0 -1 2 -2 1 -1 0 -1 
1 -1 1 -1 0 -1 1 -1 1 -1 1 -1 0 -1 2 -2 
1 -1 0 -1 2 -2 0 -2 1 -1 1 0 -1 0 2 -2 
0 -1 2 -2 0 -1 2 -2 1 -1 0 -1 2 -2 1 -1 
0 -2 2 -2 1 -1 1 -1 0 -2 1 -1 1 -1 0 -1 
1 -1 1 -1 0 -1 1 -1 0 -1 2 -2 0 -1 2 -2 
0 -1 2 -2 1 -1 0 -2 2 -2 1 -1 0 -1 2 -2 
1 -1 1 -1 1 -1 0 -1 2 -2 1 -1 0 -1 1 -1 
1 -1 0 -1 1 -1 1 -1 0 -1 1 -1 1 -1 0 -1 
1 -1 1 -1 0 -1 1 -1 1 -1 0 -1 1 -1 1 -1 
0 -1 2 -2 0 -2 1 -1 1 -1 1 -1 1 -1 0 -1 
2 -2 1 -1 0 -1 2085 631 300 MP stroke
1 -1 1 -1 1 -1 0 -1 2 -2 1 -1 1 -1 0 -1 
2 -2 1 -1 1 -1 1 -1 0 -1 2 -2 0 -1 1 -1 
1 -1 0 -1 2 -2 0 -1 2 -2 1 -1 1 -1 1 -1 
0 -2 2 -2 0 -1 1 -1 1 -1 0 -1 2 -2 1 -1 
0 -1 2 -2 0 -1 1 -1 1 -1 1 -1 0 -1 2 -2 
1 -1 1 -1 1 -1 1 -1 0 -1 2 -2 1 0 -1 0 
2 -2 0 1 1 -1 1 -1 1 -1 1 -1 1 -1 1 0 
1 0 0 -1 0 1 1 -1 1 0 1 1 1 0 0 1 
2 2 1 1 1 1 0 1 1 1 1 1 1 1 1 0 
-1 0 2 2 1 1 1 1 1 1 0 1 1 1 1 0 
-1 0 2 2 1 1 1 1 0 1 2 2 1 1 1 1 
0 1 2 2 1 1 1 1 1 1 0 1 2 2 0 1 
2 2 1 1 1 1 1 0 -1 0 2 2 1 1 1 1 
1 1 0 1 2 2 1 1 1 1 1 1 0 1 2 2 
1 1 1 1 0 1 2 2 1 1 1 0 0 1 2 2 
1 1 1 1 0 1 2 2 1 1 1 1 1 1 0 1 
2 2 1 1 1 1 1 1 1 1 1 1 1 1 0 1 
2 2 1 1 1 1 1 0 -1 0 2 2 0 1 2 2 
1 0 -1 0 2 2 1 1 1 1 1 1 1 1 1 1 
0 1 2 2 1 1 1 1 1 1 1 0 1 1 1 1 
1 1 1 1 0 1 2 2 1 1 1 1 1 1 1 1 
1 1 1 1 1 1 1 1 1 1 1 1 1 1 1 1 
0 1 1 1 1 1 0 1 2 2 1 1 1 0 -1 0 
2 2 0 1 1 1 1 0 1 1 1 1 0 1 1 1 
1 0 1 1 1 1 1 1 1 1 0 1 2 2 0 1 
2 2 1 1 1 1 1 1 0 1 1 1 1 1 1 1 
0 1 2 2 1 0 1 1 1 1 0 1 1 1 1 1 
1 1 1 1 0 1 2 2 1 1 1 1 1 1 1 1 
1 0 -1 0 2 2 0 1 2 2 1 1 1 1 1 1 
1 1 1 1 1 1 0 1 2 2 1 1 1 1 1 1 
0 1 1 1 1 1 1 1 1 1 0 1 2 2 0 1 
2 2 1 0 -1 0 2 2 0 1 2 2 0 1 2 2 
1 0 -1 0 2 2 0 1 2 2 1 1 1 1 1 1 
1 0 1 1 1 1 1 1 1 1 1 0 -1 0 2 2 
1 1 1 1 1 1 1 1 1 1 0 1 1 1 1 0 
-1 0 2 2 1 0 1 1 1 1 0 1 2 2 1 1 
1 1 1 1 0 1 2 2 1 1 1 0 1 1 1 1 
0 1 2 2 1 0 1813 448 300 MP stroke
1 1 1 1 1 1 0 1 2 2 1 0 -1 0 2 2 
1 1 0 1 2 2 1 1 1 1 1 1 1 1 1 1 
0 1 2 2 1 0 1 1 0 1 2 2 1 1 1 1 
0 1 2 2 0 1 2 2 1 1 1 1 1 1 1 1 
0 1 2 2 1 1 1 1 1 1 0 1 1 1 1 0 
0 1 2 2 1 1 1 1 1 1 0 1 2 2 1 0 
1 1 1 1 1 1 0 1 2 2 1 1 0 1 2 2 
1 1 1 1 1 1 1 1 0 1 2 2 1 0 -1 0 
2 2 1 1 1 1 1 1 1 0 -1 0 2 2 1 1 
1 1 1 1 0 1 1 1 1 0 0 2 2 2 1 1 
1 1 1 1 1 0 -1 0 2 2 1 0 -1 0 2 2 
1 0 1 1 0 1 2 2 1 0 -1 0 2 2 1 1 
1 1 1 1 1 1 1 1 1 1 1 1 1 1 0 1 
2 2 1 1 1 1 1 1 1 1 1 0 1 1 1 1 
0 1 2 2 1 0 0 1 2 2 1 1 1 1 1 1 
1 1 1 1 1 1 1 1 1 1 1 1 1 1 0 1 
2 2 1 1 1 1 0 1 2 2 1 1 0 1 2 2 
1 1 1 1 1 1 0 2 2 2 0 2 2 2 1 1 
0 1 1 1 1 1 0 2 2 2 0 1 1 1 0 1 
1 1 0 2 1 1 0 1 1 1 0 2 2 2 0 2 
1 1 0 1 1 1 0 2 1 1 0 1 1 1 0 2 
1 1 1 2 1 1 0 2 1 1 0 1 1 1 0 1 
1 2 1 1 0 2 1 1 0 2 2 2 0 1 1 1 
0 2 1 1 1 1 0 2 1 1 0 2 1 0 0 2 
1 1 0 1 1 1 0 1 1 1 1 1 0 2 1 1 
0 1 2 2 0 1 1 1 0 1 1 1 1 1 0 2 
1 1 0 1 1 1 0 1 1 1 1 1 0 2 1 1 
1 0 -1 0 2 2 1 0 1 1 1 0 1 0 1 -1 
0 -1 2 -2 1 -1 1 0 1 -1 1 -1 1 -1 1 -1 
1 -1 1 -1 0 -1 2 -2 1 -1 1 -1 1 0 -1 0 
2 -2 1 -1 1 -1 0 -1 2 -2 1 0 -1 0 2 -2 
0 -1 2 -2 1 0 -1 0 2 -2 0 -1 2 -2 1 -1 
1 -1 1 -1 1 -1 1 -1 1 -1 1 -1 1 -1 1 0 
-1 0 2 -2 1 -1 0 -1 2 -2 1 -1 1 -1 1 -1 
1 -1 1 -1 1 -1 1 -1 0 -1 2 -2 1 0 1 -1 
1 -1 0 -1 2 -2 1 -1 1 -1 1 -1 1 0 -1 0 
2 -2 1 -1 1 -1 0 -1 2 -2 1 0 -1 0 2 -2 
1 -1 0 -1 2 -2 1557 274 300 MP stroke
1 -1 0 -1 2 -2 1 -1 1 -1 1 -1 0 -1 1 -1 
1 0 -1 0 2 -2 1 0 -1 0 2 -2 1 -1 0 -1 
1 -1 1 -1 1 0 -1 0 2 -2 1 -1 1 -1 1 -1 
1 -1 0 -1 2 -2 1 -1 1 -1 1 -1 1 -1 1 -1 
0 -1 2 -2 1 -1 0 -1 2 -2 1 -1 1 -1 1 -1 
1 -1 0 -1 2 -2 1 -1 1 -1 1 -1 0 -1 2 -2 
1 -1 1 -1 1 -1 1 -1 1 -1 1 -1 1 -1 0 -1 
2 -2 1 -1 1 -1 1 -1 1 -1 1 -1 1 -1 1 -1 
1 -1 1 -1 1 -1 1 -1 0 -1 2 -2 1 -1 1 -1 
1 -1 1 -1 1 -1 0 -1 2 -2 1 -1 1 -1 1 -1 
1 0 1 -1 1 -1 0 -1 2 -2 1 0 1 -1 1 -1 
1 -1 0 -1 2 -2 1 -1 1 -1 1 -1 1 -1 1 -1 
1 -1 1 -1 1 -1 1 -1 1 -1 0 -1 2 -2 1 -1 
1 -1 1 -1 1 -1 1 -1 1 -1 0 -1 2 -2 1 -1 
1 -1 0 -1 2 -2 1 -1 1 -1 1 -1 1 -1 1 -1 
0 -1 2 -2 1 -1 1 -1 1 -1 0 -1 2 -2 1 -1 
0 -1 2 -2 1 -1 1 -1 1 -1 0 -1 2 -2 1 0 
-1 0 2 -2 1 -1 1 -1 0 -1 2 -2 1 0 1 -1 
0 -1 2 -2 1 -1 1 -1 1 -1 1 -1 1 -1 0 -1 
2 -2 1 -1 1 -1 1 -1 0 -1 2 -2 1 -1 1 -1 
1 -1 0 -1 1 -1 1 -1 1 -1 1 -1 1 -1 0 -1 
2 -2 1 -1 1 -1 1 -1 0 -1 2 -2 1 -1 0 -1 
1 -1 1 -1 1 -1 1 -1 1 -1 1 -1 0 -1 1 -1 
1 -1 1 -1 1 0 -1 0 2 -2 1 -1 1 -1 0 -1 
2 -2 1 -1 1 -1 0 -1 2 -2 1 -1 0 -1 1 -1 
1 -1 1 -1 1 -1 1 -1 1 -1 0 -1 2 -2 0 -1 
2 -2 1 -1 1 -1 1 -1 1 -1 0 -1 2 -2 1 -1 
1 -1 1 -1 1 -1 1 -1 1 -1 0 -1 2 -2 1 -1 
1 0 1 0 1 -1 1 -1 1 -1 1 -1 0 -1 2 -3 
1 -1 1 -1 1 -1 0 -2 1 -1 0 -1 2 -2 0 -1 
2 -2 0 -1 2 -2 0 -1 2 -2 1 -1 0 -1 1 -1 
1 -1 0 -2 2 -2 1 -1 0 -1 2 -2 0 -1 2 -2 
1 -1 0 -1 1 -1 1 -1 1 -1 0 -1 1 -1 0 -1 
2 -2 1 -1 0 -1 1 -1 1 -1 0 -1 1 -1 1 -1 
1 -1 0 -1 2 -2 1 -1 0 -1 1 -1 1 -1 0 -1 
1 -1 1 -1 0 -1 1 -1 1 -1 0 -1 1 -1 1 -1 
0 -1 1 -1 1 -1 1 -1 0 -1 1 -1 0 -2 2 -2 
1 -1 0 -1 1 -1 1282 608 300 MP stroke
0 -1 1 -1 1 -1 1 -1 0 -2 2 -2 0 -1 1 -1 
1 -1 0 -1 2 -2 0 -1 2 -2 0 -1 1 -1 0 -1 
2 -2 0 -1 2 -2 1 -1 0 -1 1 -1 0 -1 1 -1 
0 -1 1 -1 1 -1 0 -2 2 -2 0 -1 1 -1 1 -1 
0 -1 1 -1 1 -1 0 -2 1 -1 1 -1 0 -1 1 -1 
0 -1 2 -2 1 -1 0 -2 1 -1 1 -1 0 -1 1 -1 
0 -1 2 -2 0 -1 2 -2 1 -1 0 -1 2 -2 1 -1 
0 -1 1 -1 1 -1 0 -1 1 -1 1 0 -1 0 2 -2 
0 -1 2 -2 1 0 1 -1 1 0 1 1 1 0 1 0 
1 1 1 1 0 1 2 2 1 1 0 1 2 2 0 1 
2 2 1 1 1 1 1 1 1 -1 1 0 2 0 0 2 
1 0 1 0 1 1 1 1 1 1 1 0 0 1 2 2 
1 1 1 1 1 1 1 1 1 1 1 0 0 1 2 2 
1 0 -1 0 2 2 1 1 1 1 1 1 1 1 1 0 
-1 0 2 2 1 1 1 1 1 1 1 1 1 1 1 1 
0 1 2 2 1 1 1 1 1 1 1 1 1 1 1 1 
1 1 0 1 1 1 1 1 1 1 1 1 1 1 0 1 
2 2 0 1 2 2 1 0 -1 0 2 2 1 0 -1 0 
2 2 1 1 1 1 0 1 2 2 1 1 1 1 1 1 
0 1 2 2 1 1 1 0 0 1 2 2 1 1 0 1 
1 1 1 1 1 1 1 1 1 1 1 1 1 1 1 1 
1 1 1 1 1 0 -1 0 2 2 1 0 -1 0 2 2 
1 1 0 1 1 1 1 1 1 1 1 1 1 1 1 1 
0 1 1 -1 0 1 2 2 1 1 0 2 1 1 1 1 
0 2 1 0 0 1 2 2 1 0 1 1 1 1 1 1 
1 1 1 1 0 1 2 2 0 1 1 1 1 1 0 2 
2 2 1 1 0 2 1 1 1 1 1 1 1 1 0 1 
2 2 1 1 1 1 1 1 1 1 1 1 0 1 2 2 
1 0 1 1 1 1 1 1 1 0 1 1 1 1 1 1 
0 1 2 2 1 1 0 1 1 1 0 1 2 2 1 1 
1 1 1 1 0 1 1 1 1 1 1 1 1 0 1 1 
1 1 1 1 1 1 1 1 1 1 1 1 1 0 0 3 
2 0 0 1 1 1 1 0 1 1 1 0 1 1 1 1 
1 1 1 1 0 1 2 2 1 1 1 1 1 1 0 1 
1 1 0 1 2 2 1 0 -1 0 2 2 1 0 0 2 
1 1 1 1 1 1 1 1 1 1 1 0 -1 0 2 2 
1 1 1 1 1 1 1 1 1 1 1 1 1 1 1 1 
1 1 0 1 2 2 1019 460 300 MP stroke
1 1 1 1 1 1 1 1 1 1 1 1 1 1 1 1 
1 1 1 1 1 0 -1 0 2 2 1 1 0 2 2 2 
1 0 -1 0 2 2 1 0 -1 0 2 2 1 1 1 1 
1 1 1 1 0 1 2 2 0 1 2 2 1 1 0 2 
1 0 0 1 2 2 1 0 -1 0 2 2 0 1 2 2 
1 0 0 1 2 0 0 1 1 1 0 1 2 2 1 0 
-1 0 2 2 1 1 1 1 0 1 2 2 1 1 0 2 
2 0 0 2 2 2 1 1 1 0 -1 0 2 2 1 0 
-1 0 2 2 1 1 1 1 1 1 1 1 1 1 1 0 
1 1 1 0 1 1 1 0 -1 0 2 2 1 1 0 1 
1 1 1 1 0 1 1 1 1 1 1 1 0 1 2 2 
1 -2 0 1 2 2 1 1 1 1 1 1 0 1 7 2 
1 0 -1 0 2 2 1 1 1 1 1 1 1 1 1 1 
0 1 2 2 0 1 1 1 1 1 1 1 1 1 1 1 
1 1 1 0 1 1 0 1 2 2 1 1 1 1 1 1 
1 1 1 1 1 1 1 0 -1 0 2 2 0 1 2 2 
1 0 1 1 1 1 1 1 1 1 1 1 1 1 0 1 
1 1 1 1 1 1 1 0 0 1 2 2 0 1 1 -1 
0 1 2 2 1 1 0 1 0 -1 1 1 1 0 -1 0 
2 2 1 1 0 1 1 1 1 1 0 2 1 1 1 0 
0 2 1 1 1 1 0 1 1 1 0 2 1 1 0 1 
1 1 0 1 1 1 0 1 1 1 0 2 1 1 0 1 
1 1 0 1 1 1 0 2 1 1 0 1 1 1 0 1 
1 1 0 1 1 1 0 1 1 1 0 2 1 1 0 1 
1 1 0 2 1 1 0 1 1 1 0 2 2 2 0 1 
1 1 0 1 2 2 0 2 1 1 0 2 1 1 0 1 
1 1 1 1 0 2 1 1 1 1 0 1 1 1 0 3 
2 2 1 1 0 2 1 1 1 1 0 1 1 1 0 1 
1 1 0 2 1 1 1 1 0 3 1 1 1 1 0 2 
1 1 1 1 0 2 1 1 0 1 1 1 0 2 1 1 
1 1 0 2 1 1 0 1 1 1 1 1 0 1 2 2 
0 1 2 2 1 0 1 1 1 0 1 0 1 0 1 0 
-1 0 2 -2 1 -1 0 -1 1 -1 1 -1 1 -1 1 -1 
1 -1 0 -1 2 -2 1 -1 -1 0 2 0 1 -1 1 -1 
0 -1 2 -2 1 0 -1 0 2 -2 1 0 0 -1 2 -2 
0 -1 1 -1 1 -1 0 -1 2 -2 1 -1 1 -1 0 -1 
2 -2 1 -1 1 -1 1 -1 1 -1 0 -1 1 -1 0 -1 
1 -1 0 -1 2 -2 779 236 300 MP stroke
1 -1 0 -1 1 -1 0 -1 2 -2 0 -1 1 -1 0 -1 
2 -2 1 -1 1 -1 1 -1 0 -1 2 -2 1 -1 0 -1 
1 -1 1 -1 1 -1 1 -1 1 -1 1 -1 1 0 -1 0 
2 -2 1 -1 1 -1 1 0 1 -1 0 -1 2 -2 1 0 
-1 0 2 -2 1 0 1 -1 0 -1 2 -2 1 -1 1 -1 
1 -1 1 -1 1 -1 1 -1 0 -1 2 -2 1 -1 1 -1 
1 0 1 -1 0 -1 2 -2 1 -1 1 -1 1 -1 1 -1 
1 -1 0 -1 2 -2 1 -1 1 -1 1 -1 1 -1 1 -1 
0 -2 2 -2 1 -1 1 -1 1 -1 1 -1 1 -1 1 -1 
0 -1 2 -2 1 -1 1 -1 0 -1 2 -2 1 0 -1 0 
2 -2 1 -1 1 -1 0 -1 2 -2 1 -1 0 -1 1 -1 
1 -1 1 -1 1 -1 1 -1 1 -1 1 -1 0 -1 2 -2 
0 -1 2 -2 1 -1 1 -1 1 -1 0 -1 2 -2 1 -1 
0 -1 2 -2 1 -1 1 -1 1 -1 1 0 -1 0 2 -2 
0 -1 2 0 1 -1 1 0 1 -1 1 -1 0 -1 2 -2 
1 -1 0 -1 1 -1 1 0 1 -1 1 -1 1 -1 1 -1 
1 -1 1 -1 1 -1 0 -1 2 -2 1 -1 1 -1 1 0 
-1 0 2 -2 1 -1 1 -1 1 -1 1 -1 1 -1 1 -1 
1 -1 0 -1 2 -2 1 0 1 -1 1 -1 1 -1 1 -1 
0 -1 1 -1 1 -1 0 -1 1 -1 1 -1 1 -1 0 -1 
2 -2 0 -1 2 -2 1 0 -1 0 2 -2 1 -1 1 -1 
0 -1 2 -2 1 -1 1 -1 1 -1 1 -1 1 -1 1 -1 
0 -1 1 -1 1 -1 1 -1 1 -1 1 -1 1 -1 1 -1 
1 0 -1 0 2 -2 1 0 -1 0 2 -2 0 -1 2 -2 
1 -1 1 -1 0 -1 2 -2 1 0 1 -1 1 -1 1 -1 
1 -1 1 -1 0 -1 2 -2 1 -1 1 -1 1 -1 1 -1 
1 -1 1 -1 1 -1 1 -1 1 -1 0 -1 2 -2 1 -1 
1 -1 1 -1 1 -1 1 -1 1 -1 1 -1 1 -1 0 -1 
2 -2 0 -1 2 -2 1 -1 1 -1 1 0 1 -1 1 -1 
1 -1 0 -1 2 -2 0 -1 2 -2 1 -1 1 -1 1 -1 
1 -1 1 -1 0 -1 2 -2 1 0 -1 0 2 -2 1 -1 
1 -1 0 -1 2 -2 1 -1 1 -1 1 -1 1 -1 0 -1 
2 -2 1 -1 1 -1 1 -1 1 -1 0 -1 2 -2 1 -1 
1 -1 1 -1 1 -1 1 -1 1 -1 1 -1 0 -1 2 -2 
1 -1 1 -1 0 -1 2 -2 1 -1 1 -1 0 -1 2 -2 
1 -1 1 -1 0 -1 2 -2 1 -1 1 -1 1 -1 0 -1 
1 -1 1 -1 1 -1 0 -1 2 -2 1 0 -1 0 2 -2 
1 -1 0 -1 2 -2 499 557 300 MP stroke
1 -1 0 -1 2 -2 1 -1 1 -1 0 -1 2 -2 0 -1 
2 -2 1 -1 0 -1 2 -2 1 -1 0 -1 2 -2 0 -1 
2 -2 0 -1 1 -1 1 -1 1 -1 0 -1 2 -2 0 -1 
2 -2 0 -1 1 -1 0 -1 1 -1 1 -1 1 -1 0 -1 
2 -2 1 -1 0 -1 2 -2 0 -1 2 -2 1 -1 0 -1 
2 -2 1 -1 0 -1 2 -2 0 -1 2 -2 0 -1 2 -2 
1 -1 0 -1 2 -2 0 -1 2 -2 1 -1 0 -1 1 -1 
1 -1 0 -1 1 -1 1 -1 0 -1 1 -1 1 -1 0 -1 
1 -1 1 0 0 -2 2 -2 0 -1 1 -1 1 -1 0 -1 
1 -1 1 -1 0 -1 1 -1 1 -1 1 -1 0 -1 2 -2 
1 0 -1 0 2 -2 1 0 -1 0 2 -2 1 -1 1 -1 
0 -1 2 -2 1 -1 1 -1 0 -1 1 -1 1 -1 1 -1 
1 -1 1 -1 1 1 1 -1 -1 0 413 673 102 MP stroke
gr

6.25 w
c10
0 sg
1393  119 mt 
(North time plot) s
1504  881 mt 
(Time [s]) s
 281  607 mt  -90 rotate
(North [m]) s
90 rotate
2.08333 w
1 sg
0 550 2453 0 0 -550 412 1575 4 MP
PP
-2453 0 0 550 2453 0 0 -550 412 1575 5 MP stroke
1.38889 w
DO
0 sg
 412 1575 mt  412 1025 L
 412 1025 mt  412 1025 L
 814 1575 mt  814 1025 L
 814 1025 mt  814 1025 L
1217 1575 mt 1217 1025 L
1217 1025 mt 1217 1025 L
1620 1575 mt 1620 1025 L
1620 1025 mt 1620 1025 L
2023 1575 mt 2023 1025 L
2023 1025 mt 2023 1025 L
2425 1575 mt 2425 1025 L
2425 1025 mt 2425 1025 L
2828 1575 mt 2828 1025 L
2828 1025 mt 2828 1025 L
 412 1575 mt 2865 1575 L
2865 1575 mt 2865 1575 L
 412 1422 mt 2865 1422 L
2865 1422 mt 2865 1422 L
 412 1269 mt 2865 1269 L
2865 1269 mt 2865 1269 L
 412 1116 mt 2865 1116 L
2865 1116 mt 2865 1116 L
SO
2.08333 w
 412 1575 mt 2865 1575 L
 412 1025 mt 2865 1025 L
 412 1575 mt  412 1025 L
2865 1575 mt 2865 1025 L
 412 1575 mt 2865 1575 L
 412 1575 mt  412 1025 L
 412 1575 mt  412 1550 L
 412 1025 mt  412 1049 L
 392 1656 mt 
(0) s
 814 1575 mt  814 1550 L
 814 1025 mt  814 1049 L
 752 1656 mt 
(100) s
1217 1575 mt 1217 1550 L
1217 1025 mt 1217 1049 L
1155 1656 mt 
(200) s
1620 1575 mt 1620 1550 L
1620 1025 mt 1620 1049 L
1558 1656 mt 
(300) s
2023 1575 mt 2023 1550 L
2023 1025 mt 2023 1049 L
1961 1656 mt 
(400) s
2425 1575 mt 2425 1550 L
2425 1025 mt 2425 1049 L
2363 1656 mt 
(500) s
2828 1575 mt 2828 1550 L
2828 1025 mt 2828 1049 L
2766 1656 mt 
(600) s
 412 1575 mt  436 1575 L
2865 1575 mt 2840 1575 L
 252 1602 mt 
(-9.5) s
 412 1422 mt  436 1422 L
2865 1422 mt 2840 1422 L
 315 1449 mt 
(-9) s
 412 1269 mt  436 1269 L
2865 1269 mt 2840 1269 L
 252 1296 mt 
(-8.5) s
 412 1116 mt  436 1116 L
2865 1116 mt 2840 1116 L
 315 1143 mt 
(-8) s
 412 1575 mt 2865 1575 L
 412 1025 mt 2865 1025 L
 412 1575 mt  412 1025 L
2865 1575 mt 2865 1025 L
gs 412 1025 2454 551 rc
gr

gs 386 1114 2466 90 rc
c8
 404 1169 mt  420 1185 L
 420 1169 mt  404 1185 L
 404 1157 mt  420 1173 L
 420 1157 mt  404 1173 L
 420 1157 mt  436 1173 L
 436 1157 mt  420 1173 L
 436 1157 mt  452 1173 L
 452 1157 mt  436 1173 L
 453 1156 mt  469 1172 L
 469 1156 mt  453 1172 L
 468 1155 mt  484 1171 L
 484 1155 mt  468 1171 L
 485 1153 mt  501 1169 L
 501 1153 mt  485 1169 L
 501 1155 mt  517 1171 L
 517 1155 mt  501 1171 L
 517 1155 mt  533 1171 L
 533 1155 mt  517 1171 L
 533 1155 mt  549 1171 L
 549 1155 mt  533 1171 L
 549 1155 mt  565 1171 L
 565 1155 mt  549 1171 L
 565 1155 mt  581 1171 L
 581 1155 mt  565 1171 L
 581 1155 mt  597 1171 L
 597 1155 mt  581 1171 L
 598 1161 mt  614 1177 L
 614 1161 mt  598 1177 L
 614 1153 mt  630 1169 L
 630 1153 mt  614 1169 L
 629 1155 mt  645 1171 L
 645 1155 mt  629 1171 L
 646 1155 mt  662 1171 L
 662 1155 mt  646 1171 L
 662 1142 mt  678 1158 L
 678 1142 mt  662 1158 L
 678 1155 mt  694 1171 L
 694 1155 mt  678 1171 L
 694 1155 mt  710 1171 L
 710 1155 mt  694 1171 L
 710 1155 mt  726 1171 L
 726 1155 mt  710 1171 L
 726 1158 mt  742 1174 L
 742 1158 mt  726 1174 L
 742 1155 mt  758 1171 L
 758 1155 mt  742 1171 L
 759 1155 mt  775 1171 L
 775 1155 mt  759 1171 L
 775 1156 mt  791 1172 L
 791 1156 mt  775 1172 L
 791 1155 mt  807 1171 L
 807 1155 mt  791 1171 L
 807 1158 mt  823 1174 L
 823 1158 mt  807 1174 L
 823 1155 mt  839 1171 L
 839 1155 mt  823 1171 L
 839 1155 mt  855 1171 L
 855 1155 mt  839 1171 L
 855 1157 mt  871 1173 L
 871 1157 mt  855 1173 L
 871 1155 mt  887 1171 L
 887 1155 mt  871 1171 L
 888 1155 mt  904 1171 L
 904 1155 mt  888 1171 L
 904 1154 mt  920 1170 L
 920 1154 mt  904 1170 L
 921 1132 mt  937 1148 L
 937 1132 mt  921 1148 L
 941 1155 mt  957 1171 L
 957 1155 mt  941 1171 L
 957 1149 mt  973 1165 L
 973 1149 mt  957 1165 L
 973 1152 mt  989 1168 L
 989 1152 mt  973 1168 L
 990 1156 mt 1006 1172 L
1006 1156 mt  990 1172 L
1005 1155 mt 1021 1171 L
1021 1155 mt 1005 1171 L
1021 1155 mt 1037 1171 L
1037 1155 mt 1021 1171 L
1038 1158 mt 1054 1174 L
1054 1158 mt 1038 1174 L
1054 1155 mt 1070 1171 L
1070 1155 mt 1054 1171 L
1070 1155 mt 1086 1171 L
1086 1155 mt 1070 1171 L
1086 1155 mt 1102 1171 L
1102 1155 mt 1086 1171 L
1102 1155 mt 1118 1171 L
1118 1155 mt 1102 1171 L
1118 1155 mt 1134 1171 L
1134 1155 mt 1118 1171 L
1134 1155 mt 1150 1171 L
1150 1155 mt 1134 1171 L
1151 1154 mt 1167 1170 L
1167 1154 mt 1151 1170 L
1166 1155 mt 1182 1171 L
1182 1155 mt 1166 1171 L
1182 1155 mt 1198 1171 L
1198 1155 mt 1182 1171 L
1199 1154 mt 1215 1170 L
1215 1154 mt 1199 1170 L
1215 1155 mt 1231 1171 L
1231 1155 mt 1215 1171 L
1231 1155 mt 1247 1171 L
1247 1155 mt 1231 1171 L
1247 1155 mt 1263 1171 L
1263 1155 mt 1247 1171 L
1263 1155 mt 1279 1171 L
1279 1155 mt 1263 1171 L
1279 1155 mt 1295 1171 L
1295 1155 mt 1279 1171 L
1295 1155 mt 1311 1171 L
1311 1155 mt 1295 1171 L
1311 1155 mt 1327 1171 L
1327 1155 mt 1311 1171 L
1328 1153 mt 1344 1169 L
1344 1153 mt 1328 1169 L
1344 1154 mt 1360 1170 L
1360 1154 mt 1344 1170 L
1360 1155 mt 1376 1171 L
1376 1155 mt 1360 1171 L
1376 1153 mt 1392 1169 L
1392 1153 mt 1376 1169 L
1392 1157 mt 1408 1173 L
1408 1157 mt 1392 1173 L
1408 1154 mt 1424 1170 L
1424 1154 mt 1408 1170 L
1424 1155 mt 1440 1171 L
1440 1155 mt 1424 1171 L
1441 1155 mt 1457 1171 L
1457 1155 mt 1441 1171 L
1456 1155 mt 1472 1171 L
1472 1155 mt 1456 1171 L
1473 1158 mt 1489 1174 L
1489 1158 mt 1473 1174 L
1489 1155 mt 1505 1171 L
1505 1155 mt 1489 1171 L
1505 1155 mt 1521 1171 L
1521 1155 mt 1505 1171 L
1521 1155 mt 1537 1171 L
1537 1155 mt 1521 1171 L
1537 1155 mt 1553 1171 L
1553 1155 mt 1537 1171 L
1553 1155 mt 1569 1171 L
1569 1155 mt 1553 1171 L
1569 1157 mt 1585 1173 L
1585 1157 mt 1569 1173 L
1586 1159 mt 1602 1175 L
1602 1159 mt 1586 1175 L
1602 1156 mt 1618 1172 L
1618 1156 mt 1602 1172 L
1617 1155 mt 1633 1171 L
1633 1155 mt 1617 1171 L
1634 1155 mt 1650 1171 L
1650 1155 mt 1634 1171 L
1650 1155 mt 1666 1171 L
1666 1155 mt 1650 1171 L
1666 1155 mt 1682 1171 L
1682 1155 mt 1666 1171 L
1682 1151 mt 1698 1167 L
1698 1151 mt 1682 1167 L
1698 1155 mt 1714 1171 L
1714 1155 mt 1698 1171 L
1714 1155 mt 1730 1171 L
1730 1155 mt 1714 1171 L
1730 1155 mt 1746 1171 L
1746 1155 mt 1730 1171 L
1747 1154 mt 1763 1170 L
1763 1154 mt 1747 1170 L
1763 1155 mt 1779 1171 L
1779 1155 mt 1763 1171 L
1779 1155 mt 1795 1171 L
1795 1155 mt 1779 1171 L
1795 1155 mt 1811 1171 L
1811 1155 mt 1795 1171 L
1811 1155 mt 1827 1171 L
1827 1155 mt 1811 1171 L
1827 1155 mt 1843 1171 L
1843 1155 mt 1827 1171 L
1843 1156 mt 1859 1172 L
1859 1156 mt 1843 1172 L
1860 1158 mt 1876 1174 L
1876 1158 mt 1860 1174 L
1876 1152 mt 1892 1168 L
1892 1152 mt 1876 1168 L
1891 1155 mt 1907 1171 L
1907 1155 mt 1891 1171 L
1908 1155 mt 1924 1171 L
1924 1155 mt 1908 1171 L
1924 1155 mt 1940 1171 L
1940 1155 mt 1924 1171 L
1940 1156 mt 1956 1172 L
1956 1156 mt 1940 1172 L
1956 1155 mt 1972 1171 L
1972 1155 mt 1956 1171 L
1972 1155 mt 1988 1171 L
1988 1155 mt 1972 1171 L
1988 1155 mt 2004 1171 L
2004 1155 mt 1988 1171 L
2004 1155 mt 2020 1171 L
2020 1155 mt 2004 1171 L
2020 1155 mt 2036 1171 L
2036 1155 mt 2020 1171 L
2037 1155 mt 2053 1171 L
2053 1155 mt 2037 1171 L
2052 1155 mt 2068 1171 L
2068 1155 mt 2052 1171 L
2069 1154 mt 2085 1170 L
2085 1154 mt 2069 1170 L
2085 1155 mt 2101 1171 L
2101 1155 mt 2085 1171 L
2101 1155 mt 2117 1171 L
2117 1155 mt 2101 1171 L
2117 1154 mt 2133 1170 L
2133 1154 mt 2117 1170 L
2133 1154 mt 2149 1170 L
2149 1154 mt 2133 1170 L
2150 1155 mt 2166 1171 L
2166 1155 mt 2150 1171 L
2165 1155 mt 2181 1171 L
2181 1155 mt 2165 1171 L
2182 1155 mt 2198 1171 L
2198 1155 mt 2182 1171 L
2198 1159 mt 2214 1175 L
2214 1159 mt 2198 1175 L
2214 1155 mt 2230 1171 L
2230 1155 mt 2214 1171 L
2230 1155 mt 2246 1171 L
2246 1155 mt 2230 1171 L
2247 1155 mt 2263 1171 L
2263 1155 mt 2247 1171 L
2263 1153 mt 2279 1169 L
2279 1153 mt 2263 1169 L
2279 1156 mt 2295 1172 L
2295 1156 mt 2279 1172 L
2295 1155 mt 2311 1171 L
2311 1155 mt 2295 1171 L
2311 1155 mt 2327 1171 L
2327 1155 mt 2311 1171 L
2328 1147 mt 2344 1163 L
2344 1147 mt 2328 1163 L
2344 1154 mt 2360 1170 L
2360 1154 mt 2344 1170 L
2360 1154 mt 2376 1170 L
2376 1154 mt 2360 1170 L
2376 1155 mt 2392 1171 L
2392 1155 mt 2376 1171 L
2392 1159 mt 2408 1175 L
2408 1159 mt 2392 1175 L
2408 1155 mt 2424 1171 L
2424 1155 mt 2408 1171 L
2424 1155 mt 2440 1171 L
2440 1155 mt 2424 1171 L
2440 1158 mt 2456 1174 L
2456 1158 mt 2440 1174 L
2457 1155 mt 2473 1171 L
2473 1155 mt 2457 1171 L
2472 1155 mt 2488 1171 L
2488 1155 mt 2472 1171 L
2495 1156 mt 2511 1172 L
2511 1156 mt 2495 1172 L
2511 1155 mt 2527 1171 L
2527 1155 mt 2511 1171 L
2527 1155 mt 2543 1171 L
2543 1155 mt 2527 1171 L
2543 1155 mt 2559 1171 L
2559 1155 mt 2543 1171 L
2559 1155 mt 2575 1171 L
2575 1155 mt 2559 1171 L
2576 1158 mt 2592 1174 L
2592 1158 mt 2576 1174 L
2591 1155 mt 2607 1171 L
2607 1155 mt 2591 1171 L
2607 1155 mt 2623 1171 L
2623 1155 mt 2607 1171 L
2624 1157 mt 2640 1173 L
2640 1157 mt 2624 1173 L
2640 1157 mt 2656 1173 L
2656 1157 mt 2640 1173 L
2656 1155 mt 2672 1171 L
2672 1155 mt 2656 1171 L
2672 1155 mt 2688 1171 L
2688 1155 mt 2672 1171 L
2688 1155 mt 2704 1171 L
2704 1155 mt 2688 1171 L
2704 1155 mt 2720 1171 L
2720 1155 mt 2704 1171 L
2721 1160 mt 2737 1176 L
2737 1160 mt 2721 1176 L
2737 1158 mt 2753 1174 L
2753 1158 mt 2737 1174 L
2752 1155 mt 2768 1171 L
2768 1155 mt 2752 1171 L
2769 1155 mt 2785 1171 L
2785 1155 mt 2769 1171 L
2785 1154 mt 2801 1170 L
2801 1154 mt 2785 1170 L
2801 1155 mt 2817 1171 L
2817 1155 mt 2801 1171 L
2817 1153 mt 2833 1169 L
2833 1153 mt 2817 1169 L
gr

c8
gs 412 1025 2454 551 rc
8.33333 w
c9
1 0 1 0 1 0 1 0 1 0 1 0 1 1 1 0 
1 0 1 0 1 0 1 0 1 0 1 0 1 0 1 0 
1 0 1 0 1 0 1 0 1 0 1 0 1 0 1 0 
1 0 1 0 1 0 1 0 1 0 1 0 1 0 1 0 
1 0 1 0 1 0 1 0 1 0 1 0 1 0 1 -1 
1 0 1 0 1 0 1 0 1 0 1 0 1 0 1 0 
1 0 1 0 1 0 1 0 1 0 1 0 1 0 0 4 
1 0 1 0 1 0 1 0 1 0 1 0 1 0 1 0 
1 0 1 0 1 0 1 0 1 0 1 0 1 0 1 0 
1 0 1 0 1 0 1 0 1 0 1 0 1 0 1 0 
1 0 1 0 1 0 1 0 1 0 1 0 1 0 1 0 
1 0 1 0 1 0 1 0 1 0 1 0 1 0 1 0 
1 0 1 0 1 0 1 0 1 0 1 0 1 0 1 0 
1 0 1 0 1 0 1 0 1 0 1 0 1 0 1 0 
1 0 1 0 1 0 1 0 1 0 1 0 1 0 1 0 
1 0 1 0 1 0 1 0 1 0 1 0 1 0 1 0 
1 0 1 0 1 0 1 0 1 0 1 0 1 0 1 0 
1 0 1 0 1 0 1 0 1 0 1 0 1 0 1 0 
1 0 1 0 1 0 1 0 1 0 1 0 1 0 1 0 
1 0 1 0 1 0 1 0 1 0 1 0 1 0 1 0 
1 0 1 0 1 0 1 0 1 0 1 0 1 0 1 0 
1 0 1 -1 1 0 1 0 1 0 1 0 1 0 1 0 
1 0 1 0 1 0 1 0 1 0 1 0 1 0 1 0 
1 0 1 0 1 0 1 0 1 0 1 0 1 0 1 0 
1 0 1 0 1 0 1 0 1 0 1 0 1 0 1 0 
1 0 1 0 1 0 1 0 1 0 1 0 1 0 1 0 
1 0 1 0 1 0 1 0 1 0 1 0 1 0 1 0 
1 0 1 0 1 0 1 0 1 0 1 0 1 0 1 0 
1 0 1 0 1 0 1 0 1 0 1 0 1 0 1 0 
1 0 1 1 1 0 1 0 1 0 1 0 1 0 1 0 
1 0 1 0 1 0 1 0 1 0 1 0 1 0 1 0 
1 0 1 0 1 0 1 0 1 0 1 0 1 0 1 0 
1 0 1 0 1 0 1 0 1 0 1 0 1 0 1 0 
1 0 1 0 1 0 1 0 1 0 1 0 1 0 1 0 
1 0 1 0 1 0 1 0 1 0 1 0 1 0 1 0 
1 0 1 0 1 0 1 0 1 0 1 0 1 0 1 0 
1 0 1 0 1 0 1 0 1 0 1 0 1 0 1 0 
1 0 1 0 1 0 2566 1163 300 MP stroke
1 0 1 0 1 0 1 0 1 0 1 0 1 0 1 0 
1 0 1 0 1 0 1 0 1 0 1 0 1 0 1 0 
1 0 1 0 1 0 1 0 1 0 1 0 1 0 1 0 
1 0 1 0 1 0 1 0 1 0 1 0 1 0 1 0 
1 0 1 0 1 0 1 0 1 0 1 0 1 0 1 0 
1 0 1 0 1 0 1 0 1 0 1 0 1 0 1 0 
1 0 1 0 1 0 1 0 1 0 1 0 1 0 1 0 
1 0 1 0 1 0 1 0 1 0 1 0 1 0 1 0 
1 0 1 0 1 0 7 0 1 0 1 0 1 0 1 0 
1 0 1 0 1 0 1 0 1 0 1 0 1 0 1 0 
1 0 1 0 1 0 1 0 1 0 1 0 1 0 1 -1 
1 0 1 0 1 0 1 0 1 0 1 0 1 0 1 0 
1 0 1 0 1 0 1 0 1 0 1 0 1 0 1 0 
1 0 1 0 1 0 1 0 1 0 1 0 1 0 1 0 
1 -1 1 0 1 0 1 0 1 0 1 0 1 0 1 0 
1 0 1 0 1 0 1 0 1 0 1 0 1 0 1 0 
0 2 1 0 1 0 1 0 1 0 1 0 1 0 1 0 
1 0 1 0 1 0 1 0 1 0 1 0 1 0 1 0 
1 0 1 0 1 0 1 0 1 0 1 0 1 0 1 0 
1 0 1 0 1 0 1 0 1 0 1 0 1 0 1 0 
1 0 1 0 1 0 1 0 1 0 1 0 1 0 1 0 
1 0 1 0 1 0 1 0 1 0 1 0 1 0 1 0 
1 0 1 0 1 0 1 0 1 0 1 0 1 0 1 0 
1 0 1 0 1 0 1 0 1 0 1 0 1 0 1 0 
1 0 1 0 1 0 1 0 1 0 1 0 1 0 1 0 
1 0 1 0 1 0 1 0 1 0 1 0 1 0 1 0 
1 0 1 0 1 0 1 0 1 0 1 0 1 0 1 0 
1 0 1 0 1 0 1 0 1 0 1 0 1 0 1 0 
1 0 1 0 1 0 1 0 1 0 1 0 1 0 1 0 
1 0 1 0 1 0 1 0 1 0 1 0 1 0 1 0 
1 0 1 -1 1 0 1 0 1 0 1 0 1 0 1 0 
1 0 1 0 1 1 1 0 1 0 1 0 1 0 1 0 
1 0 1 0 1 0 1 0 1 0 1 0 1 0 1 0 
1 0 1 0 1 0 1 0 1 0 1 0 1 0 1 0 
1 0 1 0 1 0 1 0 1 0 1 0 1 0 1 0 
1 0 1 0 1 0 1 0 1 0 1 0 1 0 1 0 
1 0 1 0 1 0 1 0 1 0 1 0 1 0 1 0 
1 0 1 0 1 0 2262 1163 300 MP stroke
1 0 1 0 1 0 1 0 1 0 1 0 1 0 1 0 
1 0 1 0 1 0 1 0 1 0 1 0 2 0 1 0 
1 0 1 0 1 0 1 0 1 0 1 0 1 0 1 0 
1 0 1 0 1 0 1 0 1 0 1 0 1 0 1 0 
1 0 1 0 1 0 1 0 1 0 1 0 1 0 1 0 
1 0 1 0 1 0 1 0 1 0 1 0 1 0 1 0 
1 0 1 0 1 0 1 0 1 0 1 0 1 0 1 0 
1 0 1 0 1 0 1 0 1 0 1 0 1 0 1 0 
1 0 1 0 1 0 1 0 1 0 1 0 1 0 1 0 
1 0 1 0 1 0 1 0 1 0 1 0 1 0 1 0 
1 0 1 0 1 0 1 0 1 0 1 0 1 0 1 0 
1 0 1 0 1 0 1 0 1 0 1 0 1 0 1 0 
1 0 1 0 1 0 1 0 1 0 1 0 1 0 1 0 
1 0 1 0 1 0 1 0 1 0 1 0 1 0 1 0 
1 0 1 0 1 0 1 0 1 0 1 0 1 0 1 0 
1 0 1 0 1 0 1 0 1 0 1 0 1 0 1 0 
1 0 1 0 1 0 1 0 1 0 1 0 1 0 1 0 
1 0 1 0 1 0 1 0 1 0 1 0 1 0 1 0 
1 0 1 0 1 0 1 0 1 0 1 0 1 0 1 0 
1 0 1 0 1 0 1 0 1 0 1 0 1 0 1 0 
1 0 1 0 1 0 1 0 1 0 1 0 1 0 1 0 
1 0 1 0 1 0 1 0 1 0 1 0 1 0 1 0 
1 0 1 0 1 0 1 0 1 0 1 0 1 0 1 0 
1 0 1 0 1 0 1 0 1 0 1 0 1 0 1 0 
1 0 1 0 1 0 1 0 1 0 1 0 1 0 1 0 
1 0 1 0 1 0 1 0 1 0 1 0 1 0 1 0 
1 0 1 0 1 0 1 0 1 0 1 0 1 0 1 0 
1 0 1 0 1 0 1 0 1 0 1 0 1 0 1 0 
1 0 1 0 1 0 1 0 1 0 1 0 1 0 1 0 
1 0 1 0 1 0 1 0 1 0 1 0 1 0 1 0 
1 0 1 0 1 0 1 0 1 0 1 0 1 0 1 0 
1 0 1 0 1 0 1 0 1 0 1 0 1 0 1 0 
1 0 1 0 1 0 1 0 1 0 1 0 1 0 1 0 
1 0 1 0 1 0 1 0 1 0 1 0 1 0 1 0 
1 0 1 0 1 0 1 0 1 0 1 0 1 0 1 0 
1 0 1 0 1 0 1 0 1 0 1 0 1 0 1 0 
1 0 1 0 1 0 1 0 1 0 1 0 1 0 1 0 
1 0 1 0 1 0 1962 1163 300 MP stroke
1 0 1 0 1 0 1 0 1 0 1 0 1 0 1 0 
1 0 1 0 1 0 1 0 1 0 1 0 1 0 1 0 
1 0 1 0 1 0 1 0 1 0 1 0 1 0 1 0 
1 0 1 0 1 0 1 0 1 0 1 0 1 -1 1 0 
1 0 1 0 1 1 1 0 1 0 1 0 1 0 1 0 
1 0 1 0 1 0 1 0 1 0 1 0 1 0 1 0 
1 0 1 0 1 0 1 0 1 0 1 0 1 0 1 0 
1 0 1 0 1 0 1 0 1 0 1 0 1 0 1 0 
1 0 1 0 1 0 1 0 1 0 1 0 1 0 1 0 
1 0 1 0 1 0 1 0 1 0 1 0 1 1 1 0 
1 0 1 0 1 0 1 0 1 0 1 0 1 0 1 0 
1 0 1 0 1 0 1 0 1 0 1 0 1 1 1 0 
1 0 1 0 1 0 1 0 1 0 1 0 1 0 1 0 
1 0 1 0 1 0 1 0 1 0 1 0 1 0 1 1 
1 0 1 0 1 0 1 0 1 0 1 0 1 0 1 0 
1 0 1 0 1 0 1 0 1 -1 1 0 1 0 1 0 
1 -1 1 0 1 0 1 0 1 0 1 0 1 0 1 0 
1 0 1 0 1 0 1 0 1 0 1 0 1 0 1 1 
1 0 1 0 1 0 1 0 1 0 1 0 1 0 1 0 
1 0 1 0 1 0 1 0 1 0 1 0 1 0 0 -2 
1 0 1 0 1 0 1 0 1 0 1 0 1 0 1 0 
1 0 1 0 1 0 1 0 1 0 1 0 1 0 1 0 
1 0 1 0 1 0 1 0 1 0 1 0 1 0 1 0 
1 0 1 0 1 0 1 0 1 0 1 0 1 0 1 0 
1 0 1 0 1 0 1 0 1 0 1 0 1 0 1 0 
1 0 1 0 1 0 1 0 1 0 1 0 1 0 1 0 
1 0 1 0 1 0 1 0 1 0 1 0 1 0 1 0 
1 0 1 0 1 0 1 0 1 0 1 0 1 0 1 0 
1 0 1 0 1 0 1 0 1 0 1 0 1 0 1 0 
1 0 1 0 1 0 1 0 1 0 1 0 1 0 1 0 
1 0 1 0 1 0 1 0 1 0 1 0 1 0 1 0 
1 0 1 0 1 0 1 0 1 0 1 0 1 0 1 0 
1 0 1 -1 1 0 1 0 1 0 1 0 1 0 1 0 
1 0 1 0 1 0 1 0 1 0 1 0 1 0 1 0 
1 0 1 0 1 0 1 0 1 0 1 0 1 0 1 0 
1 0 1 0 1 0 1 0 1 0 1 0 1 0 1 0 
1 0 1 0 1 0 1 0 1 0 1 0 1 0 1 0 
1 0 1 0 1 0 1664 1164 300 MP stroke
1 0 1 0 1 0 1 0 1 0 1 0 1 0 1 0 
1 0 1 0 1 0 1 0 1 0 1 0 1 0 1 0 
1 0 1 0 1 0 1 0 1 0 1 0 1 0 1 0 
1 0 1 0 1 0 1 0 1 0 1 0 1 0 1 0 
1 0 1 0 1 0 1 0 1 0 1 0 1 0 1 0 
1 0 1 0 1 0 1 0 1 0 1 0 1 0 1 0 
1 0 1 0 1 0 1 0 1 0 1 0 1 -1 1 0 
1 0 1 0 1 0 1 0 1 0 1 0 1 0 1 1 
1 0 1 0 1 0 1 0 1 0 1 0 1 -1 1 0 
1 0 1 0 1 0 1 0 1 0 1 0 1 0 1 0 
1 0 1 0 1 0 1 0 1 0 1 0 1 0 1 0 
1 0 1 0 1 0 1 0 1 0 1 0 1 0 1 0 
1 0 1 0 1 0 1 0 1 0 1 0 1 0 0 2 
1 0 1 0 1 0 1 0 1 0 1 0 1 0 1 0 
1 0 1 0 1 0 1 0 1 0 1 0 1 0 1 0 
1 0 1 0 1 0 1 0 1 0 1 0 1 0 1 0 
1 0 1 0 1 0 1 0 1 0 1 0 1 0 1 0 
1 0 1 0 1 0 1 0 1 0 1 0 1 0 1 0 
1 0 1 0 1 0 1 0 1 0 1 0 1 0 1 0 
1 0 1 0 1 0 1 0 1 0 1 0 1 0 1 0 
1 0 1 0 1 0 1 0 1 0 1 0 1 0 1 0 
1 0 1 0 1 0 1 0 1 0 1 0 1 0 1 0 
1 0 1 0 1 0 1 0 1 0 1 0 1 0 1 0 
1 0 1 0 1 0 1 0 1 0 1 0 1 0 1 0 
1 0 1 0 1 0 1 0 1 0 1 0 1 0 1 0 
1 0 1 0 1 0 1 0 1 0 1 0 1 0 1 0 
1 0 1 0 1 0 1 0 1 0 1 0 1 0 1 0 
1 0 1 0 1 0 1 0 1 0 1 0 1 0 1 0 
1 0 1 0 1 0 1 0 1 0 1 0 1 0 1 0 
1 0 1 0 1 0 1 0 1 0 1 0 1 0 1 0 
1 0 1 0 1 0 1 0 1 0 1 0 1 0 1 0 
1 0 1 0 1 0 1 0 1 0 1 0 1 0 1 0 
1 0 1 0 1 0 1 0 1 0 1 0 1 0 1 0 
1 0 1 1 1 0 1 0 1 0 1 0 1 0 1 0 
1 0 1 0 1 0 1 0 1 0 1 0 1 0 1 0 
1 0 1 0 1 0 1 0 1 0 1 0 1 0 1 0 
1 0 1 0 1 0 1 0 1 0 1 0 1 0 1 0 
1 0 1 -1 1 0 1366 1163 300 MP stroke
1 0 1 0 1 0 1 0 1 0 1 0 1 0 1 0 
1 0 1 0 1 0 1 0 1 0 1 0 1 0 1 0 
1 0 1 0 1 0 1 0 1 0 1 0 1 0 1 0 
1 0 1 0 1 0 1 0 1 0 1 0 1 0 1 0 
1 0 1 0 1 0 1 0 1 0 1 0 1 0 1 0 
1 0 1 0 1 0 1 0 1 0 1 0 1 0 1 0 
1 0 1 0 1 0 1 0 1 0 1 0 1 0 1 0 
1 0 1 0 1 0 1 0 1 0 1 0 1 0 1 0 
1 0 1 0 1 0 1 0 1 0 1 0 1 0 1 0 
1 0 1 0 1 0 1 0 1 0 1 0 1 0 1 0 
1 0 1 0 1 0 1 0 1 0 1 0 1 0 1 0 
1 0 1 0 1 0 1 0 1 0 1 0 1 0 1 0 
1 0 1 0 1 0 1 0 1 0 1 0 1 0 1 0 
1 0 1 0 1 0 1 0 1 0 1 0 1 0 1 0 
1 0 1 0 1 0 1 0 1 0 1 0 1 0 1 0 
1 0 1 0 1 0 1 0 1 0 1 0 1 0 1 0 
1 0 1 0 1 0 1 0 1 0 1 0 1 0 1 0 
1 0 1 0 1 0 1 0 1 0 1 0 1 0 1 -1 
1 0 1 0 1 0 1 0 1 0 1 0 1 0 1 0 
1 0 1 0 1 0 2 0 1 0 1 0 1 0 1 0 
1 0 1 0 1 0 1 0 1 0 1 0 1 0 1 0 
1 0 1 0 1 0 1 0 1 0 1 0 1 0 1 0 
1 0 1 0 1 0 1 0 1 0 1 0 1 0 1 0 
1 0 1 0 1 0 1 0 1 0 1 0 1 0 1 0 
1 0 1 0 1 0 1 0 1 0 1 0 1 0 1 0 
1 0 1 0 1 0 1 0 1 0 1 0 1 0 1 0 
1 0 1 0 1 0 1 0 1 0 1 0 1 0 1 0 
1 0 1 0 1 0 1 0 1 0 1 0 1 0 1 0 
1 0 1 0 1 0 1 0 1 0 1 0 1 0 1 0 
1 0 1 0 1 1 1 0 1 0 1 0 1 0 1 0 
1 0 1 0 1 0 1 0 1 0 1 0 1 0 1 0 
1 0 1 0 1 0 1 0 1 0 1 0 1 0 1 0 
1 0 1 0 1 0 1 0 1 0 1 0 1 0 1 0 
1 0 1 0 1 0 1 0 1 0 1 0 1 0 1 1 
1 0 1 0 1 0 1 0 1 0 1 0 1 0 1 0 
1 0 1 0 1 0 1 0 1 0 1 0 1 0 1 1 
1 0 1 0 1 0 1 0 1 0 1 0 1 0 1 0 
1 0 1 0 1 0 1066 1161 300 MP stroke
1 0 1 0 1 0 1 0 1 1 1 0 1 0 1 0 
2 0 1 0 1 0 1 0 1 0 1 0 1 0 1 0 
1 0 1 0 1 0 1 -4 1 0 1 0 1 0 1 0 
1 0 1 0 1 0 1 0 1 0 1 0 1 0 1 1 
1 0 1 0 1 0 1 0 1 0 1 0 1 0 1 0 
1 0 1 0 1 0 1 0 1 0 1 0 1 0 1 0 
1 0 1 0 1 0 1 1 1 0 1 0 1 0 1 0 
1 0 1 0 1 0 1 0 1 0 1 0 1 0 1 0 
1 0 1 0 1 0 1 1 1 0 1 0 1 0 1 0 
1 0 1 0 1 0 1 0 1 0 1 0 1 0 1 0 
1 0 1 0 1 0 1 0 0 2 1 0 1 0 1 0 
1 0 1 0 1 0 1 0 1 0 1 0 1 0 1 0 
1 0 1 0 1 0 1 0 1 0 0 2 1 0 1 0 
1 0 1 0 1 0 1 0 1 0 1 0 1 0 1 0 
1 0 1 0 1 0 1 0 1 0 1 0 0 5 1 0 
1 0 1 0 1 0 1 0 1 0 1 -1 1 0 1 0 
1 0 1 0 1 0 1 0 -1 0 7 -1 1 0 0 -1 
0 1 1 -9 1 0 1 0 1 0 1 0 1 0 1 0 
1 0 1 0 1 0 1 0 1 0 1 0 1 0 1 0 
1 0 1 0 1 0 1 0 1 0 1 0 1 0 1 0 
1 0 1 0 1 0 1 0 1 0 1 0 1 0 1 0 
1 0 1 0 1 -1 1 0 1 0 1 0 1 0 1 0 
1 0 1 0 1 0 1 0 1 0 1 0 1 0 1 0 
1 0 1 0 1 0 1 0 1 0 1 0 1 0 1 0 
1 0 1 0 1 0 1 0 1 0 1 0 1 0 1 0 
1 0 1 0 1 0 1 0 1 0 1 0 1 0 1 0 
1 0 1 0 1 0 1 0 1 0 1 0 1 0 1 0 
1 0 1 0 1 0 1 0 1 0 1 0 1 0 1 0 
1 0 1 0 1 0 1 0 1 0 1 0 1 0 1 0 
1 0 1 0 1 0 1 0 1 0 1 0 1 0 1 0 
1 0 1 0 1 0 1 0 1 0 1 0 1 0 1 0 
1 0 1 0 1 0 1 0 1 0 1 0 1 0 1 0 
1 0 1 0 1 0 1 0 1 0 1 0 1 0 1 0 
1 0 1 0 1 0 1 0 1 0 1 0 1 0 1 0 
1 0 1 0 1 0 1 0 1 0 1 0 1 0 1 0 
1 0 1 0 1 0 1 0 1 0 1 0 1 0 1 0 
1 0 1 0 1 0 1 0 1 0 1 0 1 0 1 0 
1 0 1 0 1 0 767 1164 300 MP stroke
1 -1 1 0 1 0 1 0 1 0 1 0 1 0 1 0 
1 0 1 0 1 0 1 0 1 0 1 0 1 0 1 0 
1 2 1 0 1 0 1 0 1 0 1 0 1 0 1 0 
1 0 1 0 1 0 1 0 1 0 1 0 1 0 1 0 
1 0 1 0 1 0 1 0 1 0 1 0 1 0 1 0 
1 0 1 0 1 0 1 0 1 0 1 0 1 0 1 0 
1 0 1 0 1 0 1 0 1 0 1 0 1 0 1 0 
1 0 1 0 1 0 1 0 1 0 1 0 1 0 1 0 
1 0 1 0 1 0 1 0 1 0 1 0 1 0 1 0 
1 0 1 0 1 0 1 0 1 0 1 0 1 0 1 0 
1 0 1 0 1 0 1 0 1 0 1 0 1 0 1 0 
1 0 1 0 1 0 1 0 2 0 1 0 1 0 1 0 
1 0 1 0 1 0 1 0 1 0 1 0 1 0 1 0 
1 0 1 0 1 0 1 0 1 0 1 0 1 0 1 0 
1 0 1 0 1 0 1 0 1 0 1 0 1 0 1 0 
1 0 1 0 1 0 1 0 1 0 1 0 1 0 1 0 
1 0 1 0 1 0 1 0 1 0 1 0 1 0 1 0 
1 0 1 0 1 0 1 0 1 0 1 0 1 0 1 0 
1 0 1 0 1 0 1 0 1 0 1 0 1 0 1 0 
1 0 1 0 1 0 1 0 1 0 1 0 1 0 1 0 
1 0 1 0 1 0 1 0 1 0 1 0 1 0 1 0 
1 0 1 0 1 0 1 0 1 0 1 0 1 0 1 0 
1 0 1 0 1 0 1 0 1 0 1 0 1 0 1 0 
1 0 1 0 1 0 1 0 1 0 1 0 1 0 1 0 
1 0 1 0 1 0 1 0 1 0 1 0 1 0 1 0 
1 0 1 0 1 0 1 0 1 0 1 0 1 0 1 0 
1 0 1 0 1 0 1 0 1 0 1 0 1 0 1 0 
1 0 1 0 1 0 1 0 1 0 1 0 1 0 1 0 
1 0 1 0 1 0 1 0 1 0 1 0 1 0 1 0 
1 0 1 0 1 0 1 0 1 0 1 0 1 0 1 0 
1 0 1 0 1 0 1 0 1 0 1 0 1 0 1 0 
1 0 1 0 1 0 1 0 1 0 1 0 1 0 1 0 
1 0 1 0 1 0 1 0 1 0 1 0 1 0 1 0 
1 0 1 0 1 0 1 0 1 0 1 0 1 0 1 0 
1 0 1 0 1 0 1 0 1 0 1 0 1 0 1 0 
1 0 1 0 1 0 1 0 1 0 1 0 1 0 1 0 
1 0 1 0 1 0 1 0 1 0 1 0 1 0 1 0 
1 0 1 0 1 0 467 1163 300 MP stroke
1 0 1 0 1 0 1 0 1 0 1 0 1 0 1 0 
1 0 1 0 1 0 1 0 1 -1 1 0 1 0 1 0 
1 0 1 0 1 0 1 0 1 0 1 0 1 0 1 0 
1 0 1 0 1 0 1 0 1 0 1 0 1 0 1 0 
1 0 1 0 1 0 1 0 1 -1 1 0 1 0 1 0 
1 0 1 0 1 0 1 0 1 0 1 0 1 0 1 0 
1 0 1 0 1 0 1 0 1 0 1 0 1 0 -1 0 
413 1165 57 MP stroke
6.25 w
c10
0 -2 1 2 0 8 1 0 0 -7 1 2 0 1 1 1 
0 4 1 -4 0 -5 1 2 0 4 1 -3 0 1 0 -3 
1 3 0 6 1 -2 0 8 1 0 0 2 0 -6 1 -2 
0 -6 1 -1 0 -7 1 -1 0 2 0 -1 1 4 0 5 
1 1 0 12 1 3 0 8 1 -2 1 0 1 -8 0 4 
1 2 0 4 1 0 0 6 1 -2 0 -14 1 -1 0 -12 
1 2 0 3 1 1 0 13 1 2 1 1 0 4 1 10 
0 -2 1 -10 1 0 0 -3 0 2 1 1 0 4 1 2 
0 1 1 -7 0 8 1 10 0 1 1 3 0 -1 1 -1 
0 -6 0 1 1 -3 0 -1 1 2 0 2 1 -2 0 -2 
1 1 0 3 1 -3 0 11 1 -3 0 -12 1 -6 0 -24 
1 3 0 7 1 0 0 5 1 5 0 19 1 0 0 19 
1 -1 0 -1 1 -3 0 -12 1 3 0 11 1 -2 0 1 
1 1 0 1 1 1 0 -2 0 1 1 10 0 -12 1 -5 
0 -2 1 -7 0 -1 1 -4 1 -2 0 -1 1 -2 0 -8 
1 -12 0 -3 1 -11 1 0 1 0 0 3 0 -3 1 -8 
1 -9 0 4 1 5 0 9 0 -2 1 7 1 31 0 -10 
1 0 0 -2 1 -1 1 0 0 -4 1 -1 0 -7 1 -8 
0 -2 1 -1 0 -2 0 4 1 -5 0 -20 1 -3 0 -16 
1 0 1 -1 0 -6 1 1 0 -9 1 2 0 2 1 4 
0 -8 0 8 1 1 1 1 0 -9 1 0 1 -6 0 -7 
0 2 1 -2 0 4 1 19 0 -10 1 -9 0 1 1 1 
0 -8 0 1 1 1 0 2 1 1 0 -9 0 2 1 2 
0 1 1 2 1 -1 0 -1 0 1 1 -6 0 -10 1 0 
1 -1 0 -9 1 -1 0 -2 1 0 0 -8 0 2 2 3 
0 -9 1 -32 0 4 1 0 0 -3 1 2 0 5 1 3 
1 3 0 8 1 4 0 -1 1 6 0 36 1 2 0 1 
1 2 0 5 1 3 0 3 1 3 0 6 1 5 0 5 
1 8 0 18 1 1 0 10 1 -4 0 -3 1 -9 0 -1 
1 -10 0 2 1 -4 0 2 1 3 0 3 1 3 0 10 
1 1 0 8 1 -3 0 -4 1 -4 0 -12 1 0 0 -3 
1 1 0 2 1 0 0 1 0 -1 1 3 0 2 1 9 
1 6 0 -3 1 -4 0 -5 1 -18 0 2 1 2 0 5 
1 3 0 4 1 4 0 9 1 5 1 0 0 -3 1 -1 
0 -3 1 2 0 4 1 -1 0 3 1 -2 0 -7 1 0 
0 -4 1 1 0 3 1 8 1 0 0 -4 1 1 0 3 
1 4 0 8 1 2 0 6 1 0 0 3 0 -4 1 -9 
1 -1 0 1 1 -1 2712 1163 300 MP stroke
0 3 1 2 0 5 1 -1 0 2 0 -1 1 2 0 2 
1 0 0 10 1 -1 0 7 1 -6 0 -16 1 -19 0 1 
1 -2 0 1 0 -4 1 3 0 8 1 3 0 11 1 2 
0 3 1 1 0 1 1 1 1 1 0 2 0 -2 1 -2 
0 -2 1 -4 0 -5 1 1 0 -3 1 4 0 7 1 6 
0 3 1 6 0 2 1 1 0 4 1 1 0 -1 1 -2 
0 -3 1 2 0 -2 0 3 1 3 0 3 1 11 0 4 
1 -2 0 -7 1 0 0 -8 1 2 0 8 1 3 0 3 
1 0 0 2 1 3 0 4 1 4 0 13 1 4 0 7 
1 -1 0 -2 1 -2 0 -2 1 -5 0 -1 1 -2 1 -2 
0 4 1 4 0 5 1 1 0 3 1 1 1 0 0 -4 
1 -1 0 -4 1 -1 0 -1 0 1 1 -7 0 -3 1 4 
0 7 1 4 0 6 1 7 0 9 1 4 0 1 1 3 
0 4 1 2 0 3 0 -2 1 -3 0 -11 1 -10 0 -11 
1 -12 0 -22 1 -20 0 -92 1 26 1 -1 0 13 0 -2 
1 4 1 2 1 1 0 2 1 1 0 3 1 2 0 2 
1 2 0 8 1 6 1 3 0 -2 1 -5 0 -1 0 1 
1 -4 0 2 1 1 0 2 1 -1 0 -6 0 1 1 3 
0 2 1 7 0 -4 1 -1 0 -2 1 -1 0 -2 1 0 
1 -1 0 -1 1 -3 1 -2 0 4 1 1 0 8 1 -2 
0 -4 1 -1 1 0 1 1 0 5 0 -2 1 -2 0 -8 
1 -1 0 -2 1 1 0 3 1 -1 0 -1 1 -2 0 2 
1 0 0 -2 0 2 1 1 0 4 1 6 0 4 1 -1 
0 3 1 -2 0 -5 1 -7 0 3 1 3 0 -1 1 -2 
0 2 1 7 0 -10 1 -3 0 -12 1 0 1 1 0 4 
1 5 0 -1 0 1 1 -2 0 1 1 -6 0 2 1 2 
0 9 1 0 0 1 0 -1 1 -4 0 4 1 -2 0 3 
1 5 0 4 1 5 0 -1 1 -2 0 -3 1 0 0 -2 
0 7 1 1 1 -3 1 0 -1 0 2 2 1 3 0 -4 
1 -1 0 4 1 -3 0 -9 0 1 1 3 1 1 0 -3 
0 2 1 2 0 4 1 9 0 14 1 0 0 6 1 -2 
0 -13 1 -1 1 0 0 -3 1 5 0 -4 1 -11 0 -14 
1 3 0 12 1 0 0 -3 1 -1 0 -2 1 0 0 -4 
1 4 0 3 1 11 0 -2 1 -1 0 -2 1 -11 0 1 
1 -3 0 4 1 3 0 7 0 -4 1 2 0 2 1 -3 
0 3 1 -3 0 8 1 7 0 1 0 -1 1 -4 0 -4 
1 1 0 -2 1 -6 0 4 1 1 0 2 1 -7 0 -4 
1 -4 1 -7 0 6 2563 1152 300 MP stroke
1 1 0 2 1 0 0 2 1 -1 0 -12 1 -2 0 7 
1 4 0 4 1 2 0 4 1 8 0 -1 1 -3 1 -14 
-1 0 2 -4 0 -5 0 2 1 9 1 -3 0 8 0 -2 
1 -8 1 -5 0 -5 1 1 0 4 1 -3 0 1 0 -1 
1 2 0 2 1 -2 0 5 1 3 0 2 1 4 0 1 
1 1 1 -2 1 1 0 3 1 -2 1 -1 0 -2 1 -2 
0 -3 1 -1 0 -2 1 1 1 -3 0 1 1 1 0 1 
1 2 0 -1 0 2 1 -1 0 -2 1 -3 0 -9 1 -1 
0 -6 1 0 0 -2 0 1 1 3 1 2 0 3 1 1 
1 -1 0 -1 1 1 1 -1 0 -3 1 4 0 -2 1 -3 
0 -1 1 -3 0 1 0 -3 1 -7 0 -9 1 5 1 1 
0 7 1 4 0 2 1 -2 0 -2 1 -3 0 -8 1 -2 
0 -1 1 -2 0 5 0 -3 1 -8 0 -1 1 -2 0 3 
0 -1 1 -2 0 -4 1 0 0 4 1 -1 1 3 0 -1 
1 -3 1 0 0 3 1 3 0 1 1 1 0 8 1 1 
0 3 1 1 0 -1 7 -2 1 2 0 9 1 0 0 7 
0 -3 1 -3 0 -3 1 -2 0 -8 1 -1 0 2 1 7 
0 -7 1 -7 1 1 0 -14 1 -2 0 -4 1 1 0 -3 
0 2 1 2 0 5 1 2 0 7 1 9 1 -8 1 2 
0 1 1 -2 0 1 1 2 0 3 1 2 0 2 1 2 
0 1 0 -1 1 6 0 5 1 -2 0 -5 1 7 0 -13 
1 -1 0 -6 0 4 1 3 1 1 0 1 0 -1 1 4 
0 2 1 3 0 8 1 0 0 5 1 -2 0 -6 1 0 
0 -4 1 1 0 -2 0 4 1 3 0 2 1 2 0 8 
1 3 0 -1 1 2 0 -3 1 -3 0 -4 1 -10 0 -1 
0 1 1 1 0 4 1 -2 0 -1 0 2 1 -1 1 -2 
0 -2 1 3 0 -1 1 -10 0 3 1 6 0 6 1 4 
0 17 1 0 0 6 1 -3 1 -6 0 -8 1 -1 0 -3 
1 1 0 2 0 -2 1 3 0 3 1 4 0 6 1 6 
0 -1 1 2 0 3 0 -2 1 -3 0 -2 1 -2 0 -1 
1 -1 0 -2 1 -2 0 4 1 -2 0 -1 1 -1 0 -5 
1 -2 0 -4 1 0 0 -6 1 -3 1 3 0 1 1 4 
0 1 1 4 0 3 1 -1 0 -2 1 -1 0 -2 1 -6 
0 -2 1 1 1 1 0 1 1 2 0 2 1 0 0 1 
0 -1 1 1 0 -1 1 -2 0 -5 1 -5 1 -1 0 2 
1 4 0 1 1 3 0 1 1 2 0 2 1 0 0 4 
1 1 0 1 1 -2 0 -7 1 -5 1 0 -1 0 2 5 
0 -2 1 2 0 -7 2405 1167 300 MP stroke
1 -1 0 -2 1 -9 0 -3 1 4 0 8 1 4 0 1 
1 1 0 4 1 0 0 -4 0 1 1 7 1 4 0 -2 
1 -2 0 -1 1 -4 0 3 1 1 0 3 1 -1 0 -2 
1 0 0 -3 1 -3 0 -3 0 1 1 -2 0 -2 1 -3 
0 -6 1 1 0 -4 1 -9 0 -11 1 4 1 1 1 4 
0 2 1 -3 0 -6 1 0 0 3 0 -4 1 1 0 2 
1 14 0 -1 2 -2 0 2 1 -1 1 3 0 5 1 -1 
1 -1 0 3 0 -1 1 -1 1 -1 0 4 0 -1 1 -1 
0 -2 0 3 1 -2 0 -1 1 -3 0 -2 1 -3 0 3 
1 -1 1 2 0 4 0 -1 1 -1 1 -1 1 1 0 2 
1 0 0 6 0 -2 1 -2 0 -2 1 -1 0 -3 1 1 
0 1 1 3 0 9 1 -1 0 1 1 -2 0 -1 1 -1 
0 -4 1 0 0 3 1 0 0 2 1 2 0 1 1 -1 
0 -4 1 -2 0 2 1 -3 0 -1 1 1 0 3 1 1 
0 2 1 0 0 4 1 -2 0 -3 1 -2 0 4 1 1 
0 3 1 3 0 2 1 1 0 -1 1 -6 0 6 1 2 
0 9 1 0 0 8 1 -3 0 -7 1 -3 1 -9 0 -3 
1 -1 1 -5 1 0 0 6 1 -1 1 -1 0 -2 1 1 
0 -3 1 2 0 6 1 5 0 5 1 2 0 -3 1 -1 
1 -9 0 2 0 -1 1 1 0 4 2 0 1 -2 0 -5 
1 -2 1 0 0 3 1 -1 0 -1 1 -1 0 -1 0 1 
1 1 1 1 0 4 1 -2 0 -1 1 -1 0 -4 0 2 
1 1 0 1 1 3 0 -1 1 -1 0 -2 1 -5 0 -3 
1 1 0 4 1 1 0 5 1 0 0 2 0 -1 1 -1 
0 -2 0 1 1 -3 0 -1 1 -2 0 3 1 1 0 3 
1 0 1 5 0 -2 1 -1 0 -4 1 3 0 -2 1 2 
1 4 0 1 1 1 0 3 1 -1 0 -1 1 -1 0 1 
1 4 0 -1 0 1 1 -1 0 -7 1 5 0 4 1 2 
0 3 1 14 0 1 1 4 1 -1 0 -2 1 1 0 1 
1 4 0 6 0 -2 1 -2 0 2 1 -1 0 -13 1 1 
0 -3 1 1 0 -14 1 1 0 4 1 2 0 1 0 -1 
1 6 0 -2 1 3 0 -4 1 1 0 3 1 8 0 -2 
1 2 0 -3 1 -1 0 -2 1 -8 0 9 1 2 0 3 
1 -4 0 -11 1 2 0 -8 1 2 0 6 1 11 0 -2 
1 -1 0 -14 1 4 1 0 0 6 1 2 0 1 1 -4 
0 -12 1 -6 1 -5 0 7 1 7 0 -1 1 1 0 -3 
1 2 0 -7 1 0 0 3 0 -1 1 2 0 -3 1 -2 
0 2 1 -6 0 -2 2251 1162 300 MP stroke
1 -5 0 -2 1 5 0 7 1 -3 0 -8 2 -10 1 7 
0 8 0 -2 1 -4 0 -3 1 2 0 -6 1 -1 0 -3 
1 6 0 -1 0 1 1 -2 0 -4 1 4 0 -5 1 -1 
0 -1 1 8 0 -1 0 1 1 -3 0 -2 1 0 0 -7 
1 1 1 6 0 7 1 5 0 -1 1 2 0 -2 1 -1 
0 -5 1 5 0 1 1 1 0 4 1 3 0 -1 1 -2 
0 -5 1 1 0 2 1 2 0 4 1 4 0 1 1 2 
0 1 0 -1 1 4 1 -2 0 -5 1 -3 1 1 0 5 
1 1 1 5 0 -8 1 -1 1 -3 0 -10 1 -3 0 -1 
1 -3 0 -3 1 0 0 5 1 -1 0 -3 1 -1 0 -1 
2 -3 0 1 1 1 0 5 1 0 0 5 1 0 0 -1 
0 1 1 -2 0 -3 1 -1 0 -2 1 -1 0 -3 1 2 
0 -2 1 0 0 -11 1 -1 0 -5 1 0 0 -2 1 -2 
0 1 1 1 0 2 1 2 0 -2 1 -3 0 -7 1 -1 
0 -5 1 2 0 3 1 4 1 0 0 -2 1 -2 0 -3 
1 -3 1 -2 -1 0 2 2 0 -1 1 3 0 -3 1 -5 
0 -6 1 -6 1 -1 0 -1 0 1 1 2 1 1 -1 0 
2 -2 1 1 0 -2 1 -2 0 -2 1 -1 0 -3 1 -4 
0 -1 0 1 1 -1 0 -3 1 -1 0 -2 1 -2 1 0 
0 2 1 0 0 2 1 -2 0 -2 1 -1 0 -2 1 -1 
0 -2 2 -2 0 -13 1 0 0 2 1 -1 0 2 0 -3 
1 -3 1 -2 0 -7 1 -3 0 5 1 3 0 1 0 -1 
1 3 0 6 1 -2 0 -3 1 -1 0 3 1 1 0 -1 
0 1 1 -4 0 4 1 -3 0 1 1 1 0 9 1 -2 
0 -2 1 -2 0 -4 0 5 1 1 1 0 0 5 1 -1 
0 -1 1 -1 0 -1 0 7 1 -1 0 -4 1 -4 0 5 
1 -1 0 1 1 6 0 -1 0 6 1 -3 0 -2 1 -3 
0 -4 1 -1 0 -2 1 -1 0 -3 0 3 1 -1 0 1 
1 1 0 6 1 -1 1 0 0 -1 2 0 0 2 1 2 
1 0 0 1 0 -1 1 4 1 1 1 1 -1 0 2 -2 
0 -2 0 2 1 -5 0 1 1 1 0 6 1 1 0 3 
1 1 0 6 1 -2 1 -1 0 -3 0 6 1 1 0 3 
1 0 0 7 1 -2 0 -2 1 -1 0 -1 1 1 0 3 
1 0 0 7 1 -1 0 -1 1 2 0 -5 1 -2 0 -2 
1 -4 0 -1 1 3 0 -4 0 2 1 1 0 5 1 3 
0 3 0 -1 1 -1 0 -2 1 2 1 -1 1 1 0 -5 
1 1 0 1 1 3 0 8 1 -1 0 -1 1 -1 0 -3 
1 -1 1 -1 0 -1 2096 1236 300 MP stroke
1 2 0 -1 1 -2 0 -1 1 -1 0 1 0 -1 1 -1 
0 -3 1 -1 1 -1 0 -4 1 0 0 -2 1 2 1 1 
0 8 2 -3 0 -13 1 1 0 -1 1 -10 0 4 1 4 
0 2 1 6 0 1 1 7 0 -1 1 3 0 -7 1 2 
0 -3 1 -11 0 -2 1 1 1 0 -1 0 2 7 1 -1 
0 3 0 -1 2 -2 0 -4 1 5 0 -1 1 1 1 4 
0 -1 1 1 0 2 1 4 0 2 1 -1 0 -4 1 4 
0 -4 1 1 0 1 1 2 0 5 1 -1 1 2 0 3 
0 -2 1 -1 0 -7 1 5 1 -1 0 1 1 6 0 4 
0 -2 1 -4 0 -1 1 -5 0 6 1 2 0 1 1 -2 
0 9 1 3 0 1 1 2 0 11 0 -1 1 3 0 -3 
1 3 1 -5 0 3 1 3 0 13 1 10 1 0 0 11 
0 -1 1 -1 0 -4 1 0 0 2 1 2 0 4 1 2 
0 13 1 1 0 2 1 0 0 5 1 1 1 1 0 10 
1 -1 0 -4 1 -1 0 2 1 0 0 15 1 -5 1 -6 
0 -19 1 -3 0 -7 2 -2 0 6 1 -3 0 -11 1 0 
0 2 1 -1 0 2 1 -1 0 2 1 1 0 -6 1 -2 
1 -7 0 3 1 2 0 2 1 5 1 -1 0 3 1 1 
0 1 1 6 1 0 0 -7 1 -10 0 1 1 -6 0 2 
1 -1 0 3 1 2 0 5 1 6 1 1 0 -2 1 -5 
0 3 1 2 0 3 1 8 1 1 0 4 1 -2 0 -5 
1 -1 0 -4 1 1 0 6 1 0 0 2 1 -1 0 -11 
1 0 0 -3 1 2 0 5 1 2 0 4 1 1 0 1 
0 -2 1 1 0 1 1 1 0 1 1 -1 1 1 0 -1 
0 1 1 -6 0 -4 1 2 0 -1 1 2 0 1 1 1 
0 2 1 3 0 2 1 6 0 -2 1 5 0 -2 1 -3 
0 -10 1 -4 1 0 0 -4 1 3 1 1 0 -2 1 1 
0 1 1 2 0 4 1 1 0 4 1 0 0 3 0 -1 
1 -1 0 2 1 -2 0 -9 1 0 0 -2 1 1 0 2 
1 1 1 1 1 1 -1 0 2 0 1 4 -1 0 2 2 
0 -6 1 -1 0 -2 1 -7 0 1 1 -2 0 -1 0 1 
1 3 0 1 1 -2 0 -2 0 3 1 7 1 1 0 -1 
0 1 1 1 0 3 1 -1 0 3 1 -1 0 -2 1 -1 
0 -6 1 1 0 -1 1 1 0 6 1 0 1 0 1 -1 
-1 0 2 -2 0 1 1 1 0 2 1 2 1 0 1 -1 
0 -3 1 1 0 2 1 0 0 4 1 3 0 2 1 2 
0 12 1 1 0 7 1 -3 0 -9 1 -1 0 3 1 -4 
0 -3 1 -5 0 -6 1936 1144 300 MP stroke
1 -9 0 -1 1 -1 0 -2 1 -5 1 0 1 2 0 -1 
1 -1 0 -2 1 -1 1 -1 0 -2 1 1 0 1 1 -2 
0 -3 1 1 0 -4 1 -1 1 3 0 2 0 -1 1 -2 
0 -5 1 2 0 -1 1 -6 0 3 1 3 0 -1 1 5 
0 -2 1 -3 0 -8 0 2 1 -2 0 5 1 15 1 0 
1 0 0 6 0 -1 1 3 0 -7 1 -6 0 -2 1 -1 
0 -6 1 0 0 6 1 0 0 5 1 -2 0 2 0 -1 
1 -2 0 -5 1 0 0 3 1 -1 0 2 1 -1 0 5 
0 -2 1 2 0 -2 1 -4 0 -1 0 1 1 -5 1 1 
0 8 1 0 0 2 1 -2 0 4 0 -1 1 -1 0 -3 
1 -1 0 2 1 -1 0 2 1 4 0 10 1 -1 0 -1 
1 2 0 2 0 -6 1 -1 0 -3 1 -1 1 -2 1 1 
0 4 1 2 0 4 1 -2 0 -1 1 -1 0 -3 1 -4 
0 2 1 -4 0 -1 1 1 0 2 1 -3 0 -5 1 1 
0 5 1 0 0 6 1 1 0 9 1 0 0 4 1 1 
0 3 1 -2 0 -3 1 0 0 2 1 1 0 14 0 -3 
1 -4 0 -2 1 -4 0 -12 1 -7 0 2 1 -5 0 1 
1 3 0 10 1 1 1 1 0 2 1 1 0 1 1 1 
0 2 1 -1 0 -4 1 0 1 -1 1 0 -1 0 2 0 
0 -1 1 -1 0 3 1 -1 0 -4 1 1 0 -2 0 3 
1 7 0 1 1 5 0 1 1 -3 0 1 1 1 0 1 
0 -1 1 3 0 2 1 -1 0 -3 1 -7 1 3 0 -2 
1 -1 0 -1 1 -7 0 3 0 -1 1 4 0 10 1 3 
0 10 0 -3 1 2 0 -1 1 -3 0 7 1 -3 0 -3 
1 -4 0 -9 1 -4 0 -7 1 -4 0 -10 1 -7 1 0 
0 5 1 1 0 2 1 1 1 5 -1 0 2 -3 1 -1 
1 -2 0 1 1 1 0 2 1 -1 1 1 0 -2 1 -2 
0 -1 0 1 2 -2 0 1 1 5 0 4 1 -1 0 -1 
1 2 0 -7 1 1 1 15 0 -8 1 -5 0 -8 1 2 
0 -10 1 -2 0 -6 0 7 1 1 0 -1 1 5 0 -3 
1 3 0 -4 1 -8 0 -10 1 8 0 6 1 0 0 6 
1 5 0 -2 1 -2 0 -6 1 4 0 6 1 -1 0 4 
1 4 0 -6 1 -3 0 -6 1 5 0 1 1 2 0 -2 
1 0 1 -4 0 1 0 -3 1 7 0 8 1 1 0 6 
0 -2 1 5 0 -4 1 -4 0 -11 1 -4 0 -2 1 -2 
0 -1 0 3 1 -1 0 -9 1 -3 0 -9 1 -2 0 4 
1 4 0 12 1 7 0 1 1 5 0 3 1 3 0 -1 
1 -1 0 -1 1 2 1784 1165 300 MP stroke
0 -1 1 -1 0 3 0 -3 1 -4 0 -3 1 -5 0 -10 
1 2 0 -1 1 3 0 7 1 7 1 -1 0 1 0 -2 
1 -1 0 -2 1 -2 0 -1 1 -3 0 -3 1 0 0 2 
1 2 0 5 1 0 0 5 0 -2 1 -5 0 -1 1 -3 
0 -2 1 1 0 6 1 0 1 3 0 -7 1 0 0 -7 
1 4 0 11 1 8 1 4 0 -3 1 -6 0 -1 1 -6 
0 6 1 3 0 6 1 1 0 7 1 -1 0 -1 1 -1 
0 -2 0 1 1 2 1 -1 0 7 1 -2 0 -2 1 -2 
0 -7 1 1 1 1 0 3 0 -1 1 -1 0 -2 1 -7 
1 -3 0 10 1 2 0 6 1 0 0 3 1 -1 0 -2 
1 -2 0 -4 1 -4 0 -2 1 -3 0 5 1 4 0 -1 
0 5 2 0 0 -5 1 0 1 -1 0 -4 1 1 0 -1 
0 1 1 -1 1 4 0 6 1 -1 0 -3 1 -1 0 -3 
1 -2 0 -7 1 -1 0 -4 1 -2 1 5 0 -1 1 1 
0 -2 1 -5 0 -5 1 2 0 3 1 0 0 4 1 -1 
1 -1 0 -4 0 1 1 1 0 1 1 6 0 -1 0 3 
1 -2 0 -5 1 -3 0 -9 1 0 0 -5 1 2 0 6 
1 0 0 4 0 -3 1 -3 0 -2 1 -2 0 -7 1 -1 
1 -3 0 9 2 0 0 -1 0 1 1 -2 0 -1 1 -2 
0 -4 1 -8 1 1 1 0 -1 0 2 3 0 7 1 -1 
0 1 1 -2 0 -4 1 -2 0 -3 1 -1 0 -1 1 -2 
0 -2 1 -3 0 -1 0 1 1 -4 1 0 0 1 0 -1 
1 5 1 1 0 2 1 4 0 -3 1 -4 0 -6 1 -4 
0 -4 1 -10 0 -1 0 1 1 1 1 2 0 -1 0 2 
1 -2 0 -2 1 -3 0 -4 1 0 0 -3 1 -3 0 -6 
0 2 1 -5 1 -2 0 10 1 -1 0 4 1 -3 0 -4 
1 -1 0 -7 1 -1 0 3 1 4 0 2 0 -3 1 -2 
0 -4 1 2 0 -9 1 -2 0 1 1 4 0 8 1 -1 
0 1 1 7 0 -2 1 -1 1 4 1 5 0 -3 1 3 
0 -9 1 -3 0 1 1 5 0 3 1 5 1 9 0 -3 
1 0 0 -10 1 3 0 -7 1 2 0 4 1 7 0 4 
1 3 0 11 1 8 0 -1 1 1 1 3 1 1 0 5 
1 6 1 3 0 1 1 5 0 -2 1 -1 0 -3 1 7 
0 1 1 -1 0 -2 1 11 0 -4 1 1 0 -11 1 2 
0 -5 1 -11 0 -7 1 9 0 1 1 1 0 3 1 8 
0 -2 1 -2 0 -6 1 4 1 0 0 -1 0 1 1 13 
0 1 1 3 1 7 1 -2 1 8 0 1 1 1 1 1 
0 10 1 1 0 5 1628 1159 300 MP stroke
1 0 0 4 1 -1 0 -4 1 1 0 5 1 0 0 -7 
1 14 0 1 1 -6 0 -1 1 -1 0 -2 1 -3 0 -3 
1 -12 0 -3 1 2 0 1 1 2 0 5 1 1 0 2 
1 1 0 -1 0 1 1 1 0 5 1 1 0 2 1 3 
1 1 0 -3 1 -1 0 -4 2 1 1 2 0 2 1 3 
0 1 1 2 0 -1 0 1 1 -1 0 1 1 -3 0 -1 
0 4 1 2 0 2 1 6 0 -6 1 -1 0 -6 1 2 
0 -6 1 5 0 12 1 3 0 5 1 0 0 2 0 -2 
1 -3 0 -3 1 -8 0 1 1 3 0 -5 1 -9 0 1 
1 1 0 -3 1 1 0 3 1 -1 0 -5 1 0 0 1 
0 -1 1 -4 0 -3 1 1 0 -4 0 3 1 3 0 1 
1 9 0 7 1 1 0 -3 1 2 1 -1 0 -5 1 -1 
0 -3 1 0 0 -2 1 1 0 1 1 1 0 2 0 -2 
1 2 0 3 1 1 1 2 0 4 1 -1 0 -2 1 -1 
0 -1 0 1 1 -6 0 -3 1 1 0 4 1 4 0 -2 
1 0 1 -1 0 -4 1 -2 0 1 1 -1 0 1 0 -2 
1 2 0 5 1 1 0 1 1 1 0 2 1 -1 0 -4 
1 -4 1 0 0 -2 1 0 1 0 -1 0 2 3 0 3 
1 1 0 3 1 -1 0 -1 1 -2 0 -6 1 -5 1 0 
-1 0 2 0 0 1 1 -1 0 5 1 1 1 5 0 -3 
1 -1 1 -6 -1 0 2 3 1 -1 0 -1 1 1 0 -1 
0 1 1 3 0 6 1 -1 0 1 1 -1 0 -1 1 -1 
0 -2 2 2 0 3 1 2 0 3 1 2 0 3 0 -2 
1 0 0 -3 1 1 0 -17 2 1 0 2 1 2 0 7 
1 4 0 -2 1 -5 1 1 0 -2 0 1 1 5 1 4 
0 -1 0 1 1 -4 0 -2 1 3 0 5 1 1 0 3 
1 1 0 -4 1 -4 0 1 1 4 0 3 1 3 0 1 
1 7 1 0 -1 0 2 0 0 -9 1 -1 0 -2 1 2 
1 0 -1 0 2 -2 0 1 1 -3 0 4 1 6 0 1 
1 5 1 -1 0 -5 1 -1 0 -2 1 1 0 2 2 3 
0 1 1 -1 0 3 1 1 0 1 1 1 0 -1 0 1 
1 1 0 -1 1 -1 0 -3 0 1 1 1 1 1 0 4 
0 -2 1 1 0 -3 1 -10 0 -1 1 1 0 2 1 3 
0 3 1 -1 0 -3 1 0 0 -4 0 2 1 4 1 1 
0 5 0 -2 1 -1 0 -4 1 -6 0 -10 1 -2 0 -9 
1 -16 1 3 0 4 0 -2 1 6 0 19 1 2 0 12 
0 -1 1 -2 1 -3 0 1 1 1 1 -2 0 2 1 -1 
0 -1 1 -2 0 -10 1474 1139 300 MP stroke
1 1 0 3 1 0 0 -4 1 -3 1 1 0 5 1 2 
0 4 1 1 1 1 0 -2 1 2 0 2 1 3 1 2 
0 -1 0 1 1 -3 1 -2 1 0 0 6 1 0 0 1 
0 -1 1 -2 1 -6 1 3 0 5 1 7 0 1 1 9 
0 3 1 -1 0 -3 1 -1 0 -3 1 -2 0 -12 0 2 
1 2 0 1 1 2 0 -4 1 3 0 -1 1 -1 0 -4 
1 1 0 -1 0 1 1 -5 0 -3 1 -1 0 -2 2 1 
1 1 -1 0 2 0 0 3 1 -2 0 -5 1 -1 0 -7 
0 1 1 -2 0 1 1 2 0 1 0 -1 1 5 0 -2 
1 0 0 -1 0 1 1 -3 0 -5 1 1 0 3 1 2 
1 -1 0 2 0 -2 1 -1 0 -2 1 -5 0 -1 1 -2 
0 -1 0 1 1 1 0 2 1 0 0 3 1 -2 0 1 
1 1 0 7 1 4 1 2 0 -2 0 6 1 -3 0 -2 
1 -4 0 -6 1 -13 1 0 1 5 -1 0 2 -3 0 -5 
1 1 1 2 0 9 1 5 1 -1 0 -6 0 4 1 6 
1 2 0 -1 0 6 1 -3 0 -8 1 -1 0 -6 0 2 
1 -5 0 3 1 2 0 9 1 7 0 -2 1 0 0 -5 
1 0 0 -3 1 0 0 -1 0 1 1 1 1 1 0 4 
1 3 1 1 0 -2 0 1 1 -2 0 -5 1 0 0 -2 
0 2 2 2 0 1 1 4 0 4 1 2 0 5 1 -1 
0 2 1 -3 1 -2 0 -12 1 -9 0 2 2 5 0 -1 
1 4 0 -8 1 0 0 -2 1 2 0 1 1 7 0 -2 
1 0 0 -11 1 -1 1 1 0 3 1 -1 1 0 0 -7 
1 -1 0 -1 1 3 0 -3 1 -2 0 -2 2 -5 1 2 
0 2 0 -1 1 2 0 -3 1 2 0 -13 1 -2 0 -1 
1 3 0 -6 0 1 1 1 0 6 1 3 1 -1 0 3 
0 -3 1 1 0 -3 1 -7 0 -7 1 4 0 -2 1 -3 
0 -6 1 -2 1 -1 0 -2 1 10 0 -2 1 3 0 -5 
1 4 0 -9 1 -1 0 -6 0 1 1 10 0 1 1 8 
0 -4 1 6 0 -2 1 -6 0 -1 0 1 1 7 0 3 
1 -3 0 -7 1 1 0 -2 1 -7 0 5 1 10 0 13 
1 2 0 20 1 8 0 19 1 -4 1 -3 0 -8 1 -4 
0 -4 1 -11 0 -9 1 0 1 -1 1 7 0 -3 1 -2 
0 -8 1 3 0 -3 1 -5 0 -13 1 -1 0 1 1 -2 
0 1 0 -3 1 -3 0 -3 1 -5 0 3 0 -1 1 3 
0 -2 1 -3 0 3 0 -2 1 -8 0 1 1 -1 0 5 
1 6 0 -1 1 6 0 -6 1 -11 0 -2 1 -3 0 -4 
2 -3 0 1 0 -2 1319 1226 300 MP stroke
1 -8 1 1 0 4 1 8 0 -2 1 -2 0 2 0 -3 
1 -2 0 -4 1 -2 0 2 0 -2 1 -2 0 -7 1 0 
0 3 1 -3 0 1 1 5 0 3 1 -1 0 -2 1 -2 
0 3 1 -1 0 1 0 -3 1 -2 0 2 1 -3 0 -7 
1 -3 0 -5 1 -1 0 4 0 -2 1 -1 0 1 1 -2 
0 -1 0 2 1 -3 0 2 1 -2 0 -4 1 -1 0 4 
1 -2 1 0 0 4 1 -3 0 1 1 1 0 5 1 6 
0 -3 1 -2 0 2 1 -1 0 -2 1 2 0 3 1 -1 
0 -5 1 1 0 5 1 1 0 5 1 0 0 5 1 -1 
1 -2 0 -3 1 -1 0 -9 1 1 0 2 1 1 0 2 
1 8 0 -1 0 1 1 2 0 -3 1 -6 0 -1 0 1 
1 1 0 -2 1 -3 0 -2 1 -1 0 -2 1 -1 0 -3 
1 -5 1 1 0 2 1 0 1 0 0 -1 0 2 2 2 
0 -6 0 3 1 2 0 7 1 0 0 7 1 -2 0 -3 
1 -1 0 -1 0 1 1 -6 1 1 1 -1 1 -2 0 1 
0 -1 1 1 1 4 0 -4 1 -2 0 -2 1 -8 0 -4 
1 -1 0 1 1 4 0 1 0 -4 1 2 1 0 0 -3 
1 2 1 -6 0 3 0 -1 1 3 0 2 1 3 0 4 
1 10 0 1 1 2 0 4 1 7 0 -1 1 -1 0 2 
1 -3 0 -15 0 1 2 3 0 6 0 -1 1 -2 0 3 
1 -3 0 -12 1 0 0 -8 1 2 0 7 1 3 0 12 
1 0 1 0 0 -3 1 2 0 2 1 3 0 2 1 2 
0 7 1 3 0 3 1 4 0 12 1 2 0 1 1 2 
0 6 1 1 0 1 1 -9 0 14 1 2 0 3 1 18 
0 -3 1 -2 0 -2 1 -2 0 -3 1 -2 0 -4 1 -8 
0 -3 1 -2 0 -5 1 3 0 -2 1 -2 0 3 0 -3 
1 -8 0 1 1 2 0 -2 0 3 1 3 0 20 1 10 
0 111 2 2 0 -190 1 8 0 56 1 6 0 105 0 -2 
1 -2 0 -27 1 2 0 2 1 1 0 -6 2 -10 1 0 
-1 0 2 -5 0 -2 1 -1 0 -2 1 0 0 -18 1 -1 
0 -1 1 -3 0 -2 1 -4 1 4 0 -1 1 -1 0 -2 
1 -5 1 -1 1 6 0 -3 1 -1 0 -4 1 -11 0 1 
1 -4 0 1 1 6 0 2 1 4 0 -1 1 -1 0 -2 
1 1 0 -1 1 -1 0 5 0 -3 1 -3 0 -2 1 -2 
0 -10 0 1 1 1 0 2 1 1 0 10 1 0 0 7 
1 -3 0 -3 1 -4 0 -8 1 -2 0 -5 0 1 1 1 
0 11 1 -2 0 4 0 -2 1 -2 0 -1 1 -2 0 3 
1 -7 0 -3 1 -2 1168 1195 300 MP stroke
0 4 0 -11 1 1 0 2 1 1 0 6 1 8 0 -1 
1 3 0 3 0 -2 1 -3 0 -3 1 -8 0 4 1 0 
0 -3 0 1 1 4 0 5 1 1 0 5 0 -1 1 -1 
0 3 1 -1 0 -4 1 0 0 2 1 0 0 3 1 -1 
0 2 1 0 1 -1 0 3 1 0 0 -2 0 1 1 1 
0 4 1 1 0 1 0 -1 1 4 0 4 1 0 0 -1 
0 5 1 -2 0 -11 1 0 0 2 1 -1 0 -1 1 -3 
0 1 1 -2 1 -1 0 2 1 2 0 5 1 8 1 -1 
0 1 0 -2 1 -2 0 -14 1 2 0 5 1 3 0 10 
1 1 0 7 1 -1 0 -6 1 1 0 1 1 1 0 2 
1 7 0 5 1 1 1 15 0 -4 1 -4 0 -8 1 -5 
0 -5 1 -10 0 -4 1 -4 0 -13 1 -9 1 1 0 -2 
0 1 1 5 0 1 1 1 0 5 0 -1 1 -1 1 -1 
0 2 0 -1 1 -1 0 -5 1 1 0 4 1 -1 0 2 
1 -3 0 -6 1 -2 0 -2 1 1 0 -6 1 -18 0 2 
1 1 0 5 1 -2 0 5 1 5 0 15 1 14 1 1 
0 5 1 1 0 -2 1 -1 0 -3 1 0 0 -10 1 1 
0 1 1 -7 0 27 1 0 0 1 0 -1 1 1 1 6 
0 -2 1 -4 0 -4 1 -9 1 0 0 2 0 -1 2 -3 
0 -5 0 1 1 6 0 -1 1 1 0 -15 1 -1 1 -7 
0 3 1 -4 0 4 1 5 0 8 1 8 0 3 1 6 
0 8 1 -2 0 -2 1 -3 0 -9 1 0 0 1 0 -3 
1 2 0 3 1 6 0 2 1 4 0 1 0 -1 1 4 
0 2 1 -2 0 -2 1 -1 0 -9 1 -1 1 0 0 -3 
0 2 1 2 0 3 1 3 0 7 1 -1 1 5 0 -8 
1 -5 0 -5 1 -8 0 -17 1 -5 0 -10 1 0 0 -7 
0 3 1 2 0 2 1 12 0 7 1 -2 0 -1 1 -1 
0 -2 1 -1 1 0 0 2 1 4 0 1 1 2 0 5 
0 -3 2 2 0 -9 1 -6 0 -2 1 -2 0 -6 1 0 
0 -1 0 1 1 2 0 1 1 7 0 -1 0 2 1 -4 
0 -3 1 -4 0 -10 1 -7 0 -1 1 -6 0 6 1 1 
0 2 1 2 0 15 1 0 0 5 1 -4 0 5 0 -6 
1 -9 0 -3 1 -9 0 5 0 -6 1 1 0 2 1 1 
0 13 1 0 0 3 1 0 0 8 0 -1 1 2 0 -2 
1 -2 0 2 0 -8 1 0 1 0 0 6 1 -1 0 2 
1 -3 0 -5 0 1 1 1 0 1 1 4 0 1 1 -5 
0 -11 1 -2 0 -5 1 -3 0 2 1 5 0 4 1 6 
0 -1 1 3 0 -3 1023 1204 300 MP stroke
1 -3 0 -8 1 -1 1 -1 0 2 1 3 0 4 1 1 
0 1 1 1 0 3 1 2 0 -5 1 -2 0 6 1 -3 
0 -8 1 -9 0 6 1 4 0 1 0 -1 1 6 0 4 
1 1 0 -1 1 1 0 8 1 0 0 3 0 -3 1 -5 
0 4 1 -6 0 -5 1 2 0 8 1 3 0 10 1 7 
0 8 1 -1 0 5 0 -3 1 -1 0 3 1 -5 0 -14 
1 -2 0 2 1 -1 0 -3 1 1 0 10 1 0 1 0 
0 6 2 4 0 -1 0 7 1 -1 0 -2 1 -2 0 -1 
1 1 0 -1 1 2 0 12 1 0 0 -2 1 1 0 -4 
1 -2 0 -5 1 -1 0 -4 0 7 1 1 0 2 1 2 
0 12 1 7 0 -6 1 -12 0 -3 1 -3 0 -6 1 -1 
0 3 1 -1 1 -2 0 -3 0 3 1 -4 1 -1 0 11 
1 2 0 7 1 0 0 8 1 -1 1 -2 0 -1 0 2 
1 -7 1 -2 0 -3 1 3 0 12 1 -1 0 -1 0 5 
1 -2 0 -3 1 -3 0 -6 0 2 1 -4 1 -2 0 3 
1 1 1 1 0 2 1 3 0 9 1 5 0 12 1 5 
0 2 1 6 0 1 1 2 0 3 1 1 1 -1 0 -7 
1 4 0 5 1 4 0 9 1 9 0 -2 1 -11 0 1 
2 3 0 -1 0 1 1 -3 0 3 1 -5 0 -2 1 -4 
0 -12 1 -7 0 2 0 -7 1 -6 0 -8 1 -23 0 -17 
1 -1 0 -1 1 1 0 7 1 3 0 4 1 2 0 10 
1 15 0 5 1 8 0 13 6 6 1 -6 0 -14 1 -6 
0 -4 1 -9 0 -3 1 -3 0 -5 1 0 0 1 0 -1 
1 2 0 4 1 3 0 6 1 1 0 2 1 3 0 7 
1 -2 0 -1 1 2 0 -7 1 -5 0 -7 1 -1 0 -3 
1 -3 0 -1 1 -3 0 -5 1 -2 0 -2 0 1 1 4 
1 2 1 -1 0 -2 1 -1 0 -1 0 2 1 -2 0 -4 
1 -1 0 -3 0 2 1 1 0 8 1 -1 1 0 1 -2 
0 -1 1 1 1 2 0 7 0 -1 1 2 0 -3 1 -3 
0 -5 1 -12 0 -1 1 -2 0 3 1 2 0 3 1 1 
0 7 1 -1 0 1 1 -2 0 -3 1 -2 0 -2 1 -6 
0 1 1 -3 -1 0 2 0 0 1 1 1 0 1 0 -2 
1 4 0 11 1 2 0 2 1 3 0 7 1 3 0 2 
1 4 0 5 1 2 0 6 1 -1 0 -1 1 -3 0 2 
1 -2 0 1 0 -4 1 -9 0 -2 1 -7 0 2 1 2 
0 2 1 2 0 9 1 0 0 3 1 -2 0 -5 1 0 
0 -1 0 2 1 -2 0 -3 1 -2 0 -5 1 -6 0 3 
1 2 0 6 1 10 868 1140 300 MP stroke
1 1 0 -5 1 -2 0 -8 1 0 0 -1 0 2 1 1 
0 1 1 2 0 4 1 3 0 1 1 4 0 5 1 8 
0 -2 1 -4 0 1 1 1 0 2 1 0 0 -2 0 1 
1 2 0 -2 1 3 0 6 1 5 1 8 0 -1 1 -1 
0 -5 1 1 0 -5 1 -1 0 -12 1 2 0 1 1 12 
0 -6 1 -2 0 -2 1 -3 0 -8 1 -1 0 -4 1 -2 
0 -5 1 -2 0 -1 1 -1 0 -6 1 -7 0 3 1 1 
0 3 1 2 0 6 1 1 0 4 1 -1 0 1 1 -2 
0 -10 1 -6 0 4 1 5 0 4 1 13 0 4 1 11 
0 1 0 -2 2 0 0 -10 1 -1 0 -2 1 0 0 -4 
1 2 0 4 1 3 0 1 1 5 0 4 1 7 0 1 
0 -3 1 3 1 0 0 -14 1 3 0 2 1 3 0 2 
0 -3 1 4 0 12 1 0 0 9 1 -5 0 -9 1 -3 
0 -10 1 -6 0 -5 0 2 1 5 0 1 1 -5 0 -1 
0 2 1 4 0 2 1 4 0 -7 1 0 1 -6 0 -7 
1 3 0 -2 1 1 0 13 1 2 0 2 1 -2 0 3 
0 -3 1 -10 0 -1 1 -3 0 -4 0 1 1 3 0 -1 
1 4 0 -12 1 -3 0 -3 1 -7 0 -9 1 -1 0 -2 
1 -1 0 -5 1 3 0 6 1 3 0 6 1 12 0 36 
1 -3 0 -26 1 -2 0 -3 1 -3 1 -1 1 -2 0 1 
1 1 0 2 1 -1 0 3 1 -2 0 -7 1 -2 0 -10 
1 3 0 3 1 4 0 11 1 0 0 5 0 -2 1 -3 
0 -2 1 -3 0 -4 1 -1 0 -1 1 -6 0 2 1 2 
0 6 1 0 0 5 0 -2 1 -3 0 -2 1 -2 0 -6 
1 -2 1 -3 0 3 1 -1 0 3 1 9 0 5 1 -1 
0 -2 1 -1 0 -2 1 -1 1 1 0 -3 0 2 1 2 
0 1 2 2 0 3 0 -1 1 -4 0 -1 1 -10 0 4 
1 3 0 3 1 6 0 1 0 -1 1 5 0 3 1 -2 
0 -6 1 -1 0 -4 1 -1 0 -2 1 -2 0 1 2 2 
0 1 1 1 0 -1 0 1 1 -1 0 -4 1 0 0 -7 
1 2 1 3 0 7 1 7 1 -1 0 -2 1 -1 0 -2 
1 -3 0 -3 1 -5 0 -6 1 0 0 -3 1 0 0 -1 
0 1 1 -4 0 -2 1 -16 0 3 1 4 0 2 1 4 
0 10 1 6 0 4 1 13 0 13 1 -1 0 -2 1 1 
0 -10 1 -1 0 -6 1 1 0 2 1 5 1 -1 0 1 
0 -1 1 -4 1 -1 0 7 1 0 0 5 1 -3 0 -7 
1 -1 0 -5 1 2 0 5 1 3 1 -1 1 -1 0 -2 
1 2 0 -2 0 1 718 1146 300 MP stroke
1 -3 0 -5 1 -2 0 -9 1 -1 0 -5 1 2 0 3 
1 3 0 1 1 6 1 0 0 3 0 -1 1 3 0 -3 
1 -5 0 -11 1 -2 0 -7 1 0 1 1 0 4 1 -1 
0 1 0 -3 1 -5 0 -2 1 -1 0 -5 1 -2 1 -1 
0 1 1 1 0 3 1 0 0 4 1 -1 0 1 1 -2 
0 -3 1 -2 0 -2 1 1 0 -3 0 1 1 -1 0 -4 
1 -7 0 -9 1 -1 0 -4 1 2 0 6 1 3 0 4 
1 2 0 11 1 4 1 0 0 -1 0 2 1 -2 1 -1 
0 4 1 -1 0 3 1 -3 0 -5 1 -3 1 -4 0 -5 
1 -5 0 -6 1 -8 0 -7 1 0 1 -1 0 3 1 2 
0 8 1 8 0 31 2 9 0 61 1 -1 0 2 0 -5 
1 -15 0 -5 1 -18 0 -17 1 0 0 -6 1 2 0 5 
1 2 0 5 1 1 0 3 1 -1 1 1 1 1 1 -1 
1 1 0 -1 1 -1 0 -4 1 -1 1 1 0 3 1 4 
0 -1 1 -3 0 -6 1 1 0 -2 1 4 0 9 1 2 
0 4 1 0 1 -1 1 -1 1 1 1 0 1 0 -1 0 
2 2 0 2 1 0 0 1 0 -2 1 -3 0 -2 1 -3 
0 -8 0 1 1 -1 0 2 1 4 0 6 1 2 0 2 
1 1 0 3 1 3 0 -1 1 -1 0 1 0 -2 1 1 
0 -3 1 -7 0 -5 1 0 1 -2 0 -3 1 -2 0 -3 
1 -1 0 -2 1 -1 0 -1 1 -2 0 3 1 -1 0 -14 
1 2 0 5 1 3 0 3 1 3 0 6 1 2 0 10 
1 1 0 -4 1 2 0 -1 1 -2 0 3 1 3 0 4 
1 0 0 3 1 -2 0 -3 1 -3 1 -5 0 4 1 6 
0 -2 1 -4 0 -4 1 0 1 -1 0 3 1 -1 0 -6 
1 -2 0 -3 1 -5 0 -2 1 -2 1 -1 1 -1 0 -4 
0 3 1 6 0 1 1 1 0 7 1 5 0 1 1 4 
0 2 0 -1 1 -1 0 -3 1 -1 0 1 0 -1 1 -2 
1 -1 0 -2 1 0 0 2 1 0 0 2 1 0 0 2 
1 -2 0 -3 1 0 1 0 0 2 1 4 1 -1 1 -3 
1 1 0 3 1 -1 0 3 0 -3 1 -7 1 -3 0 1 
1 1 0 2 1 3 0 1 1 1 0 -2 1 2 0 -1 
0 1 1 3 0 1 1 4 0 -1 0 1 1 -2 0 -2 
1 -3 0 -5 1 -1 0 -2 2 -2 0 2 1 0 0 5 
1 2 0 6 1 1 0 5 1 -1 0 2 1 -2 0 -4 
1 -1 1 -2 0 -1 0 1 1 -3 1 -1 1 0 0 2 
1 0 0 2 1 -2 0 -4 1 -5 0 1 1 -1 0 8 
2 0 0 -3 0 2 558 1154 300 MP stroke
1 -2 0 2 1 2 0 8 1 4 1 0 0 -2 1 -2 
0 -1 1 -2 0 -2 1 -9 0 -1 1 -2 0 -1 1 1 
0 1 1 1 0 7 1 1 0 2 1 0 0 3 1 -1 
0 -1 1 -1 0 -1 1 -1 1 -1 0 -3 0 2 1 -2 
1 0 0 2 1 2 1 -1 0 -2 1 -1 1 0 -1 0 
2 5 0 -3 1 -3 0 -6 0 1 1 -6 0 -1 1 -1 
0 -1 0 5 1 -2 1 -1 0 -2 1 3 0 -3 1 -2 
0 -2 0 4 1 -1 0 -1 1 -1 0 -1 1 3 0 -2 
1 -1 0 -1 1 6 0 -6 1 -3 0 -5 1 2 0 -9 
1 1 0 -1 1 5 0 -3 1 -1 0 -2 1 4 0 2 
0 -1 1 2 0 -2 1 3 0 -7 1 -6 0 -3 1 -3 
0 -1 0 1 1 -4 1 7 0 -1 0 3 1 -3 0 -5 
1 3 0 -5 1 -5 0 -1 1 3 0 -3 1 1 1 7 
0 -4 1 -3 0 -2 1 -1 0 -1 1 -3 0 3 1 3 
0 2 1 -2 0 -3 1 3 0 -3 1 0 0 4 0 -2 
1 3 0 -1 1 -2 0 -8 1 2 0 -2 1 -1 0 -1 
0 2 1 2 0 -3 1 -2 0 -12 1 3 0 -1 1 -2 
0 1 1 7 1 3 0 -4 1 3 0 -2 1 -2 0 -4 
1 2 1 0 0 3 0 -1 1 4 1 -1 0 -2 1 4 
0 -5 1 0 1 -1 0 6 1 4 0 -4 1 4 0 -1 
1 -3 1 -1 0 8 0 -3 1 -4 0 -2 1 1 1 1 
1 1 0 12 0 -3 1 -2 0 -4 1 -2 0 4 0 -3 
1 -2 0 -6 1 0 0 6 0 -6 1 3 0 3 1 4 
0 23 1 0 1 1 0 6 1 -1 1 1 0 5 0 -1 
1 1 0 -1 1 -4 0 5 0 -1 1 -4 0 1 1 1 
0 8 1 5 0 -1 1 -1 0 3 0 -1 1 -1 0 -2 
1 -2 0 -2 1 0 0 4 1 -1 0 2 1 0 1 0 
0 4 1 1 0 6 1 -1 0 4 1 3 0 -11 1 -1 
0 3 1 -6 0 3 1 2 0 6 1 3 0 2 1 4 
0 4 1 7 0 -2 1 -4 1 0 0 -1 0 1 1 1 
0 1 1 1 0 4 1 2 0 2 1 0 0 -2 1 1 
1 1 0 1 0 -2 1 -6 0 1 1 -1 0 -4 1 1 
0 4 1 -1 0 2 0 -2 1 -3 0 -2 1 -3 0 -7 
1 -1 0 -3 1 0 0 1 0 -3 1 2 0 7 1 1 
0 6 1 -2 0 1 1 -3 0 -2 1 -5 0 -4 2 0 
0 2 1 -1 0 -1 1 -3 0 3 2 0 0 6 1 3 
0 9 412 1149 290 MP stroke
gr

6.25 w
c10
0 sg
1411  968 mt 
(East time plot) s
1504 1731 mt 
(Time [s]) s
 216 1439 mt  -90 rotate
(East [m]) s
90 rotate
%%IncludeResource: font Helvetica
/Helvetica /ISOLatin1Encoding 41.6667 FMSR

 406 1591 mt 
( ) s
2860 1040 mt 
( ) s
2.08333 w
1 sg
0 228 824 0 0 -228 432 1556 4 MP
PP
-824 0 0 228 824 0 0 -228 432 1556 5 MP stroke
1.38889 w
DO
SO
2.08333 w
0 sg
 432 1556 mt 1256 1556 L
 432 1328 mt 1256 1328 L
 432 1556 mt  432 1328 L
1256 1556 mt 1256 1328 L
 432 1556 mt 1256 1556 L
 432 1556 mt  432 1328 L
 432 1556 mt 1256 1556 L
 432 1328 mt 1256 1328 L
 432 1556 mt  432 1328 L
1256 1556 mt 1256 1328 L
%%IncludeResource: font Helvetica
/Helvetica /ISOLatin1Encoding 58.3333 FMSR

 599 1391 mt 
(Virtual diver measured) s
gs 432 1328 825 229 rc
gs 495 1343 53 53 rc
c8
 513 1361 mt  529 1377 L
 529 1361 mt  513 1377 L
gr

c8
gr

c8
0 sg
 599 1464 mt 
(Virtual diver estimated) s
gs 432 1328 825 229 rc
8.33333 w
c9
129 0 457 1442 2 MP stroke
gr

8.33333 w
c9
0 sg
 599 1536 mt 
(ASV) s
%%IncludeResource: font Helvetica-Oblique
/Helvetica-Oblique /ISOLatin1Encoding 58.3333 FMSR

 715 1536 mt 
( PlaDyPos) s
%%IncludeResource: font Helvetica
/Helvetica /ISOLatin1Encoding 58.3333 FMSR

 984 1536 mt 
( estimated) s
gs 432 1328 825 229 rc
6.25 w
c10
129 0 457 1514 2 MP stroke
2.08333 w
gr

2.08333 w
c10

end %%Color Dict

eplot
%%EndObject

epage
end

showpage

%%Trailer
%%EOF
