%!PS-Adobe-3.0 EPSF-3.0
%%Creator: MATLAB, The MathWorks, Inc. Version 8.3.0.532 (R2014a). Operating System: Linux 3.13.0-49-generic #83-Ubuntu SMP Fri Apr 10 20:11:33 UTC 2015 x86_64.
%%Title: /home/dnad/Documents/publication/ram2014_data/figures/Figure5_a_tracking_error_diver.eps
%%CreationDate: 04/23/2015  14:06:45
%%DocumentNeededFonts: Helvetica
%%DocumentProcessColors: Cyan Magenta Yellow Black
%%LanguageLevel: 2
%%Pages: 1
%%BoundingBox:   -62   183   637   615
%%EndComments

%%BeginProlog
% MathWorks dictionary
/MathWorks 160 dict begin
% definition operators
/bdef {bind def} bind def
/ldef {load def} bind def
/xdef {exch def} bdef
/xstore {exch store} bdef
% operator abbreviations
/c  /clip ldef
/cc /concat ldef
/cp /closepath ldef
/gr /grestore ldef
/gs /gsave ldef
/mt /moveto ldef
/np /newpath ldef
/cm /currentmatrix ldef
/sm /setmatrix ldef
/rm /rmoveto ldef
/rl /rlineto ldef
/s {show newpath} bdef
/sc {setcmykcolor} bdef
/sr /setrgbcolor ldef
/sg /setgray ldef
/w /setlinewidth ldef
/j /setlinejoin ldef
/cap /setlinecap ldef
/rc {rectclip} bdef
/rf {rectfill} bdef
% page state control
/pgsv () def
/bpage {/pgsv save def} bdef
/epage {pgsv restore} bdef
/bplot /gsave ldef
/eplot {stroke grestore} bdef
% orientation switch
/portraitMode 0 def /landscapeMode 1 def /rotateMode 2 def
% coordinate system mappings
/dpi2point 0 def
% font control
/FontSize 0 def
/FMS {/FontSize xstore findfont [FontSize 0 0 FontSize neg 0 0]
  makefont setfont} bdef
/reencode {exch dup where {pop load} {pop StandardEncoding} ifelse
  exch dup 3 1 roll findfont dup length dict begin
  { 1 index /FID ne {def}{pop pop} ifelse } forall
  /Encoding exch def currentdict end definefont pop} bdef
/isroman {findfont /CharStrings get /Agrave known} bdef
/FMSR {3 1 roll 1 index dup isroman {reencode} {pop pop} ifelse
  exch FMS} bdef
/csm {1 dpi2point div -1 dpi2point div scale neg translate
 dup landscapeMode eq {pop -90 rotate}
  {rotateMode eq {90 rotate} if} ifelse} bdef
% line types: solid, dotted, dashed, dotdash
/SO { [] 0 setdash } bdef
/DO { [.5 dpi2point mul 4 dpi2point mul] 0 setdash } bdef
/DA { [6 dpi2point mul] 0 setdash } bdef
/DD { [.5 dpi2point mul 4 dpi2point mul 6 dpi2point mul 4
  dpi2point mul] 0 setdash } bdef
% macros for lines and objects
/L {lineto stroke} bdef
/MP {3 1 roll moveto 1 sub {rlineto} repeat} bdef
/AP {{rlineto} repeat} bdef
/PDlw -1 def
/W {/PDlw currentlinewidth def setlinewidth} def
/PP {closepath eofill} bdef
/DP {closepath stroke} bdef
/MR {4 -2 roll moveto dup  0 exch rlineto exch 0 rlineto
  neg 0 exch rlineto closepath} bdef
/FR {MR stroke} bdef
/PR {MR fill} bdef
/L1i {{currentfile picstr readhexstring pop} image} bdef
/tMatrix matrix def
/MakeOval {newpath tMatrix currentmatrix pop translate scale
0 0 1 0 360 arc tMatrix setmatrix} bdef
/FO {MakeOval stroke} bdef
/PO {MakeOval fill} bdef
/PD {currentlinewidth 2 div 0 360 arc fill
   PDlw -1 eq not {PDlw w /PDlw -1 def} if} def
/FA {newpath tMatrix currentmatrix pop translate scale
  0 0 1 5 -2 roll arc tMatrix setmatrix stroke} bdef
/PA {newpath tMatrix currentmatrix pop	translate 0 0 moveto scale
  0 0 1 5 -2 roll arc closepath tMatrix setmatrix fill} bdef
/FAn {newpath tMatrix currentmatrix pop translate scale
  0 0 1 5 -2 roll arcn tMatrix setmatrix stroke} bdef
/PAn {newpath tMatrix currentmatrix pop translate 0 0 moveto scale
  0 0 1 5 -2 roll arcn closepath tMatrix setmatrix fill} bdef
/vradius 0 def /hradius 0 def /lry 0 def
/lrx 0 def /uly 0 def /ulx 0 def /rad 0 def
/MRR {/vradius xdef /hradius xdef /lry xdef /lrx xdef /uly xdef
  /ulx xdef newpath tMatrix currentmatrix pop ulx hradius add uly
  vradius add translate hradius vradius scale 0 0 1 180 270 arc 
  tMatrix setmatrix lrx hradius sub uly vradius add translate
  hradius vradius scale 0 0 1 270 360 arc tMatrix setmatrix
  lrx hradius sub lry vradius sub translate hradius vradius scale
  0 0 1 0 90 arc tMatrix setmatrix ulx hradius add lry vradius sub
  translate hradius vradius scale 0 0 1 90 180 arc tMatrix setmatrix
  closepath} bdef
/FRR {MRR stroke } bdef
/PRR {MRR fill } bdef
/MlrRR {/lry xdef /lrx xdef /uly xdef /ulx xdef /rad lry uly sub 2 div def
  newpath tMatrix currentmatrix pop ulx rad add uly rad add translate
  rad rad scale 0 0 1 90 270 arc tMatrix setmatrix lrx rad sub lry rad
  sub translate rad rad scale 0 0 1 270 90 arc tMatrix setmatrix
  closepath} bdef
/FlrRR {MlrRR stroke } bdef
/PlrRR {MlrRR fill } bdef
/MtbRR {/lry xdef /lrx xdef /uly xdef /ulx xdef /rad lrx ulx sub 2 div def
  newpath tMatrix currentmatrix pop ulx rad add uly rad add translate
  rad rad scale 0 0 1 180 360 arc tMatrix setmatrix lrx rad sub lry rad
  sub translate rad rad scale 0 0 1 0 180 arc tMatrix setmatrix
  closepath} bdef
/FtbRR {MtbRR stroke } bdef
/PtbRR {MtbRR fill } bdef
/stri 6 array def /dtri 6 array def
/smat 6 array def /dmat 6 array def
/tmat1 6 array def /tmat2 6 array def /dif 3 array def
/asub {/ind2 exch def /ind1 exch def dup dup
  ind1 get exch ind2 get sub exch } bdef
/tri_to_matrix {
  2 0 asub 3 1 asub 4 0 asub 5 1 asub
  dup 0 get exch 1 get 7 -1 roll astore } bdef
/compute_transform {
  dmat dtri tri_to_matrix tmat1 invertmatrix 
  smat stri tri_to_matrix tmat2 concatmatrix } bdef
/ds {stri astore pop} bdef
/dt {dtri astore pop} bdef
/db {2 copy /cols xdef /rows xdef mul dup 3 mul string
  currentfile 
  3 index 0 eq {/ASCIIHexDecode filter}
  {/ASCII85Decode filter 3 index 2 eq {/RunLengthDecode filter} if }
  ifelse exch readstring pop
  dup 0 3 index getinterval /rbmap xdef
  dup 2 index dup getinterval /gbmap xdef
  1 index dup 2 mul exch getinterval /bbmap xdef pop pop}bdef
/it {gs np dtri aload pop moveto lineto lineto cp c
  cols rows 8 compute_transform 
  rbmap gbmap bbmap true 3 colorimage gr}bdef
/il {newpath moveto lineto stroke}bdef
currentdict end def
%%EndProlog

%%BeginSetup
MathWorks begin

0 cap

end
%%EndSetup

%%Page: 1 1
%%BeginPageSetup
%%PageBoundingBox:   -62   183   637   615
MathWorks begin
bpage
%%EndPageSetup

%%BeginObject: obj1
bplot

/dpi2point 4.16667 def
portraitMode -0320 2550 csm

   61   -16  2914  1800 rc
86 dict begin %Colortable dictionary
/c0 { 0.000000 0.000000 0.000000 sr} bdef
/c1 { 1.000000 1.000000 1.000000 sr} bdef
/c2 { 0.900000 0.000000 0.000000 sr} bdef
/c3 { 0.000000 0.820000 0.000000 sr} bdef
/c4 { 0.000000 0.000000 0.800000 sr} bdef
/c5 { 0.910000 0.820000 0.320000 sr} bdef
/c6 { 1.000000 0.260000 0.820000 sr} bdef
/c7 { 0.000000 0.820000 0.820000 sr} bdef
c0
1 j
1 sg
   0    0 3200 1802 rf
2.08333 w
0 1468 2479 0 0 -1468 416 1603 4 MP
PP
-2479 0 0 1468 2479 0 0 -1468 416 1603 5 MP stroke
1.38889 w
DO
0 sg
 416 1603 mt  416  135 L
 416  135 mt  416  135 L
 641 1603 mt  641  135 L
 641  135 mt  641  135 L
 866 1603 mt  866  135 L
 866  135 mt  866  135 L
1092 1603 mt 1092  135 L
1092  135 mt 1092  135 L
1317 1603 mt 1317  135 L
1317  135 mt 1317  135 L
1542 1603 mt 1542  135 L
1542  135 mt 1542  135 L
1768 1603 mt 1768  135 L
1768  135 mt 1768  135 L
1993 1603 mt 1993  135 L
1993  135 mt 1993  135 L
2218 1603 mt 2218  135 L
2218  135 mt 2218  135 L
2444 1603 mt 2444  135 L
2444  135 mt 2444  135 L
2669 1603 mt 2669  135 L
2669  135 mt 2669  135 L
2895 1603 mt 2895  135 L
2895  135 mt 2895  135 L
 416 1603 mt 2895 1603 L
2895 1603 mt 2895 1603 L
 416 1250 mt 2895 1250 L
2895 1250 mt 2895 1250 L
 416 1120 mt 2895 1120 L
2895 1120 mt 2895 1120 L
 416  869 mt 2895  869 L
2895  869 mt 2895  869 L
 416  135 mt 2895  135 L
2895  135 mt 2895  135 L
SO
2.08333 w
 416 1603 mt 2895 1603 L
 416  135 mt 2895  135 L
 416 1603 mt  416  135 L
2895 1603 mt 2895  135 L
 416 1603 mt 2895 1603 L
 416 1603 mt  416  135 L
 416 1603 mt  416 1578 L
 416  135 mt  416  159 L
%%IncludeResource: font Helvetica
/Helvetica /ISOLatin1Encoding 75 FMSR

 396 1684 mt 
(0) s
 641 1603 mt  641 1578 L
 641  135 mt  641  159 L
 600 1684 mt 
(50) s
 866 1603 mt  866 1578 L
 866  135 mt  866  159 L
 804 1684 mt 
(100) s
1092 1603 mt 1092 1578 L
1092  135 mt 1092  159 L
1030 1684 mt 
(150) s
1317 1603 mt 1317 1578 L
1317  135 mt 1317  159 L
1255 1684 mt 
(200) s
1542 1603 mt 1542 1578 L
1542  135 mt 1542  159 L
1480 1684 mt 
(250) s
1768 1603 mt 1768 1578 L
1768  135 mt 1768  159 L
1706 1684 mt 
(300) s
1993 1603 mt 1993 1578 L
1993  135 mt 1993  159 L
1931 1684 mt 
(350) s
2218 1603 mt 2218 1578 L
2218  135 mt 2218  159 L
2156 1684 mt 
(400) s
2444 1603 mt 2444 1578 L
2444  135 mt 2444  159 L
2382 1684 mt 
(450) s
2669 1603 mt 2669 1578 L
2669  135 mt 2669  159 L
2607 1684 mt 
(500) s
2895 1603 mt 2895 1578 L
2895  135 mt 2895  159 L
2833 1684 mt 
(550) s
 416 1603 mt  440 1603 L
2895 1603 mt 2870 1603 L
 363 1630 mt 
(0) s
 416 1250 mt  440 1250 L
2895 1250 mt 2870 1250 L
 175 1277 mt 
(0.9615) s
 416 1120 mt  440 1120 L
2895 1120 mt 2870 1120 L
 175 1147 mt 
(1.3149) s
 416  869 mt  440  869 L
2895  869 mt 2870  869 L
 363  896 mt 
(2) s
 416  135 mt  440  135 L
2895  135 mt 2870  135 L
 363  162 mt 
(4) s
 416 1603 mt 2895 1603 L
 416  135 mt 2895  135 L
 416 1603 mt  416  135 L
2895 1603 mt 2895  135 L
gs 416 135 2480 1469 rc
gr

/c8 { 1.000000 0.000000 0.000000 sr} bdef
c8
 522  403 mt  538  419 L
 538  403 mt  522  419 L
 527  558 mt  543  574 L
 543  558 mt  527  574 L
 535  455 mt  551  471 L
 551  455 mt  535  471 L
 540  529 mt  556  545 L
 556  529 mt  540  545 L
 545  497 mt  561  513 L
 561  497 mt  545  513 L
 551  827 mt  567  843 L
 567  827 mt  551  843 L
 557  761 mt  573  777 L
 573  761 mt  557  777 L
 563  781 mt  579  797 L
 579  781 mt  563  797 L
 583  988 mt  599 1004 L
 599  988 mt  583 1004 L
 594 1016 mt  610 1032 L
 610 1016 mt  594 1032 L
 599 1360 mt  615 1376 L
 615 1360 mt  599 1376 L
 621  992 mt  637 1008 L
 637  992 mt  621 1008 L
 643 1100 mt  659 1116 L
 659 1100 mt  643 1116 L
 650 1066 mt  666 1082 L
 666 1066 mt  650 1082 L
 656  919 mt  672  935 L
 672  919 mt  656  935 L
 662  986 mt  678 1002 L
 678  986 mt  662 1002 L
 668 1146 mt  684 1162 L
 684 1146 mt  668 1162 L
 674 1223 mt  690 1239 L
 690 1223 mt  674 1239 L
 679 1287 mt  695 1303 L
 695 1287 mt  679 1303 L
 686 1349 mt  702 1365 L
 702 1349 mt  686 1365 L
 691 1419 mt  707 1435 L
 707 1419 mt  691 1435 L
 697 1376 mt  713 1392 L
 713 1376 mt  697 1392 L
 702 1503 mt  718 1519 L
 718 1503 mt  702 1519 L
 710 1499 mt  726 1515 L
 726 1499 mt  710 1515 L
 715 1363 mt  731 1379 L
 731 1363 mt  715 1379 L
 722 1436 mt  738 1452 L
 738 1436 mt  722 1452 L
 727 1169 mt  743 1185 L
 743 1169 mt  727 1185 L
 734 1343 mt  750 1359 L
 750 1343 mt  734 1359 L
 739 1483 mt  755 1499 L
 755 1483 mt  739 1499 L
 744 1409 mt  760 1425 L
 760 1409 mt  744 1425 L
 750 1402 mt  766 1418 L
 766 1402 mt  750 1418 L
 756 1423 mt  772 1439 L
 772 1423 mt  756 1439 L
 761  906 mt  777  922 L
 777  906 mt  761  922 L
 767 1474 mt  783 1490 L
 783 1474 mt  767 1490 L
 773 1477 mt  789 1493 L
 789 1477 mt  773 1493 L
 780 1299 mt  796 1315 L
 796 1299 mt  780 1315 L
 786 1391 mt  802 1407 L
 802 1391 mt  786 1407 L
 792 1389 mt  808 1405 L
 808 1389 mt  792 1405 L
 798 1288 mt  814 1304 L
 814 1288 mt  798 1304 L
 805 1387 mt  821 1403 L
 821 1387 mt  805 1403 L
 813 1426 mt  829 1442 L
 829 1426 mt  813 1442 L
 819 1038 mt  835 1054 L
 835 1038 mt  819 1054 L
 826 1187 mt  842 1203 L
 842 1187 mt  826 1203 L
 832 1450 mt  848 1466 L
 848 1450 mt  832 1466 L
 837 1261 mt  853 1277 L
 853 1261 mt  837 1277 L
 842 1524 mt  858 1540 L
 858 1524 mt  842 1540 L
 849 1500 mt  865 1516 L
 865 1500 mt  849 1516 L
 855 1483 mt  871 1499 L
 871 1483 mt  855 1499 L
 862 1455 mt  878 1471 L
 878 1455 mt  862 1471 L
 869 1145 mt  885 1161 L
 885 1145 mt  869 1161 L
 896 1379 mt  912 1395 L
 912 1379 mt  896 1395 L
 901  897 mt  917  913 L
 917  897 mt  901  913 L
 907 1372 mt  923 1388 L
 923 1372 mt  907 1388 L
 914 1298 mt  930 1314 L
 930 1298 mt  914 1314 L
 919 1342 mt  935 1358 L
 935 1342 mt  919 1358 L
 926 1194 mt  942 1210 L
 942 1194 mt  926 1210 L
 931 1415 mt  947 1431 L
 947 1415 mt  931 1431 L
 955 1376 mt  971 1392 L
 971 1376 mt  955 1392 L
 961 1400 mt  977 1416 L
 977 1400 mt  961 1416 L
 966 1466 mt  982 1482 L
 982 1466 mt  966 1482 L
 989 1421 mt 1005 1437 L
1005 1421 mt  989 1437 L
 995 1292 mt 1011 1308 L
1011 1292 mt  995 1308 L
1001 1296 mt 1017 1312 L
1017 1296 mt 1001 1312 L
1006 1312 mt 1022 1328 L
1022 1312 mt 1006 1328 L
1030 1257 mt 1046 1273 L
1046 1257 mt 1030 1273 L
1036 1391 mt 1052 1407 L
1052 1391 mt 1036 1407 L
1060 1229 mt 1076 1245 L
1076 1229 mt 1060 1245 L
1066 1273 mt 1082 1289 L
1082 1273 mt 1066 1289 L
1087 1490 mt 1103 1506 L
1103 1490 mt 1087 1506 L
1095 1369 mt 1111 1385 L
1111 1369 mt 1095 1385 L
1102 1494 mt 1118 1510 L
1118 1494 mt 1102 1510 L
1109 1139 mt 1125 1155 L
1125 1139 mt 1109 1155 L
1133 1264 mt 1149 1280 L
1149 1264 mt 1133 1280 L
1157 1430 mt 1173 1446 L
1173 1430 mt 1157 1446 L
1166  770 mt 1182  786 L
1182  770 mt 1166  786 L
1171 1429 mt 1187 1445 L
1187 1429 mt 1171 1445 L
1176 1445 mt 1192 1461 L
1192 1445 mt 1176 1461 L
1181 1374 mt 1197 1390 L
1197 1374 mt 1181 1390 L
1190 1514 mt 1206 1530 L
1206 1514 mt 1190 1530 L
1195 1464 mt 1211 1480 L
1211 1464 mt 1195 1480 L
1202 1507 mt 1218 1523 L
1218 1507 mt 1202 1523 L
1225 1275 mt 1241 1291 L
1241 1275 mt 1225 1291 L
1230 1320 mt 1246 1336 L
1246 1320 mt 1230 1336 L
1236 1436 mt 1252 1452 L
1252 1436 mt 1236 1452 L
1244 1388 mt 1260 1404 L
1260 1388 mt 1244 1404 L
1250 1529 mt 1266 1545 L
1266 1529 mt 1250 1545 L
1274 1437 mt 1290 1453 L
1290 1437 mt 1274 1453 L
1282 1409 mt 1298 1425 L
1298 1409 mt 1282 1425 L
1287 1467 mt 1303 1483 L
1303 1467 mt 1287 1483 L
1310 1310 mt 1326 1326 L
1326 1310 mt 1310 1326 L
1318 1362 mt 1334 1378 L
1334 1362 mt 1318 1378 L
1323 1366 mt 1339 1382 L
1339 1366 mt 1323 1382 L
1329 1494 mt 1345 1510 L
1345 1494 mt 1329 1510 L
1335 1375 mt 1351 1391 L
1351 1375 mt 1335 1391 L
1341 1275 mt 1357 1291 L
1357 1275 mt 1341 1291 L
1347 1530 mt 1363 1546 L
1363 1530 mt 1347 1546 L
1354 1559 mt 1370 1575 L
1370 1559 mt 1354 1575 L
1360 1404 mt 1376 1420 L
1376 1404 mt 1360 1420 L
1367 1501 mt 1383 1517 L
1383 1501 mt 1367 1517 L
1392 1232 mt 1408 1248 L
1408 1232 mt 1392 1248 L
1399 1227 mt 1415 1243 L
1415 1227 mt 1399 1243 L
1405 1329 mt 1421 1345 L
1421 1329 mt 1405 1345 L
1413 1386 mt 1429 1402 L
1429 1386 mt 1413 1402 L
1420 1434 mt 1436 1450 L
1436 1434 mt 1420 1450 L
1426  999 mt 1442 1015 L
1442  999 mt 1426 1015 L
1436 1331 mt 1452 1347 L
1452 1331 mt 1436 1347 L
1441 1322 mt 1457 1338 L
1457 1322 mt 1441 1338 L
1449 1171 mt 1465 1187 L
1465 1171 mt 1449 1187 L
1456 1075 mt 1472 1091 L
1472 1075 mt 1456 1091 L
1462 1026 mt 1478 1042 L
1478 1026 mt 1462 1042 L
1470 1334 mt 1486 1350 L
1486 1334 mt 1470 1350 L
1475 1418 mt 1491 1434 L
1491 1418 mt 1475 1434 L
1483 1073 mt 1499 1089 L
1499 1073 mt 1483 1089 L
1489 1493 mt 1505 1509 L
1505 1493 mt 1489 1509 L
1496 1479 mt 1512 1495 L
1512 1479 mt 1496 1495 L
1504 1430 mt 1520 1446 L
1520 1430 mt 1504 1446 L
1509 1469 mt 1525 1485 L
1525 1469 mt 1509 1485 L
1517 1358 mt 1533 1374 L
1533 1358 mt 1517 1374 L
1523 1558 mt 1539 1574 L
1539 1558 mt 1523 1574 L
1529 1544 mt 1545 1560 L
1545 1544 mt 1529 1560 L
1537 1536 mt 1553 1552 L
1553 1536 mt 1537 1552 L
1544 1589 mt 1560 1605 L
1560 1589 mt 1544 1605 L
1552 1564 mt 1568 1580 L
1568 1564 mt 1552 1580 L
1558 1472 mt 1574 1488 L
1574 1472 mt 1558 1488 L
1564 1522 mt 1580 1538 L
1580 1522 mt 1564 1538 L
1588 1524 mt 1604 1540 L
1604 1524 mt 1588 1540 L
1594 1420 mt 1610 1436 L
1610 1420 mt 1594 1436 L
1600 1396 mt 1616 1412 L
1616 1396 mt 1600 1412 L
1605 1417 mt 1621 1433 L
1621 1417 mt 1605 1433 L
1611 1533 mt 1627 1549 L
1627 1533 mt 1611 1549 L
1616 1529 mt 1632 1545 L
1632 1529 mt 1616 1545 L
1624 1577 mt 1640 1593 L
1640 1577 mt 1624 1593 L
1629 1401 mt 1645 1417 L
1645 1401 mt 1629 1417 L
1635 1349 mt 1651 1365 L
1651 1349 mt 1635 1365 L
1640 1491 mt 1656 1507 L
1656 1491 mt 1640 1507 L
1646  890 mt 1662  906 L
1662  890 mt 1646  906 L
1652 1403 mt 1668 1419 L
1668 1403 mt 1652 1419 L
gs 416 135 2480 1469 rc
gr

1969  446 mt 1985  462 L
1985  446 mt 1969  462 L
1978  621 mt 1994  637 L
1994  621 mt 1978  637 L
2000 1107 mt 2016 1123 L
2016 1107 mt 2000 1123 L
2006 1320 mt 2022 1336 L
2022 1320 mt 2006 1336 L
2014 1254 mt 2030 1270 L
2030 1254 mt 2014 1270 L
2039 1309 mt 2055 1325 L
2055 1309 mt 2039 1325 L
2048 1385 mt 2064 1401 L
2064 1385 mt 2048 1401 L
2054 1480 mt 2070 1496 L
2070 1480 mt 2054 1496 L
2062 1040 mt 2078 1056 L
2078 1040 mt 2062 1056 L
2070 1308 mt 2086 1324 L
2086 1308 mt 2070 1324 L
2075 1194 mt 2091 1210 L
2091 1194 mt 2075 1210 L
2084 1296 mt 2100 1312 L
2100 1296 mt 2084 1312 L
2094 1324 mt 2110 1340 L
2110 1324 mt 2094 1340 L
2099 1408 mt 2115 1424 L
2115 1408 mt 2099 1424 L
2107 1345 mt 2123 1361 L
2123 1345 mt 2107 1361 L
2112 1211 mt 2128 1227 L
2128 1211 mt 2112 1227 L
2120  973 mt 2136  989 L
2136  973 mt 2120  989 L
2129 1535 mt 2145 1551 L
2145 1535 mt 2129 1551 L
2135 1453 mt 2151 1469 L
2151 1453 mt 2135 1469 L
2142 1186 mt 2158 1202 L
2158 1186 mt 2142 1202 L
2147 1445 mt 2163 1461 L
2163 1445 mt 2147 1461 L
2154 1485 mt 2170 1501 L
2170 1485 mt 2154 1501 L
2159 1385 mt 2175 1401 L
2175 1385 mt 2159 1401 L
2181 1361 mt 2197 1377 L
2197 1361 mt 2181 1377 L
2190 1306 mt 2206 1322 L
2206 1306 mt 2190 1322 L
2199 1332 mt 2215 1348 L
2215 1332 mt 2199 1348 L
2205 1458 mt 2221 1474 L
2221 1458 mt 2205 1474 L
2212 1451 mt 2228 1467 L
2228 1451 mt 2212 1467 L
2217 1309 mt 2233 1325 L
2233 1309 mt 2217 1325 L
2225 1375 mt 2241 1391 L
2241 1375 mt 2225 1391 L
2231 1394 mt 2247 1410 L
2247 1394 mt 2231 1410 L
2239 1123 mt 2255 1139 L
2255 1123 mt 2239 1139 L
2247 1225 mt 2263 1241 L
2263 1225 mt 2247 1241 L
2256 1318 mt 2272 1334 L
2272 1318 mt 2256 1334 L
2262 1200 mt 2278 1216 L
2278 1200 mt 2262 1216 L
2270 1431 mt 2286 1447 L
2286 1431 mt 2270 1447 L
2276 1311 mt 2292 1327 L
2292 1311 mt 2276 1327 L
2283 1392 mt 2299 1408 L
2299 1392 mt 2283 1408 L
2288 1546 mt 2304 1562 L
2304 1546 mt 2288 1562 L
2293 1386 mt 2309 1402 L
2309 1386 mt 2293 1402 L
2299 1360 mt 2315 1376 L
2315 1360 mt 2299 1376 L
2320  985 mt 2336 1001 L
2336  985 mt 2320 1001 L
2329 1473 mt 2345 1489 L
2345 1473 mt 2329 1489 L
2334 1440 mt 2350 1456 L
2350 1440 mt 2334 1456 L
2340 1216 mt 2356 1232 L
2356 1216 mt 2340 1232 L
2346  967 mt 2362  983 L
2362  967 mt 2346  983 L
2354 1226 mt 2370 1242 L
2370 1226 mt 2354 1242 L
2362 1075 mt 2378 1091 L
2378 1075 mt 2362 1091 L
2368  942 mt 2384  958 L
2384  942 mt 2368  958 L
2375 1181 mt 2391 1197 L
2391 1181 mt 2375 1197 L
2381 1418 mt 2397 1434 L
2397 1418 mt 2381 1434 L
gs 416 135 2480 1469 rc
gr

2393 1039 mt 2409 1055 L
2409 1039 mt 2393 1055 L
gs 416 135 2480 1469 rc
gr

2406 1031 mt 2422 1047 L
2422 1031 mt 2406 1047 L
2414 1138 mt 2430 1154 L
2430 1138 mt 2414 1154 L
2422 1450 mt 2438 1466 L
2438 1450 mt 2422 1466 L
2428 1180 mt 2444 1196 L
2444 1180 mt 2428 1196 L
2449 1127 mt 2465 1143 L
2465 1127 mt 2449 1143 L
2458 1254 mt 2474 1270 L
2474 1254 mt 2458 1270 L
2466 1356 mt 2482 1372 L
2482 1356 mt 2466 1372 L
2474 1396 mt 2490 1412 L
2490 1396 mt 2474 1412 L
2481 1437 mt 2497 1453 L
2497 1437 mt 2481 1453 L
2487 1572 mt 2503 1588 L
2503 1572 mt 2487 1588 L
2493 1536 mt 2509 1552 L
2509 1536 mt 2493 1552 L
2501 1506 mt 2517 1522 L
2517 1506 mt 2501 1522 L
2508 1369 mt 2524 1385 L
2524 1369 mt 2508 1385 L
2531  950 mt 2547  966 L
2547  950 mt 2531  966 L
2539 1191 mt 2555 1207 L
2555 1191 mt 2539 1207 L
2545 1127 mt 2561 1143 L
2561 1127 mt 2545 1143 L
2585 1383 mt 2601 1399 L
2601 1383 mt 2585 1399 L
2591 1160 mt 2607 1176 L
2607 1160 mt 2591 1176 L
2599 1512 mt 2615 1528 L
2615 1512 mt 2599 1528 L
2604 1387 mt 2620 1403 L
2620 1387 mt 2604 1403 L
2612 1293 mt 2628 1309 L
2628 1293 mt 2612 1309 L
2619 1337 mt 2635 1353 L
2635 1337 mt 2619 1353 L
2626 1491 mt 2642 1507 L
2642 1491 mt 2626 1507 L
2633 1472 mt 2649 1488 L
2649 1472 mt 2633 1488 L
2639 1527 mt 2655 1543 L
2655 1527 mt 2639 1543 L
2647 1460 mt 2663 1476 L
2663 1460 mt 2647 1476 L
2654 1298 mt 2670 1314 L
2670 1298 mt 2654 1314 L
2661  871 mt 2677  887 L
2677  871 mt 2661  887 L
2670  977 mt 2686  993 L
2686  977 mt 2670  993 L
2676 1402 mt 2692 1418 L
2692 1402 mt 2676 1418 L
2681 1510 mt 2697 1526 L
2697 1510 mt 2681 1526 L
2687 1417 mt 2703 1433 L
2703 1417 mt 2687 1433 L
2693 1332 mt 2709 1348 L
2709 1332 mt 2693 1348 L
2699 1424 mt 2715 1440 L
2715 1424 mt 2699 1440 L
2705 1427 mt 2721 1443 L
2721 1427 mt 2705 1443 L
2711 1456 mt 2727 1472 L
2727 1456 mt 2711 1472 L
2718 1506 mt 2734 1522 L
2734 1506 mt 2718 1522 L
2726 1438 mt 2742 1454 L
2742 1438 mt 2726 1454 L
2732 1353 mt 2748 1369 L
2748 1353 mt 2732 1369 L
2740 1189 mt 2756 1205 L
2756 1189 mt 2740 1205 L
2750 1303 mt 2766 1319 L
2766 1303 mt 2750 1319 L
2755 1190 mt 2771 1206 L
2771 1190 mt 2755 1206 L
2762  543 mt 2778  559 L
2778  543 mt 2762  559 L
2768 1064 mt 2784 1080 L
2784 1064 mt 2768 1080 L
2789 1552 mt 2805 1568 L
2805 1552 mt 2789 1568 L
2797 1361 mt 2813 1377 L
2813 1361 mt 2797 1377 L
2803 1218 mt 2819 1234 L
2819 1218 mt 2803 1234 L
2824 1305 mt 2840 1321 L
2840 1305 mt 2824 1321 L
2832 1496 mt 2848 1512 L
2848 1496 mt 2832 1512 L
2838 1212 mt 2854 1228 L
2854 1212 mt 2838 1228 L
2845 1302 mt 2861 1318 L
2861 1302 mt 2845 1318 L
2850 1494 mt 2866 1510 L
2866 1494 mt 2850 1510 L
2871 1356 mt 2887 1372 L
2887 1356 mt 2871 1372 L
gs 416 135 2480 1469 rc
DA
17 0 21 0 5 0 7 0 6 0 8 0 21 0 6 0 
8 0 21 0 6 0 7 0 5 0 10 0 8 0 6 0 
8 0 7 0 6 0 6 0 6 0 6 0 6 0 5 0 
6 0 9 0 7 0 7 0 8 0 6 0 7 0 7 0 
7 0 8 0 5 0 8 0 6 0 40 0 6 0 8 0 
23 0 7 0 8 0 6 0 6 0 7 0 8 0 8 0 
9 0 21 0 6 0 8 0 8 0 7 0 6 0 6 0 
6 0 6 0 7 0 6 0 8 0 8 0 6 0 6 0 
5 0 9 0 21 0 6 0 5 0 5 0 7 0 6 0 
8 0 6 0 9 0 8 0 8 0 6 0 8 0 5 0 
7 0 6 0 9 0 9 0 22 0 5 0 7 0 5 0 
7 0 6 0 9 0 8 0 5 0 8 0 5 0 10 0 
9 0 5 0 8 0 8 0 6 0 9 0 25 0 8 0 
6 0 22 0 9 0 22 0 90 0 205 0 6 0 6 0 
5 0 6 0 5 0 8 0 5 0 6 0 5 0 6 0 
6 0 24 0 6 0 6 0 8 0 7 0 8 0 6 0 
6 0 8 0 5 0 8 0 7 0 6 0 8 0 5 0 
8 0 6 0 7 0 8 0 5 0 10 0 6 0 7 0 
8 0 6 0 7 0 25 0 7 0 6 0 7 0 6 0 
6 0 6 0 6 0 5 0 8 0 23 0 5 0 8 0 
24 0 6 0 8 0 6 0 5 0 23 0 7 0 5 0 
9 0 5 0 5 0 5 0 9 0 24 0 24 0 7 0 
7 0 8 0 21 0 6 0 24 0 6 0 24 0 5 0 
6 0 6 0 23 0 5 0 6 0 24 0 5 0 7 0 
5 0 7 0 6 0 5 0 27 0 7 0 7 0 6 0 
7 0 5 0 5 0 6 0 7 0 6 0 8 0 7 0 
6 0 6 0 6 0 7 0 6 0 6 0 5 0 6 0 
6 0 5 0 5 0 7 0 5 0 7 0 5 0 8 0 
5 0 6 0 5 0 7 0 5 0 6 0 6 0 6 0 
6 0 7 0 22 0 22 0 5 0 11 0 20 0 6 0 
6 0 6 0 5 0 5 0 8 0 5 0 6 0 6 0 
6 0 5 0 8 0 5 0 10 0 6 0 5 0 8 0 
6 0 7 0 7 0 7 0 9 0 6 0 7 0 416 1120 264 MP stroke
SO
8.33333 w
/c9 { 0.000000 0.000000 1.000000 sr} bdef
c9
1 -1444 -1 0 2 2 0 1 0 -1 1 -2 0 2 1 1 
0 -3 1 0 0 1 2 2 0 -4 1 1 1 1 1 -3 
-1 0 2 2 1 -3 -1 0 2 2 0 -3 1 0 1 1 
1 1 0 -5 1 1 1 1 0 -5 1 0 1 1 0 -4 
1 0 1 0 0 1 0 -1 1 -2 1 1 1 0 0 -2 
1 0 1 1 0 -2 1 0 1 0 0 -2 1 0 1 0 
1 0 1 -1 1 1 1 -1 1 1 1 0 1 0 1 1 
1 0 -1 0 2 0 1 0 1 0 1 0 1 0 1 -1 
1 1 0 -2 1 0 1 1 0 -1 4 -1 0 1 1 1 
1 0 1 0 1 1 1 0 1 0 1 0 0 0 2 0 
1 0 1 -1 1 0 1 -1 1 0 1 1 1 -1 1 0 
1 0 1 0 1 0 1 0 1 0 1 1 1 0 1 -1 
1 1 1 0 1 0 1 -1 1 1 1 0 1 0 0 1 
2 2 1 0 1 1 1 0 0 1 2 2 1 0 1 1 
1 1 0 -2 1 1 1 1 1 -1 1 1 0 1 0 -1 
1 -1 1 1 0 1 0 -1 1 -3 1 1 1 1 0 -3 
1 1 1 1 0 -4 1 1 1 1 0 -4 1 1 1 0 
0 1 0 -1 1 -2 1 1 1 0 1 1 1 1 0 4 
1 1 1 1 0 4 2 2 0 1 0 -1 1 3 0 2 
2 2 0 3 2 2 1 1 0 2 2 0 0 2 1 1 
1 0 1 1 1 0 0 -2 1 0 0 -14 1 1 1 1 
1 0 0 1 2 2 1 1 1 0 1 1 1 1 1 0 
0 -5 1 0 1 -1 0 -6 1 0 1 -1 0 -1 0 1 
1 -7 1 -1 1 -1 0 -4 0 1 2 2 0 -2 0 2 
1 0 0 2 1 1 0 2 0 -3 1 0 0 4 1 1 
0 1 0 -1 1 -3 1 1 1 1 0 -8 2 -2 0 8 
1 -1 1 -1 0 -1 0 1 1 2 1 -1 1 3 -1 -4 
0 4 2 -2 1 -1 0 5 0 -1 2 -2 0 5 1 -1 
1 -1 0 -1 0 1 1 5 1 -1 0 -2 0 1 1 5 
1 -1 1 -1 1 5 -1 0 2 -2 0 6 1 -1 1 -1 
0 6 1 0 1 -1 0 -1 0 1 1 5 1 -1 1 -1 
1 4 -1 0 2 -2 0 -1 0 1 1 -1 0 -1 0 1 
1 -3 0 -1 0 1 1 -4 0 -1 0 1 1 -3 0 -11 
1 0 0 -4 1 0 0 -6 1 0 0 -3 0 2 1 0 
0 12 1 0 0 13 1 0 0 11 1 0 0 15 1 0 
0 13 1 0 0 22 1 0 0 16 1 0 0 16 1 0 
0 14 1 0 0 17 1 0 0 11 1 0 0 15 1 0 
0 10 1 0 0 9 1657 1403 300 MP stroke
1 0 0 5 1 0 0 -1 0 1 1 -8 0 -172 1 0 
0 4 0 -6 1 0 1 0 0 -4 1 0 1 0 0 -4 
0 36 1 0 0 7 1 0 0 5 1 0 0 7 1 0 
0 6 1 0 0 -5 0 9 1 0 0 1 0 -38 0 2 
1 0 0 1 0 -1 1 3 0 4 1 0 0 2 1 0 
0 4 2 2 0 -1 0 1 1 -36 1 1 0 0 2 2 
1 -1 0 1 0 -1 1 5 0 1 0 -1 1 -3 1 1 
0 1 0 -1 1 -4 1 1 1 0 0 -4 1 1 1 0 
0 2 1 1 0 7 1 0 0 5 1 0 0 6 1 0 
0 6 1 0 0 8 1 0 0 8 1 0 0 7 1 0 
0 8 1 0 0 13 1 0 0 7 1 0 0 -28 0 3 
1 0 0 8 1 0 0 8 1 0 0 1 0 -1 1 5 
0 9 1 0 0 -48 1 0 0 4 1 0 0 2 1 -1 
0 3 1 1 0 1 0 -1 1 -1 1 -1 0 -1 0 1 
1 -49 0 5 2 2 0 3 1 1 1 1 0 -1 0 1 
1 3 0 -4 0 1 1 1 0 1 0 -1 1 -2 0 2 
2 2 0 -3 0 2 2 2 0 -3 0 1 2 2 0 1 
0 -1 1 -2 0 2 1 1 0 2 0 -4 1 0 0 2 
1 1 0 1 0 -1 1 3 0 -4 0 2 1 0 0 3 
1 1 0 -4 0 2 1 0 0 2 1 1 0 2 0 -6 
1 0 0 1 1 3 0 1 0 -1 1 -6 0 3 2 2 
0 -8 1 1 0 3 1 1 0 -7 0 8 1 0 0 1 
0 -1 1 -1 0 4 1 0 0 3 1 1 0 3 2 2 
0 -25 1 0 0 -6 1 1 1 1 0 -4 1 0 1 1 
0 -4 1 0 0 6 1 1 0 1 0 -1 1 -7 1 1 
1 0 0 -5 1 0 1 0 0 -3 1 -1 1 0 0 3 
1 1 1 0 0 4 1 0 1 -1 1 -1 0 5 0 -1 
2 -2 0 4 0 -7 1 0 0 1 0 -1 1 3 0 1 
0 -1 1 -7 0 2 1 1 0 4 0 -3 1 0 0 4 
1 0 0 2 1 1 0 6 1 0 1 1 0 8 1 1 
0 2 1 1 0 9 1 0 0 1 0 -1 1 3 0 8 
1 0 0 13 1 0 0 5 1 0 0 1 0 -1 1 3 
0 8 1 0 0 -1 0 1 1 1 0 4 1 0 0 -14 
1 -1 0 2 1 1 0 3 0 -1 1 -1 0 1 0 -1 
1 3 0 1 0 -1 1 3 0 -5 0 2 1 0 0 2 
1 1 0 2 0 -4 0 2 1 0 0 5 1 0 0 1 
0 -1 1 -2 0 2 1 1 0 4 1 0 0 -4 0 4 
1 0 0 38 1 0 1511 1470 300 MP stroke
0 -3 0 3 1 0 0 5 1 0 0 3 1 0 0 5 
1 0 0 2 1 -1 0 5 1 0 0 32 1 0 0 5 
1 0 0 5 1 0 0 -2 0 2 1 0 0 5 1 0 
0 2 1 1 0 5 1 0 0 2 1 -1 0 75 2 2 
0 -1 0 1 1 1 0 2 1 1 0 -2 1 1 0 2 
1 1 0 1 0 -103 0 3 1 0 0 6 1 0 0 3 
1 0 0 6 1 0 0 6 1 1 0 6 1 0 0 6 
1 0 0 3 1 0 0 43 1 0 0 3 1 2 0 5 
1 0 0 3 1 0 0 5 1 0 0 33 1 0 0 -2 
0 5 1 0 0 5 1 0 0 -1 0 1 1 2 0 5 
1 0 0 2 0 -3 0 2 1 0 0 5 1 0 0 2 
0 -3 1 0 0 2 0 -88 1 0 0 6 1 0 0 -2 
0 3 1 0 0 10 1 0 0 -2 0 3 1 0 0 5 
1 0 0 -118 1 0 0 13 1 0 0 12 0 -7 1 0 
0 12 0 -5 1 0 0 17 1 0 0 -6 1 0 0 16 
1 0 0 4 0 -115 1 0 0 6 1 0 0 7 1 0 
0 7 1 0 0 5 1 0 0 6 1 0 0 2 1 1 
1 1 0 -64 2 -2 0 5 0 -10 1 0 0 3 0 -9 
1 1 0 -12 1 -1 0 33 1 10 0 63 4 0 0 16 
1 0 0 14 1 0 0 10 1 0 0 8 1 0 0 6 
1 0 0 -192 1 1 0 4 1 0 0 7 1 0 0 2 
1 3 0 10 1 1 0 1 0 -1 1 -31 0 7 0 -15 
0 7 1 0 0 -2 0 3 1 0 0 13 1 0 0 6 
1 0 0 7 1 0 0 13 1 0 0 7 1 0 0 14 
1 0 0 8 1 0 0 5 1 -1 0 15 1 0 0 7 
1 0 0 11 1 0 0 11 1 0 0 8 1 0 0 11 
0 -33 1 0 0 7 1 0 0 11 1 0 0 8 1 0 
0 10 1 0 0 9 1 1 0 -87 0 4 1 0 0 8 
1 0 0 9 1 0 0 8 1 0 0 -1 0 1 1 2 
0 6 2 0 0 -93 1 0 0 -2 1 0 0 2 2 2 
0 1 2 2 0 2 2 2 1 1 0 2 2 2 0 1 
0 -1 1 3 1 2 -1 0 2 0 0 2 1 1 0 1 
0 -2 1 1 0 1 0 -1 1 3 0 1 0 -1 1 -2 
0 1 0 -1 1 3 0 3 0 -6 1 0 0 3 2 2 
0 -6 1 0 1 1 0 -10 1 -1 0 8 1 0 0 2 
0 -5 1 0 0 5 1 0 0 6 1 0 0 -2 0 6 
1 0 0 4 1 0 0 1 0 -1 1 3 0 -52 1 1 
1 -2 -1 0 2 2 1365 1596 300 MP stroke
0 1 0 -1 1 3 1 1 0 2 1 1 0 1 0 -1 
1 11 0 5 1 0 0 2 1 0 0 7 1 0 0 3 
1 4 0 9 1 0 0 6 1 0 0 22 1 0 0 12 
1 0 0 9 1 0 0 9 1 0 0 1 0 -1 1 5 
0 3 0 -71 1 0 0 9 1 0 0 6 1 0 0 5 
1 0 0 6 1 0 0 4 1 1 0 1 0 -1 1 -29 
0 1 0 -1 1 3 0 -2 1 1 0 4 1 0 0 1 
0 -1 1 -4 0 4 1 1 0 2 0 -11 1 0 0 4 
1 0 0 4 1 0 0 -2 0 4 2 2 1 -1 0 -2 
1 0 0 -5 0 7 1 0 0 12 1 0 0 10 1 0 
0 9 1 0 0 8 1 0 0 10 0 -4 1 0 0 7 
1 0 0 6 1 0 0 7 1 0 0 8 1 0 0 5 
1 0 0 3 1 1 0 1 0 -1 1 3 0 1 0 -1 
1 -114 0 -2 0 3 2 2 0 -2 0 2 2 2 0 2 
0 -4 1 0 0 3 1 1 0 2 0 -4 1 0 0 4 
1 0 0 1 0 -1 1 3 0 -4 0 4 1 0 0 4 
1 0 0 -2 0 2 1 0 0 4 1 0 0 2 1 0 
0 7 1 0 0 2 1 0 0 5 1 0 0 6 1 0 
0 6 1 0 0 6 1 0 0 3 1 0 0 4 1 0 
0 -18 1 0 0 2 1 1 0 -2 1 0 1 -1 0 -1 
0 1 1 -3 0 -16 0 7 1 0 0 6 1 0 0 6 
1 0 0 6 1 0 0 3 1 3 0 3 1 1 0 2 
1 0 1 0 0 -56 1 0 0 -3 1 0 1 1 0 -3 
1 1 1 0 0 1 1 -2 -1 0 2 2 0 1 0 -1 
1 -1 0 2 2 2 1 1 0 2 1 1 0 -4 0 1 
2 2 1 -4 -1 0 2 2 0 -5 1 0 1 0 1 -1 
0 -7 2 -2 0 -7 1 0 1 0 0 1 0 -1 1 -3 
0 37 1 0 0 9 1 0 0 7 1 0 0 8 1 0 
0 6 1 0 0 11 1 0 0 8 0 -31 1 0 0 8 
1 0 0 4 0 -3 1 0 0 13 1 0 0 12 1 0 
0 -5 0 5 1 0 0 11 1 0 0 -1 0 1 1 5 
0 34 1 0 0 10 0 -6 1 0 0 10 1 0 0 5 
1 0 0 13 1 0 0 4 1 0 0 -36 0 3 1 0 
0 6 2 2 0 2 1 0 1 -1 0 -127 1 0 0 1 
2 2 0 2 0 -1 1 -1 0 2 2 2 0 -4 0 1 
2 2 0 -6 1 1 1 1 0 -6 1 0 1 0 0 1 
0 -1 1 -5 1 0 1 0 0 -5 1 0 1 -1 0 -4 
1 0 1 0 1 0 1213 1585 300 MP stroke
1 1 0 1 0 -1 1 5 0 1 0 -1 1 -11 0 1 
0 -1 1 3 0 7 1 0 0 4 1 0 0 8 1 0 
0 1 0 -1 1 3 0 6 2 2 0 1 0 -1 1 -37 
0 7 1 3 0 4 1 0 0 12 1 0 0 4 1 0 
0 13 0 -10 1 0 0 4 1 0 0 13 1 0 0 5 
1 0 0 12 0 -3 1 0 0 2 0 -8 1 0 0 2 
0 -13 1 0 0 2 1 1 1 0 0 -1 0 1 1 -36 
0 3 2 2 0 1 0 -1 1 4 0 6 1 0 0 55 
1 0 0 19 1 0 0 11 1 0 0 18 1 0 0 21 
1 0 0 224 1 0 0 7 0 -2 1 0 0 9 1 0 
0 2 1 1 0 -5 1 -4 0 -365 0 2 1 0 0 7 
1 0 0 4 1 0 0 11 1 0 0 4 1 0 0 8 
1 0 0 4 1 0 0 2 1 1 0 6 1 0 0 -1 
0 1 1 -66 0 -5 1 1 0 2 1 1 0 1 0 -1 
1 -3 0 1 1 3 1 1 0 1 0 -1 1 3 0 4 
1 0 0 8 1 0 0 6 1 0 0 9 1 0 0 7 
1 0 0 11 1 0 0 12 1 0 0 11 1 0 0 10 
1 0 0 10 1 0 0 15 1 0 0 11 1 0 0 1 
0 -1 1 6 0 10 1 0 0 5 1 -1 0 11 1 0 
0 3 0 -2 1 0 0 -117 1 0 1 -1 0 -3 1 0 
1 -1 0 -5 1 0 1 -1 0 -7 2 -2 0 -5 2 -2 
1 -1 0 -3 1 1 0 2 1 1 0 9 1 0 0 7 
1 0 0 12 1 0 0 14 1 0 0 13 1 0 0 11 
1 0 0 10 1 0 0 13 1 0 0 12 1 0 0 10 
1 0 0 1 0 -1 1 -77 0 2 0 -4 1 0 0 7 
1 0 0 3 0 -2 1 0 0 6 1 0 0 6 1 0 
0 -1 0 1 1 3 0 9 1 0 0 1 0 -1 1 4 
0 6 1 0 0 3 0 -2 1 0 0 7 1 0 0 2 
0 -3 1 0 1 1 1 -1 0 -74 1 1 0 6 1 0 
0 -3 0 2 1 0 0 4 1 0 0 1 0 -1 1 -1 
0 3 2 2 1 0 0 -1 0 1 1 19 0 -3 0 2 
1 0 0 5 1 0 0 3 0 -4 0 3 1 0 0 6 
1 0 0 3 0 -4 1 0 0 6 1 0 0 7 0 -4 
1 0 0 8 1 0 0 8 1 0 0 -3 0 4 1 0 
0 14 1 0 0 -1 0 1 1 4 0 11 1 0 0 5 
1 1 0 11 1 0 0 14 1 0 0 11 1 0 0 10 
1 0 0 9 1 0 0 8 1 0 0 7 0 -42 1 0 
0 6 1 0 0 7 1072 1432 300 MP stroke
1 0 0 1 0 -1 1 3 1 4 -1 0 2 -2 0 -152 
1 1 0 -2 1 0 1 0 0 -3 1 -1 1 0 0 -3 
1 0 1 0 1 1 0 0 2 2 0 3 1 1 0 2 
1 1 0 9 1 0 0 5 1 0 0 8 1 0 0 6 
1 0 0 13 1 0 0 8 1 0 0 8 1 0 0 10 
1 0 0 9 1 0 0 14 1 0 0 9 1 0 0 8 
1 0 0 5 0 -9 1 0 0 9 1 0 0 -2 0 9 
1 0 0 9 1 0 0 -5 0 3 1 0 0 7 1 0 
0 3 1 -100 -1 0 2 2 0 1 1 -8 -1 0 2 2 
0 5 1 0 0 -12 1 1 1 1 0 -12 1 0 0 -10 
1 0 0 -7 0 1 1 1 0 1 0 -1 1 3 0 4 
1 0 0 4 1 0 0 6 1 0 0 8 1 0 0 8 
1 0 0 9 1 0 0 10 1 0 0 15 1 0 0 11 
1 0 0 9 1 0 0 11 1 0 0 9 1 0 0 7 
0 -49 1 0 0 9 1 0 0 11 1 0 0 11 1 0 
0 10 1 0 0 16 1 0 0 -47 0 3 1 0 0 11 
1 0 0 11 1 0 0 15 1 0 0 9 1 0 0 1 
0 -1 1 5 0 -71 0 4 1 0 0 3 1 -1 0 8 
1 0 0 2 0 -3 1 0 0 2 2 0 0 -66 1 1 
1 1 0 -3 1 1 1 1 0 1 0 -1 1 -1 0 3 
1 1 0 2 0 -2 1 0 0 1 0 -1 1 3 0 4 
1 0 0 -1 0 1 1 1 0 7 1 0 0 -2 0 2 
1 0 0 5 1 0 0 2 0 -4 1 0 0 8 1 0 
0 2 0 -3 1 0 0 6 1 0 0 6 1 0 0 -4 
0 3 1 0 0 10 1 0 0 -3 0 3 1 0 0 6 
1 0 0 4 0 -4 1 0 0 -17 0 7 1 0 0 4 
0 -3 1 0 0 8 1 0 0 7 1 0 0 -3 0 3 
1 0 0 6 0 -50 1 0 0 -3 0 3 1 0 0 5 
1 0 0 3 1 0 0 7 2 2 1 -19 -1 0 2 2 
0 -3 1 1 0 2 1 1 0 -4 1 1 1 1 0 1 
1 -6 -1 0 2 2 0 1 0 -1 1 -5 0 2 2 2 
0 -5 1 1 0 3 1 1 0 -3 1 1 0 4 2 0 
0 4 1 0 0 9 1 0 0 6 1 0 0 6 1 0 
0 8 1 0 0 16 0 -5 1 0 0 13 0 -4 1 0 
0 12 0 -4 1 0 0 12 0 -13 1 0 0 12 0 -4 
1 0 0 14 1 0 0 7 1 0 0 7 1 1 0 2 
0 -58 1 0 0 6 1 0 0 3 1 0 0 6 1 0 
0 2 1 1 0 2 929 1493 300 MP stroke
1 1 0 10 0 -64 1 0 0 21 0 -11 2 0 0 2 
1 -1 0 5 1 4 0 -7 0 4 1 0 0 5 0 -73 
2 0 0 10 1 0 0 -3 0 11 1 0 0 12 1 0 
0 15 1 0 0 14 1 0 0 192 1 0 0 1 0 -1 
1 8 0 11 1 0 0 4 0 -2 1 1 0 -7 1 0 
0 2 0 -12 1 0 0 -170 1 0 0 21 1 0 0 3 
0 -6 1 0 0 11 1 0 0 5 1 -1 0 8 0 -110 
1 0 0 -2 1 0 0 2 0 0 1 -1 1 1 0 -2 
1 1 0 -1 0 1 1 -1 0 0 2 2 0 -3 1 0 
0 2 1 1 0 2 0 -3 1 0 0 4 1 0 0 5 
1 0 0 -2 0 6 1 0 0 7 1 0 0 -2 0 11 
1 0 0 -2 0 11 1 0 0 -5 0 12 1 0 0 11 
1 0 0 8 1 0 0 12 1 0 0 13 1 0 0 14 
1 0 0 13 1 0 0 6 1 0 0 10 1 0 0 3 
0 -6 1 0 0 -127 0 2 1 0 0 2 1 1 0 5 
1 0 0 6 1 0 0 4 1 0 0 4 1 0 0 2 
1 1 0 -33 1 1 0 1 0 -1 1 1 0 2 1 1 
0 2 1 0 0 1 0 -1 1 3 0 2 1 1 1 1 
0 -2 1 1 1 1 0 2 1 1 0 2 1 1 0 4 
1 0 0 35 1 0 0 6 1 0 0 7 1 0 0 -4 
0 7 1 0 0 7 1 0 0 -3 0 3 1 0 0 7 
1 0 0 29 1 0 0 6 1 0 0 4 0 -3 1 0 
0 7 1 0 0 7 1 0 0 1 0 -56 1 0 0 8 
1 0 0 4 1 0 0 8 1 0 0 4 1 0 0 12 
1 0 0 111 0 -3 1 0 0 6 1 0 0 5 1 0 
0 -3 0 5 1 0 0 5 1 0 0 -1 0 1 1 1 
0 -66 0 3 1 0 0 3 1 -1 0 8 1 0 0 2 
1 -1 0 2 1 1 0 2 1 1 0 -2 1 0 0 -171 
0 4 1 0 0 5 1 0 0 5 1 0 0 4 1 0 
0 5 1 1 0 4 1 0 0 -36 0 1 2 2 0 2 
1 1 0 3 1 1 0 2 1 1 0 2 2 2 1 1 
0 -3 1 0 0 6 1 0 0 5 1 0 0 -1 0 1 
1 2 0 2 1 3 0 -4 1 0 0 -2 1 0 0 -2 
0 8 1 0 0 3 1 0 0 12 1 0 0 8 1 0 
0 7 1 0 0 11 1 0 0 -35 0 3 1 0 0 9 
1 0 0 6 1 0 0 9 1 0 0 7 1 0 0 11 
1 0 0 2 0 -31 1 0 0 5 1 0 0 6 1 0 
0 3 2 0 0 -1 789 1497 300 MP stroke
0 1 1 -3 0 -57 1 0 0 2 1 1 0 4 1 0 
0 5 1 0 0 6 1 0 0 9 1 0 0 8 1 0 
0 -5 0 4 1 0 0 11 1 0 0 10 1 0 0 12 
1 0 0 18 1 0 0 15 1 0 0 32 1 0 0 1 
0 -1 1 9 0 20 1 0 0 -2 0 5 1 0 0 5 
1 0 0 1 0 -1 1 -3 0 -189 1 1 0 6 1 0 
0 4 1 0 0 2 1 1 0 1 0 -1 1 3 0 -3 
0 5 1 0 0 8 1 0 0 5 1 0 0 7 1 0 
0 9 1 0 0 6 1 0 0 2 0 -28 1 0 0 5 
1 0 0 9 1 0 0 2 1 0 0 10 1 0 0 2 
1 1 0 -34 0 8 1 0 0 1 0 -1 1 3 0 1 
1 7 0 2 2 2 0 5 0 -6 1 0 1 1 0 4 
1 0 1 0 0 -1 0 1 1 3 0 -2 0 12 1 0 
0 10 0 -2 1 0 0 9 1 0 0 9 1 0 0 -3 
0 4 1 0 0 -1 0 7 1 0 0 2 1 1 0 -30 
1 0 0 4 1 0 0 4 1 0 0 9 1 0 0 4 
1 0 0 2 0 -10 1 0 0 4 1 0 0 5 1 0 
0 6 1 0 0 5 1 0 0 2 1 -1 0 4 1 0 
0 1 0 -25 2 0 1 1 0 -4 1 1 1 0 0 -6 
0 10 1 0 1 -1 0 -5 1 0 0 -1 2 -2 0 -6 
2 -2 0 -4 1 -1 0 -4 1 -1 0 -4 2 -2 0 -3 
1 0 0 1 0 -1 1 3 0 123 1 0 0 -1 0 5 
1 0 0 5 1 0 0 3 1 0 0 6 1 0 0 3 
1 2 0 25 1 0 0 3 0 -2 1 0 0 6 1 0 
0 6 1 0 0 -3 0 7 1 0 0 15 1 0 0 -1 
0 1 1 2 0 7 1 0 0 5 1 0 0 6 1 0 
0 4 0 -3 1 0 0 7 1 0 0 11 1 0 0 -4 
0 7 1 0 0 8 1 0 0 -5 0 4 1 0 0 9 
1 0 0 -14 1 0 0 15 1 0 0 5 0 -4 1 0 
0 11 1 0 0 11 1 0 0 -2 0 11 1 0 0 -24 
0 6 1 0 0 -1 0 1 1 5 0 13 1 0 0 6 
1 -1 0 19 1 0 0 6 1 0 0 -53 0 5 1 0 
0 12 1 0 0 1 0 -1 1 6 0 16 1 0 0 7 
1 0 0 9 1 0 0 5 0 -113 1 0 0 16 1 0 
0 10 1 0 0 10 1 0 0 10 1 0 0 9 1 0 
0 -103 0 10 1 0 0 11 1 0 0 9 1 0 0 9 
1 0 0 9 1 0 0 7 1 0 0 2 1 0 0 -179 
0 2 1 0 0 10 650 1467 300 MP stroke
1 0 0 6 1 0 0 12 1 0 0 5 1 0 0 13 
1 0 0 8 1 0 0 13 1 0 0 7 1 0 0 7 
1 0 0 13 1 0 0 13 1 0 0 14 1 0 0 9 
1 0 0 16 1 0 0 11 1 0 0 22 1 0 0 11 
1 0 0 12 1 0 0 15 1 0 0 13 1 0 0 9 
1 1 0 -126 1 1 0 8 2 2 0 1 0 -1 1 5 
1 0 1 -1 0 2 1 -1 0 -3 1 -1 0 -2 1 0 
0 -4 1 0 0 -4 1 0 0 -5 1 0 0 -6 1 1 
0 -6 1 0 0 -6 1 0 0 3 0 -3 1 0 0 -9 
1 0 0 9 0 -3 1 0 0 -4 1 0 1 10 -1 -12 
0 12 2 -2 0 18 1 0 0 280 1 0 0 8 1 0 
0 18 1 0 0 8 1 0 0 21 1 0 0 152 1 0 
0 1 0 -1 1 19 0 1 0 -1 1 3 0 22 2 0 
0 10 1 1 0 17 1 0 0 21 0 -9 1 0 0 -104 
1 0 0 -153 0 4 1 0 0 10 1 0 0 -30 0 5 
1 0 0 17 1 0 0 11 1 0 0 11 1 0 0 11 
1 0 0 11 1 0 0 15 1 0 0 11 1 0 0 10 
1 0 0 10 1 0 0 10 1 0 0 15 1 0 0 10 
1 0 0 10 1 0 0 9 1 0 0 15 1 0 0 10 
1 0 0 5 0 -2 1 0 0 11 1 0 0 11 1 1 
0 6 0 -19 1 0 0 13 1 0 0 16 1 0 0 6 
1 0 0 19 1 0 0 15 1 0 0 -9 0 8 1 0 
0 15 1 0 0 15 1 0 0 24 1 0 0 16 1 0 
0 16 1 0 0 41 1 0 0 27 1 0 0 16 1 0 
0 19 1 0 0 16 1 0 0 16 1 0 0 11 0 -32 
0 9 1 0 0 18 1 0 0 23 1 0 0 17 1 0 
0 33 1 0 0 -8 0 9 1 0 0 26 1 0 0 18 
1 0 0 18 1 0 0 36 1 0 0 9 0 -3 1 0 
0 26 1 0 0 16 1 0 0 24 1 0 0 21 1 0 
0 21 1 0 0 12 1 0 0 14 1 0 0 94 1 0 
0 20 1 0 0 6 533 135 244 MP stroke
1 0 0 7 1 0 0 6 1 0 0 5 1 0 0 6 
1 0 0 7 1 0 0 -1 0 8 1 0 0 7 1 0 
0 -4 0 4 1 0 0 8 1 0 0 4 0 -8 0 4 
1 0 0 8 1 0 0 4 0 -9 1 0 0 7 1 0 
0 6 1 0 0 -10 0 4 2 2 0 -76 1 1 1 1 
0 1 1 -7 -1 0 2 2 0 -3 1 0 0 1 2 0 
1 1 1 1 1 1 1 1 0 1 1 3 0 1 0 -1 
1 3 0 6 1 0 0 5 1 0 0 6 1 0 0 15 
1 0 0 15 1 0 0 7 1 0 0 11 1 0 0 12 
1 0 0 28 1 0 0 14 1 0 0 13 1 0 0 14 
1 0 0 15 1 0 0 -50 0 5 1 0 0 5 1 0 
0 10 1 0 0 4 0 -5 0 3 1 0 0 5 1 0 
0 1 0 -1 1 -10 0 -1 0 1 1 -3 0 -134 1 1 
0 11 1 0 0 9 1 0 0 16 1 0 0 7 1 0 
0 7 1 0 0 12 1 0 0 19 1 0 0 7 1 0 
0 8 1 0 0 17 1 0 0 7 1 0 0 12 1 0 
0 -5 1 0 0 -110 1 0 0 7 1 0 0 2 0 -9 
1 0 0 6 1 0 0 6 1 0 0 -5 0 4 1 0 
0 11 1 0 0 -4 0 4 1 0 0 9 1 0 0 5 
0 -3 1 0 0 11 1 0 0 12 1 0 0 14 1 0 
0 14 1 0 0 1 0 -1 1 9 0 24 1 0 0 -1 
0 1 1 7 0 17 1 0 0 8 0 -4 1 0 0 23 
1 0 0 6 0 -7 1 0 0 5 0 -97 1 0 0 10 
1 0 0 -10 0 4 1 0 0 13 1 0 0 -12 0 3 
1 0 0 4 1 0 0 -102 1 0 1 1 0 -8 1 0 
1 -1 1 -1 0 10 1 -1 1 0 0 12 1 0 0 -2 
1 1 0 9 2 2 0 6 1 -11 -1 0 2 2 0 2 
2 2 0 4 1 1 0 4 1 0 0 5 1 0 0 2 
1 -1 0 5 1 0 0 6 0 -2 1 0 0 7 1 0 
0 7 1 0 0 5 1 0 0 9 1 0 0 15 1 0 
0 13 1 0 0 20 1 0 0 18 1 0 0 154 1 0 
0 24 1 0 0 21 1 0 0 23 1 0 0 12 1 0 
0 16 1 1 0 -324 0 5 1 0 0 15 1 0 0 9 
1 0 0 16 1 0 0 6 1 0 0 2 1 1 0 6 
1 -1 0 -52 0 4 1 0 0 4 0 -5 0 5 1 0 
0 8 1 0 0 4 1 -1 0 6 1 0 0 2 0 -45 
1 0 0 8 1 0 0 9 1 0 0 -3 0 5 1 0 
0 11 1 0 0 8 2753 1494 300 MP stroke
1 0 0 11 1 0 0 5 0 -2 1 0 0 10 1 0 
0 7 1 0 0 -93 1 0 0 4 1 0 0 -2 0 2 
1 0 0 4 1 0 0 2 0 -3 0 2 2 2 0 -3 
2 -2 0 -24 0 1 1 1 0 2 2 2 1 1 1 1 
0 2 0 -16 1 0 0 1 0 -1 1 3 1 1 0 2 
1 1 0 2 1 1 0 1 0 -1 1 3 0 2 1 1 
0 -1 0 1 1 1 0 2 0 -6 1 0 0 2 1 0 
0 4 1 0 0 2 1 -1 0 4 1 0 0 3 2 2 
0 1 0 -1 1 -24 0 4 1 1 0 2 1 1 0 1 
0 -1 1 7 0 3 1 1 0 7 1 0 1 0 0 -25 
1 0 0 5 1 0 1 0 0 6 1 0 1 0 0 8 
1 0 0 1 0 -1 1 9 0 9 1 0 0 5 1 0 
0 5 1 0 0 7 1 0 1 1 0 -68 1 0 0 4 
1 0 0 2 0 -2 1 0 0 6 1 0 0 3 1 -1 
0 4 1 0 0 2 0 -6 1 0 0 4 1 0 0 5 
1 0 0 3 1 0 0 7 1 0 0 5 1 0 0 -5 
0 10 1 0 0 12 1 0 0 12 1 0 0 14 1 0 
0 17 1 0 0 15 0 -8 1 0 0 18 1 0 0 16 
1 0 0 17 1 0 0 23 1 0 0 15 1 0 0 5 
0 -113 1 0 0 13 1 0 0 15 1 0 0 22 1 0 
0 15 1 0 0 15 1 0 0 11 1 0 0 19 1 0 
0 7 1 0 0 4 0 -134 1 0 0 7 1 0 0 -1 
0 1 1 3 0 10 1 0 0 -2 0 3 1 0 0 5 
1 0 0 2 0 -3 1 0 0 1 0 -59 0 2 1 0 
0 1 0 -1 1 -3 0 2 2 2 0 -6 1 1 1 1 
0 -5 1 0 0 -29 1 -1 0 -1 0 1 1 -4 1 -1 
0 -1 0 1 1 4 0 1 2 2 0 11 2 2 0 9 
0 -9 1 0 0 2 1 1 0 8 1 0 0 1 0 -1 
1 3 0 1 1 5 1 1 0 -31 0 2 1 0 0 2 
1 0 0 7 1 0 0 -2 0 3 1 0 0 6 1 0 
0 4 0 -4 1 0 0 7 1 0 0 20 1 0 0 10 
1 0 0 5 0 -5 1 0 0 8 1 0 0 10 1 0 
0 14 1 0 0 8 1 0 0 -62 0 4 1 0 0 10 
1 0 0 9 0 -2 1 0 0 10 1 0 0 9 1 0 
0 -3 0 4 1 0 0 10 1 0 0 -59 1 0 0 4 
1 0 0 2 1 0 0 4 1 0 0 3 2 2 1 1 
1 0 0 -28 0 5 1 0 0 5 1 6 0 11 1 0 
0 6 1 -1 0 13 2608 1522 300 MP stroke
1 0 0 22 1 0 0 16 1 0 0 17 1 0 0 11 
1 0 0 17 1 0 0 20 1 0 0 15 1 0 0 9 
1 0 0 4 0 -126 1 0 0 12 1 0 0 8 1 0 
0 5 1 0 1 3 -1 0 2 -2 0 -47 1 1 0 4 
1 0 0 2 0 -6 1 0 0 4 1 0 0 2 1 1 
0 -5 0 -1 1 3 0 2 1 1 0 -8 1 1 0 2 
1 1 0 1 0 -13 0 2 1 0 0 1 0 -1 1 3 
0 1 0 -1 1 -12 0 1 0 -1 1 3 0 3 0 -13 
1 0 0 2 1 1 0 2 1 1 0 -12 0 2 1 0 
0 4 1 0 0 2 0 -9 0 3 1 0 0 5 1 0 
0 3 0 -4 1 0 0 7 1 0 0 8 1 -1 0 9 
1 0 0 9 1 0 0 7 1 0 0 10 1 0 0 15 
1 0 0 12 1 0 0 11 1 0 0 -35 1 0 0 14 
1 0 0 15 1 0 0 24 1 0 0 17 1 0 0 18 
1 0 0 23 1 0 0 20 1 0 0 14 1 0 0 17 
1 0 0 -75 0 9 1 0 0 28 1 0 0 21 1 0 
0 19 1 0 0 22 1 0 0 18 1 0 0 10 0 -58 
0 10 1 0 0 19 1 0 0 27 0 -3 1 0 0 16 
0 -2 1 0 0 14 0 -6 1 0 0 13 0 -9 1 0 
0 15 0 -10 1 0 0 7 0 -12 1 0 0 5 0 -324 
0 5 1 0 0 -5 0 4 1 0 0 1 0 -6 0 1 
1 0 0 4 0 -5 1 0 0 4 0 -3 1 0 0 3 
0 -3 1 0 0 2 1 0 0 2 1 0 0 1 0 -1 
1 3 0 2 1 1 0 7 1 0 0 3 1 1 0 6 
1 0 0 7 0 -5 1 -1 0 19 1 0 1 -1 0 -2 
0 21 2 0 0 -2 0 4 1 -1 0 10 0 -2 1 0 
0 9 0 -9 0 9 1 0 0 -3 0 8 1 0 0 -3 
1 -1 0 -51 1 0 0 -2 0 6 1 0 0 -7 0 5 
1 0 1 3 -1 0 2 -2 0 2 1 1 0 3 0 -1 
1 -3 0 -6 1 1 0 2 1 1 0 -5 1 1 0 3 
1 1 0 -3 1 1 0 3 2 0 0 1 0 -1 1 6 
0 4 0 -5 1 0 0 4 1 0 0 4 1 0 0 -6 
0 2 1 0 0 7 1 0 0 -5 0 3 1 0 0 31 
1 0 0 4 0 -7 1 0 0 7 1 0 0 7 0 -11 
1 0 0 7 1 0 0 7 1 0 0 -23 1 0 0 11 
1 0 0 -11 0 4 1 0 0 8 1 0 0 4 0 -11 
1 0 0 9 1 0 0 8 0 -10 1 0 0 4 0 -50 
1 0 0 7 1 0 2480 1546 300 MP stroke
0 -9 0 5 1 0 0 14 1 0 0 -1 0 1 1 4 
0 12 1 0 0 7 1 1 0 13 1 0 0 10 1 -1 
0 14 1 0 0 15 1 0 0 10 1 0 0 17 1 0 
0 22 1 0 0 16 1 0 0 13 1 0 0 -79 0 8 
1 0 0 20 1 0 0 16 1 0 0 15 1 0 0 10 
1 0 0 17 1 0 0 1 0 -1 1 4 1 1 -1 0 
2 -2 0 -197 1 1 0 2 0 -1 1 -1 0 1 2 2 
0 -6 0 1 2 2 0 1 0 -11 0 1 2 2 0 1 
0 -1 1 -13 0 4 1 0 0 4 0 -8 1 0 0 6 
1 0 0 6 1 0 0 4 1 0 0 7 1 0 0 9 
1 0 0 7 1 0 0 8 1 0 0 4 1 0 0 2 
1 5 1 -1 0 -2 0 78 1 0 0 -6 0 8 1 0 
0 19 1 0 0 14 1 0 0 21 1 0 0 11 0 -3 
1 0 0 197 1 0 0 18 0 -3 1 0 0 17 1 0 
0 17 1 0 0 -3 0 8 1 0 0 17 1 0 0 8 
1 7 0 16 1 0 0 92 0 -4 1 0 0 13 1 0 
0 13 1 0 0 -3 0 11 1 0 0 11 1 0 0 -1 
0 1 1 4 0 8 1 0 0 5 1 0 0 70 1 0 
0 3 0 -9 1 0 0 1 0 -1 1 3 1 1 0 -11 
1 -1 0 -1 0 1 1 -3 0 -18 1 0 0 -472 0 9 
1 0 0 9 0 -7 1 0 0 29 1 0 0 9 0 -4 
1 0 0 19 1 0 0 17 1 0 0 -3 0 141 1 0 
0 13 1 0 0 -1 0 1 1 1 0 2 1 0 0 -7 
1 0 0 -18 1 0 0 -387 1 0 0 11 1 0 0 12 
1 0 0 15 1 0 0 14 1 0 0 10 1 0 0 -17 
0 8 1 0 0 20 1 0 0 16 1 0 0 14 1 0 
0 15 1 0 0 13 1 0 0 -59 0 15 1 0 0 16 
1 0 0 11 1 0 0 18 1 0 0 9 1 -1 0 25 
1 0 0 8 0 -2 1 0 0 6 0 -110 1 0 0 12 
1 0 0 -5 0 6 1 0 0 18 1 0 0 -4 0 6 
1 0 0 8 1 0 0 -92 1 0 0 12 1 0 0 4 
1 1 0 16 1 0 0 5 1 0 0 11 1 0 0 18 
1 0 0 15 1 0 0 5 0 -56 1 0 0 12 1 0 
0 11 1 0 0 18 1 0 0 11 1 0 0 9 1 0 
0 9 1 0 0 4 0 -1 1 -73 0 -6 0 3 1 0 
0 5 1 0 0 3 0 -8 1 0 0 5 1 0 0 3 
0 -8 1 0 0 1 0 -1 1 -52 0 1 0 -1 1 3 
0 -11 0 2 1 0 2346 1571 300 MP stroke
0 6 1 0 0 -7 0 2 1 0 0 4 1 0 0 3 
0 -4 1 0 0 3 0 -4 1 0 0 9 1 0 0 9 
1 0 0 12 1 0 0 13 1 0 0 149 1 0 0 24 
1 0 0 22 1 0 0 10 1 1 0 17 1 0 0 14 
0 -2 1 0 0 7 1 0 1 1 0 -7 1 0 0 -304 
1 0 0 -1 0 4 1 -1 1 0 0 5 1 0 1 0 
0 6 2 2 0 1 0 -1 1 3 0 7 1 0 0 5 
1 0 0 6 1 0 0 4 1 0 0 2 1 1 0 5 
1 0 0 4 1 -1 0 5 1 0 0 5 1 0 0 -4 
0 3 1 0 0 7 1 0 0 -8 0 2 1 0 0 2 
1 1 0 1 0 -1 1 -52 1 1 0 1 0 -1 1 -8 
0 2 2 2 1 14 -1 0 2 -2 0 -6 1 -1 1 -1 
0 -1 0 7 2 2 0 4 1 0 0 14 1 0 0 5 
1 0 0 15 1 0 0 5 1 0 0 13 0 -54 1 0 
0 5 1 0 0 11 1 0 0 5 1 0 0 11 1 0 
0 2 1 1 0 2 1 1 0 3 0 -44 1 0 0 7 
1 0 0 13 1 0 0 7 1 0 0 11 1 0 0 9 
1 0 0 -10 0 13 1 0 0 11 1 0 0 11 1 0 
0 15 1 0 0 18 1 0 0 15 1 0 0 10 1 0 
0 11 1 0 0 -97 0 3 1 0 0 8 1 0 0 13 
1 0 0 7 1 0 0 9 1 0 0 1 0 -1 1 -67 
0 9 1 0 0 4 1 0 0 4 1 0 0 2 1 1 
0 3 1 -1 1 1 1 0 0 -1 0 1 1 -3 0 -6 
1 0 0 -7 0 30 1 0 0 13 1 0 0 12 1 0 
0 13 1 0 0 12 1 0 0 17 1 0 0 7 1 0 
0 9 1 1 0 -122 0 2 1 0 0 7 1 0 0 6 
1 0 0 6 1 0 0 6 1 0 0 7 1 0 0 10 
1 0 0 6 1 0 0 -30 0 4 1 0 0 6 1 0 
0 7 1 0 0 10 1 0 0 9 1 0 0 7 1 0 
0 3 0 -37 1 0 0 13 1 0 0 7 1 0 0 10 
1 0 0 7 1 0 0 10 1 0 0 8 1 0 0 5 
1 0 0 -61 0 2 1 0 0 1 0 -1 1 3 0 -1 
0 1 2 2 0 -2 1 -1 0 -28 1 0 0 -6 1 0 
1 -1 0 -7 1 0 0 -1 0 1 1 -3 0 -1 0 1 
1 -4 0 -11 1 0 0 -5 0 47 1 0 0 10 1 0 
0 11 1 0 0 14 1 0 0 5 1 0 0 16 1 0 
0 -77 0 5 1 0 0 9 1 0 0 13 1 0 0 17 
1 0 0 13 1 0 2202 1507 300 MP stroke
0 6 1 1 0 12 1 0 0 15 1 0 0 8 1 0 
0 -92 0 4 1 0 0 8 1 0 0 10 1 0 0 14 
1 0 0 7 1 0 0 9 1 0 0 4 1 1 0 7 
2 2 0 -79 0 1 2 2 0 -5 0 1 2 2 0 -5 
0 1 2 2 0 1 1 -3 -1 0 2 2 0 2 0 -2 
1 0 0 3 2 2 1 1 0 2 1 1 0 3 1 1 
0 4 2 2 0 4 1 0 0 4 1 0 0 5 1 0 
0 5 1 0 0 -1 0 1 1 2 0 7 1 0 0 10 
1 0 0 5 1 0 0 2 0 -8 1 0 0 2 1 1 
0 3 0 -1 1 -12 0 -11 1 0 1 1 0 -16 1 -1 
1 -1 0 -14 1 -1 1 -1 0 -1 0 1 1 3 0 1 
0 -1 1 32 0 29 1 0 0 8 1 0 0 7 1 0 
0 18 1 1 0 -116 1 -1 0 2 1 0 1 1 0 12 
1 0 1 0 0 -1 0 1 1 7 0 -4 1 0 0 15 
1 0 0 -4 0 6 1 0 0 4 1 0 0 3 1 5 
0 11 1 0 0 9 1 0 0 41 1 0 0 22 1 0 
0 18 1 0 0 18 1 0 0 17 1 0 0 19 1 0 
0 26 1 0 0 16 1 0 0 14 1 0 0 5 0 -166 
1 0 0 18 1 0 0 13 1 0 0 13 1 0 0 11 
1 0 0 12 1 0 0 14 1 0 0 7 1 0 0 -88 
1 1 0 8 1 0 0 6 1 -1 0 5 1 0 0 4 
1 0 0 -65 1 0 0 1 0 -1 1 3 0 1 0 -13 
0 10 2 2 0 1 0 -1 1 -3 1 0 1 -1 0 -4 
1 -1 0 -14 0 4 1 0 0 10 1 0 0 10 1 0 
0 13 1 0 0 7 1 0 0 2 0 -55 1 0 0 2 
1 1 0 8 1 0 0 6 1 0 0 7 1 0 0 10 
1 0 0 9 1 0 0 15 1 0 0 10 1 0 0 12 
1 0 0 4 0 -45 1 0 0 11 1 0 0 19 1 0 
0 13 1 0 0 10 1 0 0 12 1 0 0 7 1 0 
0 12 1 0 0 2 0 -93 1 0 0 4 1 0 0 5 
1 0 0 -3 0 3 2 2 0 -5 1 1 0 98 1 0 
0 16 1 0 0 13 1 0 0 7 1 -1 0 12 1 0 
0 9 1 0 0 -1 0 5 1 0 1 0 0 -192 2 -2 
0 -4 1 0 1 -1 0 -4 1 0 1 1 1 0 0 2 
1 3 0 5 1 0 0 14 1 0 0 13 1 0 0 16 
1 0 0 20 1 0 0 16 1 0 0 5 0 -61 1 0 
0 12 1 0 0 13 1 0 0 18 1 0 0 12 1 0 
0 9 1 0 0 9 2050 1459 300 MP stroke
1 0 0 2 1 -1 0 -89 1 0 0 2 2 2 0 -8 
0 1 2 2 0 -9 1 1 1 0 0 -10 1 0 1 -1 
0 -11 2 -2 0 -2 1 -1 0 -8 1 -1 1 -1 0 -1 
0 13 1 1 0 5 1 0 0 16 1 0 0 7 1 0 
0 20 1 0 0 9 1 0 0 10 1 0 0 16 1 0 
0 10 1 0 0 21 1 0 0 10 1 0 0 14 1 0 
0 2 0 -88 1 0 0 16 1 0 0 13 1 0 0 13 
1 0 0 10 1 0 0 21 1 0 0 9 1 0 0 13 
1 0 0 -33 1 0 0 14 1 0 0 13 1 -1 0 11 
1 0 0 8 1 0 0 -96 1 0 0 9 1 0 0 25 
1 0 0 24 1 0 0 21 1 0 0 18 1 0 0 28 
1 0 0 21 1 0 0 23 1 0 0 51 1 0 0 29 
1 0 0 37 1 0 0 46 1 0 0 39 1 0 0 35 
1 0 0 39 1 0 0 35 1 0 0 35 1 0 0 37 
1 0 0 35 1 0 0 54 1 0 0 100 1 0 0 9 
1 0 0 152 0 -108 5 0 0 59 1 0 0 41 1 0 
0 54 1 0 0 41 1 0 0 21 0 -66 1 0 0 42 
1 0 0 39 1 0 0 39 1 0 0 41 1 0 0 39 
1 0 0 147 2 0 0 37 1 0 0 22 1 0 0 32 
1967 135 153 MP stroke
DA
2.08333 w
1 0 1 0 1 0 1 0 1 0 1 0 1 0 1 0 
1 0 1 0 1 0 1 0 1 0 1 0 1 0 1 0 
1 0 1 0 1 0 1 0 1 0 1 0 1 0 1 0 
1 0 1 0 1 0 1 0 1 0 1 0 1 0 1 0 
1 0 1 0 1 0 1 0 1 0 1 0 1 0 1 0 
1 0 1 0 1 0 1 0 1 0 1 0 1 0 1 0 
1 0 1 0 1 0 1 0 1 0 1 0 1 0 1 0 
1 0 1 0 1 0 1 0 1 0 1 0 1 0 1 0 
1 0 1 0 1 0 1 0 1 0 1 0 1 0 1 0 
1 0 1 0 1 0 1 0 1 0 1 0 1 0 1 0 
1 0 1 0 1 0 1 0 1 0 1 0 1 0 1 0 
1 0 1 0 1 0 1 0 1 0 1 0 1 0 1 0 
1 0 1 0 1 0 1 0 1 0 1 0 1 0 1 0 
1 0 1 0 1 0 1 0 1 0 1 0 1 0 1 0 
1 0 1 0 1 0 1 0 1 0 1 0 1 0 1 0 
1 0 1 0 1 0 1 0 1 0 1 0 1 0 1 0 
1 0 1 0 1 0 1 0 1 0 1 0 1 0 1 0 
1 0 1 0 1 0 1 0 1 0 1 0 1 0 1 0 
1 0 1 0 1 0 1 0 1 0 1 0 1 0 1 0 
1 0 1 0 1 0 1 0 1 0 1 0 1 0 1 0 
1 0 1 0 1 0 1 0 1 0 1 0 1 0 1 0 
1 0 1 0 1 0 1 0 1 0 1 0 1 0 1 0 
1 0 1 0 1 0 1 0 1 0 1 0 1 0 1 0 
1 0 1 0 1 0 1 0 1 0 1 0 1 0 1 0 
1 0 1 0 1 0 1 0 1 0 1 0 1 0 1 0 
1 0 1 0 1 0 1 0 1 0 1 0 1 0 1 0 
1 0 1 0 1 0 1 0 1 0 1 0 1 0 1 0 
1 0 1 0 1 0 1 0 1 0 1 0 1 0 1 0 
1 0 1 0 1 0 1 0 1 0 1 0 1 0 1 0 
1 0 1 0 1 0 1 0 1 0 1 0 1 0 1 0 
1 0 1 0 1 0 1 0 1 0 1 0 1 0 1 0 
1 0 1 0 1 0 1 0 1 0 1 0 1 0 1 0 
1 0 1 0 1 0 1 0 1 0 1 0 1 0 1 0 
1 0 1 0 1 0 1 0 1 0 1 0 1 0 1 0 
1 0 1 0 1 0 1 0 1 0 1 0 1 0 1 0 
1 0 1 0 1 0 1 0 1 0 1 0 1 0 1 0 
1 0 1 0 1 0 1 0 1 0 1 0 1 0 1 0 
1 0 1 0 1 0 2597 1250 300 MP stroke
1 0 1 0 1 0 1 0 1 0 1 0 1 0 1 0 
1 0 1 0 1 0 1 0 1 0 1 0 1 0 1 0 
1 0 1 0 1 0 1 0 1 0 1 0 1 0 1 0 
1 0 1 0 1 0 1 0 1 0 1 0 1 0 1 0 
1 0 1 0 1 0 1 0 1 0 1 0 1 0 1 0 
1 0 1 0 1 0 1 0 1 0 1 0 1 0 1 0 
1 0 1 0 1 0 1 0 1 0 1 0 1 0 1 0 
1 0 1 0 1 0 1 0 1 0 1 0 1 0 1 0 
1 0 1 0 1 0 1 0 1 0 1 0 1 0 1 0 
1 0 1 0 2 0 1 0 1 0 1 0 1 0 1 0 
1 0 1 0 1 0 1 0 1 0 1 0 1 0 1 0 
1 0 1 0 1 0 1 0 1 0 1 0 1 0 1 0 
1 0 1 0 1 0 1 0 1 0 1 0 1 0 1 0 
1 0 1 0 1 0 1 0 1 0 1 0 1 0 1 0 
1 0 1 0 1 0 1 0 1 0 1 0 1 0 1 0 
1 0 1 0 1 0 1 0 1 0 1 0 1 0 1 0 
1 0 1 0 1 0 1 0 1 0 1 0 1 0 1 0 
1 0 1 0 1 0 1 0 1 0 1 0 1 0 1 0 
1 0 1 0 1 0 1 0 1 0 1 0 1 0 1 0 
1 0 1 0 1 0 1 0 1 0 1 0 1 0 1 0 
1 0 1 0 1 0 1 0 1 0 1 0 1 0 1 0 
1 0 1 0 1 0 1 0 1 0 1 0 1 0 1 0 
1 0 1 0 1 0 1 0 1 0 1 0 1 0 1 0 
1 0 1 0 1 0 1 0 1 0 1 0 1 0 1 0 
1 0 1 0 1 0 1 0 1 0 1 0 1 0 1 0 
1 0 1 0 1 0 1 0 1 0 1 0 1 0 1 0 
1 0 1 0 1 0 1 0 1 0 1 0 1 0 1 0 
1 0 1 0 1 0 1 0 1 0 1 0 1 0 1 0 
1 0 1 0 1 0 1 0 1 0 1 0 1 0 1 0 
1 0 1 0 1 0 1 0 1 0 1 0 1 0 1 0 
1 0 1 0 1 0 1 0 1 0 1 0 1 0 1 0 
1 0 1 0 1 0 1 0 1 0 1 0 1 0 1 0 
1 0 1 0 1 0 1 0 1 0 1 0 1 0 1 0 
1 0 1 0 1 0 1 0 1 0 1 0 1 0 1 0 
1 0 1 0 1 0 1 0 1 0 1 0 1 0 1 0 
1 0 1 0 1 0 1 0 1 0 1 0 1 0 1 0 
1 0 1 0 1 0 1 0 1 0 1 0 1 0 1 0 
1 0 1 0 1 0 2297 1250 300 MP stroke
1 0 1 0 1 0 1 0 1 0 1 0 1 0 1 0 
1 0 1 0 1 0 1 0 1 0 1 0 1 0 1 0 
1 0 1 0 1 0 1 0 1 0 1 0 1 0 1 0 
1 0 1 0 1 0 1 0 1 0 1 0 1 0 1 0 
1 0 1 0 1 0 1 0 1 0 1 0 1 0 1 0 
1 0 1 0 1 0 1 0 1 0 1 0 1 0 1 0 
1 0 1 0 1 0 1 0 1 0 1 0 1 0 1 0 
1 0 1 0 1 0 1 0 1 0 1 0 1 0 1 0 
1 0 1 0 1 0 1 0 1 0 1 0 1 0 1 0 
1 0 1 0 1 0 1 0 1 0 1 0 1 0 1 0 
1 0 1 0 1 0 1 0 1 0 1 0 1 0 1 0 
1 0 1 0 1 0 1 0 1 0 1 0 1 0 1 0 
1 0 1 0 1 0 1 0 1 0 1 0 1 0 1 0 
1 0 1 0 1 0 1 0 1 0 1 0 1 0 1 0 
1 0 1 0 1 0 1 0 1 0 1 0 1 0 1 0 
1 0 1 0 1 0 1 0 1 0 1 0 1 0 1 0 
1 0 1 0 1 0 1 0 1 0 1 0 1 0 1 0 
1 0 1 0 1 0 1 0 1 0 1 0 1 0 1 0 
1 0 1 0 1 0 1 0 1 0 1 0 1 0 1 0 
1 0 1 0 1 0 1 0 1 0 1 0 1 0 1 0 
1 0 1 0 1 0 1 0 1 0 1 0 1 0 1 0 
1 0 1 0 1 0 1 0 1 0 1 0 1 0 1 0 
1 0 1 0 1 0 1 0 1 0 1 0 1 0 1 0 
1 0 1 0 1 0 1 0 1 0 1 0 1 0 1 0 
1 0 1 0 1 0 1 0 1 0 1 0 1 0 1 0 
1 0 1 0 1 0 1 0 1 0 1 0 1 0 1 0 
1 0 1 0 1 0 1 0 1 0 1 0 1 0 1 0 
1 0 1 0 1 0 1 0 1 0 1 0 1 0 1 0 
1 0 1 0 1 0 1 0 1 0 1 0 1 0 1 0 
1 0 1 0 1 0 1 0 1 0 1 0 1 0 1 0 
1 0 1 0 1 0 1 0 1 0 1 0 1 0 1 0 
1 0 1 0 1 0 1 0 1 0 1 0 1 0 1 0 
1 0 1 0 1 0 1 0 1 0 1 0 1 0 1 0 
1 0 1 0 1 0 1 0 1 0 1 0 1 0 1 0 
1 0 1 0 1 0 1 0 1 0 1 0 1 0 1 0 
1 0 1 0 1 0 1 0 1 0 1 0 1 0 1 0 
1 0 1 0 1 0 1 0 1 0 1 0 1 0 1 0 
1 0 1 0 1 0 1998 1250 300 MP stroke
1 0 1 0 1 0 1 0 1 0 1 0 1 0 1 0 
1 0 1 0 1 0 1 0 5 0 1 0 1 0 1 0 
1 0 1 0 1 0 1 0 1 0 1 0 1 0 2 0 
1 0 1 0 1 0 1 0 1 0 1 0 1 0 1 0 
1 0 1 0 1 0 1 0 1 0 1 0 1 0 1 0 
1 0 1 0 1 0 1 0 1 0 1 0 1 0 1 0 
1 0 1 0 1 0 1 0 1 0 1 0 1 0 1 0 
1 0 1 0 1 0 1 0 1 0 1 0 1 0 1 0 
1 0 1 0 1 0 1 0 1 0 1 0 1 0 1 0 
1 0 1 0 1 0 1 0 1 0 1 0 1 0 1 0 
1 0 1 0 1 0 1 0 1 0 1 0 1 0 1 0 
1 0 1 0 1 0 1 0 1 0 1 0 1 0 1 0 
1 0 1 0 1 0 1 0 1 0 1 0 1 0 1 0 
1 0 1 0 1 0 1 0 1 0 1 0 1 0 1 0 
1 0 1 0 1 0 1 0 1 0 1 0 1 0 1 0 
1 0 1 0 1 0 1 0 1 0 1 0 1 0 1 0 
1 0 1 0 1 0 1 0 1 0 1 0 1 0 1 0 
1 0 1 0 1 0 1 0 1 0 1 0 1 0 1 0 
1 0 1 0 1 0 1 0 1 0 1 0 1 0 1 0 
1 0 1 0 1 0 1 0 1 0 1 0 1 0 1 0 
1 0 1 0 1 0 1 0 1 0 1 0 1 0 1 0 
1 0 1 0 1 0 1 0 1 0 1 0 1 0 1 0 
1 0 1 0 3 0 1 0 1 0 1 0 1 0 1 0 
1 0 1 0 1 0 1 0 1 0 1 0 1 0 1 0 
1 0 1 0 1 0 1 0 1 0 1 0 1 0 1 0 
1 0 1 0 1 0 1 0 1 0 1 0 1 0 1 0 
1 0 1 0 1 0 1 0 1 0 1 0 1 0 1 0 
1 0 1 0 1 0 1 0 1 0 1 0 1 0 1 0 
1 0 1 0 1 0 1 0 1 0 1 0 1 0 1 0 
1 0 1 0 1 0 1 0 1 0 1 0 1 0 1 0 
1 0 1 0 1 0 1 0 1 0 1 0 1 0 1 0 
1 0 1 0 1 0 1 0 1 0 1 0 1 0 1 0 
1 0 1 0 1 0 1 0 1 0 1 0 1 0 1 0 
1 0 1 0 1 0 1 0 1 0 1 0 1 0 1 0 
1 0 1 0 1 0 1 0 1 0 1 0 1 0 1 0 
1 0 1 0 1 0 1 0 1 0 1 0 1 0 1 0 
1 0 1 0 1 0 1 0 1 0 1 0 1 0 1 0 
1 0 1 0 1 0 1692 1250 300 MP stroke
1 0 1 0 1 0 1 0 1 0 1 0 1 0 1 0 
1 0 1 0 1 0 1 0 1 0 1 0 1 0 1 0 
1 0 1 0 1 0 1 0 1 0 1 0 1 0 1 0 
1 0 1 0 1 0 1 0 1 0 1 0 1 0 1 0 
1 0 1 0 1 0 1 0 1 0 1 0 1 0 1 0 
1 0 1 0 1 0 1 0 1 0 1 0 1 0 1 0 
1 0 1 0 1 0 1 0 1 0 1 0 1 0 1 0 
1 0 1 0 1 0 1 0 1 0 1 0 1 0 1 0 
1 0 1 0 1 0 1 0 1 0 1 0 1 0 1 0 
1 0 1 0 1 0 1 0 1 0 1 0 1 0 1 0 
1 0 1 0 1 0 1 0 1 0 1 0 1 0 1 0 
1 0 1 0 1 0 1 0 1 0 1 0 1 0 1 0 
1 0 1 0 1 0 1 0 1 0 1 0 1 0 1 0 
1 0 1 0 1 0 1 0 1 0 1 0 1 0 1 0 
1 0 1 0 1 0 1 0 1 0 1 0 1 0 1 0 
1 0 1 0 1 0 1 0 1 0 1 0 1 0 1 0 
1 0 1 0 1 0 1 0 1 0 1 0 1 0 1 0 
1 0 1 0 1 0 1 0 1 0 1 0 1 0 1 0 
1 0 1 0 1 0 1 0 1 0 1 0 1 0 1 0 
1 0 1 0 1 0 1 0 1 0 1 0 1 0 1 0 
1 0 1 0 1 0 1 0 1 0 1 0 1 0 1 0 
1 0 1 0 1 0 1 0 1 0 1 0 1 0 1 0 
1 0 1 0 1 0 1 0 1 0 1 0 1 0 1 0 
1 0 1 0 1 0 1 0 1 0 1 0 1 0 1 0 
1 0 1 0 1 0 1 0 1 0 1 0 1 0 1 0 
1 0 1 0 1 0 1 0 1 0 1 0 1 0 1 0 
1 0 1 0 1 0 1 0 1 0 1 0 1 0 1 0 
1 0 1 0 1 0 1 0 1 0 1 0 1 0 1 0 
1 0 1 0 1 0 1 0 1 0 1 0 1 0 1 0 
1 0 1 0 1 0 1 0 1 0 1 0 1 0 1 0 
1 0 1 0 1 0 1 0 1 0 1 0 1 0 1 0 
1 0 4 0 1 0 1 0 1 0 1 0 1 0 1 0 
1 0 1 0 1 0 1 0 1 0 1 0 1 0 1 0 
1 0 1 0 1 0 1 0 1 0 1 0 1 0 1 0 
1 0 1 0 1 0 1 0 1 0 1 0 1 0 1 0 
1 0 1 0 1 0 1 0 1 0 1 0 1 0 1 0 
1 0 1 0 1 0 1 0 1 0 1 0 1 0 1 0 
1 0 1 0 1 0 1390 1250 300 MP stroke
1 0 1 0 1 0 1 0 1 0 1 0 1 0 1 0 
1 0 1 0 1 0 1 0 1 0 1 0 1 0 1 0 
1 0 1 0 1 0 1 0 1 0 1 0 1 0 1 0 
1 0 1 0 1 0 1 0 1 0 1 0 1 0 1 0 
1 0 1 0 1 0 1 0 1 0 1 0 1 0 1 0 
1 0 1 0 1 0 1 0 1 0 1 0 1 0 1 0 
1 0 1 0 1 0 1 0 1 0 1 0 1 0 1 0 
1 0 1 0 1 0 1 0 1 0 1 0 1 0 1 0 
1 0 1 0 1 0 1 0 1 0 1 0 1 0 1 0 
1 0 1 0 1 0 1 0 1 0 1 0 1 0 1 0 
1 0 1 0 1 0 1 0 1 0 1 0 1 0 1 0 
1 0 1 0 1 0 1 0 1 0 1 0 1 0 1 0 
1 0 1 0 1 0 1 0 1 0 1 0 1 0 1 0 
1 0 1 0 1 0 1 0 1 0 1 0 1 0 1 0 
1 0 1 0 1 0 1 0 1 0 1 0 1 0 1 0 
1 0 1 0 1 0 1 0 1 0 1 0 1 0 1 0 
1 0 1 0 1 0 1 0 1 0 1 0 1 0 1 0 
1 0 1 0 1 0 1 0 1 0 1 0 1 0 1 0 
1 0 1 0 1 0 1 0 1 0 1 0 1 0 1 0 
1 0 1 0 1 0 1 0 1 0 1 0 1 0 1 0 
1 0 1 0 1 0 1 0 1 0 1 0 1 0 1 0 
1 0 1 0 1 0 1 0 1 0 1 0 1 0 1 0 
1 0 1 0 1 0 1 0 1 0 1 0 1 0 1 0 
1 0 1 0 1 0 1 0 1 0 1 0 1 0 1 0 
1 0 1 0 1 0 1 0 1 0 1 0 1 0 1 0 
1 0 1 0 1 0 1 0 1 0 1 0 1 0 1 0 
1 0 1 0 1 0 1 0 1 0 1 0 1 0 1 0 
1 0 1 0 1 0 1 0 1 0 1 0 1 0 1 0 
1 0 1 0 1 0 1 0 1 0 1 0 1 0 1 0 
1 0 1 0 1 0 1 0 1 0 1 0 1 0 1 0 
1 0 1 0 1 0 1 0 1 0 1 0 1 0 1 0 
1 0 1 0 1 0 1 0 1 0 1 0 1 0 1 0 
1 0 1 0 1 0 1 0 1 0 1 0 1 0 1 0 
1 0 1 0 1 0 1 0 1 0 1 0 1 0 1 0 
1 0 1 0 1 0 1 0 1 0 1 0 1 0 1 0 
1 0 1 0 1 0 1 0 1 0 1 0 1 0 1 0 
1 0 1 0 1 0 1 0 1 0 1 0 1 0 1 0 
1 0 1 0 1 0 1091 1250 300 MP stroke
1 0 1 0 1 0 1 0 1 0 1 0 1 0 1 0 
1 0 1 0 1 0 1 0 1 0 1 0 1 0 1 0 
1 0 1 0 1 0 1 0 1 0 1 0 1 0 1 0 
1 0 1 0 1 0 1 0 1 0 1 0 1 0 1 0 
1 0 1 0 1 0 1 0 1 0 1 0 1 0 1 0 
1 0 1 0 1 0 1 0 1 0 1 0 1 0 1 0 
1 0 1 0 1 0 1 0 1 0 1 0 1 0 1 0 
1 0 1 0 1 0 1 0 1 0 1 0 1 0 1 0 
1 0 1 0 1 0 1 0 1 0 1 0 1 0 1 0 
1 0 1 0 1 0 1 0 1 0 1 0 1 0 1 0 
1 0 1 0 1 0 1 0 1 0 1 0 1 0 1 0 
1 0 1 0 1 0 1 0 1 0 1 0 1 0 1 0 
1 0 1 0 1 0 1 0 1 0 1 0 1 0 1 0 
1 0 1 0 1 0 1 0 1 0 1 0 1 0 1 0 
1 0 1 0 1 0 1 0 1 0 1 0 1 0 1 0 
1 0 1 0 1 0 1 0 1 0 1 0 1 0 1 0 
1 0 1 0 1 0 1 0 1 0 1 0 1 0 1 0 
1 0 1 0 1 0 1 0 1 0 1 0 1 0 1 0 
1 0 1 0 1 0 1 0 1 0 1 0 1 0 1 0 
1 0 1 0 1 0 1 0 1 0 1 0 1 0 1 0 
1 0 1 0 1 0 1 0 2 0 1 0 1 0 1 0 
2 0 1 0 1 0 1 0 1 0 1 0 1 0 1 0 
1 0 1 0 1 0 1 0 1 0 1 0 1 0 1 0 
1 0 1 0 1 0 1 0 1 0 1 0 1 0 1 0 
1 0 1 0 1 0 1 0 1 0 1 0 1 0 1 0 
1 0 1 0 1 0 1 0 1 0 1 0 1 0 1 0 
1 0 1 0 1 0 1 0 1 0 1 0 1 0 1 0 
1 0 1 0 1 0 1 0 1 0 1 0 1 0 1 0 
1 0 1 0 1 0 1 0 1 0 1 0 1 0 1 0 
1 0 1 0 1 0 1 0 1 0 1 0 1 0 1 0 
1 0 1 0 1 0 1 0 1 0 1 0 1 0 1 0 
1 0 1 0 1 0 1 0 1 0 1 0 1 0 1 0 
1 0 1 0 1 0 1 0 1 0 1 0 1 0 1 0 
1 0 1 0 1 0 1 0 1 0 1 0 1 0 1 0 
1 0 1 0 1 0 1 0 1 0 1 0 1 0 1 0 
1 0 1 0 1 0 1 0 1 0 1 0 1 0 1 0 
1 0 1 0 1 0 1 0 1 0 1 0 1 0 1 0 
1 0 1 0 1 0 790 1250 300 MP stroke
1 0 1 0 1 0 1 0 1 0 1 0 1 0 1 0 
1 0 1 0 1 0 1 0 1 0 1 0 1 0 1 0 
1 0 1 0 1 0 1 0 1 0 1 0 1 0 1 0 
1 0 1 0 1 0 1 0 1 0 1 0 1 0 1 0 
1 0 1 0 1 0 1 0 1 0 1 0 1 0 1 0 
1 0 1 0 1 0 1 0 1 0 1 0 1 0 1 0 
1 0 1 0 1 0 1 0 1 0 1 0 1 0 1 0 
1 0 1 0 1 0 1 0 1 0 1 0 1 0 1 0 
1 0 1 0 1 0 1 0 1 0 1 0 1 0 1 0 
1 0 1 0 1 0 1 0 1 0 1 0 1 0 1 0 
1 0 1 0 1 0 1 0 1 0 1 0 1 0 1 0 
1 0 1 0 1 0 1 0 1 0 1 0 1 0 1 0 
1 0 1 0 1 0 1 0 1 0 1 0 1 0 1 0 
1 0 1 0 1 0 1 0 1 0 1 0 1 0 1 0 
1 0 1 0 1 0 1 0 1 0 1 0 1 0 1 0 
1 0 1 0 1 0 1 0 1 0 1 0 1 0 1 0 
1 0 1 0 1 0 1 0 1 0 1 0 1 0 1 0 
1 0 1 0 1 0 1 0 1 0 1 0 1 0 1 0 
1 0 1 0 1 0 1 0 1 0 1 0 1 0 1 0 
1 0 1 0 1 0 1 0 1 0 1 0 1 0 1 0 
1 0 1 0 1 0 1 0 1 0 1 0 1 0 1 0 
1 0 1 0 1 0 1 0 1 0 1 0 1 0 1 0 
1 0 1 0 1 0 1 0 1 0 1 0 1 0 1 0 
1 0 1 0 1 0 1 0 1 0 1 0 1 0 1 0 
1 0 1 0 1 0 1 0 1 0 1 0 1 0 1 0 
1 0 1 0 1 0 1 0 1 0 1 0 1 0 1 0 
1 0 1 0 1 0 1 0 1 0 1 0 1 0 1 0 
1 0 1 0 1 0 1 0 1 0 1 0 1 0 1 0 
1 0 1 0 1 0 1 0 1 0 1 0 1 0 1 0 
1 0 1 0 1 0 1 0 1 0 1 0 1 0 1 0 
1 0 1 0 1 0 1 0 1 0 1 0 1 0 1 0 
1 0 1 0 1 0 1 0 1 0 1 0 1 0 1 0 
1 0 1 0 1 0 1 0 1 0 1 0 1 0 1 0 
1 0 1 0 1 0 1 0 1 0 1 0 1 0 1 0 
1 0 1 0 1 0 1 0 1 0 1 0 1 0 1 0 
1 0 1 0 1 0 1 0 1 0 1 0 1 0 1 0 
1 0 1 0 1 0 1 0 1 0 1 0 1 0 1 0 
1 0 1 0 1 0 491 1250 300 MP stroke
1 0 1 0 1 0 1 0 1 0 1 0 1 0 1 0 
1 0 1 0 1 0 1 0 1 0 1 0 1 0 1 0 
1 0 1 0 1 0 1 0 1 0 1 0 1 0 1 0 
1 0 1 0 1 0 1 0 1 0 1 0 1 0 1 0 
1 0 1 0 1 0 1 0 1 0 1 0 1 0 1 0 
1 0 1 0 1 0 1 0 1 0 1 0 1 0 1 0 
1 0 1 0 1 0 1 0 1 0 1 0 1 0 1 0 
1 0 1 0 1 0 1 0 1 0 1 0 1 0 1 0 
1 0 1 0 1 0 1 0 1 0 1 0 1 0 1 0 
1 0 1 0 1 0 416 1250 76 MP stroke
SO
8.33333 w
gr

8.33333 w
c9
8 W
/c10 { 0.000000 1.000000 0.000000 sr} bdef
c10
542 843 PD
8 W
543 852 PD
8 W
544 851 PD
8 W
544 842 PD
8 W
545 808 PD
8 W
546 771 PD
8 W
546 753 PD
8 W
548 793 PD
8 W
548 808 PD
8 W
549 828 PD
8 W
550 830 PD
8 W
550 833 PD
8 W
551 817 PD
8 W
552 813 PD
8 W
553 806 PD
8 W
554 827 PD
8 W
554 830 PD
8 W
555 844 PD
8 W
555 886 PD
8 W
556 946 PD
8 W
557 969 PD
8 W
558 934 PD
8 W
558 843 PD
8 W
559 824 PD
8 W
560 872 PD
8 W
561 907 PD
8 W
561 928 PD
8 W
562 925 PD
8 W
563 901 PD
8 W
564 903 PD
8 W
565 919 PD
8 W
566 945 PD
8 W
567 954 PD
8 W
567 942 PD
8 W
569 952 PD
8 W
570 1004 PD
8 W
572 1002 PD
8 W
572 1024 PD
8 W
573 1048 PD
8 W
574 1074 PD
8 W
575 1104 PD
8 W
575 1135 PD
8 W
576 1113 PD
8 W
577 1077 PD
8 W
577 1111 PD
8 W
578 1127 PD
8 W
578 1153 PD
8 W
579 1163 PD
8 W
580 1214 PD
8 W
580 1226 PD
8 W
581 1234 PD
8 W
582 1220 PD
8 W
582 1239 PD
8 W
583 1263 PD
8 W
584 1230 PD
8 W
586 1254 PD
8 W
587 1284 PD
8 W
588 1282 PD
8 W
589 1259 PD
8 W
589 1249 PD
8 W
590 1181 PD
8 W
591 1213 PD
8 W
591 1248 PD
8 W
592 1255 PD
8 W
593 1234 PD
8 W
593 1164 PD
8 W
594 1212 PD
8 W
595 1241 PD
8 W
595 1275 PD
8 W
596 1279 PD
8 W
597 1216 PD
8 W
599 1235 PD
8 W
599 1221 PD
8 W
600 1186 PD
8 W
601 1236 PD
8 W
602 1299 PD
8 W
603 1319 PD
8 W
603 1323 PD
8 W
604 1362 PD
8 W
607 1302 PD
8 W
608 1329 PD
8 W
610 1372 PD
8 W
612 1396 PD
8 W
613 1313 PD
8 W
614 1282 PD
8 W
617 1314 PD
8 W
618 1245 PD
8 W
618 1219 PD
8 W
619 1203 PD
8 W
620 1200 PD
8 W
621 1207 PD
8 W
622 1236 PD
8 W
623 1234 PD
8 W
624 1192 PD
8 W
625 1172 PD
8 W
627 1164 PD
8 W
627 1152 PD
8 W
629 1140 PD
8 W
630 1193 PD
8 W
631 1259 PD
8 W
633 1144 PD
8 W
635 1213 PD
8 W
639 1200 PD
8 W
640 1216 PD
8 W
641 1200 PD
8 W
642 1200 PD
8 W
643 1189 PD
8 W
644 1190 PD
8 W
645 1201 PD
8 W
647 1305 PD
8 W
647 1324 PD
8 W
648 1292 PD
8 W
649 1245 PD
8 W
649 1228 PD
8 W
650 1193 PD
8 W
652 1169 PD
8 W
656 1234 PD
8 W
658 1150 PD
8 W
658 1214 PD
8 W
659 1228 PD
8 W
660 1227 PD
8 W
661 1143 PD
8 W
664 1201 PD
8 W
664 1183 PD
8 W
665 1141 PD
8 W
665 1142 PD
8 W
666 1170 PD
8 W
667 1188 PD
8 W
667 1240 PD
8 W
670 1244 PD
8 W
670 1276 PD
8 W
672 1295 PD
8 W
672 1285 PD
8 W
673 1231 PD
8 W
675 1270 PD
8 W
676 1275 PD
8 W
676 1277 PD
8 W
677 1279 PD
8 W
677 1290 PD
8 W
678 1327 PD
8 W
678 1354 PD
8 W
679 1361 PD
8 W
681 1348 PD
8 W
682 1308 PD
8 W
686 1454 PD
8 W
686 1470 PD
8 W
687 1444 PD
8 W
691 1444 PD
8 W
691 1439 PD
8 W
692 1447 PD
8 W
693 1461 PD
8 W
695 1430 PD
8 W
696 1454 PD
8 W
697 1509 PD
8 W
698 1568 PD
8 W
699 1564 PD
8 W
699 1549 PD
8 W
700 1539 PD
8 W
700 1542 PD
8 W
701 1548 PD
8 W
702 1507 PD
8 W
703 1501 PD
8 W
704 1507 PD
8 W
704 1516 PD
8 W
705 1529 PD
8 W
705 1546 PD
8 W
708 1503 PD
8 W
709 1546 PD
8 W
709 1471 PD
8 W
710 1470 PD
8 W
711 1483 PD
8 W
711 1519 PD
8 W
712 1546 PD
8 W
713 1546 PD
8 W
715 1578 PD
8 W
715 1569 PD
8 W
716 1546 PD
8 W
717 1549 PD
8 W
718 1575 PD
8 W
719 1542 PD
8 W
720 1524 PD
8 W
725 1538 PD
8 W
727 1520 PD
8 W
728 1540 PD
8 W
729 1551 PD
8 W
730 1584 PD
8 W
730 1572 PD
8 W
732 1531 PD
8 W
733 1536 PD
8 W
734 1502 PD
8 W
735 1470 PD
8 W
739 1551 PD
8 W
740 1521 PD
8 W
741 1464 PD
8 W
741 1439 PD
8 W
742 1429 PD
8 W
743 1459 PD
8 W
744 1473 PD
8 W
749 1514 PD
8 W
750 1485 PD
8 W
750 1441 PD
8 W
751 1402 PD
8 W
752 1390 PD
8 W
753 1406 PD
8 W
754 1453 PD
8 W
754 1494 PD
8 W
755 1509 PD
8 W
756 1502 PD
8 W
758 1471 PD
8 W
758 1463 PD
8 W
759 1470 PD
8 W
760 1483 PD
8 W
761 1459 PD
8 W
762 1422 PD
8 W
763 1525 PD
8 W
764 1520 PD
8 W
765 1555 PD
8 W
768 1530 PD
8 W
770 1501 PD
8 W
773 1516 PD
8 W
775 1440 PD
8 W
776 1348 PD
8 W
777 1345 PD
8 W
777 1397 PD
8 W
781 1355 PD
8 W
783 1454 PD
8 W
783 1471 PD
8 W
784 1323 PD
8 W
786 1241 PD
8 W
789 1303 PD
8 W
790 1352 PD
8 W
792 1263 PD
8 W
793 1207 PD
8 W
794 1192 PD
8 W
794 1261 PD
8 W
795 1241 PD
8 W
795 1309 PD
8 W
800 1327 PD
8 W
800 1328 PD
8 W
801 1357 PD
8 W
806 1345 PD
8 W
808 1301 PD
8 W
808 1287 PD
8 W
819 1201 PD
8 W
820 1245 PD
8 W
821 1264 PD
8 W
821 1295 PD
8 W
823 1335 PD
8 W
832 1367 PD
8 W
834 1393 PD
8 W
835 1414 PD
8 W
843 1566 PD
8 W
846 1474 PD
8 W
847 1487 PD
8 W
851 1472 PD
8 W
854 1574 PD
8 W
858 1406 PD
8 W
859 1393 PD
8 W
862 1512 PD
8 W
863 1500 PD
8 W
865 1322 PD
8 W
866 1365 PD
8 W
867 1419 PD
8 W
869 1507 PD
8 W
871 1424 PD
8 W
872 1475 PD
8 W
878 1557 PD
8 W
879 1494 PD
8 W
880 1409 PD
8 W
881 1375 PD
8 W
881 1345 PD
8 W
882 1317 PD
8 W
882 1306 PD
8 W
883 1310 PD
8 W
883 1318 PD
8 W
884 1350 PD
8 W
885 1458 PD
8 W
889 1339 PD
8 W
896 1458 PD
8 W
898 1234 PD
8 W
899 1363 PD
8 W
902 1512 PD
8 W
908 1480 PD
8 W
925 1296 PD
8 W
928 1310 PD
8 W
950 1421 PD
8 W
953 1456 PD
8 W
957 1457 PD
8 W
964 1452 PD
8 W
970 1295 PD
8 W
978 1370 PD
8 W
986 1430 PD
8 W
987 1474 PD
8 W
987 1443 PD
8 W
987 1412 PD
8 W
988 1391 PD
8 W
989 1432 PD
8 W
990 1439 PD
8 W
991 1370 PD
8 W
992 1419 PD
8 W
993 1444 PD
8 W
994 1481 PD
8 W
994 1458 PD
8 W
996 1395 PD
8 W
997 1333 PD
8 W
997 1327 PD
8 W
997 1333 PD
8 W
998 1367 PD
8 W
998 1409 PD
8 W
999 1454 PD
8 W
1002 1404 PD
8 W
1002 1418 PD
8 W
1003 1439 PD
8 W
1003 1456 PD
8 W
1005 1367 PD
8 W
1012 1462 PD
8 W
1012 1472 PD
8 W
1014 1505 PD
8 W
1015 1471 PD
8 W
1016 1482 PD
8 W
1017 1480 PD
8 W
1018 1429 PD
8 W
1020 1455 PD
8 W
1023 1477 PD
8 W
1029 1487 PD
8 W
1030 1459 PD
8 W
1037 1413 PD
8 W
1070 1449 PD
8 W
1075 1385 PD
8 W
1079 1467 PD
8 W
1104 1525 PD
8 W
1109 1427 PD
8 W
1110 1443 PD
8 W
1111 1448 PD
8 W
1113 1387 PD
8 W
1119 1284 PD
8 W
1119 1285 PD
8 W
1120 1285 PD
8 W
1120 1353 PD
8 W
1120 1397 PD
8 W
1123 1442 PD
8 W
1125 1428 PD
8 W
1126 1365 PD
8 W
1127 1351 PD
8 W
1127 1344 PD
8 W
1128 1336 PD
8 W
1129 1316 PD
8 W
1129 1298 PD
8 W
1130 1302 PD
8 W
1131 1339 PD
8 W
1132 1344 PD
8 W
1133 1311 PD
8 W
1134 1310 PD
8 W
1135 1301 PD
8 W
1137 1253 PD
8 W
1137 1240 PD
8 W
1138 1235 PD
8 W
1138 1238 PD
8 W
1139 1254 PD
8 W
1139 1292 PD
8 W
1140 1297 PD
8 W
1142 1210 PD
8 W
1142 1193 PD
8 W
1143 1173 PD
8 W
1143 1208 PD
8 W
1143 1232 PD
8 W
1144 1254 PD
8 W
1144 1297 PD
8 W
1147 1376 PD
8 W
1154 1356 PD
8 W
1165 1356 PD
8 W
1169 1415 PD
8 W
1239 1436 PD
8 W
1242 1283 PD
8 W
1280 1380 PD
8 W
1288 1436 PD
8 W
1302 1424 PD
8 W
1312 1334 PD
8 W
1312 1294 PD
8 W
1312 1290 PD
8 W
1318 1394 PD
8 W
1322 1359 PD
8 W
1322 1371 PD
8 W
1323 1386 PD
8 W
1323 1376 PD
8 W
1324 1331 PD
8 W
1324 1286 PD
8 W
1325 1264 PD
8 W
1325 1273 PD
8 W
1326 1311 PD
8 W
1328 1379 PD
8 W
1328 1347 PD
8 W
1329 1335 PD
8 W
1331 1268 PD
8 W
1331 1275 PD
8 W
1332 1288 PD
8 W
1332 1310 PD
8 W
1333 1353 PD
8 W
1334 1414 PD
8 W
1336 1307 PD
8 W
1336 1263 PD
8 W
1337 1268 PD
8 W
1338 1265 PD
8 W
1338 1274 PD
8 W
1339 1280 PD
8 W
1341 1343 PD
8 W
1342 1413 PD
8 W
1342 1437 PD
8 W
1343 1416 PD
8 W
1345 1394 PD
8 W
1347 1302 PD
8 W
1348 1304 PD
8 W
1355 1308 PD
8 W
1356 1317 PD
8 W
1363 1444 PD
8 W
1366 1408 PD
8 W
1402 1269 PD
8 W
1408 1290 PD
8 W
1408 1279 PD
8 W
1454 1220 PD
8 W
1463 1268 PD
8 W
1651 1227 PD
8 W
1654 1298 PD
8 W
1656 1295 PD
8 W
1657 1306 PD
8 W
1659 1304 PD
8 W
1660 1252 PD
8 W
1661 1097 PD
8 W
1663 1230 PD
8 W
1664 1297 PD
8 W
1665 1295 PD
8 W
1669 1099 PD
8 W
1669 1091 PD
8 W
1670 1076 PD
8 W
1670 1042 PD
8 W
1670 1032 PD
8 W
1671 1018 PD
8 W
1671 1008 PD
8 W
1672 1013 PD
8 W
1672 1034 PD
8 W
1673 1057 PD
8 W
1673 1081 PD
8 W
1989 639 PD
8 W
1990 651 PD
8 W
1991 689 PD
8 W
1991 716 PD
8 W
1992 764 PD
8 W
1993 784 PD
8 W
1994 866 PD
8 W
1995 909 PD
8 W
1995 864 PD
8 W
1996 888 PD
8 W
1997 888 PD
8 W
1997 902 PD
8 W
1997 922 PD
8 W
1998 1099 PD
8 W
1999 1097 PD
8 W
2000 1115 PD
8 W
2001 1152 PD
8 W
2002 1190 PD
8 W
2003 1135 PD
8 W
2005 1032 PD
8 W
2005 1078 PD
8 W
2006 1122 PD
8 W
2006 1156 PD
8 W
2007 1148 PD
8 W
2007 1118 PD
8 W
2008 1097 PD
8 W
2008 1117 PD
8 W
2012 1115 PD
8 W
2013 1098 PD
8 W
2014 1137 PD
8 W
2017 1136 PD
8 W
2019 1152 PD
8 W
2022 1136 PD
8 W
2026 1243 PD
8 W
2027 1090 PD
8 W
2027 1107 PD
8 W
2028 1171 PD
8 W
2029 1192 PD
8 W
2030 1215 PD
8 W
2030 1222 PD
8 W
2037 1220 PD
8 W
2041 1108 PD
8 W
2042 1132 PD
8 W
2045 1190 PD
8 W
2046 1148 PD
8 W
2047 1131 PD
8 W
2053 1092 PD
8 W
2053 1096 PD
8 W
2061 1224 PD
8 W
2138 1288 PD
8 W
2146 1196 PD
8 W
2191 1191 PD
8 W
2193 1208 PD
8 W
2260 1166 PD
8 W
2332 1078 PD
8 W
2334 1042 PD
8 W
2337 1069 PD
8 W
2338 1036 PD
8 W
2339 984 PD
8 W
2340 970 PD
8 W
2343 960 PD
8 W
2346 1044 PD
8 W
2347 1043 PD
8 W
2347 1008 PD
8 W
2350 1068 PD
8 W
2358 1288 PD
8 W
2359 1208 PD
8 W
2360 1051 PD
8 W
2365 1219 PD
8 W
2373 1051 PD
8 W
2376 1029 PD
8 W
2377 1088 PD
8 W
2384 1088 PD
8 W
2385 1085 PD
8 W
2386 1133 PD
8 W
2388 992 PD
8 W
2391 1259 PD
8 W
2393 1084 PD
8 W
2394 1073 PD
8 W
2398 1107 PD
8 W
2399 982 PD
8 W
2535 1044 PD
8 W
2536 953 PD
8 W
2536 943 PD
8 W
2537 955 PD
8 W
2538 1055 PD
8 W
2539 1058 PD
8 W
2540 1042 PD
8 W
2541 1037 PD
8 W
2541 1039 PD
8 W
2542 1025 PD
8 W
2542 1037 PD
8 W
2544 976 PD
8 W
2545 1000 PD
8 W
2547 1036 PD
8 W
2548 1016 PD
8 W
2550 1086 PD
8 W
2551 968 PD
8 W
2551 959 PD
8 W
2552 959 PD
8 W
2552 970 PD
8 W
2554 1169 PD
8 W
2662 1147 PD
8 W
2662 1240 PD
8 W
2667 1069 PD
8 W
2698 1129 PD
8 W
2739 1062 PD
8 W
2747 1175 PD
8 W
2798 1195 PD
8 W
2799 1287 PD
8 W
2803 1163 PD
8 W
2877 938 PD
8 W
2878 1051 PD
8 W
2882 943 PD
8 W
2884 1031 PD
8 W
2888 918 PD
8 W
2889 908 PD
gs 416 135 2480 1469 rc
DA
2.08333 w
1 0 1 0 1 0 1 0 1 0 1 0 1 0 1 0 
1 0 1 0 1 0 1 0 1 0 1 0 1 0 1 0 
1 0 1 0 1 0 1 0 1 0 1 0 1 0 1 0 
1 0 1 0 1 0 1 0 1 0 1 0 1 0 1 0 
1 0 1 0 1 0 1 0 1 0 1 0 1 0 1 0 
1 0 1 0 1 0 1 0 1 0 1 0 1 0 1 0 
1 0 1 0 1 0 1 0 1 0 1 0 1 0 1 0 
1 0 1 0 1 0 1 0 1 0 1 0 1 0 1 0 
1 0 1 0 1 0 1 0 1 0 1 0 1 0 1 0 
1 0 1 0 1 0 1 0 1 0 1 0 1 0 1 0 
1 0 1 0 1 0 1 0 1 0 1 0 1 0 1 0 
1 0 1 0 1 0 1 0 1 0 1 0 1 0 1 0 
1 0 1 0 1 0 1 0 1 0 1 0 1 0 1 0 
1 0 1 0 1 0 1 0 1 0 1 0 1 0 1 0 
1 0 1 0 1 0 1 0 1 0 1 0 1 0 1 0 
1 0 1 0 1 0 1 0 1 0 1 0 1 0 1 0 
1 0 1 0 1 0 1 0 1 0 1 0 1 0 1 0 
1 0 1 0 1 0 1 0 1 0 1 0 1 0 1 0 
1 0 1 0 1 0 1 0 1 0 1 0 1 0 1 0 
1 0 1 0 1 0 1 0 1 0 1 0 1 0 1 0 
1 0 1 0 1 0 1 0 1 0 1 0 1 0 1 0 
1 0 1 0 1 0 1 0 1 0 1 0 1 0 1 0 
1 0 1 0 1 0 1 0 1 0 1 0 1 0 1 0 
1 0 1 0 1 0 1 0 1 0 1 0 1 0 1 0 
1 0 1 0 1 0 1 0 1 0 1 0 1 0 1 0 
1 0 1 0 1 0 1 0 1 0 1 0 1 0 1 0 
1 0 1 0 1 0 1 0 1 0 1 0 1 0 1 0 
1 0 1 0 1 0 1 0 1 0 1 0 1 0 1 0 
1 0 1 0 1 0 1 0 1 0 1 0 1 0 1 0 
1 0 1 0 1 0 1 0 1 0 1 0 1 0 1 0 
1 0 1 0 1 0 1 0 1 0 1 0 1 0 1 0 
1 0 1 0 1 0 1 0 1 0 1 0 1 0 1 0 
1 0 1 0 1 0 1 0 1 0 1 0 1 0 1 0 
1 0 1 0 1 0 1 0 1 0 1 0 1 0 1 0 
1 0 1 0 1 0 1 0 1 0 1 0 1 0 1 0 
1 0 1 0 1 0 1 0 1 0 1 0 1 0 1 0 
1 0 1 0 1 0 1 0 1 0 1 0 1 0 1 0 
1 0 1 0 1 0 2597 1253 300 MP stroke
1 0 1 0 1 0 1 0 1 0 1 0 1 0 1 0 
1 0 1 0 1 0 1 0 1 0 1 0 1 0 1 0 
1 0 1 0 1 0 1 0 1 0 1 0 1 0 1 0 
1 0 1 0 1 0 1 0 1 0 1 0 1 0 1 0 
1 0 1 0 1 0 1 0 1 0 1 0 1 0 1 0 
1 0 1 0 1 0 1 0 1 0 1 0 1 0 1 0 
1 0 1 0 1 0 1 0 1 0 1 0 1 0 1 0 
1 0 1 0 1 0 1 0 1 0 1 0 1 0 1 0 
1 0 1 0 1 0 1 0 1 0 1 0 1 0 1 0 
1 0 1 0 2 0 1 0 1 0 1 0 1 0 1 0 
1 0 1 0 1 0 1 0 1 0 1 0 1 0 1 0 
1 0 1 0 1 0 1 0 1 0 1 0 1 0 1 0 
1 0 1 0 1 0 1 0 1 0 1 0 1 0 1 0 
1 0 1 0 1 0 1 0 1 0 1 0 1 0 1 0 
1 0 1 0 1 0 1 0 1 0 1 0 1 0 1 0 
1 0 1 0 1 0 1 0 1 0 1 0 1 0 1 0 
1 0 1 0 1 0 1 0 1 0 1 0 1 0 1 0 
1 0 1 0 1 0 1 0 1 0 1 0 1 0 1 0 
1 0 1 0 1 0 1 0 1 0 1 0 1 0 1 0 
1 0 1 0 1 0 1 0 1 0 1 0 1 0 1 0 
1 0 1 0 1 0 1 0 1 0 1 0 1 0 1 0 
1 0 1 0 1 0 1 0 1 0 1 0 1 0 1 0 
1 0 1 0 1 0 1 0 1 0 1 0 1 0 1 0 
1 0 1 0 1 0 1 0 1 0 1 0 1 0 1 0 
1 0 1 0 1 0 1 0 1 0 1 0 1 0 1 0 
1 0 1 0 1 0 1 0 1 0 1 0 1 0 1 0 
1 0 1 0 1 0 1 0 1 0 1 0 1 0 1 0 
1 0 1 0 1 0 1 0 1 0 1 0 1 0 1 0 
1 0 1 0 1 0 1 0 1 0 1 0 1 0 1 0 
1 0 1 0 1 0 1 0 1 0 1 0 1 0 1 0 
1 0 1 0 1 0 1 0 1 0 1 0 1 0 1 0 
1 0 1 0 1 0 1 0 1 0 1 0 1 0 1 0 
1 0 1 0 1 0 1 0 1 0 1 0 1 0 1 0 
1 0 1 0 1 0 1 0 1 0 1 0 1 0 1 0 
1 0 1 0 1 0 1 0 1 0 1 0 1 0 1 0 
1 0 1 0 1 0 1 0 1 0 1 0 1 0 1 0 
1 0 1 0 1 0 1 0 1 0 1 0 1 0 1 0 
1 0 1 0 1 0 2297 1253 300 MP stroke
1 0 1 0 1 0 1 0 1 0 1 0 1 0 1 0 
1 0 1 0 1 0 1 0 1 0 1 0 1 0 1 0 
1 0 1 0 1 0 1 0 1 0 1 0 1 0 1 0 
1 0 1 0 1 0 1 0 1 0 1 0 1 0 1 0 
1 0 1 0 1 0 1 0 1 0 1 0 1 0 1 0 
1 0 1 0 1 0 1 0 1 0 1 0 1 0 1 0 
1 0 1 0 1 0 1 0 1 0 1 0 1 0 1 0 
1 0 1 0 1 0 1 0 1 0 1 0 1 0 1 0 
1 0 1 0 1 0 1 0 1 0 1 0 1 0 1 0 
1 0 1 0 1 0 1 0 1 0 1 0 1 0 1 0 
1 0 1 0 1 0 1 0 1 0 1 0 1 0 1 0 
1 0 1 0 1 0 1 0 1 0 1 0 1 0 1 0 
1 0 1 0 1 0 1 0 1 0 1 0 1 0 1 0 
1 0 1 0 1 0 1 0 1 0 1 0 1 0 1 0 
1 0 1 0 1 0 1 0 1 0 1 0 1 0 1 0 
1 0 1 0 1 0 1 0 1 0 1 0 1 0 1 0 
1 0 1 0 1 0 1 0 1 0 1 0 1 0 1 0 
1 0 1 0 1 0 1 0 1 0 1 0 1 0 1 0 
1 0 1 0 1 0 1 0 1 0 1 0 1 0 1 0 
1 0 1 0 1 0 1 0 1 0 1 0 1 0 1 0 
1 0 1 0 1 0 1 0 1 0 1 0 1 0 1 0 
1 0 1 0 1 0 1 0 1 0 1 0 1 0 1 0 
1 0 1 0 1 0 1 0 1 0 1 0 1 0 1 0 
1 0 1 0 1 0 1 0 1 0 1 0 1 0 1 0 
1 0 1 0 1 0 1 0 1 0 1 0 1 0 1 0 
1 0 1 0 1 0 1 0 1 0 1 0 1 0 1 0 
1 0 1 0 1 0 1 0 1 0 1 0 1 0 1 0 
1 0 1 0 1 0 1 0 1 0 1 0 1 0 1 0 
1 0 1 0 1 0 1 0 1 0 1 0 1 0 1 0 
1 0 1 0 1 0 1 0 1 0 1 0 1 0 1 0 
1 0 1 0 1 0 1 0 1 0 1 0 1 0 1 0 
1 0 1 0 1 0 1 0 1 0 1 0 1 0 1 0 
1 0 1 0 1 0 1 0 1 0 1 0 1 0 1 0 
1 0 1 0 1 0 1 0 1 0 1 0 1 0 1 0 
1 0 1 0 1 0 1 0 1 0 1 0 1 0 1 0 
1 0 1 0 1 0 1 0 1 0 1 0 1 0 1 0 
1 0 1 0 1 0 1 0 1 0 1 0 1 0 1 0 
1 0 1 0 1 0 1998 1253 300 MP stroke
1 0 1 0 1 0 1 0 1 0 1 0 1 0 1 0 
1 0 1 0 1 0 1 0 5 0 1 0 1 0 1 0 
1 0 1 0 1 0 1 0 1 0 1 0 1 0 2 0 
1 0 1 0 1 0 1 0 1 0 1 0 1 0 1 0 
1 0 1 0 1 0 1 0 1 0 1 0 1 0 1 0 
1 0 1 0 1 0 1 0 1 0 1 0 1 0 1 0 
1 0 1 0 1 0 1 0 1 0 1 0 1 0 1 0 
1 0 1 0 1 0 1 0 1 0 1 0 1 0 1 0 
1 0 1 0 1 0 1 0 1 0 1 0 1 0 1 0 
1 0 1 0 1 0 1 0 1 0 1 0 1 0 1 0 
1 0 1 0 1 0 1 0 1 0 1 0 1 0 1 0 
1 0 1 0 1 0 1 0 1 0 1 0 1 0 1 0 
1 0 1 0 1 0 1 0 1 0 1 0 1 0 1 0 
1 0 1 0 1 0 1 0 1 0 1 0 1 0 1 0 
1 0 1 0 1 0 1 0 1 0 1 0 1 0 1 0 
1 0 1 0 1 0 1 0 1 0 1 0 1 0 1 0 
1 0 1 0 1 0 1 0 1 0 1 0 1 0 1 0 
1 0 1 0 1 0 1 0 1 0 1 0 1 0 1 0 
1 0 1 0 1 0 1 0 1 0 1 0 1 0 1 0 
1 0 1 0 1 0 1 0 1 0 1 0 1 0 1 0 
1 0 1 0 1 0 1 0 1 0 1 0 1 0 1 0 
1 0 1 0 1 0 1 0 1 0 1 0 1 0 1 0 
1 0 1 0 3 0 1 0 1 0 1 0 1 0 1 0 
1 0 1 0 1 0 1 0 1 0 1 0 1 0 1 0 
1 0 1 0 1 0 1 0 1 0 1 0 1 0 1 0 
1 0 1 0 1 0 1 0 1 0 1 0 1 0 1 0 
1 0 1 0 1 0 1 0 1 0 1 0 1 0 1 0 
1 0 1 0 1 0 1 0 1 0 1 0 1 0 1 0 
1 0 1 0 1 0 1 0 1 0 1 0 1 0 1 0 
1 0 1 0 1 0 1 0 1 0 1 0 1 0 1 0 
1 0 1 0 1 0 1 0 1 0 1 0 1 0 1 0 
1 0 1 0 1 0 1 0 1 0 1 0 1 0 1 0 
1 0 1 0 1 0 1 0 1 0 1 0 1 0 1 0 
1 0 1 0 1 0 1 0 1 0 1 0 1 0 1 0 
1 0 1 0 1 0 1 0 1 0 1 0 1 0 1 0 
1 0 1 0 1 0 1 0 1 0 1 0 1 0 1 0 
1 0 1 0 1 0 1 0 1 0 1 0 1 0 1 0 
1 0 1 0 1 0 1692 1253 300 MP stroke
1 0 1 0 1 0 1 0 1 0 1 0 1 0 1 0 
1 0 1 0 1 0 1 0 1 0 1 0 1 0 1 0 
1 0 1 0 1 0 1 0 1 0 1 0 1 0 1 0 
1 0 1 0 1 0 1 0 1 0 1 0 1 0 1 0 
1 0 1 0 1 0 1 0 1 0 1 0 1 0 1 0 
1 0 1 0 1 0 1 0 1 0 1 0 1 0 1 0 
1 0 1 0 1 0 1 0 1 0 1 0 1 0 1 0 
1 0 1 0 1 0 1 0 1 0 1 0 1 0 1 0 
1 0 1 0 1 0 1 0 1 0 1 0 1 0 1 0 
1 0 1 0 1 0 1 0 1 0 1 0 1 0 1 0 
1 0 1 0 1 0 1 0 1 0 1 0 1 0 1 0 
1 0 1 0 1 0 1 0 1 0 1 0 1 0 1 0 
1 0 1 0 1 0 1 0 1 0 1 0 1 0 1 0 
1 0 1 0 1 0 1 0 1 0 1 0 1 0 1 0 
1 0 1 0 1 0 1 0 1 0 1 0 1 0 1 0 
1 0 1 0 1 0 1 0 1 0 1 0 1 0 1 0 
1 0 1 0 1 0 1 0 1 0 1 0 1 0 1 0 
1 0 1 0 1 0 1 0 1 0 1 0 1 0 1 0 
1 0 1 0 1 0 1 0 1 0 1 0 1 0 1 0 
1 0 1 0 1 0 1 0 1 0 1 0 1 0 1 0 
1 0 1 0 1 0 1 0 1 0 1 0 1 0 1 0 
1 0 1 0 1 0 1 0 1 0 1 0 1 0 1 0 
1 0 1 0 1 0 1 0 1 0 1 0 1 0 1 0 
1 0 1 0 1 0 1 0 1 0 1 0 1 0 1 0 
1 0 1 0 1 0 1 0 1 0 1 0 1 0 1 0 
1 0 1 0 1 0 1 0 1 0 1 0 1 0 1 0 
1 0 1 0 1 0 1 0 1 0 1 0 1 0 1 0 
1 0 1 0 1 0 1 0 1 0 1 0 1 0 1 0 
1 0 1 0 1 0 1 0 1 0 1 0 1 0 1 0 
1 0 1 0 1 0 1 0 1 0 1 0 1 0 1 0 
1 0 1 0 1 0 1 0 1 0 1 0 1 0 1 0 
1 0 4 0 1 0 1 0 1 0 1 0 1 0 1 0 
1 0 1 0 1 0 1 0 1 0 1 0 1 0 1 0 
1 0 1 0 1 0 1 0 1 0 1 0 1 0 1 0 
1 0 1 0 1 0 1 0 1 0 1 0 1 0 1 0 
1 0 1 0 1 0 1 0 1 0 1 0 1 0 1 0 
1 0 1 0 1 0 1 0 1 0 1 0 1 0 1 0 
1 0 1 0 1 0 1390 1253 300 MP stroke
1 0 1 0 1 0 1 0 1 0 1 0 1 0 1 0 
1 0 1 0 1 0 1 0 1 0 1 0 1 0 1 0 
1 0 1 0 1 0 1 0 1 0 1 0 1 0 1 0 
1 0 1 0 1 0 1 0 1 0 1 0 1 0 1 0 
1 0 1 0 1 0 1 0 1 0 1 0 1 0 1 0 
1 0 1 0 1 0 1 0 1 0 1 0 1 0 1 0 
1 0 1 0 1 0 1 0 1 0 1 0 1 0 1 0 
1 0 1 0 1 0 1 0 1 0 1 0 1 0 1 0 
1 0 1 0 1 0 1 0 1 0 1 0 1 0 1 0 
1 0 1 0 1 0 1 0 1 0 1 0 1 0 1 0 
1 0 1 0 1 0 1 0 1 0 1 0 1 0 1 0 
1 0 1 0 1 0 1 0 1 0 1 0 1 0 1 0 
1 0 1 0 1 0 1 0 1 0 1 0 1 0 1 0 
1 0 1 0 1 0 1 0 1 0 1 0 1 0 1 0 
1 0 1 0 1 0 1 0 1 0 1 0 1 0 1 0 
1 0 1 0 1 0 1 0 1 0 1 0 1 0 1 0 
1 0 1 0 1 0 1 0 1 0 1 0 1 0 1 0 
1 0 1 0 1 0 1 0 1 0 1 0 1 0 1 0 
1 0 1 0 1 0 1 0 1 0 1 0 1 0 1 0 
1 0 1 0 1 0 1 0 1 0 1 0 1 0 1 0 
1 0 1 0 1 0 1 0 1 0 1 0 1 0 1 0 
1 0 1 0 1 0 1 0 1 0 1 0 1 0 1 0 
1 0 1 0 1 0 1 0 1 0 1 0 1 0 1 0 
1 0 1 0 1 0 1 0 1 0 1 0 1 0 1 0 
1 0 1 0 1 0 1 0 1 0 1 0 1 0 1 0 
1 0 1 0 1 0 1 0 1 0 1 0 1 0 1 0 
1 0 1 0 1 0 1 0 1 0 1 0 1 0 1 0 
1 0 1 0 1 0 1 0 1 0 1 0 1 0 1 0 
1 0 1 0 1 0 1 0 1 0 1 0 1 0 1 0 
1 0 1 0 1 0 1 0 1 0 1 0 1 0 1 0 
1 0 1 0 1 0 1 0 1 0 1 0 1 0 1 0 
1 0 1 0 1 0 1 0 1 0 1 0 1 0 1 0 
1 0 1 0 1 0 1 0 1 0 1 0 1 0 1 0 
1 0 1 0 1 0 1 0 1 0 1 0 1 0 1 0 
1 0 1 0 1 0 1 0 1 0 1 0 1 0 1 0 
1 0 1 0 1 0 1 0 1 0 1 0 1 0 1 0 
1 0 1 0 1 0 1 0 1 0 1 0 1 0 1 0 
1 0 1 0 1 0 1091 1253 300 MP stroke
1 0 1 0 1 0 1 0 1 0 1 0 1 0 1 0 
1 0 1 0 1 0 1 0 1 0 1 0 1 0 1 0 
1 0 1 0 1 0 1 0 1 0 1 0 1 0 1 0 
1 0 1 0 1 0 1 0 1 0 1 0 1 0 1 0 
1 0 1 0 1 0 1 0 1 0 1 0 1 0 1 0 
1 0 1 0 1 0 1 0 1 0 1 0 1 0 1 0 
1 0 1 0 1 0 1 0 1 0 1 0 1 0 1 0 
1 0 1 0 1 0 1 0 1 0 1 0 1 0 1 0 
1 0 1 0 1 0 1 0 1 0 1 0 1 0 1 0 
1 0 1 0 1 0 1 0 1 0 1 0 1 0 1 0 
1 0 1 0 1 0 1 0 1 0 1 0 1 0 1 0 
1 0 1 0 1 0 1 0 1 0 1 0 1 0 1 0 
1 0 1 0 1 0 1 0 1 0 1 0 1 0 1 0 
1 0 1 0 1 0 1 0 1 0 1 0 1 0 1 0 
1 0 1 0 1 0 1 0 1 0 1 0 1 0 1 0 
1 0 1 0 1 0 1 0 1 0 1 0 1 0 1 0 
1 0 1 0 1 0 1 0 1 0 1 0 1 0 1 0 
1 0 1 0 1 0 1 0 1 0 1 0 1 0 1 0 
1 0 1 0 1 0 1 0 1 0 1 0 1 0 1 0 
1 0 1 0 1 0 1 0 1 0 1 0 1 0 1 0 
1 0 1 0 1 0 1 0 2 0 1 0 1 0 1 0 
2 0 1 0 1 0 1 0 1 0 1 0 1 0 1 0 
1 0 1 0 1 0 1 0 1 0 1 0 1 0 1 0 
1 0 1 0 1 0 1 0 1 0 1 0 1 0 1 0 
1 0 1 0 1 0 1 0 1 0 1 0 1 0 1 0 
1 0 1 0 1 0 1 0 1 0 1 0 1 0 1 0 
1 0 1 0 1 0 1 0 1 0 1 0 1 0 1 0 
1 0 1 0 1 0 1 0 1 0 1 0 1 0 1 0 
1 0 1 0 1 0 1 0 1 0 1 0 1 0 1 0 
1 0 1 0 1 0 1 0 1 0 1 0 1 0 1 0 
1 0 1 0 1 0 1 0 1 0 1 0 1 0 1 0 
1 0 1 0 1 0 1 0 1 0 1 0 1 0 1 0 
1 0 1 0 1 0 1 0 1 0 1 0 1 0 1 0 
1 0 1 0 1 0 1 0 1 0 1 0 1 0 1 0 
1 0 1 0 1 0 1 0 1 0 1 0 1 0 1 0 
1 0 1 0 1 0 1 0 1 0 1 0 1 0 1 0 
1 0 1 0 1 0 1 0 1 0 1 0 1 0 1 0 
1 0 1 0 1 0 790 1253 300 MP stroke
1 0 1 0 1 0 1 0 1 0 1 0 1 0 1 0 
1 0 1 0 1 0 1 0 1 0 1 0 1 0 1 0 
1 0 1 0 1 0 1 0 1 0 1 0 1 0 1 0 
1 0 1 0 1 0 1 0 1 0 1 0 1 0 1 0 
1 0 1 0 1 0 1 0 1 0 1 0 1 0 1 0 
1 0 1 0 1 0 1 0 1 0 1 0 1 0 1 0 
1 0 1 0 1 0 1 0 1 0 1 0 1 0 1 0 
1 0 1 0 1 0 1 0 1 0 1 0 1 0 1 0 
1 0 1 0 1 0 1 0 1 0 1 0 1 0 1 0 
1 0 1 0 1 0 1 0 1 0 1 0 1 0 1 0 
1 0 1 0 1 0 1 0 1 0 1 0 1 0 1 0 
1 0 1 0 1 0 1 0 1 0 1 0 1 0 1 0 
1 0 1 0 1 0 1 0 1 0 1 0 1 0 1 0 
1 0 1 0 1 0 1 0 1 0 1 0 1 0 1 0 
1 0 1 0 1 0 1 0 1 0 1 0 1 0 1 0 
1 0 1 0 1 0 1 0 1 0 1 0 1 0 1 0 
1 0 1 0 1 0 1 0 1 0 1 0 1 0 1 0 
1 0 1 0 1 0 1 0 1 0 1 0 1 0 1 0 
1 0 1 0 1 0 1 0 1 0 1 0 1 0 1 0 
1 0 1 0 1 0 1 0 1 0 1 0 1 0 1 0 
1 0 1 0 1 0 1 0 1 0 1 0 1 0 1 0 
1 0 1 0 1 0 1 0 1 0 1 0 1 0 1 0 
1 0 1 0 1 0 1 0 1 0 1 0 1 0 1 0 
1 0 1 0 1 0 1 0 1 0 1 0 1 0 1 0 
1 0 1 0 1 0 1 0 1 0 1 0 1 0 1 0 
1 0 1 0 1 0 1 0 1 0 1 0 1 0 1 0 
1 0 1 0 1 0 1 0 1 0 1 0 1 0 1 0 
1 0 1 0 1 0 1 0 1 0 1 0 1 0 1 0 
1 0 1 0 1 0 1 0 1 0 1 0 1 0 1 0 
1 0 1 0 1 0 1 0 1 0 1 0 1 0 1 0 
1 0 1 0 1 0 1 0 1 0 1 0 1 0 1 0 
1 0 1 0 1 0 1 0 1 0 1 0 1 0 1 0 
1 0 1 0 1 0 1 0 1 0 1 0 1 0 1 0 
1 0 1 0 1 0 1 0 1 0 1 0 1 0 1 0 
1 0 1 0 1 0 1 0 1 0 1 0 1 0 1 0 
1 0 1 0 1 0 1 0 1 0 1 0 1 0 1 0 
1 0 1 0 1 0 1 0 1 0 1 0 1 0 1 0 
1 0 1 0 1 0 491 1253 300 MP stroke
1 0 1 0 1 0 1 0 1 0 1 0 1 0 1 0 
1 0 1 0 1 0 1 0 1 0 1 0 1 0 1 0 
1 0 1 0 1 0 1 0 1 0 1 0 1 0 1 0 
1 0 1 0 1 0 1 0 1 0 1 0 1 0 1 0 
1 0 1 0 1 0 1 0 1 0 1 0 1 0 1 0 
1 0 1 0 1 0 1 0 1 0 1 0 1 0 1 0 
1 0 1 0 1 0 1 0 1 0 1 0 1 0 1 0 
1 0 1 0 1 0 1 0 1 0 1 0 1 0 1 0 
1 0 1 0 1 0 1 0 1 0 1 0 1 0 1 0 
1 0 1 0 1 0 416 1253 76 MP stroke
gr

2.08333 w
DA
0 sg
1521 1759 mt 
(Time [s]) s
 139 1164 mt  -90 rotate
(Tracking Error [m]) s
90 rotate
1423   78 mt 
(Tracking Error) s
%%IncludeResource: font Helvetica
/Helvetica /ISOLatin1Encoding 41.6667 FMSR

 410 1619 mt 
( ) s
2890  150 mt 
( ) s
SO
1 sg
0 228 702 0 0 -228 2173 384 4 MP
PP
-702 0 0 228 702 0 0 -228 2173 384 5 MP stroke
1.38889 w
DO
SO
2.08333 w
0 sg
2173  384 mt 2875  384 L
2173  156 mt 2875  156 L
2173  384 mt 2173  156 L
2875  384 mt 2875  156 L
2173  384 mt 2875  384 L
2173  384 mt 2173  156 L
2173  384 mt 2875  384 L
2173  156 mt 2875  156 L
2173  384 mt 2173  156 L
2875  384 mt 2875  156 L
%%IncludeResource: font Helvetica
/Helvetica /ISOLatin1Encoding 58.3333 FMSR

2342  219 mt 
(USBL measurement) s
gs 2173 156 703 229 rc
gs 2238 171 53 53 rc
c8
2256  189 mt 2272  205 L
2272  189 mt 2256  205 L
gr

c8
gr

c8
0 sg
2342  292 mt 
(Diver estimate) s
gs 2173 156 703 229 rc
8.33333 w
c9
130 0 2199 270 2 MP stroke
2.08333 w
gr

c9
0 sg
2342  364 mt 
(Video validation) s
gs 2173 156 703 229 rc
8.33333 w
gs 2228 306 72 72 rc
8 W
c10
2264 342 PD
gr

c10
2.08333 w
gr

c10

end %%Color Dict

eplot
%%EndObject

epage
end

showpage

%%Trailer
%%EOF
