%!PS-Adobe-3.0 EPSF-3.0
%%Creator: MATLAB, The MathWorks, Inc. Version 8.3.0.532 (R2014a). Operating System: Linux 3.13.0-49-generic #83-Ubuntu SMP Fri Apr 10 20:11:33 UTC 2015 x86_64.
%%Title: /home/dnad/Documents/publication/ram2014_data/figures/Figure2_1_NE_ROV.eps
%%CreationDate: 04/23/2015  14:06:23
%%DocumentNeededFonts: Helvetica
%%DocumentProcessColors: Cyan Magenta Yellow Black
%%LanguageLevel: 2
%%Pages: 1
%%BoundingBox:   -27   183   625   615
%%EndComments

%%BeginProlog
% MathWorks dictionary
/MathWorks 160 dict begin
% definition operators
/bdef {bind def} bind def
/ldef {load def} bind def
/xdef {exch def} bdef
/xstore {exch store} bdef
% operator abbreviations
/c  /clip ldef
/cc /concat ldef
/cp /closepath ldef
/gr /grestore ldef
/gs /gsave ldef
/mt /moveto ldef
/np /newpath ldef
/cm /currentmatrix ldef
/sm /setmatrix ldef
/rm /rmoveto ldef
/rl /rlineto ldef
/s {show newpath} bdef
/sc {setcmykcolor} bdef
/sr /setrgbcolor ldef
/sg /setgray ldef
/w /setlinewidth ldef
/j /setlinejoin ldef
/cap /setlinecap ldef
/rc {rectclip} bdef
/rf {rectfill} bdef
% page state control
/pgsv () def
/bpage {/pgsv save def} bdef
/epage {pgsv restore} bdef
/bplot /gsave ldef
/eplot {stroke grestore} bdef
% orientation switch
/portraitMode 0 def /landscapeMode 1 def /rotateMode 2 def
% coordinate system mappings
/dpi2point 0 def
% font control
/FontSize 0 def
/FMS {/FontSize xstore findfont [FontSize 0 0 FontSize neg 0 0]
  makefont setfont} bdef
/reencode {exch dup where {pop load} {pop StandardEncoding} ifelse
  exch dup 3 1 roll findfont dup length dict begin
  { 1 index /FID ne {def}{pop pop} ifelse } forall
  /Encoding exch def currentdict end definefont pop} bdef
/isroman {findfont /CharStrings get /Agrave known} bdef
/FMSR {3 1 roll 1 index dup isroman {reencode} {pop pop} ifelse
  exch FMS} bdef
/csm {1 dpi2point div -1 dpi2point div scale neg translate
 dup landscapeMode eq {pop -90 rotate}
  {rotateMode eq {90 rotate} if} ifelse} bdef
% line types: solid, dotted, dashed, dotdash
/SO { [] 0 setdash } bdef
/DO { [.5 dpi2point mul 4 dpi2point mul] 0 setdash } bdef
/DA { [6 dpi2point mul] 0 setdash } bdef
/DD { [.5 dpi2point mul 4 dpi2point mul 6 dpi2point mul 4
  dpi2point mul] 0 setdash } bdef
% macros for lines and objects
/L {lineto stroke} bdef
/MP {3 1 roll moveto 1 sub {rlineto} repeat} bdef
/AP {{rlineto} repeat} bdef
/PDlw -1 def
/W {/PDlw currentlinewidth def setlinewidth} def
/PP {closepath eofill} bdef
/DP {closepath stroke} bdef
/MR {4 -2 roll moveto dup  0 exch rlineto exch 0 rlineto
  neg 0 exch rlineto closepath} bdef
/FR {MR stroke} bdef
/PR {MR fill} bdef
/L1i {{currentfile picstr readhexstring pop} image} bdef
/tMatrix matrix def
/MakeOval {newpath tMatrix currentmatrix pop translate scale
0 0 1 0 360 arc tMatrix setmatrix} bdef
/FO {MakeOval stroke} bdef
/PO {MakeOval fill} bdef
/PD {currentlinewidth 2 div 0 360 arc fill
   PDlw -1 eq not {PDlw w /PDlw -1 def} if} def
/FA {newpath tMatrix currentmatrix pop translate scale
  0 0 1 5 -2 roll arc tMatrix setmatrix stroke} bdef
/PA {newpath tMatrix currentmatrix pop	translate 0 0 moveto scale
  0 0 1 5 -2 roll arc closepath tMatrix setmatrix fill} bdef
/FAn {newpath tMatrix currentmatrix pop translate scale
  0 0 1 5 -2 roll arcn tMatrix setmatrix stroke} bdef
/PAn {newpath tMatrix currentmatrix pop translate 0 0 moveto scale
  0 0 1 5 -2 roll arcn closepath tMatrix setmatrix fill} bdef
/vradius 0 def /hradius 0 def /lry 0 def
/lrx 0 def /uly 0 def /ulx 0 def /rad 0 def
/MRR {/vradius xdef /hradius xdef /lry xdef /lrx xdef /uly xdef
  /ulx xdef newpath tMatrix currentmatrix pop ulx hradius add uly
  vradius add translate hradius vradius scale 0 0 1 180 270 arc 
  tMatrix setmatrix lrx hradius sub uly vradius add translate
  hradius vradius scale 0 0 1 270 360 arc tMatrix setmatrix
  lrx hradius sub lry vradius sub translate hradius vradius scale
  0 0 1 0 90 arc tMatrix setmatrix ulx hradius add lry vradius sub
  translate hradius vradius scale 0 0 1 90 180 arc tMatrix setmatrix
  closepath} bdef
/FRR {MRR stroke } bdef
/PRR {MRR fill } bdef
/MlrRR {/lry xdef /lrx xdef /uly xdef /ulx xdef /rad lry uly sub 2 div def
  newpath tMatrix currentmatrix pop ulx rad add uly rad add translate
  rad rad scale 0 0 1 90 270 arc tMatrix setmatrix lrx rad sub lry rad
  sub translate rad rad scale 0 0 1 270 90 arc tMatrix setmatrix
  closepath} bdef
/FlrRR {MlrRR stroke } bdef
/PlrRR {MlrRR fill } bdef
/MtbRR {/lry xdef /lrx xdef /uly xdef /ulx xdef /rad lrx ulx sub 2 div def
  newpath tMatrix currentmatrix pop ulx rad add uly rad add translate
  rad rad scale 0 0 1 180 360 arc tMatrix setmatrix lrx rad sub lry rad
  sub translate rad rad scale 0 0 1 0 180 arc tMatrix setmatrix
  closepath} bdef
/FtbRR {MtbRR stroke } bdef
/PtbRR {MtbRR fill } bdef
/stri 6 array def /dtri 6 array def
/smat 6 array def /dmat 6 array def
/tmat1 6 array def /tmat2 6 array def /dif 3 array def
/asub {/ind2 exch def /ind1 exch def dup dup
  ind1 get exch ind2 get sub exch } bdef
/tri_to_matrix {
  2 0 asub 3 1 asub 4 0 asub 5 1 asub
  dup 0 get exch 1 get 7 -1 roll astore } bdef
/compute_transform {
  dmat dtri tri_to_matrix tmat1 invertmatrix 
  smat stri tri_to_matrix tmat2 concatmatrix } bdef
/ds {stri astore pop} bdef
/dt {dtri astore pop} bdef
/db {2 copy /cols xdef /rows xdef mul dup 3 mul string
  currentfile 
  3 index 0 eq {/ASCIIHexDecode filter}
  {/ASCII85Decode filter 3 index 2 eq {/RunLengthDecode filter} if }
  ifelse exch readstring pop
  dup 0 3 index getinterval /rbmap xdef
  dup 2 index dup getinterval /gbmap xdef
  1 index dup 2 mul exch getinterval /bbmap xdef pop pop}bdef
/it {gs np dtri aload pop moveto lineto lineto cp c
  cols rows 8 compute_transform 
  rbmap gbmap bbmap true 3 colorimage gr}bdef
/il {newpath moveto lineto stroke}bdef
currentdict end def
%%EndProlog

%%BeginSetup
MathWorks begin

0 cap

end
%%EndSetup

%%Page: 1 1
%%BeginPageSetup
%%PageBoundingBox:   -27   183   625   615
MathWorks begin
bpage
%%EndPageSetup

%%BeginObject: obj1
bplot

/dpi2point 4.16667 def
portraitMode -0320 2550 csm

  207   -16  2719  1800 rc
85 dict begin %Colortable dictionary
/c0 { 0.000000 0.000000 0.000000 sr} bdef
/c1 { 1.000000 1.000000 1.000000 sr} bdef
/c2 { 0.900000 0.000000 0.000000 sr} bdef
/c3 { 0.000000 0.820000 0.000000 sr} bdef
/c4 { 0.000000 0.000000 0.800000 sr} bdef
/c5 { 0.910000 0.820000 0.320000 sr} bdef
/c6 { 1.000000 0.260000 0.820000 sr} bdef
/c7 { 0.000000 0.820000 0.820000 sr} bdef
c0
1 j
1 sg
   0    0 3200 1802 rf
2.08333 w
0 1469 2479 0 0 -1469 416 1603 4 MP
PP
-2479 0 0 1469 2479 0 0 -1469 416 1603 5 MP stroke
1.38889 w
DO
0 sg
 416 1603 mt  416  135 L
 416  135 mt  416  135 L
 645 1603 mt  645  135 L
 645  135 mt  645  135 L
 875 1603 mt  875  135 L
 875  135 mt  875  135 L
1104 1603 mt 1104  135 L
1104  135 mt 1104  135 L
1334 1603 mt 1334  135 L
1334  135 mt 1334  135 L
1563 1603 mt 1563  135 L
1563  135 mt 1563  135 L
1793 1603 mt 1793  135 L
1793  135 mt 1793  135 L
2022 1603 mt 2022  135 L
2022  135 mt 2022  135 L
2252 1603 mt 2252  135 L
2252  135 mt 2252  135 L
2481 1603 mt 2481  135 L
2481  135 mt 2481  135 L
2711 1603 mt 2711  135 L
2711  135 mt 2711  135 L
 416 1536 mt 2895 1536 L
2895 1536 mt 2895 1536 L
 416 1369 mt 2895 1369 L
2895 1369 mt 2895 1369 L
 416 1202 mt 2895 1202 L
2895 1202 mt 2895 1202 L
 416 1035 mt 2895 1035 L
2895 1035 mt 2895 1035 L
 416  869 mt 2895  869 L
2895  869 mt 2895  869 L
 416  702 mt 2895  702 L
2895  702 mt 2895  702 L
 416  535 mt 2895  535 L
2895  535 mt 2895  535 L
 416  368 mt 2895  368 L
2895  368 mt 2895  368 L
 416  201 mt 2895  201 L
2895  201 mt 2895  201 L
SO
2.08333 w
 416 1603 mt 2895 1603 L
 416  134 mt 2895  134 L
 416 1603 mt  416  134 L
2895 1603 mt 2895  134 L
 416 1603 mt 2895 1603 L
 416 1603 mt  416  134 L
 416 1603 mt  416 1578 L
 416  135 mt  416  159 L
%%IncludeResource: font Helvetica
/Helvetica /ISOLatin1Encoding 75 FMSR

 332 1684 mt 
(-20) s
 645 1603 mt  645 1578 L
 645  135 mt  645  159 L
 561 1684 mt 
(-15) s
 875 1603 mt  875 1578 L
 875  135 mt  875  159 L
 791 1684 mt 
(-10) s
1104 1603 mt 1104 1578 L
1104  135 mt 1104  159 L
1041 1684 mt 
(-5) s
1334 1603 mt 1334 1578 L
1334  135 mt 1334  159 L
1314 1684 mt 
(0) s
1563 1603 mt 1563 1578 L
1563  135 mt 1563  159 L
1543 1684 mt 
(5) s
1793 1603 mt 1793 1578 L
1793  135 mt 1793  159 L
1752 1684 mt 
(10) s
2022 1603 mt 2022 1578 L
2022  135 mt 2022  159 L
1981 1684 mt 
(15) s
2252 1603 mt 2252 1578 L
2252  135 mt 2252  159 L
2211 1684 mt 
(20) s
2481 1603 mt 2481 1578 L
2481  135 mt 2481  159 L
2440 1684 mt 
(25) s
2711 1603 mt 2711 1578 L
2711  135 mt 2711  159 L
2670 1684 mt 
(30) s
 416 1536 mt  440 1536 L
2895 1536 mt 2870 1536 L
 321 1563 mt 
(20) s
 416 1369 mt  440 1369 L
2895 1369 mt 2870 1369 L
 321 1396 mt 
(25) s
 416 1202 mt  440 1202 L
2895 1202 mt 2870 1202 L
 321 1229 mt 
(30) s
 416 1035 mt  440 1035 L
2895 1035 mt 2870 1035 L
 321 1062 mt 
(35) s
 416  869 mt  440  869 L
2895  869 mt 2870  869 L
 321  896 mt 
(40) s
 416  702 mt  440  702 L
2895  702 mt 2870  702 L
 321  729 mt 
(45) s
 416  535 mt  440  535 L
2895  535 mt 2870  535 L
 321  562 mt 
(50) s
 416  368 mt  440  368 L
2895  368 mt 2870  368 L
 321  395 mt 
(55) s
 416  201 mt  440  201 L
2895  201 mt 2870  201 L
 321  228 mt 
(60) s
 416 1603 mt 2895 1603 L
 416  134 mt 2895  134 L
 416 1603 mt  416  134 L
2895 1603 mt 2895  134 L
1510   78 mt 
(N-E plot) s
gs 416 135 2480 1469 rc
gr

/c8 { 1.000000 0.000000 0.000000 sr} bdef
c8
 650 1470 mt  666 1486 L
 666 1470 mt  650 1486 L
 632 1483 mt  648 1499 L
 648 1483 mt  632 1499 L
 614 1476 mt  630 1492 L
 630 1476 mt  614 1492 L
 625 1455 mt  641 1471 L
 641 1455 mt  625 1471 L
 632 1454 mt  648 1470 L
 648 1454 mt  632 1470 L
 635 1427 mt  651 1443 L
 651 1427 mt  635 1443 L
 635 1404 mt  651 1420 L
 651 1404 mt  635 1420 L
 610 1394 mt  626 1410 L
 626 1394 mt  610 1410 L
 605 1385 mt  621 1401 L
 621 1385 mt  605 1401 L
 603 1366 mt  619 1382 L
 619 1366 mt  603 1382 L
 615 1370 mt  631 1386 L
 631 1370 mt  615 1386 L
 634 1366 mt  650 1382 L
 650 1366 mt  634 1382 L
 651 1373 mt  667 1389 L
 667 1373 mt  651 1389 L
 666 1363 mt  682 1379 L
 682 1363 mt  666 1379 L
 664 1372 mt  680 1388 L
 680 1372 mt  664 1388 L
 663 1371 mt  679 1387 L
 679 1371 mt  663 1387 L
 693 1356 mt  709 1372 L
 709 1356 mt  693 1372 L
 710 1338 mt  726 1354 L
 726 1338 mt  710 1354 L
 710 1332 mt  726 1348 L
 726 1332 mt  710 1348 L
 752 1302 mt  768 1318 L
 768 1302 mt  752 1318 L
 789 1304 mt  805 1320 L
 805 1304 mt  789 1320 L
 784 1285 mt  800 1301 L
 800 1285 mt  784 1301 L
 824 1268 mt  840 1284 L
 840 1268 mt  824 1284 L
 837 1284 mt  853 1300 L
 853 1284 mt  837 1300 L
 800 1286 mt  816 1302 L
 816 1286 mt  800 1302 L
 784 1299 mt  800 1315 L
 800 1299 mt  784 1315 L
 753 1314 mt  769 1330 L
 769 1314 mt  753 1330 L
 754 1293 mt  770 1309 L
 770 1293 mt  754 1309 L
 793 1310 mt  809 1326 L
 809 1310 mt  793 1326 L
 817 1315 mt  833 1331 L
 833 1315 mt  817 1331 L
 817 1316 mt  833 1332 L
 833 1316 mt  817 1332 L
 821 1317 mt  837 1333 L
 837 1317 mt  821 1333 L
 870 1283 mt  886 1299 L
 886 1283 mt  870 1299 L
 852 1288 mt  868 1304 L
 868 1288 mt  852 1304 L
 853 1298 mt  869 1314 L
 869 1298 mt  853 1314 L
 847 1274 mt  863 1290 L
 863 1274 mt  847 1290 L
 862 1258 mt  878 1274 L
 878 1258 mt  862 1274 L
 887 1252 mt  903 1268 L
 903 1252 mt  887 1268 L
 890 1239 mt  906 1255 L
 906 1239 mt  890 1255 L
 930 1230 mt  946 1246 L
 946 1230 mt  930 1246 L
 946 1205 mt  962 1221 L
 962 1205 mt  946 1221 L
 967 1204 mt  983 1220 L
 983 1204 mt  967 1220 L
 973 1192 mt  989 1208 L
 989 1192 mt  973 1208 L
 951 1206 mt  967 1222 L
 967 1206 mt  951 1222 L
 954 1211 mt  970 1227 L
 970 1211 mt  954 1227 L
 976 1208 mt  992 1224 L
 992 1208 mt  976 1224 L
 955 1232 mt  971 1248 L
 971 1232 mt  955 1248 L
 952 1231 mt  968 1247 L
 968 1231 mt  952 1247 L
 971 1213 mt  987 1229 L
 987 1213 mt  971 1229 L
 996 1207 mt 1012 1223 L
1012 1207 mt  996 1223 L
1020 1197 mt 1036 1213 L
1036 1197 mt 1020 1213 L
1024 1192 mt 1040 1208 L
1040 1192 mt 1024 1208 L
1033 1173 mt 1049 1189 L
1049 1173 mt 1033 1189 L
1054 1155 mt 1070 1171 L
1070 1155 mt 1054 1171 L
1065 1133 mt 1081 1149 L
1081 1133 mt 1065 1149 L
1069 1131 mt 1085 1147 L
1085 1131 mt 1069 1147 L
1078 1122 mt 1094 1138 L
1094 1122 mt 1078 1138 L
1085 1131 mt 1101 1147 L
1101 1131 mt 1085 1147 L
1083 1135 mt 1099 1151 L
1099 1135 mt 1083 1151 L
1097 1141 mt 1113 1157 L
1113 1141 mt 1097 1157 L
1089 1130 mt 1105 1146 L
1105 1130 mt 1089 1146 L
1106 1121 mt 1122 1137 L
1122 1121 mt 1106 1137 L
1113 1113 mt 1129 1129 L
1129 1113 mt 1113 1129 L
1136 1103 mt 1152 1119 L
1152 1103 mt 1136 1119 L
1171 1092 mt 1187 1108 L
1187 1092 mt 1171 1108 L
1213 1076 mt 1229 1092 L
1229 1076 mt 1213 1092 L
1196 1082 mt 1212 1098 L
1212 1082 mt 1196 1098 L
1210 1051 mt 1226 1067 L
1226 1051 mt 1210 1067 L
1234 1052 mt 1250 1068 L
1250 1052 mt 1234 1068 L
1253 1039 mt 1269 1055 L
1269 1039 mt 1253 1055 L
1281 1025 mt 1297 1041 L
1297 1025 mt 1281 1041 L
1301 1010 mt 1317 1026 L
1317 1010 mt 1301 1026 L
1316  996 mt 1332 1012 L
1332  996 mt 1316 1012 L
1334  994 mt 1350 1010 L
1350  994 mt 1334 1010 L
1366  974 mt 1382  990 L
1382  974 mt 1366  990 L
1388  956 mt 1404  972 L
1404  956 mt 1388  972 L
1411  943 mt 1427  959 L
1427  943 mt 1411  959 L
1426  936 mt 1442  952 L
1442  936 mt 1426  952 L
1452  922 mt 1468  938 L
1468  922 mt 1452  938 L
1488  898 mt 1504  914 L
1504  898 mt 1488  914 L
1507  885 mt 1523  901 L
1523  885 mt 1507  901 L
1512  871 mt 1528  887 L
1528  871 mt 1512  887 L
1537  863 mt 1553  879 L
1553  863 mt 1537  879 L
1541  865 mt 1557  881 L
1557  865 mt 1541  881 L
1551  867 mt 1567  883 L
1567  867 mt 1551  883 L
1567  856 mt 1583  872 L
1583  856 mt 1567  872 L
1597  829 mt 1613  845 L
1613  829 mt 1597  845 L
1606  821 mt 1622  837 L
1622  821 mt 1606  837 L
1633  822 mt 1649  838 L
1649  822 mt 1633  838 L
1635  818 mt 1651  834 L
1651  818 mt 1635  834 L
1655  812 mt 1671  828 L
1671  812 mt 1655  828 L
1673  792 mt 1689  808 L
1689  792 mt 1673  808 L
1677  790 mt 1693  806 L
1693  790 mt 1677  806 L
1684  811 mt 1700  827 L
1700  811 mt 1684  827 L
1691  809 mt 1707  825 L
1707  809 mt 1691  825 L
1661  813 mt 1677  829 L
1677  813 mt 1661  829 L
1638  796 mt 1654  812 L
1654  796 mt 1638  812 L
1641  800 mt 1657  816 L
1657  800 mt 1641  816 L
1660  795 mt 1676  811 L
1676  795 mt 1660  811 L
1650  783 mt 1666  799 L
1666  783 mt 1650  799 L
1678  785 mt 1694  801 L
1694  785 mt 1678  801 L
1713  779 mt 1729  795 L
1729  779 mt 1713  795 L
1742  744 mt 1758  760 L
1758  744 mt 1742  760 L
1757  739 mt 1773  755 L
1773  739 mt 1757  755 L
1786  733 mt 1802  749 L
1802  733 mt 1786  749 L
1795  731 mt 1811  747 L
1811  731 mt 1795  747 L
1817  727 mt 1833  743 L
1833  727 mt 1817  743 L
1829  738 mt 1845  754 L
1845  738 mt 1829  754 L
1852  733 mt 1868  749 L
1868  733 mt 1852  749 L
1855  715 mt 1871  731 L
1871  715 mt 1855  731 L
1877  706 mt 1893  722 L
1893  706 mt 1877  722 L
1887  696 mt 1903  712 L
1903  696 mt 1887  712 L
1902  691 mt 1918  707 L
1918  691 mt 1902  707 L
1912  671 mt 1928  687 L
1928  671 mt 1912  687 L
1931  672 mt 1947  688 L
1947  672 mt 1931  688 L
1940  668 mt 1956  684 L
1956  668 mt 1940  684 L
1928  668 mt 1944  684 L
1944  668 mt 1928  684 L
1949  667 mt 1965  683 L
1965  667 mt 1949  683 L
1963  658 mt 1979  674 L
1979  658 mt 1963  674 L
1974  636 mt 1990  652 L
1990  636 mt 1974  652 L
2007  619 mt 2023  635 L
2023  619 mt 2007  635 L
2005  618 mt 2021  634 L
2021  618 mt 2005  634 L
2024  597 mt 2040  613 L
2040  597 mt 2024  613 L
2065  588 mt 2081  604 L
2081  588 mt 2065  604 L
2093  574 mt 2109  590 L
2109  574 mt 2093  590 L
2103  546 mt 2119  562 L
2119  546 mt 2103  562 L
2127  518 mt 2143  534 L
2143  518 mt 2127  534 L
2142  513 mt 2158  529 L
2158  513 mt 2142  529 L
2149  519 mt 2165  535 L
2165  519 mt 2149  535 L
2164  501 mt 2180  517 L
2180  501 mt 2164  517 L
2179  489 mt 2195  505 L
2195  489 mt 2179  505 L
2185  498 mt 2201  514 L
2201  498 mt 2185  514 L
2205  471 mt 2221  487 L
2221  471 mt 2205  487 L
2248  466 mt 2264  482 L
2264  466 mt 2248  482 L
2245  468 mt 2261  484 L
2261  468 mt 2245  484 L
2282  457 mt 2298  473 L
2298  457 mt 2282  473 L
2299  422 mt 2315  438 L
2315  422 mt 2299  438 L
2324  415 mt 2340  431 L
2340  415 mt 2324  431 L
2342  406 mt 2358  422 L
2358  406 mt 2342  422 L
2357  407 mt 2373  423 L
2373  407 mt 2357  423 L
2381  395 mt 2397  411 L
2397  395 mt 2381  411 L
2379  386 mt 2395  402 L
2395  386 mt 2379  402 L
2399  374 mt 2415  390 L
2415  374 mt 2399  390 L
2447  351 mt 2463  367 L
2463  351 mt 2447  367 L
2427  391 mt 2443  407 L
2443  391 mt 2427  407 L
2439  382 mt 2455  398 L
2455  382 mt 2439  398 L
2433  387 mt 2449  403 L
2449  387 mt 2433  403 L
2437  377 mt 2453  393 L
2453  377 mt 2437  393 L
2475  353 mt 2491  369 L
2491  353 mt 2475  369 L
2486  343 mt 2502  359 L
2502  343 mt 2486  359 L
2496  333 mt 2512  349 L
2512  333 mt 2496  349 L
2511  320 mt 2527  336 L
2527  320 mt 2511  336 L
2509  315 mt 2525  331 L
2525  315 mt 2509  331 L
2506  305 mt 2522  321 L
2522  305 mt 2506  321 L
2489  319 mt 2505  335 L
2505  319 mt 2489  335 L
2504  311 mt 2520  327 L
2520  311 mt 2504  327 L
2531  311 mt 2547  327 L
2547  311 mt 2531  327 L
2535  296 mt 2551  312 L
2551  296 mt 2535  312 L
2515  295 mt 2531  311 L
2531  295 mt 2515  311 L
2546  291 mt 2562  307 L
2562  291 mt 2546  307 L
2548  279 mt 2564  295 L
2564  279 mt 2548  295 L
2560  265 mt 2576  281 L
2576  265 mt 2560  281 L
2576  258 mt 2592  274 L
2592  258 mt 2576  274 L
2561  276 mt 2577  292 L
2577  276 mt 2561  292 L
2542  291 mt 2558  307 L
2558  291 mt 2542  307 L
2529  301 mt 2545  317 L
2545  301 mt 2529  317 L
2517  307 mt 2533  323 L
2533  307 mt 2517  323 L
2502  306 mt 2518  322 L
2518  306 mt 2502  322 L
2490  296 mt 2506  312 L
2506  296 mt 2490  312 L
2524  276 mt 2540  292 L
2540  276 mt 2524  292 L
2552  281 mt 2568  297 L
2568  281 mt 2552  297 L
2534  292 mt 2550  308 L
2550  292 mt 2534  308 L
2543  292 mt 2559  308 L
2559  292 mt 2543  308 L
2513  304 mt 2529  320 L
2529  304 mt 2513  320 L
2510  300 mt 2526  316 L
2526  300 mt 2510  316 L
2550  281 mt 2566  297 L
2566  281 mt 2550  297 L
2577  277 mt 2593  293 L
2593  277 mt 2577  293 L
2596  261 mt 2612  277 L
2612  261 mt 2596  277 L
2598  253 mt 2614  269 L
2614  253 mt 2598  269 L
2619  243 mt 2635  259 L
2635  243 mt 2619  259 L
2613  243 mt 2629  259 L
2629  243 mt 2613  259 L
2616  236 mt 2632  252 L
2632  236 mt 2616  252 L
2577  263 mt 2593  279 L
2593  263 mt 2577  279 L
2545  278 mt 2561  294 L
2561  278 mt 2545  294 L
2548  278 mt 2564  294 L
2564  278 mt 2548  294 L
2609  257 mt 2625  273 L
2625  257 mt 2609  273 L
2617  253 mt 2633  269 L
2633  253 mt 2617  269 L
2626  248 mt 2642  264 L
2642  248 mt 2626  264 L
2642  237 mt 2658  253 L
2658  237 mt 2642  253 L
2673  226 mt 2689  242 L
2689  226 mt 2673  242 L
2696  202 mt 2712  218 L
2712  202 mt 2696  218 L
2715  204 mt 2731  220 L
2731  204 mt 2715  220 L
2708  187 mt 2724  203 L
2724  187 mt 2708  203 L
2698  181 mt 2714  197 L
2714  181 mt 2698  197 L
2688  206 mt 2704  222 L
2704  206 mt 2688  222 L
2691  217 mt 2707  233 L
2707  217 mt 2691  233 L
2811  186 mt 2827  202 L
2827  186 mt 2811  202 L
2790  182 mt 2806  198 L
2806  182 mt 2790  198 L
2777  202 mt 2793  218 L
2793  202 mt 2777  218 L
2769  214 mt 2785  230 L
2785  214 mt 2769  230 L
2765  214 mt 2781  230 L
2781  214 mt 2765  230 L
2771  232 mt 2787  248 L
2787  232 mt 2771  248 L
2755  239 mt 2771  255 L
2771  239 mt 2755  255 L
2746  251 mt 2762  267 L
2762  251 mt 2746  267 L
2729  265 mt 2745  281 L
2745  265 mt 2729  281 L
2731  287 mt 2747  303 L
2747  287 mt 2731  303 L
2683  273 mt 2699  289 L
2699  273 mt 2683  289 L
2671  267 mt 2687  283 L
2687  267 mt 2671  283 L
2669  291 mt 2685  307 L
2685  291 mt 2669  307 L
2660  275 mt 2676  291 L
2676  275 mt 2660  291 L
2638  282 mt 2654  298 L
2654  282 mt 2638  298 L
2623  281 mt 2639  297 L
2639  281 mt 2623  297 L
2636  275 mt 2652  291 L
2652  275 mt 2636  291 L
2605  289 mt 2621  305 L
2621  289 mt 2605  305 L
2629  272 mt 2645  288 L
2645  272 mt 2629  288 L
2600  286 mt 2616  302 L
2616  286 mt 2600  302 L
2604  267 mt 2620  283 L
2620  267 mt 2604  283 L
2621  273 mt 2637  289 L
2637  273 mt 2621  289 L
2651  263 mt 2667  279 L
2667  263 mt 2651  279 L
2678  275 mt 2694  291 L
2694  275 mt 2678  291 L
2649  273 mt 2665  289 L
2665  273 mt 2649  289 L
2640  266 mt 2656  282 L
2656  266 mt 2640  282 L
2626  271 mt 2642  287 L
2642  271 mt 2626  287 L
2618  280 mt 2634  296 L
2634  280 mt 2618  296 L
2591  297 mt 2607  313 L
2607  297 mt 2591  313 L
2562  336 mt 2578  352 L
2578  336 mt 2562  352 L
2529  372 mt 2545  388 L
2545  372 mt 2529  388 L
2507  375 mt 2523  391 L
2523  375 mt 2507  391 L
2432  457 mt 2448  473 L
2448  457 mt 2432  473 L
2409  454 mt 2425  470 L
2425  454 mt 2409  470 L
2385  475 mt 2401  491 L
2401  475 mt 2385  491 L
2394  507 mt 2410  523 L
2410  507 mt 2394  523 L
2359  476 mt 2375  492 L
2375  476 mt 2359  492 L
2342  489 mt 2358  505 L
2358  489 mt 2342  505 L
2326  519 mt 2342  535 L
2342  519 mt 2326  535 L
2322  494 mt 2338  510 L
2338  494 mt 2322  510 L
2294  492 mt 2310  508 L
2310  492 mt 2294  508 L
2269  513 mt 2285  529 L
2285  513 mt 2269  529 L
2259  519 mt 2275  535 L
2275  519 mt 2259  535 L
2221  554 mt 2237  570 L
2237  554 mt 2221  570 L
2232  549 mt 2248  565 L
2248  549 mt 2232  565 L
2216  554 mt 2232  570 L
2232  554 mt 2216  570 L
2213  559 mt 2229  575 L
2229  559 mt 2213  575 L
2194  548 mt 2210  564 L
2210  548 mt 2194  564 L
2151  512 mt 2167  528 L
2167  512 mt 2151  528 L
2139  550 mt 2155  566 L
2155  550 mt 2139  566 L
2116  549 mt 2132  565 L
2132  549 mt 2116  565 L
2109  563 mt 2125  579 L
2125  563 mt 2109  579 L
2107  594 mt 2123  610 L
2123  594 mt 2107  610 L
2090  616 mt 2106  632 L
2106  616 mt 2090  632 L
2056  613 mt 2072  629 L
2072  613 mt 2056  629 L
2044  620 mt 2060  636 L
2060  620 mt 2044  636 L
2046  615 mt 2062  631 L
2062  615 mt 2046  631 L
2011  657 mt 2027  673 L
2027  657 mt 2011  673 L
1993  666 mt 2009  682 L
2009  666 mt 1993  682 L
1954  652 mt 1970  668 L
1970  652 mt 1954  668 L
1939  638 mt 1955  654 L
1955  638 mt 1939  654 L
1947  649 mt 1963  665 L
1963  649 mt 1947  665 L
1992  665 mt 2008  681 L
2008  665 mt 1992  681 L
1937  698 mt 1953  714 L
1953  698 mt 1937  714 L
1895  683 mt 1911  699 L
1911  683 mt 1895  699 L
1819  664 mt 1835  680 L
1835  664 mt 1819  680 L
1827  706 mt 1843  722 L
1843  706 mt 1827  722 L
1816  729 mt 1832  745 L
1832  729 mt 1816  745 L
1852  712 mt 1868  728 L
1868  712 mt 1852  728 L
1752  730 mt 1768  746 L
1768  730 mt 1752  746 L
1794  724 mt 1810  740 L
1810  724 mt 1794  740 L
1855  761 mt 1871  777 L
1871  761 mt 1855  777 L
1804  795 mt 1820  811 L
1820  795 mt 1804  811 L
1754  818 mt 1770  834 L
1770  818 mt 1754  834 L
1757  826 mt 1773  842 L
1773  826 mt 1757  842 L
1766  842 mt 1782  858 L
1782  842 mt 1766  858 L
1740  838 mt 1756  854 L
1756  838 mt 1740  854 L
1706  856 mt 1722  872 L
1722  856 mt 1706  872 L
1666  875 mt 1682  891 L
1682  875 mt 1666  891 L
1659  879 mt 1675  895 L
1675  879 mt 1659  895 L
1586  882 mt 1602  898 L
1602  882 mt 1586  898 L
1581  907 mt 1597  923 L
1597  907 mt 1581  923 L
1543  905 mt 1559  921 L
1559  905 mt 1543  921 L
1547  901 mt 1563  917 L
1563  901 mt 1547  917 L
1515  912 mt 1531  928 L
1531  912 mt 1515  928 L
1501  910 mt 1517  926 L
1517  910 mt 1501  926 L
1464  928 mt 1480  944 L
1480  928 mt 1464  944 L
1503  928 mt 1519  944 L
1519  928 mt 1503  944 L
1403  995 mt 1419 1011 L
1419  995 mt 1403 1011 L
1404  999 mt 1420 1015 L
1420  999 mt 1404 1015 L
1377 1005 mt 1393 1021 L
1393 1005 mt 1377 1021 L
1347  979 mt 1363  995 L
1363  979 mt 1347  995 L
1362 1041 mt 1378 1057 L
1378 1041 mt 1362 1057 L
1276 1094 mt 1292 1110 L
1292 1094 mt 1276 1110 L
1231 1093 mt 1247 1109 L
1247 1093 mt 1231 1109 L
1215 1117 mt 1231 1133 L
1231 1117 mt 1215 1133 L
1219 1098 mt 1235 1114 L
1235 1098 mt 1219 1114 L
1207 1119 mt 1223 1135 L
1223 1119 mt 1207 1135 L
1164 1124 mt 1180 1140 L
1180 1124 mt 1164 1140 L
1125 1175 mt 1141 1191 L
1141 1175 mt 1125 1191 L
1151 1156 mt 1167 1172 L
1167 1156 mt 1151 1172 L
1115 1180 mt 1131 1196 L
1131 1180 mt 1115 1196 L
1085 1222 mt 1101 1238 L
1101 1222 mt 1085 1238 L
1055 1222 mt 1071 1238 L
1071 1222 mt 1055 1238 L
 992 1233 mt 1008 1249 L
1008 1233 mt  992 1249 L
 968 1262 mt  984 1278 L
 984 1262 mt  968 1278 L
 944 1313 mt  960 1329 L
 960 1313 mt  944 1329 L
 949 1307 mt  965 1323 L
 965 1307 mt  949 1323 L
 916 1298 mt  932 1314 L
 932 1298 mt  916 1314 L
 833 1350 mt  849 1366 L
 849 1350 mt  833 1366 L
 803 1383 mt  819 1399 L
 819 1383 mt  803 1399 L
 803 1344 mt  819 1360 L
 819 1344 mt  803 1360 L
 792 1367 mt  808 1383 L
 808 1367 mt  792 1383 L
 763 1381 mt  779 1397 L
 779 1381 mt  763 1397 L
 696 1417 mt  712 1433 L
 712 1417 mt  696 1433 L
 679 1399 mt  695 1415 L
 695 1399 mt  679 1415 L
 661 1418 mt  677 1434 L
 677 1418 mt  661 1434 L
 563 1454 mt  579 1470 L
 579 1454 mt  563 1470 L
 577 1482 mt  593 1498 L
 593 1482 mt  577 1498 L
 597 1490 mt  613 1506 L
 613 1490 mt  597 1506 L
 562 1420 mt  578 1436 L
 578 1420 mt  562 1436 L
 584 1412 mt  600 1428 L
 600 1412 mt  584 1428 L
 614 1415 mt  630 1431 L
 630 1415 mt  614 1431 L
 587 1410 mt  603 1426 L
 603 1410 mt  587 1426 L
 576 1457 mt  592 1473 L
 592 1457 mt  576 1473 L
 537 1462 mt  553 1478 L
 553 1462 mt  537 1478 L
 529 1467 mt  545 1483 L
 545 1467 mt  529 1483 L
 524 1489 mt  540 1505 L
 540 1489 mt  524 1505 L
 523 1508 mt  539 1524 L
 539 1508 mt  523 1524 L
 517 1552 mt  533 1568 L
 533 1552 mt  517 1568 L
 538 1533 mt  554 1549 L
 554 1533 mt  538 1549 L
 481 1562 mt  497 1578 L
 497 1562 mt  481 1578 L
 468 1492 mt  484 1508 L
 484 1492 mt  468 1508 L
 453 1491 mt  469 1507 L
 469 1491 mt  453 1507 L
 437 1516 mt  453 1532 L
 453 1516 mt  437 1532 L
 471 1514 mt  487 1530 L
 487 1514 mt  471 1530 L
 484 1524 mt  500 1540 L
 500 1524 mt  484 1540 L
 487 1513 mt  503 1529 L
 503 1513 mt  487 1529 L
 528 1528 mt  544 1544 L
 544 1528 mt  528 1544 L
 516 1543 mt  532 1559 L
 532 1543 mt  516 1559 L
 491 1544 mt  507 1560 L
 507 1544 mt  491 1560 L
 530 1518 mt  546 1534 L
 546 1518 mt  530 1534 L
 471 1510 mt  487 1526 L
 487 1510 mt  471 1526 L
 505 1512 mt  521 1528 L
 521 1512 mt  505 1528 L
 486 1500 mt  502 1516 L
 502 1500 mt  486 1516 L
 481 1524 mt  497 1540 L
 497 1524 mt  481 1540 L
 458 1513 mt  474 1529 L
 474 1513 mt  458 1529 L
 476 1492 mt  492 1508 L
 492 1492 mt  476 1508 L
 460 1527 mt  476 1543 L
 476 1527 mt  460 1543 L
 497 1529 mt  513 1545 L
 513 1529 mt  497 1545 L
 451 1533 mt  467 1549 L
 467 1533 mt  451 1549 L
 499 1539 mt  515 1555 L
 515 1539 mt  499 1555 L
 463 1542 mt  479 1558 L
 479 1542 mt  463 1558 L
 460 1535 mt  476 1551 L
 476 1535 mt  460 1551 L
 471 1525 mt  487 1541 L
 487 1525 mt  471 1541 L
 482 1536 mt  498 1552 L
 498 1536 mt  482 1552 L
 501 1535 mt  517 1551 L
 517 1535 mt  501 1551 L
 512 1502 mt  528 1518 L
 528 1502 mt  512 1518 L
 519 1507 mt  535 1523 L
 535 1507 mt  519 1523 L
 529 1499 mt  545 1515 L
 545 1499 mt  529 1515 L
 582 1467 mt  598 1483 L
 598 1467 mt  582 1483 L
 595 1475 mt  611 1491 L
 611 1475 mt  595 1491 L
 613 1431 mt  629 1447 L
 629 1431 mt  613 1447 L
 605 1403 mt  621 1419 L
 621 1403 mt  605 1419 L
 630 1401 mt  646 1417 L
 646 1401 mt  630 1417 L
 632 1419 mt  648 1435 L
 648 1419 mt  632 1435 L
 614 1398 mt  630 1414 L
 630 1398 mt  614 1414 L
 667 1401 mt  683 1417 L
 683 1401 mt  667 1417 L
 671 1379 mt  687 1395 L
 687 1379 mt  671 1395 L
 684 1378 mt  700 1394 L
 700 1378 mt  684 1394 L
 717 1421 mt  733 1437 L
 733 1421 mt  717 1437 L
 770 1405 mt  786 1421 L
 786 1405 mt  770 1421 L
 746 1375 mt  762 1391 L
 762 1375 mt  746 1391 L
 741 1343 mt  757 1359 L
 757 1343 mt  741 1359 L
 758 1350 mt  774 1366 L
 774 1350 mt  758 1366 L
 759 1338 mt  775 1354 L
 775 1338 mt  759 1354 L
 820 1342 mt  836 1358 L
 836 1342 mt  820 1358 L
 800 1336 mt  816 1352 L
 816 1336 mt  800 1352 L
 822 1335 mt  838 1351 L
 838 1335 mt  822 1351 L
 834 1343 mt  850 1359 L
 850 1343 mt  834 1359 L
 832 1347 mt  848 1363 L
 848 1347 mt  832 1363 L
 850 1328 mt  866 1344 L
 866 1328 mt  850 1344 L
 869 1304 mt  885 1320 L
 885 1304 mt  869 1320 L
 822 1287 mt  838 1303 L
 838 1287 mt  822 1303 L
 878 1298 mt  894 1314 L
 894 1298 mt  878 1314 L
 891 1288 mt  907 1304 L
 907 1288 mt  891 1304 L
 944 1274 mt  960 1290 L
 960 1274 mt  944 1290 L
 981 1254 mt  997 1270 L
 997 1254 mt  981 1270 L
1027 1240 mt 1043 1256 L
1043 1240 mt 1027 1256 L
1180 1118 mt 1196 1134 L
1196 1118 mt 1180 1134 L
1146 1113 mt 1162 1129 L
1162 1113 mt 1146 1129 L
1178 1110 mt 1194 1126 L
1194 1110 mt 1178 1126 L
1194 1109 mt 1210 1125 L
1210 1109 mt 1194 1125 L
1213 1116 mt 1229 1132 L
1229 1116 mt 1213 1132 L
1233 1093 mt 1249 1109 L
1249 1093 mt 1233 1109 L
1251 1066 mt 1267 1082 L
1267 1066 mt 1251 1082 L
1251 1053 mt 1267 1069 L
1267 1053 mt 1251 1069 L
1265 1034 mt 1281 1050 L
1281 1034 mt 1265 1050 L
1288 1005 mt 1304 1021 L
1304 1005 mt 1288 1021 L
1304  988 mt 1320 1004 L
1320  988 mt 1304 1004 L
1331 1002 mt 1347 1018 L
1347 1002 mt 1331 1018 L
1351  992 mt 1367 1008 L
1367  992 mt 1351 1008 L
1377  975 mt 1393  991 L
1393  975 mt 1377  991 L
1367  972 mt 1383  988 L
1383  972 mt 1367  988 L
1387  969 mt 1403  985 L
1403  969 mt 1387  985 L
1387  949 mt 1403  965 L
1403  949 mt 1387  965 L
1413  960 mt 1429  976 L
1429  960 mt 1413  976 L
1426  967 mt 1442  983 L
1442  967 mt 1426  983 L
1413  977 mt 1429  993 L
1429  977 mt 1413  993 L
1444  954 mt 1460  970 L
1460  954 mt 1444  970 L
1450  952 mt 1466  968 L
1466  952 mt 1450  968 L
1449  949 mt 1465  965 L
1465  949 mt 1449  965 L
1416  967 mt 1432  983 L
1432  967 mt 1416  983 L
1390  963 mt 1406  979 L
1406  963 mt 1390  979 L
1403  955 mt 1419  971 L
1419  955 mt 1403  971 L
1400  949 mt 1416  965 L
1416  949 mt 1400  965 L
1368  955 mt 1384  971 L
1384  955 mt 1368  971 L
1400  964 mt 1416  980 L
1416  964 mt 1400  980 L
1426  948 mt 1442  964 L
1442  948 mt 1426  964 L
1427  965 mt 1443  981 L
1443  965 mt 1427  981 L
1449  933 mt 1465  949 L
1465  933 mt 1449  949 L
1367  877 mt 1383  893 L
1383  877 mt 1367  893 L
1509  900 mt 1525  916 L
1525  900 mt 1509  916 L
1529  892 mt 1545  908 L
1545  892 mt 1529  908 L
1578  880 mt 1594  896 L
1594  880 mt 1578  896 L
1603  856 mt 1619  872 L
1619  856 mt 1603  872 L
1619  846 mt 1635  862 L
1635  846 mt 1619  862 L
1637  844 mt 1653  860 L
1653  844 mt 1637  860 L
1638  834 mt 1654  850 L
1654  834 mt 1638  850 L
1650  839 mt 1666  855 L
1666  839 mt 1650  855 L
1677  821 mt 1693  837 L
1693  821 mt 1677  837 L
1669  811 mt 1685  827 L
1685  811 mt 1669  827 L
1686  815 mt 1702  831 L
1702  815 mt 1686  831 L
1711  808 mt 1727  824 L
1727  808 mt 1711  824 L
1737  803 mt 1753  819 L
1753  803 mt 1737  819 L
1745  805 mt 1761  821 L
1761  805 mt 1745  821 L
1744  805 mt 1760  821 L
1760  805 mt 1744  821 L
1741  788 mt 1757  804 L
1757  788 mt 1741  804 L
1766  746 mt 1782  762 L
1782  746 mt 1766  762 L
1782  745 mt 1798  761 L
1798  745 mt 1782  761 L
1806  733 mt 1822  749 L
1822  733 mt 1806  749 L
1820  745 mt 1836  761 L
1836  745 mt 1820  761 L
1855  739 mt 1871  755 L
1871  739 mt 1855  755 L
1875  720 mt 1891  736 L
1891  720 mt 1875  736 L
1878  709 mt 1894  725 L
1894  709 mt 1878  725 L
1901  701 mt 1917  717 L
1917  701 mt 1901  717 L
1915  705 mt 1931  721 L
1931  705 mt 1915  721 L
1904  686 mt 1920  702 L
1920  686 mt 1904  702 L
1911  668 mt 1927  684 L
1927  668 mt 1911  684 L
1923  666 mt 1939  682 L
1939  666 mt 1923  682 L
1956  658 mt 1972  674 L
1972  658 mt 1956  674 L
1956  655 mt 1972  671 L
1972  655 mt 1956  671 L
1981  617 mt 1997  633 L
1997  617 mt 1981  633 L
1963  634 mt 1979  650 L
1979  634 mt 1963  650 L
1996  634 mt 2012  650 L
2012  634 mt 1996  650 L
2049  617 mt 2065  633 L
2065  617 mt 2049  633 L
2075  619 mt 2091  635 L
2091  619 mt 2075  635 L
2074  597 mt 2090  613 L
2090  597 mt 2074  613 L
2104  579 mt 2120  595 L
2120  579 mt 2104  595 L
2149  561 mt 2165  577 L
2165  561 mt 2149  577 L
2152  554 mt 2168  570 L
2168  554 mt 2152  570 L
2156  563 mt 2172  579 L
2172  563 mt 2156  579 L
2176  545 mt 2192  561 L
2192  545 mt 2176  561 L
2169  554 mt 2185  570 L
2185  554 mt 2169  570 L
2198  542 mt 2214  558 L
2214  542 mt 2198  558 L
2228  538 mt 2244  554 L
2244  538 mt 2228  554 L
2245  539 mt 2261  555 L
2261  539 mt 2245  555 L
2232  526 mt 2248  542 L
2248  526 mt 2232  542 L
2256  498 mt 2272  514 L
2272  498 mt 2256  514 L
2249  487 mt 2265  503 L
2265  487 mt 2249  503 L
2275  472 mt 2291  488 L
2291  472 mt 2275  488 L
2312  457 mt 2328  473 L
2328  457 mt 2312  473 L
2355  439 mt 2371  455 L
2371  439 mt 2355  455 L
2404  424 mt 2420  440 L
2420  424 mt 2404  440 L
2426  409 mt 2442  425 L
2442  409 mt 2426  425 L
2437  377 mt 2453  393 L
2453  377 mt 2437  393 L
2466  384 mt 2482  400 L
2482  384 mt 2466  400 L
2472  378 mt 2488  394 L
2488  378 mt 2472  394 L
2483  349 mt 2499  365 L
2499  349 mt 2483  365 L
2485  354 mt 2501  370 L
2501  354 mt 2485  370 L
2539  348 mt 2555  364 L
2555  348 mt 2539  364 L
2563  334 mt 2579  350 L
2579  334 mt 2563  350 L
2596  331 mt 2612  347 L
2612  331 mt 2596  347 L
2610  301 mt 2626  317 L
2626  301 mt 2610  317 L
2632  297 mt 2648  313 L
2648  297 mt 2632  313 L
2642  307 mt 2658  323 L
2658  307 mt 2642  323 L
2639  311 mt 2655  327 L
2655  311 mt 2639  327 L
2618  320 mt 2634  336 L
2634  320 mt 2618  336 L
2574  323 mt 2590  339 L
2590  323 mt 2574  339 L
2584  332 mt 2600  348 L
2600  332 mt 2584  348 L
2595  359 mt 2611  375 L
2611  359 mt 2595  375 L
2594  346 mt 2610  362 L
2610  346 mt 2594  362 L
2605  329 mt 2621  345 L
2621  329 mt 2605  345 L
2595  326 mt 2611  342 L
2611  326 mt 2595  342 L
2577  317 mt 2593  333 L
2593  317 mt 2577  333 L
2582  294 mt 2598  310 L
2598  294 mt 2582  310 L
2578  293 mt 2594  309 L
2594  293 mt 2578  309 L
2598  288 mt 2614  304 L
2614  288 mt 2598  304 L
2629  284 mt 2645  300 L
2645  284 mt 2629  300 L
2637  279 mt 2653  295 L
2653  279 mt 2637  295 L
2614  276 mt 2630  292 L
2630  276 mt 2614  292 L
2623  269 mt 2639  285 L
2639  269 mt 2623  285 L
2658  264 mt 2674  280 L
2674  264 mt 2658  280 L
2685  256 mt 2701  272 L
2701  256 mt 2685  272 L
2690  238 mt 2706  254 L
2706  238 mt 2690  254 L
2733  220 mt 2749  236 L
2749  220 mt 2733  236 L
2711  245 mt 2727  261 L
2727  245 mt 2711  261 L
2723  244 mt 2739  260 L
2739  244 mt 2723  260 L
2728  237 mt 2744  253 L
2744  237 mt 2728  253 L
2737  227 mt 2753  243 L
2753  227 mt 2737  243 L
2706  223 mt 2722  239 L
2722  223 mt 2706  239 L
2714  223 mt 2730  239 L
2730  223 mt 2714  239 L
2773  201 mt 2789  217 L
2789  201 mt 2773  217 L
2776  194 mt 2792  210 L
2792  194 mt 2776  210 L
2797  173 mt 2813  189 L
2813  173 mt 2797  189 L
2838  160 mt 2854  176 L
2854  160 mt 2838  176 L
2846  165 mt 2862  181 L
2862  165 mt 2846  181 L
2826  162 mt 2842  178 L
2842  162 mt 2826  178 L
2830  156 mt 2846  172 L
2846  156 mt 2830  172 L
2835  154 mt 2851  170 L
2851  154 mt 2835  170 L
2831  136 mt 2847  152 L
2847  136 mt 2831  152 L
2845  142 mt 2861  158 L
2861  142 mt 2845  158 L
2838  154 mt 2854  170 L
2854  154 mt 2838  170 L
2849  152 mt 2865  168 L
2865  152 mt 2849  168 L
2837  165 mt 2853  181 L
2853  165 mt 2837  181 L
2842  169 mt 2858  185 L
2858  169 mt 2842  185 L
2843  179 mt 2859  195 L
2859  179 mt 2843  195 L
2805  174 mt 2821  190 L
2821  174 mt 2805  190 L
2800  233 mt 2816  249 L
2816  233 mt 2800  249 L
2823  235 mt 2839  251 L
2839  235 mt 2823  251 L
2808  262 mt 2824  278 L
2824  262 mt 2808  278 L
2781  280 mt 2797  296 L
2797  280 mt 2781  296 L
2733  274 mt 2749  290 L
2749  274 mt 2733  290 L
2697  263 mt 2713  279 L
2713  263 mt 2697  279 L
2676  276 mt 2692  292 L
2692  276 mt 2676  292 L
2666  291 mt 2682  307 L
2682  291 mt 2666  307 L
2654  294 mt 2670  310 L
2670  294 mt 2654  310 L
2602  307 mt 2618  323 L
2618  307 mt 2602  323 L
2587  326 mt 2603  342 L
2603  326 mt 2587  342 L
2570  352 mt 2586  368 L
2586  352 mt 2570  368 L
2514  387 mt 2530  403 L
2530  387 mt 2514  403 L
2510  376 mt 2526  392 L
2526  376 mt 2510  392 L
2508  392 mt 2524  408 L
2524  392 mt 2508  408 L
2511  376 mt 2527  392 L
2527  376 mt 2511  392 L
2465  408 mt 2481  424 L
2481  408 mt 2465  424 L
2434  408 mt 2450  424 L
2450  408 mt 2434  424 L
2441  405 mt 2457  421 L
2457  405 mt 2441  421 L
2433  423 mt 2449  439 L
2449  423 mt 2433  439 L
2406  441 mt 2422  457 L
2422  441 mt 2406  457 L
2394  460 mt 2410  476 L
2410  460 mt 2394  476 L
2365  475 mt 2381  491 L
2381  475 mt 2365  491 L
2347  463 mt 2363  479 L
2363  463 mt 2347  479 L
2326  486 mt 2342  502 L
2342  486 mt 2326  502 L
2310  497 mt 2326  513 L
2326  497 mt 2310  513 L
2293  486 mt 2309  502 L
2309  486 mt 2293  502 L
2287  488 mt 2303  504 L
2303  488 mt 2287  504 L
2260  510 mt 2276  526 L
2276  510 mt 2260  526 L
2223  543 mt 2239  559 L
2239  543 mt 2223  559 L
2207  531 mt 2223  547 L
2223  531 mt 2207  547 L
2186  540 mt 2202  556 L
2202  540 mt 2186  556 L
2172  580 mt 2188  596 L
2188  580 mt 2172  596 L
2128  594 mt 2144  610 L
2144  594 mt 2128  610 L
2085  607 mt 2101  623 L
2101  607 mt 2085  623 L
2090  617 mt 2106  633 L
2106  617 mt 2090  633 L
2075  648 mt 2091  664 L
2091  648 mt 2075  664 L
2059  653 mt 2075  669 L
2075  653 mt 2059  669 L
2036  654 mt 2052  670 L
2052  654 mt 2036  670 L
2014  650 mt 2030  666 L
2030  650 mt 2014  666 L
2001  670 mt 2017  686 L
2017  670 mt 2001  686 L
1975  674 mt 1991  690 L
1991  674 mt 1975  690 L
1958  691 mt 1974  707 L
1974  691 mt 1958  707 L
1937  690 mt 1953  706 L
1953  690 mt 1937  706 L
1918  713 mt 1934  729 L
1934  713 mt 1918  729 L
1896  724 mt 1912  740 L
1912  724 mt 1896  740 L
1854  736 mt 1870  752 L
1870  736 mt 1854  752 L
1861  736 mt 1877  752 L
1877  736 mt 1861  752 L
1871  774 mt 1887  790 L
1887  774 mt 1871  790 L
1838  796 mt 1854  812 L
1854  796 mt 1838  812 L
1814  798 mt 1830  814 L
1830  798 mt 1814  814 L
1772  827 mt 1788  843 L
1788  827 mt 1772  843 L
1741  811 mt 1757  827 L
1757  811 mt 1741  827 L
1727  837 mt 1743  853 L
1743  837 mt 1727  853 L
1683  866 mt 1699  882 L
1699  866 mt 1683  882 L
1673  889 mt 1689  905 L
1689  889 mt 1673  905 L
1657  912 mt 1673  928 L
1673  912 mt 1657  928 L
1639  920 mt 1655  936 L
1655  920 mt 1639  936 L
1630  920 mt 1646  936 L
1646  920 mt 1630  936 L
1609  929 mt 1625  945 L
1625  929 mt 1609  945 L
1587  923 mt 1603  939 L
1603  923 mt 1587  939 L
1572  923 mt 1588  939 L
1588  923 mt 1572  939 L
1601  918 mt 1617  934 L
1617  918 mt 1601  934 L
1541  938 mt 1557  954 L
1557  938 mt 1541  954 L
1520  960 mt 1536  976 L
1536  960 mt 1520  976 L
1522  979 mt 1538  995 L
1538  979 mt 1522  995 L
1480  995 mt 1496 1011 L
1496  995 mt 1480 1011 L
1473  998 mt 1489 1014 L
1489  998 mt 1473 1014 L
1307 1091 mt 1323 1107 L
1323 1091 mt 1307 1107 L
1284 1093 mt 1300 1109 L
1300 1093 mt 1284 1109 L
1272 1098 mt 1288 1114 L
1288 1098 mt 1272 1114 L
1235 1108 mt 1251 1124 L
1251 1108 mt 1235 1124 L
1229 1129 mt 1245 1145 L
1245 1129 mt 1229 1145 L
1240 1142 mt 1256 1158 L
1256 1142 mt 1240 1158 L
1210 1153 mt 1226 1169 L
1226 1153 mt 1210 1169 L
1185 1146 mt 1201 1162 L
1201 1146 mt 1185 1162 L
1225 1118 mt 1241 1134 L
1241 1118 mt 1225 1134 L
1133 1160 mt 1149 1176 L
1149 1160 mt 1133 1176 L
1126 1188 mt 1142 1204 L
1142 1188 mt 1126 1204 L
1095 1219 mt 1111 1235 L
1111 1219 mt 1095 1235 L
1079 1210 mt 1095 1226 L
1095 1210 mt 1079 1226 L
1075 1197 mt 1091 1213 L
1091 1197 mt 1075 1213 L
1052 1218 mt 1068 1234 L
1068 1218 mt 1052 1234 L
1047 1232 mt 1063 1248 L
1063 1232 mt 1047 1248 L
1050 1240 mt 1066 1256 L
1066 1240 mt 1050 1256 L
1022 1275 mt 1038 1291 L
1038 1275 mt 1022 1291 L
 963 1300 mt  979 1316 L
 979 1300 mt  963 1316 L
 916 1322 mt  932 1338 L
 932 1322 mt  916 1338 L
 850 1336 mt  866 1352 L
 866 1336 mt  850 1352 L
 834 1346 mt  850 1362 L
 850 1346 mt  834 1362 L
 809 1357 mt  825 1373 L
 825 1357 mt  809 1373 L
 786 1379 mt  802 1395 L
 802 1379 mt  786 1395 L
 769 1399 mt  785 1415 L
 785 1399 mt  769 1415 L
 732 1420 mt  748 1436 L
 748 1420 mt  732 1436 L
 709 1448 mt  725 1464 L
 725 1448 mt  709 1464 L
 680 1466 mt  696 1482 L
 696 1466 mt  680 1482 L
 658 1474 mt  674 1490 L
 674 1474 mt  658 1490 L
 649 1462 mt  665 1478 L
 665 1462 mt  649 1478 L
 637 1477 mt  653 1493 L
 653 1477 mt  637 1493 L
 597 1491 mt  613 1507 L
 613 1491 mt  597 1507 L
 606 1494 mt  622 1510 L
 622 1494 mt  606 1510 L
 585 1510 mt  601 1526 L
 601 1510 mt  585 1526 L
 583 1512 mt  599 1528 L
 599 1512 mt  583 1528 L
 555 1503 mt  571 1519 L
 571 1503 mt  555 1519 L
 554 1518 mt  570 1534 L
 570 1518 mt  554 1534 L
 509 1546 mt  525 1562 L
 525 1546 mt  509 1562 L
 498 1571 mt  514 1587 L
 514 1571 mt  498 1587 L
 461 1574 mt  477 1590 L
 477 1574 mt  461 1590 L
 450 1585 mt  466 1601 L
 466 1585 mt  450 1601 L
gs 416 135 2480 1469 rc
8.33333 w
/c9 { 0.000000 0.000000 1.000000 sr} bdef
c9
-1 1 -1 0 -1 1 -2 1 -1 0 -2 2 -1 0 -1 1 
-1 1 -1 0 -1 1 -1 1 -1 0 -1 1 -1 0 -2 1 
-1 1 -1 0 -1 1 -1 1 -1 0 -1 1 -1 1 -7 2 
-1 1 -1 1 -1 0 -1 1 -1 0 -1 1 -1 1 -1 0 
-1 1 -1 1 -1 0 -1 1 1 4 -2 1 -1 1 -1 0 
-1 1 -1 0 -1 1 -1 1 -1 0 -1 1 -1 0 -1 1 
-1 0 -1 1 -1 1 -1 0 -1 1 -1 0 -1 1 -1 1 
-2 0 -1 1 -1 0 -1 1 -1 0 -1 1 -1 1 -5 3 
-1 0 -1 1 -1 0 -1 1 -1 1 -1 0 -1 1 -1 0 
-1 1 -1 0 -1 1 -1 0 -1 1 -1 0 -1 1 -1 1 
-1 0 -1 1 -1 0 5 -4 -1 1 -1 0 -2 2 -1 0 
-1 1 -1 0 -1 1 -1 1 -2 0 -1 1 -1 0 -1 1 
-1 1 -1 0 -1 1 1 -6 -1 0 -1 1 -1 1 -1 0 
-1 1 -1 1 -2 0 -1 1 -1 1 -1 0 -1 1 7 -4 
-1 1 -1 1 -1 1 -2 0 -1 1 -1 1 -1 1 -2 0 
-1 1 -1 1 -1 1 -2 0 -1 1 -1 1 -1 1 3 -1 
-2 0 -1 1 -1 1 -2 1 -1 0 -1 1 -2 1 -1 1 
-1 0 -1 1 -2 1 9 -5 -2 1 -1 1 -2 0 -1 1 
-2 1 -1 1 -2 1 -1 1 -1 0 -2 1 -1 1 -2 1 
-1 1 -2 1 -1 1 -2 -3 -2 1 -1 1 -2 1 -1 1 
-2 1 -1 1 -1 1 -2 0 -1 1 -2 1 -1 1 9 -6 
-2 1 -2 1 -1 1 -2 1 -1 1 -2 1 -1 0 -2 1 
-2 1 -1 1 -2 1 -1 1 -2 1 -2 1 -1 1 -2 1 
-1 1 -2 1 5 -7 -2 1 -1 1 -2 1 -2 1 -1 1 
-2 1 -2 1 -1 2 -2 1 -2 1 3 -1 -2 1 -1 1 
-2 1 -2 1 -2 2 -1 1 -2 1 -2 1 -2 1 -1 1 
-2 1 -2 1 -1 1 -2 1 -2 2 -2 1 -1 1 -2 1 
-1 5 -2 1 -2 1 -2 1 -1 1 -2 1 -2 1 -2 1 
-1 1 -2 2 -2 1 -2 1 -1 1 -2 1 -2 1 -2 1 
-1 6 -1 1 -2 1 -2 1 -2 1 -1 1 -2 2 -2 1 
-2 1 -1 1 -2 1 -2 1 -2 1 -1 1 -2 1 -1 3 
-2 1 -2 1 -2 1 -2 1 -1 1 -2 1 -2 1 -2 1 
-1 1 -2 1 -2 1 -2 1 -1 1 -2 1 -2 1 -2 1 
-1 1 -2 0 0 3 -1 1 -2 1 -2 1 -2 1 -1 1 
-2 1 -2 1 -2 1 -2 1 -1 1 -2 1 -1 0 -2 1 
-1 1 -2 1 -2 1 -2 1 -2 1 -2 1 -1 1 -2 1 
-2 1 -2 1 -2 1 -1 1 -2 1 -2 1 -2 1 -2 1 
-1 1 -5 -3 -2 1 831 1373 300 MP stroke
-2 1 -1 1 -2 1 -2 1 -2 1 -2 1 -1 1 -2 1 
-2 1 -2 1 -1 1 -2 1 -2 1 -2 1 -1 1 -2 1 
-2 1 -2 1 -12 2 -1 1 -2 1 -1 1 -2 1 -2 1 
-1 1 -2 1 -2 1 -1 1 -2 1 -2 1 -22 4 -1 1 
-2 1 -1 1 -2 1 -1 1 -1 1 -2 1 -1 1 -2 1 
-1 1 -1 1 -2 1 -1 1 -2 1 -1 1 -2 1 -1 0 
-1 1 -13 8 -2 1 -1 1 -1 1 -1 1 -2 1 -1 0 
-1 1 -2 1 -1 1 -1 1 -1 1 -2 0 -1 1 -1 1 
-1 1 -2 1 -1 1 -1 1 -1 0 -2 1 -1 1 -1 1 
-2 1 -1 1 -1 1 -1 0 -2 1 -11 11 -2 0 -1 1 
-1 1 -1 1 -1 0 -1 1 -1 1 -2 0 -1 1 -1 1 
-1 1 -1 0 -1 1 6 6 -1 1 -2 0 -1 1 -1 1 
-1 1 -1 0 -2 1 -1 1 -1 0 -1 1 -1 1 -2 0 
-1 1 -1 1 -1 0 -1 1 -2 1 -1 1 15 -4 -1 1 
-1 1 -2 1 -1 0 -2 1 -1 1 -2 1 -1 0 -1 1 
-2 1 -1 1 -2 1 -1 0 -1 1 -2 1 -1 1 -2 0 
-1 1 -1 1 -2 1 -1 0 -2 1 -1 1 -2 1 -1 0 
-1 1 -2 1 -1 3 -2 1 -3 1 -2 1 -1 1 -2 1 
-1 0 -1 1 -4 1 -2 1 -2 2 -2 0 -1 1 -1 1 
-2 0 -3 2 -1 1 -3 1 -1 1 -3 -2 -1 0 -1 1 
-2 1 -1 1 -1 0 -2 1 -3 2 -1 0 -1 1 -9 5 
-1 1 -3 1 -1 1 -2 0 -1 1 -1 1 -1 1 -2 0 
-1 1 -1 1 -15 13 -1 0 -1 1 -1 0 -1 1 -1 0 
-1 1 -1 0 -2 1 -1 1 -1 0 -12 9 -1 0 -1 1 
-1 0 -1 1 -1 0 -1 1 -1 1 -1 0 -1 0 -1 1 
-1 0 -1 1 -1 0 -1 1 -1 0 -19 6 -1 1 -1 0 
-1 1 -1 1 -1 0 -1 1 -1 0 -1 1 16 -12 -1 0 
-1 1 -1 0 -1 1 -1 0 -1 1 -1 0 -1 1 -1 1 
-1 0 -1 1 -1 0 -1 1 -1 0 -1 1 -1 0 -1 1 
-6 1 -1 1 -1 0 -1 1 -1 0 -1 1 -1 1 -1 0 
-1 1 -1 0 -1 1 -6 6 -1 1 -1 0 -1 0 -1 1 
-1 1 -1 0 -1 1 -1 0 -1 1 -1 0 -1 1 -1 0 
-1 1 -1 5 -1 1 -1 0 -1 1 -1 0 -1 1 -1 0 
-1 1 -1 0 -1 1 -10 6 -1 1 -1 0 -1 1 -1 0 
-1 1 -1 0 -1 1 -14 3 -1 1 -1 0 -1 1 -1 0 
-1 1 -1 0 -1 1 -1 0 -1 1 -1 0 -8 2 -1 0 
-1 1 -1 1 -1 0 -12 3 -1 0 -1 1 -1 0 -1 1 
-1 0 -1 1 -1 0 1325 1096 300 MP stroke
1 0 -53 29 -1 1 -1 0 -1 1 -1 1 -1 0 -1 1 
-1 0 -1 1 -1 1 -2 0 -1 1 -1 1 -1 0 -1 1 
-1 0 -1 1 -1 1 -1 0 -1 1 -1 1 -1 0 -1 1 
-1 1 -1 0 -2 1 -1 0 -1 1 -1 1 -1 0 -1 1 
-1 1 -1 0 -1 1 -1 1 -1 0 -1 1 -1 0 -1 1 
-2 1 -1 0 -1 1 -1 1 -1 0 -1 1 -1 0 -1 1 
-1 1 -1 0 -1 1 -1 1 -1 0 -1 1 -1 1 -2 0 
-1 1 -1 0 -1 1 -1 1 -1 0 -1 1 -1 1 -1 0 
-1 1 -1 0 -1 1 -5 3 -2 1 -1 1 -1 0 -2 1 
-2 2 -2 1 -2 1 -3 1 -1 1 -1 1 -1 0 -1 1 
-1 1 -1 0 -1 1 -1 1 -1 0 -1 1 -1 0 -1 1 
-1 1 -2 0 -1 1 -1 1 -1 1 -1 0 -2 1 -1 1 
-1 0 -1 1 -1 1 -1 0 -1 1 -1 0 -1 1 -1 1 
-1 0 -7 5 -1 0 -4 3 -2 1 -4 2 -3 2 -1 0 
-1 1 -1 1 -1 0 2 3 -1 0 -1 1 -1 0 -1 1 
-1 1 -1 0 -1 1 -1 0 -1 1 -1 0 -1 1 -3 -1 
-1 1 -1 1 -1 0 -1 1 -4 2 -1 1 -1 0 -4 2 
-1 1 -1 1 -1 0 -1 1 -1 0 -1 1 0 -6 -1 0 
-1 1 -1 1 -1 0 -1 1 -1 1 -1 0 -1 1 -1 1 
-1 0 -2 1 -1 0 -1 1 -1 1 -1 0 -1 1 -1 1 
-1 0 22 -16 -2 1 -1 1 -1 1 -2 1 -1 1 -1 0 
-2 1 -1 1 -1 1 -2 1 -1 1 -1 1 -2 0 -1 1 
-2 1 -1 1 -1 1 -2 1 -1 1 -1 0 -2 1 -1 1 
-3 2 -1 1 -2 -6 -1 1 -1 1 -3 2 -2 1 -1 1 
-1 1 -3 2 -1 1 -3 -5 -2 2 -2 1 -1 1 -2 1 
-1 1 -3 2 -1 1 0 -1 -2 1 -1 1 -2 1 -1 1 
-1 1 -3 2 -1 1 -2 1 -1 1 2 -1 -1 1 -3 2 
-2 1 -1 1 -1 1 -2 1 -1 1 -2 1 -1 1 -2 1 
-1 1 -1 4 -1 1 -1 1 -2 1 -1 1 -2 1 -1 1 
-3 2 -2 1 -1 1 -1 1 0 6 -2 1 -1 1 -2 1 
-1 1 -2 1 -1 1 -2 1 -1 1 -2 1 -1 1 -1 1 
0 5 -1 1 -2 0 -1 1 -2 1 -1 1 -2 1 -1 1 
-2 1 -1 1 -2 1 -1 1 -2 1 -2 0 -2 1 -1 1 
-1 1 -2 1 -1 1 -2 1 -1 1 -2 1 -1 1 -2 1 
-1 1 -2 1 -1 1 -1 1 -2 0 -1 1 -2 1 -1 1 
-2 1 -1 1 -2 1 -1 1 -2 1 -1 1 -1 1 -2 1 
-1 1 -2 1 -2 -1 -1 1 -2 1 -1 1 -1 1 -2 1 
-1 1 -2 1 -1 1 1750 840 300 MP stroke
-2 1 -1 1 -2 1 -1 0 -2 1 -1 1 -1 1 -2 1 
-1 1 -2 1 -7 -3 -1 1 -2 1 -1 1 -2 1 -1 1 
-1 1 -2 1 -1 1 -1 1 -2 1 -1 1 -6 7 -2 1 
-1 0 -1 1 -2 1 -1 1 -1 1 -2 1 -1 1 -1 1 
-2 1 -1 1 -1 1 -2 0 -1 1 -1 1 -2 1 -1 1 
-1 1 -2 1 -1 1 -1 3 -1 1 -2 1 -1 1 -1 1 
-2 1 -1 1 -1 1 -2 0 -1 1 -1 1 -2 1 -1 1 
-1 1 0 8 -2 1 -1 0 -1 1 -2 1 -1 1 -1 1 
-2 0 -1 1 -1 1 -2 1 -1 1 8 5 -2 2 -2 0 
-1 1 -2 1 -1 1 -2 0 -1 1 -2 1 -1 1 -1 1 
-2 0 -1 1 -2 1 -1 1 0 -2 -1 1 -2 1 -1 0 
-2 1 -1 1 -1 1 -3 1 -2 1 -1 1 -2 1 -10 2 
-1 1 -1 1 -2 0 -1 1 -1 1 -2 1 -1 0 -2 1 
-1 1 -1 1 -2 0 -1 1 -1 1 -4 2 -1 1 -1 0 
-2 1 -1 1 -1 1 -3 1 -1 1 -2 1 -1 0 -1 1 
-3 1 -1 1 -1 1 -2 1 -1 0 -1 1 -1 1 -2 0 
-1 1 -1 1 -2 1 -1 0 -1 1 -2 1 -1 1 -1 0 
-2 1 -2 -2 -2 1 -1 1 -1 0 -2 1 -1 1 -1 1 
-1 0 -2 1 -1 1 -1 1 -2 0 -2 1 -1 1 -1 0 
-2 1 -1 1 -1 1 -2 1 -1 0 -1 1 -2 1 -1 1 
-1 0 -1 1 -2 1 -1 1 -1 0 -4 -1 -1 1 -1 1 
-2 1 -1 1 -1 0 -2 1 -1 1 -1 1 -1 1 -2 0 
-1 1 -2 1 -1 1 -1 0 -1 1 -2 1 -1 1 -1 1 
-2 0 -1 1 -1 1 -2 1 -1 1 -1 0 -2 -4 -1 1 
-1 1 -1 1 -2 1 -1 1 -1 0 -2 1 -1 1 -1 1 
-2 1 -1 1 1 -1 -2 1 -1 1 -1 0 -2 1 -1 1 
-2 1 -1 1 -1 1 -2 1 -1 1 -1 1 -2 0 -1 1 
3 3 -2 1 -2 2 -2 1 -1 0 -2 1 -1 1 -1 1 
-2 1 -1 1 -1 1 -2 1 4 6 -2 1 -1 1 -2 1 
-1 1 -2 1 -1 0 -1 1 -2 1 -1 1 -2 1 -1 0 
-2 1 -1 1 -1 1 -2 1 3 1 -1 1 -2 0 -1 1 
-1 1 -2 1 -1 1 -2 0 -1 1 -2 1 -1 1 -2 1 
-1 0 -9 4 -1 0 -2 1 -1 1 -2 1 -1 0 -1 1 
-2 1 -1 1 -2 1 -1 0 -1 1 -2 1 -1 1 -2 0 
-1 1 -1 1 -2 1 -1 0 -2 1 -1 1 -1 1 -2 1 
-1 0 -2 1 -1 1 -9 7 -1 1 -2 0 -1 1 -1 1 
-1 1 -2 0 -1 1 -1 1 -2 0 -1 1 -1 1 -1 0 
-2 1 -1 1 -1 0 2175 572 300 MP stroke
-2 1 -1 1 -1 0 -2 1 -1 1 -4 8 -2 1 -1 1 
-1 0 -1 1 -2 0 -2 2 -1 0 -2 1 -1 0 -1 1 
-1 1 -4 -1 -1 0 -2 1 -1 0 -1 1 -1 1 -1 0 
-2 1 -1 0 -1 1 -1 1 -2 0 -1 1 -1 1 -1 0 
-1 1 -2 0 -1 1 -5 0 -1 0 -2 1 -1 0 -1 1 
-1 1 -1 0 -1 1 -2 1 -1 0 -1 1 -1 0 -1 1 
-1 1 -2 0 -1 1 -1 1 -11 8 -1 1 -1 0 -1 1 
-1 0 -2 1 -1 0 -1 1 -1 0 -1 1 -1 0 -1 1 
-3 0 -1 1 -1 1 -1 0 -1 1 -1 0 -1 1 -1 0 
-1 1 -1 0 -1 1 -1 0 -1 1 -1 0 -1 1 -1 0 
-1 1 -1 0 -1 1 1 -5 -1 1 -1 0 -1 1 -1 1 
-1 0 -1 1 -1 0 -1 1 -1 0 -1 1 -1 1 0 -5 
-1 1 -1 0 -1 1 -2 0 -1 1 -1 1 -1 0 -1 1 
-1 1 -1 0 -1 1 -1 0 -1 1 -1 1 -1 0 -1 1 
-3 2 -1 1 -1 0 -1 1 -1 0 -1 1 -1 1 -1 0 
-2 1 -1 1 -1 0 -1 1 -1 0 -1 1 -1 1 -1 0 
-1 1 -1 0 -1 1 -1 1 -6 3 -1 1 -1 0 -1 1 
-1 0 -1 1 -1 1 -1 0 -1 1 -1 0 -1 1 -1 0 
-1 1 -2 -2 -1 1 -1 1 -1 0 -1 1 -1 0 -1 1 
-1 1 -1 0 -1 1 -1 0 -1 1 -1 1 -1 0 -1 1 
-1 0 -1 1 -6 6 -1 0 -1 1 -1 1 -1 0 -1 1 
-1 0 -1 1 -1 0 -1 1 0 4 -1 1 -1 0 -1 1 
-1 0 -1 1 -1 0 -1 1 -1 1 -1 0 -1 1 -1 0 
-1 1 -1 0 -1 1 -1 1 0 1 -1 1 -1 0 -1 1 
-1 0 -1 1 -1 0 -1 1 -1 1 -1 0 -1 1 -2 1 
-1 0 -1 1 7 -3 -1 1 -1 1 -1 0 -1 1 -1 0 
-1 1 -1 0 -2 1 -1 1 -1 0 -1 1 -1 1 -1 0 
-1 1 10 -10 -1 1 -1 1 -1 0 -1 1 -1 1 -1 0 
-2 1 -1 1 -1 0 -1 1 -1 1 -1 0 -1 1 -2 1 
-1 0 -1 1 -1 0 0 -6 -1 1 -1 1 -1 0 -1 1 
-2 1 -1 1 -1 0 -1 1 -1 1 -1 0 -2 1 -1 1 
15 -10 -3 2 -1 1 -1 1 -2 0 -1 1 -2 1 -1 1 
-1 1 -2 1 -1 0 -2 1 -1 1 -1 1 -2 1 -1 1 
-1 0 -2 1 -1 1 -2 1 -1 1 -1 1 -2 0 -1 1 
-2 1 -1 1 -1 1 -2 1 -1 1 -2 0 -1 1 -1 1 
-2 1 -1 1 -1 1 -2 0 -1 1 13 -10 -2 1 -1 1 
-2 1 -1 1 -2 1 -2 1 -1 1 -3 2 -2 1 -2 1 
-1 1 -2 1 8 -2 2491 405 300 MP stroke
-2 1 -1 1 -2 1 -2 1 -3 2 -2 1 -2 1 -1 1 
-2 1 -2 1 -1 2 -2 1 -2 1 -1 1 -2 1 -2 1 
-2 -1 -2 1 -2 2 -2 1 -1 1 -2 1 -2 1 -1 1 
-2 1 -2 1 -1 1 -2 1 -2 1 -13 11 -2 1 -1 1 
-2 1 -1 1 -2 1 -1 1 -2 0 -1 1 -2 1 -1 1 
-2 1 -1 1 -2 1 -2 1 -1 1 -2 1 -4 6 -1 1 
-2 1 -1 1 -2 0 -1 1 -2 1 -1 1 -3 2 -2 0 
-1 1 -2 1 -1 1 -2 1 -1 1 -2 0 -1 1 -8 4 
-1 0 -2 1 -1 1 -2 1 -1 1 -1 0 -2 1 -1 1 
-2 1 -1 1 -1 0 -2 1 -1 1 -13 1 -1 1 -1 1 
-2 1 -1 0 -1 1 -1 1 -2 1 -1 1 -1 0 -1 1 
-2 1 -1 1 -1 1 -1 0 -2 1 -3 1 -1 1 -1 1 
-2 1 -1 0 -1 1 -1 1 -2 1 -1 1 -1 0 -1 1 
-6 4 -1 0 -2 2 -1 1 -1 0 -2 1 -1 1 -1 1 
-1 0 -1 1 -1 1 -2 1 -1 0 -1 1 -9 4 -1 1 
-1 1 -1 0 -1 1 -1 1 -1 1 -1 0 -1 1 -2 1 
-1 0 -1 1 -9 4 -1 1 -1 1 -1 0 1 0 -2 2 
-1 0 -1 1 -1 1 -1 0 -1 1 -1 1 -1 0 -1 1 
-1 1 -11 10 -1 0 -1 1 -1 0 -1 1 -1 1 -1 1 
-1 0 -1 1 -1 0 -9 12 -1 0 -1 1 -1 1 -1 1 
-1 0 -1 0 -1 1 -1 1 -1 0 -1 1 -1 0 -1 1 
-1 1 -8 10 -1 1 -1 0 -1 1 -1 0 -1 1 -1 1 
-1 0 -1 1 -1 0 -1 1 -1 0 -1 1 -4 8 -1 0 
-1 1 -1 1 -1 0 -1 1 -1 1 -17 16 -1 1 -1 0 
1 0 -12 7 -1 0 1 0 -7 8 1 0 -10 10 1 0 
1 -1 1 -1 1 0 1 -1 1 -1 -8 8 1 -1 1 0 
0 -1 -4 5 1 0 1 -1 1 -1 1 0 1 -1 1 -1 
1 0 -1 0 -7 6 1 -1 1 0 1 -1 1 -1 1 -1 
1 0 -5 3 1 -1 2 -1 1 -1 1 -1 1 -1 1 -1 
1 0 1 -1 1 0 1 -1 1 -1 -6 0 1 -1 1 -1 
1 0 1 -1 1 -1 1 -1 1 0 -5 3 1 -1 1 0 
-1 0 2 -2 1 0 1 -1 2 -1 1 -1 1 0 -7 3 
4 -2 3 -2 1 -1 1 -1 1 -1 1 0 1 -1 1 0 
1 -1 1 -1 1 -1 -4 3 1 -1 1 0 1 -1 1 -1 
1 0 1 -1 1 -1 1 -1 1 0 1 -1 7 0 1 -1 
1 0 1 -1 1 -1 4 -3 2 -1 1 -2 1 0 1 -1 
1 0 1 -1 1 -1 14 -8 1 0 1 -1 1 -1 1 0 
1 -1 1 -1 1 -1 2794 193 300 MP stroke
1 -1 1 0 1 -1 1 -1 9 -7 1 -1 1 -1 1 0 
1 -1 1 -1 1 -1 1 0 0 -1 7 -5 1 0 1 -1 
1 -1 1 0 1 -1 1 -1 1 -1 10 -6 1 0 1 -1 
1 -1 1 -1 -10 3 1 0 1 -1 1 -1 1 0 1 -1 
1 -1 1 -1 1 0 1 -1 -12 1 1 -1 1 0 1 -1 
1 0 1 -1 1 -1 1 0 -2 0 1 -1 1 -1 1 -1 
1 0 1 0 1 -1 1 -1 1 -1 1 0 -1 0 -2 1 
1 0 1 -1 1 -1 1 0 1 -1 1 -1 1 0 1 -1 
1 -1 -4 3 1 0 1 -1 1 0 1 -1 1 -1 1 0 
1 -1 1 -1 1 -1 1 0 1 -1 -7 3 1 0 1 -1 
1 0 1 -1 1 -1 1 -1 1 0 2 -2 1 0 14 -12 
1 0 1 0 1 -1 2 -1 1 -1 1 0 1 -1 1 0 
1 -1 1 -1 1 0 1 -1 1 0 1 -1 1 -1 1 0 
1 0 1 -1 1 -1 1 0 8 -7 1 0 1 -1 1 0 
1 -1 1 0 1 -1 1 0 1 -1 1 0 1 -1 11 -6 
1 0 1 -1 1 0 1 -1 1 0 1 -1 9 -5 1 0 
1 -1 1 0 1 -1 1 0 1 0 -1 0 3 -4 1 0 
1 0 1 -1 1 0 0 -2 1 -1 1 0 1 0 1 -1 
11 -6 1 0 1 -1 1 0 13 -7 1 0 7 -6 -1 1 
3 -4 -1 0 -1 0 1 0 3 -5 -1 1 -1 0 -2 -1 
-1 1 -1 0 -1 1 -1 0 2 -1 -1 0 -1 0 -1 1 
-1 0 -1 1 3 -1 -1 0 -1 0 -1 1 -1 0 -5 5 
-1 0 -1 1 -1 0 -12 12 -16 9 1 -1 1 0 1 -1 
-29 11 1 0 1 -1 1 0 1 0 1 -1 1 0 1 -1 
-24 14 1 0 1 -1 1 0 1 0 1 -1 1 -1 1 0 
1 0 1 -1 1 0 1 -1 -28 20 1 -1 2 -1 1 0 
1 -1 1 0 2 -1 1 -1 1 0 1 -1 2 -1 1 0 
1 -1 2 0 1 -1 1 -1 1 0 2 -1 1 0 1 -1 
1 -1 2 0 1 -1 1 0 1 -1 2 -1 1 0 1 -1 
1 -1 2 0 1 -1 1 0 1 -1 2 -1 1 0 1 -1 
1 0 2 -1 -4 7 1 -1 2 0 1 -1 1 -1 2 -1 
1 0 1 -1 2 -1 1 0 1 -1 -4 4 2 -1 1 -1 
2 -1 1 0 1 -1 2 -1 1 0 2 -1 1 -1 1 -1 
2 0 1 -1 2 -1 1 -1 3 -1 1 -1 2 -1 1 0 
2 -1 -2 0 2 -1 1 -1 2 -1 1 0 2 -1 1 -1 
1 -1 2 0 3 -2 1 -1 2 0 1 -1 2 -1 1 -1 
1 0 2 -1 1 -1 2 -1 1 0 2 -1 1 -1 1 -1 
7 4 1 -1 2 0 2581 324 300 MP stroke
1 -1 1 -1 2 -1 1 0 1 -1 2 -1 1 -1 2 -1 
1 0 1 -1 3 4 1 -1 1 -1 2 -1 1 -1 2 -1 
1 -1 3 -1 1 -1 2 -1 1 -1 1 -1 2 -1 1 0 
2 -1 1 -1 1 -1 2 -1 3 5 2 -1 1 -1 2 -1 
1 -1 1 -1 2 -1 1 -1 2 -1 1 -1 1 -1 2 0 
1 -1 1 -1 2 -1 1 -1 2 -1 1 -1 -7 3 1 -1 
2 -1 1 -1 2 -1 1 -1 2 -1 1 -1 2 -1 1 -1 
2 -1 1 -1 -4 -3 2 -1 1 -1 2 -1 1 -1 2 -1 
2 -1 1 -1 2 -1 1 -1 2 -1 1 0 2 -1 2 -1 
1 -1 2 -1 -1 1 1 0 2 -1 2 -1 1 -1 2 -1 
1 -1 2 -1 2 -1 1 -1 2 -1 1 -1 2 -1 5 -1 
2 -1 1 -1 2 -1 2 -1 1 -1 2 -1 1 -1 2 -1 
1 0 2 -1 1 -1 2 -1 2 -1 1 -1 6 -10 2 -1 
1 -1 2 0 1 -1 2 -1 1 -1 2 -1 1 -1 2 -1 
1 -1 2 0 11 -6 1 0 2 -1 1 -1 1 -1 2 -1 
1 0 1 -1 2 -1 1 -1 2 -1 1 0 1 -1 2 -1 
1 -1 1 -1 2 0 1 -1 2 -1 18 -8 1 -1 1 -1 
1 0 2 -1 1 -1 1 0 1 -1 1 -1 1 -1 2 0 
1 -1 1 -1 1 0 1 -1 1 -1 1 0 2 -1 1 -1 
1 0 1 -1 14 -9 1 0 1 -1 1 -1 1 0 1 -1 
1 0 1 -1 1 -1 1 0 1 -1 1 0 1 -1 6 -7 
1 0 1 -1 1 0 1 -1 1 0 1 -1 1 0 1 -1 
1 0 -1 0 2 -2 1 0 1 -1 1 0 1 -1 1 0 
1 -1 0 -5 1 0 1 -1 1 0 1 -1 1 -1 1 0 
1 -1 1 0 1 -1 1 0 1 -1 -8 -3 1 0 1 -1 
1 0 1 -1 1 0 1 0 1 -1 1 0 1 -1 1 0 
1 -1 1 0 -4 -4 1 0 1 -1 1 0 2 -1 1 0 
1 -1 1 0 1 0 1 -1 1 0 1 -1 1 0 1 -1 
1 0 1 -1 1 0 1 0 1 -1 1 0 1 -1 1 0 
1 -1 1 0 1 0 1 -1 -4 1 1 0 1 -1 1 0 
1 -1 1 0 2 -1 1 0 1 0 1 -1 1 0 1 -1 
3 3 1 0 1 -1 1 0 1 -1 2 0 1 -1 1 0 
1 -1 1 0 1 -1 1 0 1 -1 4 2 1 0 1 -1 
1 0 1 -1 1 0 2 -1 1 0 1 -1 1 0 1 -1 
1 0 -4 3 1 0 2 -1 1 0 1 -1 1 0 1 -1 
1 -1 2 0 1 -1 1 0 1 -1 1 0 1 -1 2 -1 
1 0 1 -1 1 0 1 -1 -9 6 2 0 1 -1 1 -1 
2 0 1 -1 1 -1 2198 546 300 MP stroke
1 0 2 -1 1 -1 1 0 2 -1 1 -1 -2 2 1 -1 
2 -1 1 0 1 -1 2 -1 1 0 2 -1 1 -1 1 0 
3 -2 1 0 3 -2 1 0 2 -1 1 -1 -2 5 1 -1 
2 -1 1 -1 1 0 2 -1 1 -1 2 -1 1 0 1 -1 
2 -1 1 -1 2 0 1 -1 2 -1 1 0 1 -1 7 -3 
1 -1 1 -1 2 0 1 -1 1 -1 2 -1 1 0 1 -1 
2 -1 1 0 2 -1 1 -1 15 -6 1 -1 1 0 1 -1 
2 -1 1 0 1 -1 1 0 1 -1 1 -1 2 0 1 -1 
1 -1 1 0 9 -5 1 0 2 -1 1 -1 1 -1 1 0 
1 -1 1 0 1 -1 2 0 1 -1 1 -1 4 -1 1 0 
1 -1 1 0 1 -1 1 0 1 -1 1 -1 1 0 1 -1 
1 0 1 -1 1 0 1 -1 1 -1 1 0 1 -1 1 0 
11 1 1 -1 1 0 1 -1 1 0 1 -1 1 -1 1 0 
1 -1 1 0 1 -1 1 -1 12 -2 1 -1 1 0 1 -1 
1 0 1 -1 1 -1 1 0 1 -1 1 -1 1 -1 1 0 
1 -1 1 -1 1 0 1 -1 1 0 -1 0 2 1 1 0 
1 -1 1 -1 1 -1 1 0 1 -1 1 -1 1 0 1 -1 
1 -1 1 -1 1 0 -7 1 1 -1 1 0 1 -1 1 0 
1 -1 1 -1 1 0 -1 0 2 -2 1 0 1 -1 1 0 
5 -9 1 0 1 -1 1 0 1 -1 1 -1 1 0 1 -1 
1 -1 1 -1 1 0 1 -1 -2 1 1 -1 1 0 1 -1 
1 -1 1 0 1 -1 1 0 1 -1 1 -1 2 -1 1 -1 
1 0 1 -1 1 0 1 -1 1 -1 1 0 1 -1 1 0 
1 -1 1 -1 -8 1 1 -1 1 0 1 -1 1 0 1 -1 
1 -1 1 0 1 -1 1 0 1 -1 1 0 1 -1 0 -1 
-12 0 1 -1 2 -1 1 -1 1 0 1 -1 1 0 2 -1 
1 0 1 -1 1 -1 1 0 1 -1 1 0 1 -1 1 -1 
1 0 1 -1 2 0 1 -1 1 -1 1 0 1 -1 1 0 
1 -1 -7 0 2 -1 1 -1 1 0 1 -1 1 -1 2 0 
1 -1 1 0 1 -1 1 -1 1 0 2 -1 1 0 1 -1 
1 -1 2 2 1 -1 1 0 2 -1 1 -1 1 0 1 -1 
1 -1 1 0 2 -1 1 -1 4 -2 2 -1 1 -1 1 0 
1 -1 1 -1 1 0 2 -1 1 0 1 -1 1 -1 1 0 
1 -1 2 0 1 -1 1 -1 3 -3 1 0 1 -1 1 0 
1 -1 1 0 1 -1 1 -1 2 0 1 -1 1 0 1 -1 
8 -3 1 -1 2 -1 2 -1 2 -1 2 -1 2 -1 2 -1 
8 -1 1 -1 1 0 1 -1 1 0 1 -1 1 -1 1 0 
1 -1 1 0 1 -1 1830 750 300 MP stroke
1 0 1 0 1 0 4 -2 1 -1 2 -1 1 -1 1 -1 
1 0 3 -6 1 0 1 -1 4 -2 2 -1 2 -1 2 -1 
2 -1 0 -6 2 0 1 -1 1 0 1 -1 1 0 1 -1 
1 0 1 -1 1 0 1 -1 1 0 1 0 1 -1 1 0 
1 -1 1 0 1 -1 1 -8 1 -1 1 0 1 -1 1 0 
1 0 1 -1 1 0 1 -1 1 0 1 0 1 -1 1 0 
-8 1 2 -1 1 0 1 -1 1 0 2 -1 1 0 1 -1 
1 0 1 0 -7 5 1 -1 1 0 1 -1 1 0 1 -1 
3 0 1 -1 1 0 1 -1 1 0 2 -1 1 0 1 -1 
1 0 1 -1 1 0 0 3 1 0 1 -1 2 0 1 -1 
2 -1 1 0 2 -1 1 0 1 -1 2 2 1 -1 1 0 
1 -1 1 0 2 -1 1 0 1 -1 1 0 1 -1 2 0 
1 -1 1 0 1 -1 1 0 2 -1 -1 2 1 -1 1 0 
1 -1 2 0 1 -1 1 -1 1 0 2 -1 1 0 1 -1 
1 0 2 -1 -6 3 1 0 2 -1 1 -1 1 0 2 -1 
1 0 1 -1 2 -1 1 0 1 -1 2 0 1 -1 1 -1 
-7 0 1 -1 2 -1 3 -1 1 0 1 -1 2 -1 1 0 
2 -1 1 -1 2 0 -1 0 2 -1 1 0 2 -1 1 0 
2 -1 1 -1 2 0 1 -1 1 -1 2 0 1 -1 2 0 
1 -1 -4 5 1 -1 2 0 1 -1 2 -1 1 0 2 -1 
2 -1 1 0 2 -1 1 -1 -6 3 2 -1 2 0 1 -1 
2 -1 1 -1 2 0 2 -1 1 -1 2 -1 2 0 1 -1 
2 -1 2 -1 1 0 2 -1 4 4 2 -1 2 -1 1 -1 
2 -1 1 0 2 -1 2 -1 1 -1 2 0 2 -1 1 -1 
2 -1 1 -1 2 0 2 -1 1 -1 2 -1 1 -1 2 0 
2 -1 1 -1 2 -1 1 -1 2 0 2 -1 16 -7 1 -1 
2 -1 1 0 2 -1 1 -1 1 0 2 -1 1 -1 2 -1 
1 0 1 -1 2 -1 22 -11 1 0 2 -1 1 0 1 -1 
1 -1 1 0 1 -1 1 -1 1 0 1 -1 1 -1 1 0 
1 -1 1 0 2 -1 1 -1 1 0 1 -1 1 -1 23 -11 
1 -1 1 0 1 -1 1 -1 1 0 1 -1 1 -1 1 0 
1 -1 20 -12 1 0 1 -1 1 -1 1 0 1 -1 26 -16 
1 0 0 -1 2 -8 1 -1 1 0 13 -9 -1 1 3 -1 
-1 1 9 -5 -1 0 -1 0 -1 1 -1 1 -1 0 -1 1 
-12 4 -1 0 -4 1 -1 0 -7 2 1 0 -16 6 1 0 
1 0 1 -1 -17 10 1 0 1 0 1 -1 1 0 1 -1 
1 0 1 -1 1 -1 1 0 -2 2 1 0 1 -1 1 -1 
1 0 1 -1 1 0 1455 951 300 MP stroke
-1 0 2 2 1 -1 1 0 1 -1 1 -1 1 0 1 -1 
1 0 1 -1 1 0 1 -1 2 2 1 0 1 -1 1 0 
1 -1 1 -1 1 0 -1 0 -10 14 1 -1 1 0 1 -1 
1 -1 1 0 1 -1 1 -1 1 0 -1 0 -9 16 1 0 
1 -1 1 -1 1 0 1 -1 1 -1 1 0 1 -1 1 -1 
1 -1 1 0 1 -1 1 -1 1 0 1 -1 1 -1 1 0 
1 -1 1 -1 1 -1 1 -1 1 0 1 -1 1 0 1 -1 
1 -1 1 0 -1 0 0 7 1 -1 1 -1 1 -1 1 0 
1 -1 1 -1 1 -1 1 -1 1 -1 1 -1 1 0 1 -1 
1 -1 1 -1 1 0 -5 1 1 -1 1 0 1 -1 1 -1 
1 -1 1 -1 1 0 1 -1 1 -1 1 -1 1 0 1 -1 
-3 7 1 -1 1 -1 1 -1 1 -1 1 0 2 -1 1 -1 
1 -1 1 -1 1 -1 1 -1 1 -1 1 0 1 -1 1 -1 
2 -1 1 -1 1 -1 1 -1 -3 4 1 -1 1 -1 1 -1 
1 -1 1 -1 2 -1 1 -1 1 -1 1 0 1 -1 2 -1 
1 -1 1 -1 1 -1 7 -1 1 -1 2 -1 1 -1 1 -1 
1 -1 1 0 1 -1 1 -1 1 -1 1 -1 1 -1 1 -1 
2 -1 1 -1 5 1 1 -1 1 -1 1 -1 1 -1 1 -1 
1 -1 1 -1 1 -1 1 0 1 -1 1 -1 1 -1 2 -1 
1 -1 1 -1 5 -1 1 -1 1 -1 1 -1 1 0 1 -1 
1 -1 1 -1 1 -1 1 -1 1 -1 1 -1 5 -10 1 -1 
1 -1 1 -1 1 0 1 -1 1 -1 1 -1 1 -1 1 0 
1 -1 0 -1 1 -1 1 -1 7 -11 1 -1 1 0 1 -1 
1 -1 1 -1 1 -1 2 -1 1 -1 1 0 -1 0 4 -8 
1 -1 1 0 1 -1 1 -1 1 0 1 -1 1 -1 1 -1 
1 0 1 -1 1 -1 1 0 1 -1 1 -1 1 -1 1 0 
5 -7 1 -1 1 -1 1 0 1 -1 1 -1 1 0 1 -1 
1 -1 10 -8 1 0 1 -1 1 -1 1 -1 1 0 1 -1 
1 0 1 -1 1 0 1 -1 1 -1 1 -1 8 -3 1 -1 
1 0 1 -1 1 -1 1 -1 1 0 1 -1 1 0 0 -1 
7 1 1 -1 1 0 1 -1 1 -1 1 -1 4 -1 1 0 
1 -1 1 -1 1 -1 1 0 1 -1 1 -1 1 0 -1 0 
4 -5 1 0 1 0 1 -1 1 -1 1 -1 -15 -7 1 0 
1 -1 1 -1 1 0 1 -1 1 -1 1 0 1 -1 1 0 
-1 0 60 -52 1 -1 1 -1 2 0 1 -1 1 -1 2 0 
1 -1 2 -1 1 0 1 -1 2 -1 1 0 2 -1 1 -1 
1 0 2 -1 1 -1 1 0 2 -1 3 -1 1 -1 1 -1 
2 0 1 -1 1 -1 1086 1214 300 MP stroke
2 0 1 -1 2 -1 1 0 1 -1 2 0 1 -1 2 -1 
1 0 1 -1 2 -1 1 0 1 -1 2 -1 1 0 2 -1 
1 -1 1 0 2 -1 1 -1 1 0 2 -1 1 -1 2 0 
1 -1 1 -1 2 0 1 -1 2 -1 1 0 1 -1 2 -1 
1 0 1 -1 2 -1 1 0 2 -1 1 -1 1 0 2 -1 
1 -1 1 0 2 -1 1 -1 2 0 1 -1 1 -1 2 0 
1 -1 2 -1 1 0 1 -1 2 -1 1 0 1 -1 2 -1 
1 0 2 -1 1 -1 1 0 2 -1 1 -1 1 0 2 -1 
1 0 2 -1 1 -1 1 0 2 -1 1 -1 2 0 1 -1 
1 -1 23 -8 1 -1 1 -1 1 0 1 -1 1 0 1 -1 
1 0 2 -1 1 0 1 -1 1 -1 1 0 19 -9 1 0 
1 0 1 -1 1 -1 1 0 1 -1 1 0 1 -1 1 0 
17 -7 1 -1 1 0 1 -1 1 0 1 -1 1 0 1 -1 
1 0 1 -1 1 0 1 -1 4 -3 1 0 1 -1 1 0 
1 -1 1 0 1 -1 1 0 3 -2 1 0 1 -1 1 0 
1 -1 1 0 1 -1 1 -1 1 0 1 0 -1 0 -12 -4 
1 0 1 -1 1 0 1 0 1 -1 1 0 1 -1 1 0 
1 -1 4 -4 1 0 1 -1 1 0 1 0 1 -1 1 0 
1 0 1 -1 1 0 1 -1 1 0 -1 0 2 0 1 0 
1 -1 1 0 1 0 1 -1 1 0 1 -1 1 0 1 0 
1 -1 1 0 -6 7 1 -1 1 0 1 0 1 -1 1 -1 
1 0 1 0 1 -1 1 0 1 -1 1 0 -3 6 1 0 
1 -1 1 0 1 0 1 -1 1 -1 1 0 1 -1 1 0 
1 0 1 -1 1 -1 1 0 1 -1 1 0 1 0 -1 0 
2 1 1 0 1 0 1 -1 1 -1 1 0 1 -1 1 0 
1 -1 1 0 1 0 -6 3 1 -1 1 0 1 -1 1 0 
1 -1 1 0 1 -1 1 0 1 -1 1 0 1 -1 1 -1 
1 0 1 -1 1 0 1 -1 10 0 1 -1 1 0 1 -1 
1 0 1 0 1 -1 1 0 -1 0 3 -2 1 0 -10 1 
1 -1 1 0 1 -1 1 0 1 -1 1 -1 1 0 1 -1 
1 0 1 -1 1 0 1 -1 1 0 1 -1 1 0 1 -1 
1 0 1 -1 1 0 1 -1 1 0 1 -1 1 0 1 -1 
1 0 1 -1 -2 -1 1 -1 1 0 1 -1 1 0 2 -1 
1 0 1 -1 1 0 1 -1 1 0 1 -1 1 0 -2 -6 
1 -1 1 0 1 -1 1 0 1 -1 1 0 1 -1 1 0 
1 -1 1 0 1 -1 1 0 1 0 1 -1 3 0 1 -1 
1 0 4 -2 1 0 1 -1 2 -1 2 -1 17 7 1 -2 
2 -1 2 -1 1 0 711 1384 300 MP stroke
1 -1 1 0 1 -1 1 -1 5 16 1 -1 1 0 1 -1 
1 -1 1 0 1 -1 1 -1 1 -1 1 -1 5 0 1 -1 
1 -1 1 -1 1 -1 1 0 1 -1 2 -2 2 -1 3 -2 
2 -1 0 -1 1 -1 2 -1 2 -1 1 -1 1 -1 6 7 
1 -1 0 -1 1 -1 1 -1 1 0 1 -1 1 -1 1 -1 
1 -1 1 -1 1 -1 1 -1 1 -1 1 0 1 -1 1 -1 
0 -1 -11 1 1 -1 1 -1 1 0 1 -1 2 -1 1 -1 
1 -1 1 -1 1 0 1 -1 1 -1 1 -1 -1 8 1 -1 
1 -1 1 -1 1 -1 1 -1 1 -1 1 -1 1 -1 1 -1 
1 -1 1 -1 1 -1 1 -1 1 0 1 -1 1 -1 1 -1 
7 -7 1 -1 1 -1 1 0 1 -1 1 -1 1 -1 1 -1 
1 -1 1 -1 1 -1 1 0 1 -1 1 -1 1 -1 1 -1 
1 -1 1 -1 9 -11 1 -1 1 0 1 -1 1 -1 1 -1 
1 -1 1 -1 1 0 1 -1 1 -1 16 -13 1 0 1 -1 
1 -1 1 0 1 -1 1 -1 1 -1 1 -1 1 0 1 -1 
11 -7 1 -1 1 -1 1 0 1 -1 1 -1 0 -1 20 -15 
1 -1 1 -1 1 0 1 -1 1 -1 1 -1 7 -5 1 -1 
1 -1 1 -1 8 -6 1 0 1 -1 1 -1 13 -10 8 -5 
-1 1 5 -3 -1 1 -1 1 -1 0 -1 1 5 -4 -1 1 
-1 0 -1 1 -1 1 -1 1 -1 0 -1 1 -1 1 -4 4 
-1 0 -1 0 1 0 1 1 -1 0 1 0 -10 7 1 0 
-1 1 -9 6 1 0 3 -5 -1 0 -8 4 1 0 1 -1 
-8 6 1 0 1 -1 1 -1 0 -2 1 -1 1 0 3 -3 
1 0 1 -1 -4 0 1 -1 12 -6 -2 5 0 -1 6 3 
1 0 19 -4 -1 0 -1 1 -1 0 1 0 12 -5 -1 0 
-1 1 -1 0 -1 1 16 -5 -1 0 -1 1 -1 0 -1 1 
-1 1 -1 0 -1 1 -1 0 -1 1 -1 0 -1 1 -1 0 
1 0 9 -5 -1 1 -1 0 -1 1 -1 0 -1 1 -1 0 
-1 1 -1 0 -1 1 -1 0 -5 0 -1 0 -1 1 -1 0 
-1 1 -1 0 -1 1 3 -11 -1 0 -1 1 -1 1 -1 0 
-1 1 -1 1 -1 0 -1 1 -1 1 -1 0 -1 1 -1 1 
-1 0 -1 1 4 -10 -1 1 -1 0 -1 1 -1 1 -1 0 
1 0 -2 2 -1 0 -1 1 -1 1 -1 0 -1 1 -1 1 
-1 1 -1 0 -1 1 -1 1 -8 12 -1 0 -1 1 -1 1 
-1 0 -1 1 -1 1 -1 0 11 5 -1 0 -1 1 -1 0 
-1 1 -1 0 -1 1 -1 0 -1 1 -1 1 -1 0 -1 0 
-1 1 -3 13 -1 1 -1 0 -1 1 -1 0 -1 1 -1 0 
-1 1 -1 7 -1 0 520 1478 300 MP stroke
-1 0 -1 1 -1 0 -1 0 -1 1 -1 0 -1 1 -1 0 
-3 6 -1 0 -1 0 -1 1 -1 0 -1 0 -1 1 -1 0 
-1 0 -1 1 -1 0 -1 0 -4 3 -1 1 -1 0 -1 0 
-1 1 -1 0 -1 0 -1 1 -6 4 -1 0 -1 0 -1 0 
-1 1 -1 0 -1 0 -1 1 -1 0 5 3 -1 0 -1 0 
-1 0 -1 1 -1 0 -1 0 15 -11 -1 0 -1 0 -1 0 
-1 1 -1 0 -1 1 -1 0 -1 0 -1 1 -1 0 -1 0 
-1 0 -1 1 26 -15 -1 1 -1 0 -1 0 -2 1 -1 0 
-1 1 -1 0 -1 1 -2 0 -1 0 -1 1 -1 0 20 -21 
-2 1 -1 1 -2 0 -1 1 -2 1 -1 0 -2 1 -1 0 
-2 1 -2 1 -1 0 13 -25 -2 1 -2 1 -2 0 -2 1 
-1 1 -2 1 -2 1 -2 1 -2 1 -1 1 -2 1 -2 1 
-2 1 -2 1 -1 1 -2 0 -2 1 -2 1 -2 1 -1 1 
-2 1 10 5 -2 1 -2 0 -2 1 -2 1 -2 1 -2 1 
-2 1 -2 1 -2 1 -2 8 -2 1 -2 0 -2 1 -2 1 
-2 1 -2 1 -2 1 -2 0 -2 1 -2 1 -2 1 -24 5 
-2 1 -1 1 -2 1 -2 1 -2 1 -4 1 -1 1 -2 1 
-2 1 -2 1 -2 0 -2 1 -1 1 -2 1 -2 1 -2 1 
-2 0 -1 1 -2 1 -2 1 -2 1 -2 1 -2 0 -1 1 
-5 0 -2 1 -2 0 -2 1 -1 1 -2 1 -2 1 -2 1 
-2 1 -1 0 -2 1 -2 1 -7 -5 -2 1 -1 1 -2 1 
-2 1 -2 1 -3 1 -2 1 -2 1 -1 1 -2 1 -2 1 
-2 1 -1 1 -16 7 -1 1 -2 0 -2 1 -1 1 -2 1 
-1 1 -2 1 -1 0 -2 1 -1 1 -2 1 -2 1 1 -3 
-1 1 -2 1 -2 0 -1 1 -2 1 -1 1 -2 1 -1 1 
-2 1 -2 1 -1 0 -2 1 -1 1 -2 1 -2 1 -1 1 
-2 1 2 -4 -2 1 -1 1 -2 1 -1 1 -2 1 -2 1 
-1 1 -2 0 -2 1 -1 1 -2 1 1 -13 -1 1 -2 2 
-2 1 -2 1 -1 1 -2 1 -2 1 -1 1 -2 1 -2 1 
-2 2 -1 1 -2 1 -2 1 -1 1 -2 1 -2 1 -2 1 
-1 1 -17 12 -2 1 -1 1 -2 1 -2 1 -2 1 -1 1 
-2 2 -2 1 -1 1 -2 1 -2 1 -2 1 -1 1 -2 1 
-2 1 -1 2 -22 9 -1 1 -2 1 -2 1 -1 1 -2 1 
-2 1 -1 1 -2 1 -1 1 -2 2 -2 1 0 -6 -2 2 
-2 1 -1 1 -2 1 -3 2 -2 2 -1 1 -2 1 -2 1 
-1 1 -2 1 -2 2 -1 1 2 3 -2 1 -1 2 -2 1 
-2 1 -1 1 -2 1 -2 1 -1 1 -2 2 -2 1 -1 1 
-2 1 -2 1 -10 15 978 1276 300 MP stroke
-2 1 -2 1 -2 1 -1 1 -2 1 -2 1 -1 2 -2 1 
-2 1 -2 1 -1 1 -2 1 -2 1 -13 6 -3 2 -2 1 
-1 1 -2 1 -1 1 -2 1 -1 1 -2 1 -1 1 -2 1 
-2 1 -16 2 -1 1 -1 1 -2 1 -1 1 -2 1 -1 1 
-1 1 -2 1 -1 1 -1 1 -2 1 -1 1 -2 1 -1 1 
-1 1 -2 1 -1 1 -1 1 -7 3 -1 1 -1 1 -2 1 
-1 1 -1 1 -2 1 -1 1 -1 1 -1 1 -2 1 -3 9 
-2 1 -1 1 -1 1 -1 1 -2 1 -1 1 -1 1 -2 0 
-1 1 -1 1 -1 1 -2 1 -1 1 -1 1 -1 0 -2 1 
-1 1 -1 1 -2 1 -1 1 -1 2 -1 1 -2 1 -1 0 
-1 1 -1 1 -2 1 -1 1 -1 1 -2 1 -1 0 10 -4 
-1 1 -1 1 -2 1 -1 0 -2 1 -1 1 -1 1 -2 1 
-1 1 -3 2 -2 1 -8 9 -1 1 -1 1 -1 1 -2 1 
-1 0 -1 1 -2 1 -1 1 -1 1 -2 1 -1 0 -1 1 
-2 1 -1 1 -1 1 -2 1 -1 0 -1 -5 -1 1 -1 1 
-2 1 -1 1 -1 1 -2 1 -2 1 -2 1 -1 1 -1 1 
18 -9 -2 1 -1 2 -2 1 -1 1 -2 1 -2 1 -1 1 
-2 1 -1 1 -2 1 -2 1 -1 1 -2 1 -1 1 -2 1 
-2 1 -1 1 -2 1 -1 1 -2 1 -2 1 -1 1 -2 1 
-1 1 -2 1 -1 1 -2 1 6 -7 -1 1 -2 2 -2 1 
-1 1 -2 1 -2 1 -7 5 -3 2 -3 2 -4 2 -3 3 
-4 2 -11 10 -1 1 -2 1 -2 2 -2 1 -1 1 -2 1 
-2 1 -1 1 -2 1 -2 1 -2 1 -17 10 -1 1 -2 1 
-2 2 -2 1 -1 1 -2 1 -2 1 -1 1 -2 1 -2 1 
-20 23 -2 0 -1 1 -2 1 -6 3 -3 2 -3 1 -3 2 
-3 1 5 10 -2 1 -1 1 -2 1 -1 0 -2 1 -1 1 
-2 0 -2 1 -1 1 -2 0 -1 1 -4 -8 -2 1 -1 1 
-2 1 -3 1 -1 1 -2 1 -2 1 -1 1 -2 0 -1 1 
-2 1 -2 1 -1 1 -2 1 -1 0 -2 1 -5 5 -1 1 
-2 1 -2 0 -1 1 -2 1 -1 1 -2 0 -1 1 -2 1 
-1 1 -2 0 -4 8 -2 1 -1 1 -2 0 -1 1 -2 1 
-1 0 -2 1 -1 1 -2 0 -3 2 -1 0 -2 1 -1 1 
-2 0 -1 1 -2 1 -1 0 -21 16 -1 0 -1 1 -2 0 
-1 1 -1 0 -1 1 -1 0 -2 1 -1 0 -1 1 -1 0 
-1 1 -2 0 -1 1 -1 0 12 -4 -1 0 -2 1 -1 0 
-2 1 -1 1 -1 0 -2 1 -1 0 -2 1 -1 0 -1 1 
-2 1 -1 0 -8 -1 -2 0 -1 1 -1 0 -1 1 -2 1 
-1 0 -1 1 -2 0 1508 941 300 MP stroke
-1 1 -1 0 -2 1 -1 1 -1 0 -2 1 -2 -7 -1 1 
-2 0 -1 1 -2 1 -1 0 -1 1 -2 1 -1 0 -1 1 
-2 1 -1 0 -4 -5 -1 0 -2 1 -1 1 -1 0 -2 1 
-1 1 -1 1 -2 0 -1 1 -2 1 -1 0 -1 1 -2 1 
-1 1 -1 0 -2 1 -1 1 -1 -8 -2 1 -1 0 -1 1 
-2 1 -1 1 -1 1 -2 1 -1 0 -2 1 -1 1 -1 1 
-12 -6 -1 1 -1 1 -2 1 -1 1 -1 1 -1 0 -2 1 
-1 1 -1 1 -2 1 -1 1 -1 1 -2 1 -1 1 -1 0 
-1 1 -2 1 -1 1 -11 1 -1 1 -1 1 -1 0 -1 1 
-2 1 -1 1 -1 1 -1 1 -1 1 -1 1 -2 0 -1 1 
-1 1 -1 1 -1 1 -2 1 -1 1 -19 -2 -1 1 -1 0 
-1 1 -1 1 -1 1 -1 1 -1 1 -1 1 -1 1 -1 1 
-1 -4 -1 0 -1 1 -1 1 -1 1 -1 1 -1 1 -1 1 
-1 1 -1 1 -1 1 -1 1 -1 1 -1 1 -1 1 -1 1 
-1 1 -1 1 -1 1 -1 1 -10 3 -1 1 -1 1 0 1 
-1 1 -1 1 -1 0 -1 1 -1 1 -1 1 -1 1 -1 1 
-1 1 0 1 -1 1 -1 1 -1 1 -1 1 -1 1 -1 1 
-1 0 -1 1 -1 1 0 1 -1 1 -5 4 -1 1 -1 1 
-1 1 -1 1 -1 1 -1 1 -1 1 -1 1 -1 1 -1 1 
0 1 -1 1 2 2 -1 1 -1 0 -1 2 -1 1 -1 1 
-1 1 -1 1 -1 1 -1 0 -1 1 -1 1 8 7 -1 1 
-1 1 -1 1 -1 1 -1 0 -1 1 -1 1 -1 1 -1 1 
-1 1 -1 0 3 9 -2 1 -1 0 -1 1 -1 1 -1 1 
-1 0 -1 1 -1 1 -1 1 -1 0 -1 1 -1 1 -1 1 
-1 0 -1 1 -1 1 -1 1 -1 0 -1 1 -7 14 -1 0 
-2 2 -1 0 -1 1 -1 0 -1 1 -1 1 -1 0 -1 1 
8 11 -2 1 -1 0 -1 1 -1 0 -1 1 -1 0 -1 1 
-1 1 -1 0 -1 1 -1 0 -1 1 -1 0 -1 1 -1 0 
-1 1 -1 0 -1 1 25 4 -2 0 -1 1 -1 0 -2 1 
-1 1 -1 0 -2 1 -1 0 -1 1 -2 0 8 -3 -1 0 
-2 1 -1 1 -1 0 -2 1 -1 0 -2 1 -1 1 -2 0 
-1 1 -2 0 -1 1 -17 3 -1 1 -1 0 -1 1 -2 0 
-1 1 -1 0 -1 1 -2 1 -1 0 -1 1 -1 0 -2 1 
-1 0 -1 1 -1 0 -3 1 11 -1 -2 0 -1 1 -2 0 
-1 1 -1 1 -2 0 -1 1 -2 0 -1 1 -1 0 -2 1 
-8 7 -3 1 -1 1 -1 0 -2 1 -1 0 -1 1 -2 0 
-1 1 -1 0 -1 1 -2 0 -1 1 -1 0 -13 5 -1 0 
-1 1 -1 0 -3 1 1881 698 300 MP stroke
-1 1 -1 0 -1 1 -1 0 -1 1 -22 -3 -2 1 -1 0 
-1 1 -1 0 -1 0 -1 1 -1 0 -1 1 -1 0 -1 1 
-1 1 -1 0 -8 1 -1 1 -1 0 -1 1 -1 0 -1 0 
-1 1 -1 1 -1 0 -1 0 -1 1 0 7 -1 0 -1 1 
-1 0 -1 0 -1 1 -1 0 -1 1 -1 0 -1 1 -1 0 
-1 1 22 -3 -1 0 -1 1 -1 0 -1 1 -1 0 -1 0 
-1 1 -2 0 -1 1 -1 0 -1 1 -1 0 8 -7 -1 1 
-1 1 -1 0 -3 1 -1 1 -1 0 -1 1 -2 0 -1 1 
-1 0 -1 1 -1 0 -2 1 -1 0 -1 1 -1 -10 -1 0 
-1 1 -1 1 -2 0 -1 1 -1 0 -1 1 -2 1 -1 0 
-1 1 -1 1 -1 0 -2 1 -1 0 -1 1 -5 -4 -1 1 
-1 0 -1 1 -2 1 -1 0 -1 1 -1 1 -1 0 -2 1 
-1 1 -1 0 -1 1 5 3 -2 1 -1 1 -1 0 -2 1 
-1 1 -1 0 -1 1 -2 0 -1 1 -1 1 -2 0 -1 1 
-1 1 -1 0 -2 1 -1 1 -1 0 -1 1 -2 1 -1 0 
-1 1 -2 0 -1 1 -1 1 -1 0 -2 1 -1 1 -1 0 
-1 1 -2 1 -1 0 -6 9 -2 0 -1 1 -1 0 -1 1 
-1 0 -2 1 -1 1 -1 0 -1 1 -1 0 -2 1 -1 0 
-1 1 -1 0 2 -1 -1 1 -2 0 -1 1 -1 0 -1 1 
-2 0 -1 1 -1 1 -1 0 -2 1 -1 0 -4 3 -1 0 
-1 1 -2 0 -1 1 -1 1 -1 0 -1 1 -2 0 -1 1 
-1 0 -1 1 -1 0 -2 1 -1 1 -1 0 -9 4 -1 1 
-1 0 -1 1 -2 0 -1 1 -1 0 -1 1 -1 0 -1 1 
-1 0 -1 1 -6 8 -1 0 -1 0 -1 1 -1 0 -1 1 
-1 0 -1 0 -1 1 -1 0 -1 1 -1 0 -1 1 -1 0 
-1 0 -7 6 -1 0 -1 0 -1 1 -1 0 -1 1 -1 0 
-1 1 -1 0 -1 0 -8 0 -1 0 -1 1 -1 1 -1 0 
-1 0 -1 1 -1 0 -1 1 -1 0 -1 1 -1 0 -1 0 
-10 -2 -1 1 -1 0 -1 0 -1 1 -1 1 -1 0 -1 1 
-1 0 -9 -2 -1 0 -1 1 -1 1 -1 0 -1 1 -1 1 
-1 0 -1 1 -1 0 -7 -14 -1 1 -1 1 -1 1 -1 0 
-1 1 -1 1 -1 0 0 -8 -1 1 -1 1 -1 1 -1 0 
-1 1 -1 1 -1 1 -1 1 -1 0 -1 1 -1 1 1 -4 
-1 1 -1 1 -1 1 -1 0 -1 1 -1 1 -1 1 -1 1 
-1 0 -1 1 0 -5 -1 1 -1 1 -1 1 -1 0 -1 1 
-1 1 -1 1 -1 1 -1 1 -1 0 -1 1 -1 1 -1 1 
-1 1 -1 -3 -1 1 -1 1 -1 1 -1 0 -1 1 -1 1 
-1 1 -1 0 1 0 2251 564 300 MP stroke
-2 2 -11 3 -1 0 -1 1 -1 1 -1 1 -1 1 -1 1 
-1 1 -1 1 -1 1 -1 0 1 0 -2 2 -1 1 -1 0 
-1 1 0 1 -1 1 -1 0 -5 -5 -1 1 -1 1 -1 1 
-1 1 -1 0 1 0 -2 2 -1 1 -1 1 -5 -11 0 1 
-1 1 -1 1 -1 1 -1 1 0 1 -1 1 -1 1 -1 1 
-1 0 1 0 -2 2 -1 1 -1 1 -1 1 0 1 -1 1 
-1 1 -3 -19 0 1 -1 1 -1 2 -1 1 -1 1 -1 1 
-1 1 0 1 -1 1 -1 1 -1 2 -1 1 -1 1 -1 1 
0 1 -1 1 1 -18 -1 1 0 2 -1 1 -1 1 -1 2 
-1 1 -1 1 -1 2 -1 1 -1 2 -1 1 -1 1 -2 -6 
-1 2 -1 1 -1 1 -1 2 -1 1 -1 2 -1 1 0 2 
-1 1 -1 2 -1 1 -1 2 -1 1 -1 1 -1 2 -1 1 
-1 2 0 1 -1 2 -1 1 -1 2 -1 1 -1 1 -1 2 
-7 -5 0 1 -1 2 -1 1 -1 2 -1 1 0 2 -1 1 
-1 2 -1 1 -1 2 -1 1 0 2 -1 2 -1 1 -7 -4 
-1 2 -1 1 0 2 -1 2 -1 1 -1 2 0 1 -1 2 
-1 1 0 2 -1 2 -1 1 0 2 -1 1 3 20 -1 2 
-1 1 -1 2 -1 1 -1 2 -1 1 -3 5 -1 1 -1 2 
-1 1 -1 1 -1 2 -11 22 -1 1 -1 1 -2 2 -1 1 
-1 1 -1 2 -2 1 -1 1 -1 2 -2 1 -1 1 -1 2 
-2 1 -18 25 -2 1 -2 1 -2 1 -1 1 -1 1 -2 1 
-1 1 -1 1 -2 0 -1 1 -2 1 -1 1 -1 1 -2 1 
-1 1 -38 28 -1 0 -1 0 -1 1 -1 0 -1 1 -2 0 
-1 0 -1 1 -1 0 -1 0 -1 1 -1 0 -1 1 -1 0 
-1 0 -1 1 -1 0 -1 1 -20 11 -1 0 -1 0 -1 1 
-1 0 -1 0 -1 0 -1 1 -1 0 -1 0 -1 0 -1 1 
-28 12 -1 0 -1 0 -1 1 -1 0 -1 0 -1 0 -1 1 
-1 0 -1 0 -22 8 -1 1 -1 0 -16 4 1 0 -7 2 
1 0 1 0 1 -1 -5 1 1 0 1 0 1 0 1 -1 
1 -1 1 0 7 -1 1 0 27 -2 -1 0 -1 0 -1 0 
26 -6 -1 0 -1 0 -1 0 -1 0 -1 0 -1 1 -1 0 
23 -5 -1 0 -1 0 -1 0 -1 1 -1 0 -1 0 -1 0 
-1 0 -1 0 -1 1 -1 0 -1 0 -1 0 -1 0 20 -9 
-2 0 -1 0 -1 0 -1 1 -1 0 -1 0 -1 0 -1 1 
-1 0 -1 0 -1 0 -1 0 -1 1 -1 0 -1 0 -1 0 
-2 1 19 -4 -1 1 -1 0 -2 0 -1 1 -1 0 -2 0 
-1 0 -1 1 -2 0 -1 0 -2 1 -3 0 -3 1 -1 0 
-3 1 -2 0 -3 1 2593 294 300 MP stroke
-1 0 -2 0 -1 0 -1 1 -1 0 -2 0 -1 0 16 -5 
-2 0 -1 1 -2 0 -1 0 -2 1 -1 0 -2 0 -2 1 
-1 0 -2 0 -1 1 4 2 -2 0 -1 0 -2 1 -15 2 
-3 1 -3 0 -3 1 3 -1 -2 0 -1 0 -4 1 -2 0 
-1 0 -2 1 -2 0 -2 0 -1 0 -2 1 -2 0 -2 0 
-1 1 -2 0 -2 0 -11 2 -1 0 -2 1 -1 0 -2 0 
-3 1 -2 0 -1 1 -2 0 -2 0 -1 1 -14 3 -1 1 
-2 0 -1 1 -1 0 -2 0 -3 1 -1 0 -1 1 -2 0 
-1 1 -1 0 -2 0 -1 1 -16 4 -1 0 -2 1 -1 1 
-1 0 -1 1 -1 0 -1 1 -1 0 -2 1 -1 0 -18 13 
-1 1 -1 0 -1 1 -1 1 -1 1 -1 1 -1 1 -1 0 
-1 1 -20 7 -1 1 0 1 -1 1 0 2 -1 1 0 1 
-18 7 1 1 0 3 1 1 0 2 -1 12 1 1 1 1 
0 1 -2 8 1 0 1 1 1 1 0 6 1 0 1 1 
1 5 0 1 6 5 -1 0 -1 3 -1 -1 -1 0 -1 0 
-4 2 -1 0 -1 -1 -8 2 -1 0 -9 1 102 -35 1 -1 
1 0 1 -1 1 0 1 -1 -10 9 2 -1 1 0 1 0 
1 -1 1 -1 1 0 1 -1 1 -1 1 0 1 0 -10 6 
1 -1 1 0 1 -1 1 0 1 -1 1 0 1 -1 1 0 
1 -1 1 0 1 -1 -3 -2 1 -1 1 0 1 -1 1 0 
2 -1 1 -1 1 0 1 -1 1 -1 1 0 1 -1 7 -5 
1 0 1 -1 1 0 1 -1 1 0 1 0 1 -1 1 0 
1 -1 1 -1 13 -5 1 0 1 0 1 -1 1 -1 1 0 
1 0 1 -1 1 -1 1 0 1 -1 1 0 17 -10 1 0 
1 -1 1 0 1 -1 1 0 1 -1 15 -7 1 -1 1 0 
1 -1 1 0 1 -1 10 -5 1 -1 1 0 1 -1 8 -4 
1 0 1 -1 9 -4 9 -3 -1 0 -15 10 1 0 1 -1 
-21 15 1 -1 1 -1 1 0 1 -1 -17 13 1 -1 1 0 
1 -1 1 -1 1 0 1 -1 1 -1 1 -1 1 -1 1 0 
-1 0 2 0 1 -1 1 0 1 -1 1 -1 1 -1 1 -1 
1 0 1 -1 1 -1 1 0 1 -1 1 -1 1 -1 1 -1 
4 -2 1 0 1 -1 1 -1 1 -1 1 0 0 -1 12 -8 
1 -1 1 0 1 -1 1 -1 1 -1 1 -1 10 -7 1 -1 
1 -1 1 0 1 -1 14 -11 1 0 0 -1 13 -9 10 -7 
-1 0 -1 1 -4 2 -1 1 -5 4 -1 1 3 -2 -1 1 
2 -1 -1 0 1 0 8 -6 -1 1 -1 0 0 1 4 -5 
-1 0 -1 1 -1 1 -8 3 -1 1 -1 0 0 1 -11 7 
-1 0 -1 0 -12 10 2564 287 300 MP stroke
0 -1 -14 10 1 0 1 -1 1 0 -1 0 -14 10 1 0 
1 -1 1 -1 2 -1 1 -1 1 -1 -7 5 1 0 1 -1 
1 -1 1 -1 1 0 1 -1 2 -4 1 0 1 -1 1 0 
1 -1 1 -1 1 0 1 -1 1 -1 1 0 -1 0 3 -5 
1 -1 1 0 1 -1 1 0 1 -1 1 -1 1 0 1 -1 
1 -1 1 -1 1 0 1 -1 1 0 1 -3 1 -1 1 -1 
1 0 1 -1 1 -1 2 -1 1 -1 1 0 1 -1 1 -1 
-8 2 1 -1 1 0 1 -1 1 -1 1 0 1 -1 1 -1 
1 0 0 -2 1 0 1 -1 1 0 1 -1 1 -1 -1 1 
1 0 1 0 1 -1 1 -1 1 0 1 -1 1 -1 1 0 
1 -1 1 -1 -6 1 1 0 1 -1 1 0 1 -1 1 -1 
1 0 1 -1 -14 4 1 0 1 -1 1 0 1 -1 1 -1 
1 0 1 -1 1 0 1 -1 1 0 1 -1 1 -1 -5 -2 
1 -1 1 0 1 0 1 -1 1 0 1 -1 1 -1 1 0 
1 -1 1 0 1 -1 -1 -3 1 0 1 0 1 -1 1 -1 
1 0 1 0 1 -1 1 0 -1 0 4 -5 1 0 1 -1 
1 0 1 0 1 -1 1 -1 1 0 1 0 1 -1 1 -1 
1 0 1 0 1 -1 1 0 3 -4 1 0 1 0 1 -1 
1 -1 1 0 1 0 1 -1 1 0 1 -1 1 0 3 -3 
1 0 1 0 1 -1 1 0 1 -1 1 0 1 -1 1 0 
1 -1 1 0 1 0 1 -1 5 -2 1 -1 1 0 1 -1 
1 0 1 -1 1 0 1 0 -1 0 -7 5 1 -1 1 0 
1 -1 1 0 1 0 1 -1 1 0 1 -1 1 0 1 -1 
1 0 1 0 1 -1 1 -1 -7 8 1 -1 1 0 1 -1 
1 0 1 -1 1 0 1 -1 1 0 1 -1 1 0 -4 7 
1 -1 1 0 1 -1 1 0 1 -1 2 0 1 -1 1 0 
1 -1 1 -1 1 0 -7 12 1 -1 1 -1 1 0 1 -1 
2 -1 1 0 1 -1 1 -1 1 -1 2 0 1 -1 1 -1 
1 0 1 -1 2 -1 1 0 12 -6 1 -1 1 0 1 -1 
1 -1 1 0 1 -1 1 0 1 -1 1 -1 -1 1 1 -1 
1 0 1 -1 1 -1 3 -1 1 -1 1 0 1 -1 1 0 
1 -1 1 -1 -6 4 1 -1 1 0 1 -1 3 -1 1 -1 
1 -1 1 0 2 -1 1 -1 1 -1 1 0 -3 6 1 -1 
2 -1 1 -1 1 0 2 -1 1 -1 1 -1 1 0 2 -1 
1 -1 1 -1 2 0 1 -1 1 -1 1 -1 2 0 1 -1 
1 -1 2 -1 1 0 1 -1 1 -1 2 -1 2 -1 2 -1 
1 -1 2 3 1 -1 1 -1 2 -1 1 0 1 -1 2 -1 
1 -1 1 -1 1 0 2348 410 300 MP stroke
2 -1 1 -1 1 -1 2 -1 4 0 1 -1 1 -1 1 -1 
2 -1 1 0 1 -1 3 -2 1 -1 1 0 2 -1 4 -1 
1 -1 1 -1 2 -1 1 -1 1 0 1 -1 2 -1 1 -1 
1 0 1 -1 1 -1 2 -1 1 -1 1 0 1 -1 1 -1 
2 -1 1 -1 1 0 6 -6 1 0 2 -1 1 -1 1 0 
1 -1 1 -1 1 -1 1 0 2 -1 1 -1 1 0 4 4 
2 -1 1 -1 1 -1 1 -1 1 0 1 -1 1 -1 1 -1 
2 0 1 -1 1 -1 1 -1 1 0 1 -1 1 -1 1 -1 
2 -1 -2 6 2 -1 1 -1 1 -1 2 -2 1 0 2 -1 
1 -1 1 -1 1 -1 1 -1 6 2 1 -1 1 -1 2 0 
1 -1 1 -1 1 -1 1 -1 1 -1 1 -1 1 0 2 -1 
1 -1 1 -1 1 -1 1 -1 1 -1 1 -1 1 -2 1 0 
1 -1 2 -1 1 -1 1 -1 1 -1 1 -1 1 0 1 -1 
2 -1 1 -1 1 -1 1 -1 -4 5 1 -1 2 -1 1 -1 
1 0 1 -1 1 -1 2 -1 1 -1 1 -1 1 -1 1 -1 
-1 -1 1 -1 2 -1 1 -1 1 -1 1 -1 2 -1 1 -1 
1 0 1 -1 2 -1 1 -1 1 -1 1 -1 2 -1 -1 -2 
1 -1 2 -1 1 0 1 -1 1 -1 2 -1 1 -1 1 -1 
1 -1 2 -1 1 -1 -2 1 2 -1 1 -1 1 -1 1 -1 
2 -1 1 -1 1 -1 2 -1 1 -1 4 -3 1 -1 1 -1 
2 -1 5 -8 2 0 1 -1 1 -1 1 -1 2 -1 1 -1 
1 -1 1 -1 2 -1 1 0 8 -13 2 0 1 -1 1 -1 
1 -1 1 0 1 -1 2 -1 1 -1 1 0 1 -1 1 -1 
1 -1 1 0 2 -1 1 -1 1 -1 8 -9 1 0 1 -1 
1 -1 1 0 1 -1 1 -1 1 0 1 -1 15 -8 1 -1 
2 -1 2 -1 2 -1 2 -1 2 -1 9 -6 1 -1 1 0 
1 -1 1 0 6 -4 1 -5 1 -1 1 -1 1 0 2 -1 
1 -1 2 -1 1 0 1 -1 2 -1 2 -1 -2 -2 1 -1 
2 -1 2 -1 1 -1 1 0 1 -1 3 -5 1 0 1 -1 
1 0 1 0 1 -1 1 -1 1 0 1 0 1 -1 1 -1 
1 0 1 0 1 -1 1 0 1 -1 1 0 1 -1 1 0 
1 -1 1 0 1 -1 1 0 1 -1 1 0 -1 -4 1 0 
1 -1 1 0 1 0 1 -1 1 0 1 -1 1 0 1 -1 
1 0 1 0 1 -1 1 -1 1 0 1 0 1 -1 1 0 
1 -1 1 0 1 -1 1 0 1 -1 1 0 1 -1 1 0 
1 -1 1 0 -3 2 1 -1 1 0 1 -1 1 0 1 -1 
1 0 1 0 1 -1 1 0 2 -1 -8 2 1 -1 1 0 
1 -1 1 0 1 -1 1960 674 300 MP stroke
1 0 1 -1 1 0 1 -1 1 0 1 -1 1 0 1 0 
1 -1 1 -1 1 0 1 -1 1 0 1 -1 1 0 1 -1 
1 0 1 -1 1 0 1 -2 1 0 2 -1 1 0 1 -1 
1 0 1 -1 1 0 2 -1 1 0 1 -1 1 0 1 -1 
1 0 1 0 1 -1 1 -4 1 -1 1 0 1 -1 1 0 
1 -1 1 0 1 0 1 -1 1 0 1 -1 2 0 1 -1 
1 0 1 -1 1 0 1 -1 1 0 1 0 1 -1 1 0 
1 -1 1 0 1 0 1 -1 1 0 1 -1 2 -2 1 0 
1 0 1 -1 1 0 1 -1 1 0 1 0 1 -1 2 0 
1 -1 3 -1 1 0 1 -1 1 0 1 0 1 -1 1 0 
1 -1 1 0 2 0 1 -1 1 0 1 -1 1 0 1 0 
1 -1 1 0 2 0 1 -1 1 0 1 0 1 -1 1 0 
1 -1 1 0 1 0 1 -1 2 7 1 -1 1 0 1 -1 
2 0 1 -1 1 0 1 -1 1 0 1 -1 1 0 1 -1 
1 0 1 -1 1 0 1 0 1 -1 1 0 1 -1 1 0 
1 -1 1 0 1 -1 3 6 1 -1 1 -1 1 0 1 -1 
1 0 1 -1 1 0 1 -1 1 0 1 -1 1 0 1 -1 
1 0 1 -1 1 0 1 -1 7 -1 1 -1 1 0 1 -1 
1 0 1 -1 2 -1 2 -1 1 0 1 -1 1 0 6 -3 
1 0 1 -1 1 0 1 -1 1 0 1 -1 1 -1 1 0 
1 -1 1 0 1 -1 1 0 1 -1 1 -1 1 0 1 -1 
13 -6 1 -1 1 0 1 -1 1 0 1 -1 1 0 1 -1 
14 -9 1 0 1 -1 1 0 1 -1 1 -1 1 0 1 -1 
1 0 -1 0 21 -13 1 0 1 -1 1 -1 1 0 1 -1 
1 0 12 -6 1 0 1 -1 1 -1 1 0 -1 0 3 -2 
1 0 -1 0 -4 -1 1 0 1 -1 1 0 -1 0 -3 0 
1 0 1 -1 -13 4 1 0 1 -1 1 0 1 -1 1 0 
-1 0 -15 3 1 0 1 -1 1 0 1 0 1 -1 1 -1 
1 0 -16 9 1 0 1 -1 1 0 1 -1 1 0 1 -1 
1 0 1 -1 1 0 1 0 1 -1 1 -1 1 0 -3 6 
1 0 1 -1 1 -1 1 0 1 -1 1 0 2 -1 1 -1 
1 0 -4 7 1 -1 1 0 1 -1 1 0 1 -1 1 -1 
1 0 1 -1 1 0 1 -1 1 0 1 -1 1 0 1 -1 
1 -1 1 0 1 -1 1 0 1 -1 1 -1 1 0 1 -1 
1 0 3 -2 1 -1 1 0 1 -1 1 -1 1 0 1 -1 
1 0 1 -1 1 0 1 -1 1 0 1 -1 1 0 1 -1 
1 -1 1 0 1 -1 2 1 1 0 1 -1 1 0 1 -1 
1 0 1 -1 1 -1 1648 818 300 MP stroke
1 0 1 -1 -1 2 1 -1 1 0 1 -1 1 -1 1 0 
3 -2 1 0 1 -1 1 -1 1 0 3 1 1 -1 1 0 
1 -1 1 0 1 -1 1 -1 1 0 1 -1 1 0 1 -1 
1 0 -2 -1 1 0 1 -1 1 -1 1 0 1 -1 1 0 
1 -1 1 -1 1 0 1 -1 1 0 1 -1 1 -1 1 0 
1 -1 1 0 1 -1 1 -1 2 -2 1 0 1 -1 1 -1 
2 -1 1 0 1 -1 1 -1 1 0 1 -1 1 0 -10 8 
1 -1 1 -1 1 0 1 -1 2 -1 1 0 1 -1 1 -1 
1 -1 1 0 1 -1 2 -1 1 0 1 -1 1 -1 1 0 
1 -1 1 -1 2 0 1 -1 1 -1 -11 10 1 -1 2 -1 
1 -1 1 0 2 -1 1 -1 1 -1 2 -1 1 0 1 -1 
1 -1 2 -1 1 -1 1 0 2 -1 1 -1 1 -1 2 -1 
1 -1 -2 3 1 -1 2 -1 1 -1 1 -1 2 -1 1 -1 
2 0 1 -1 1 -1 -3 1 1 -1 2 -1 3 -1 1 -1 
1 -1 2 -1 1 -1 2 -1 1 -1 2 -1 1 -1 2 0 
3 -2 1 -1 -6 -1 2 -1 1 -1 2 0 2 -1 1 -1 
2 -1 1 -1 2 -1 1 -1 2 -1 1 -1 2 -1 1 -1 
2 -1 2 0 1 -1 2 -1 1 -1 2 -1 1 -1 2 -1 
5 -4 2 -1 1 -1 2 -1 1 0 2 -1 1 -1 2 -1 
1 -1 2 -1 1 -1 2 -1 1 0 2 -1 9 -6 2 -1 
1 -1 1 -1 3 -2 2 0 1 -1 1 -1 2 -1 1 -1 
2 0 1 -1 1 -1 2 -1 4 -2 1 -1 2 -1 1 -1 
2 0 1 -1 1 -1 2 -1 1 -1 1 0 2 -1 1 -1 
1 -1 2 -1 1 -1 2 0 1 -1 2 -1 1 -1 1 -1 
2 0 1 -1 1 -1 2 -1 1 -1 1 0 2 -1 4 -3 
1 -1 2 -1 1 -1 1 0 2 -1 1 -1 1 -1 2 0 
1 -1 1 -1 1 -1 2 -1 4 -3 3 -2 1 -1 1 0 
1 -1 2 -1 1 0 1 -1 2 -1 1 -1 1 0 1 -1 
2 -1 1 -1 1 0 2 -1 1 -1 5 -2 1 -1 1 0 
1 -1 3 -2 1 0 1 -1 2 -1 1 -1 1 0 1 -1 
2 -1 1 0 1 -1 1 -1 2 -1 0 1 2 0 1 -1 
1 -1 1 -1 2 0 1 -1 1 -1 1 -1 2 0 1 -1 
1 -1 1 0 2 -1 1 -2 1 -1 1 0 1 -1 3 -2 
1 0 1 -1 2 -1 1 -1 1 0 1 -1 2 -1 1 0 
1 -1 1 -1 2 -1 1 0 1 -1 1 -1 2 -1 1 0 
1 -1 7 -5 2 0 1 -1 1 -1 1 0 1 -1 1 -1 
2 0 1 -1 1 -1 1 0 1 -1 2 -1 7 -3 1 -1 
1 0 1 -1 2 -1 1263 1044 300 MP stroke
1 0 1 -1 1 0 1 -1 1 -1 1 0 1 -1 1 -1 
1 0 1 -1 1 -1 1 0 2 -1 1 0 6 -4 1 0 
1 -1 1 -1 1 0 2 -1 1 -1 1 -1 1 0 1 -1 
1 0 1 -1 1 -1 1 0 1 -1 7 -3 1 0 1 -1 
2 -1 1 -1 1 0 1 -1 1 0 1 -1 6 -6 1 -1 
1 0 1 -1 1 -1 1 0 1 -1 1 0 1 -1 1 0 
1 -1 1 -1 4 1 1 -1 1 -1 1 0 1 -1 1 -1 
1 -1 1 0 1 -1 1 0 1 -1 18 -7 1 -1 1 0 
1 -1 1 -1 1 -1 1 0 1 -1 1 -1 11 -5 1 0 
1 -1 1 0 1 -1 1 -1 1 -1 1 0 5 -3 1 -1 
1 0 1 -1 1 -1 1 0 -1 -1 1 0 1 -1 1 0 
1 -1 1 -1 -3 3 1 -1 1 -1 1 -1 1 0 1 -1 
1 -1 1 -1 1 0 1 -1 1 0 1 -1 1 -1 -6 4 
1 -1 1 -1 1 0 1 -1 1 -1 1 0 1 -1 1 -1 
1 -1 1 0 -3 6 1 -1 1 -1 1 -1 1 0 1 -1 
1 -1 1 -1 -6 5 1 -1 1 -1 1 -1 1 0 1 -1 
1 -1 1 -1 1 0 1 -1 1 -1 1 0 1 -1 1 -1 
-1 0 1 0 -1 0 2 -2 1 0 1 -1 1 0 1 -2 
1 0 1 -1 1 -4 2 -1 1 -1 1 -1 1 0 1 -1 
1 -1 1 -1 1 0 1 -1 3 -5 1 -1 1 0 1 -1 
1 -1 1 0 1 -1 1 -1 1 0 1 -1 8 -9 1 0 
1 -1 1 0 1 -1 1 0 1 -1 1 -1 1 0 1 -1 
1 0 1 -1 1 0 -1 0 12 -8 1 -1 1 0 1 -1 
1 0 1 -1 1 0 8 -6 1 0 1 -1 1 0 1 -1 
1 -1 1 0 1 -1 1 0 7 -3 1 -1 1 0 1 0 
1 -1 1 -1 1 0 10 -4 1 -1 1 0 1 -1 6 -2 
1 0 1 -1 -1 1 1 0 1 -1 -11 9 1 -1 1 0 
1 -1 1 0 1 -1 1 -1 -13 12 1 0 1 -1 1 0 
1 -1 1 -1 1 0 1 -1 1 -1 -4 5 1 0 1 -1 
1 -1 1 0 -1 0 4 -3 1 0 -12 6 2 -1 2 -1 
1 -1 1 -1 1 0 1 -1 1 -1 1 0 1 -1 1 -1 
-14 6 1 -1 1 -1 1 0 1 -1 1 -1 1 -1 1 0 
1 -1 1 -1 1 0 -3 -3 1 -1 1 -1 1 0 1 -1 
1 0 1 -1 1 -1 1 0 1 -1 1 0 1 -1 1 0 
1 -1 1 -1 1 0 1 -1 1 0 1 -1 1 -1 1 0 
1 -1 1 0 1 -1 1 0 2 -2 1 0 1 -1 1 0 
8 -7 1 -1 1 -1 1 0 1 -1 1 0 1 0 1 -1 
1 0 1 -1 1 0 946 1240 300 MP stroke
-1 0 12 -11 1 -1 1 0 1 0 1 -1 1 -1 1 0 
1 0 1 -1 1 0 1 -1 1 0 1 -1 1 0 12 -7 
1 -1 1 0 1 -1 1 0 1 -1 1 0 1 -1 1 0 
1 0 1 -1 4 -5 1 0 1 -1 1 0 1 -1 1 0 
1 0 1 -1 1 0 1 -1 1 0 8 -5 1 0 1 -1 
1 0 1 0 1 -1 3 -4 1 0 1 0 1 -1 1 0 
1 0 1 -1 1 0 1 0 -2 -2 1 0 1 0 1 0 
1 -1 1 0 1 0 1 -1 1 0 1 0 1 1 1 0 
1 0 1 -1 1 0 1 0 1 -1 5 -1 1 0 1 -1 
1 0 1 0 1 -1 1 0 19 -6 1 -1 1 0 1 3 
1 0 1 0 1 -1 2 4 1 0 1 -1 1 0 3 5 
1 -1 1 0 1 -1 -3 6 1 0 1 -1 1 0 -16 5 
1 0 1 -1 1 0 1 -1 1 0 1 0 -1 0 -25 15 
1 0 1 0 1 -1 1 0 1 -1 1 0 1 -1 1 0 
1 -1 1 0 1 -1 1 0 1 -1 1 0 1 0 -14 11 
1 -1 1 0 1 -1 2 -1 1 0 1 -1 1 0 1 -1 
1 0 1 -1 1 0 -8 9 1 -1 1 -1 2 0 1 -1 
1 0 1 -1 2 -1 1 0 1 -1 2 -1 1 0 1 -1 
1 0 12 6 1 -1 1 -1 1 -1 2 0 1 -1 1 -1 
1 0 1 -1 1 -1 1 -1 2 0 1 -1 1 -1 1 -1 
1 0 1 -1 2 -1 1 0 1 -1 1 -1 1 -1 1 0 
2 -1 1 -1 18 -8 1 0 1 -1 1 -1 1 -1 1 -1 
1 0 1 -1 1 -1 1 0 1 -1 13 -7 1 0 1 -1 
1 -1 1 -1 1 -1 1 0 -1 0 2 -2 1 0 1 -1 
18 -6 0 -1 2 -2 1 0 1 -1 1 -1 1 -1 14 -11 
1 -1 1 -1 1 -1 0 -1 2 -2 8 -3 0 -1 1 -1 
0 -1 1 -1 11 -5 0 -1 2 -2 0 -2 10 0 0 -1 
1 -1 0 -1 6 6 0 -2 1 -1 0 -3 9 5 0 -1 
1 -1 0 -3 13 3 0 -7 -1 -1 13 5 0 -1 -1 -1 
0 -4 -1 -1 10 2 0 -1 -1 -1 0 -2 -1 -1 0 -2 
-1 -1 0 -1 -1 -1 0 -1 4 0 -1 -2 -1 -1 0 -2 
-1 -1 -1 -1 0 -1 -2 -7 0 -1 -1 -1 0 -1 -1 -1 
0 -1 -1 -1 0 -1 -2 -2 0 -2 -5 -9 -1 -1 0 -2 
-2 -2 0 -1 -1 -1 -5 -12 -1 0 1 0 -2 -2 -1 -1 
0 -2 -2 -2 0 -1 -5 -13 -1 -1 0 -2 -5 -12 0 -1 
-2 -5 -1 0 1 0 -7 -10 -9 -6 0 1 2 2 -4 -1 
0 1 1 1 -2 -4 661 1493 292 MP stroke
gr

8.33333 w
c9
0 sg
1516 1759 mt 
(East [m]) s
 285 1015 mt  -90 rotate
(North[m]) s
90 rotate
%%IncludeResource: font Helvetica
/Helvetica /ISOLatin1Encoding 41.6667 FMSR

 410 1619 mt 
( ) s
2890  150 mt 
( ) s
2.08333 w
1 sg
0 157 889 0 0 -157 1986 1584 4 MP
PP
-889 0 0 157 889 0 0 -157 1986 1584 5 MP stroke
1.38889 w
DO
SO
2.08333 w
0 sg
1986 1584 mt 2875 1584 L
1986 1427 mt 2875 1427 L
1986 1584 mt 1986 1427 L
2875 1584 mt 2875 1427 L
1986 1584 mt 2875 1584 L
1986 1584 mt 1986 1427 L
1986 1584 mt 2875 1584 L
1986 1427 mt 2875 1427 L
1986 1584 mt 1986 1427 L
2875 1584 mt 2875 1427 L
%%IncludeResource: font Helvetica
/Helvetica /ISOLatin1Encoding 58.3333 FMSR

2156 1490 mt 
(ROV position measurement) s
gs 1986 1427 890 158 rc
gs 2051 1443 53 53 rc
c8
2069 1461 mt 2085 1477 L
2085 1461 mt 2069 1477 L
gr

c8
gr

c8
0 sg
2156 1564 mt 
(ROV position estimate) s
gs 1986 1427 890 158 rc
8.33333 w
c9
130 0 2012 1541 2 MP stroke
2.08333 w
gr

c9

end %%Color Dict

eplot
%%EndObject

epage
end

showpage

%%Trailer
%%EOF
