%!PS-Adobe-3.0 EPSF-3.0
%%Creator: MATLAB, The MathWorks, Inc. Version 8.3.0.532 (R2014a). Operating System: Linux 3.13.0-49-generic #83-Ubuntu SMP Fri Apr 10 20:11:33 UTC 2015 x86_64.
%%Title: /home/dnad/Documents/publication/ram2014_data/figures/speed_plot.eps
%%CreationDate: 04/23/2015  14:06:10
%%DocumentNeededFonts: Helvetica
%%DocumentProcessColors: Cyan Magenta Yellow Black
%%LanguageLevel: 2
%%Pages: 1
%%BoundingBox:   -32   183   637   615
%%EndComments

%%BeginProlog
% MathWorks dictionary
/MathWorks 160 dict begin
% definition operators
/bdef {bind def} bind def
/ldef {load def} bind def
/xdef {exch def} bdef
/xstore {exch store} bdef
% operator abbreviations
/c  /clip ldef
/cc /concat ldef
/cp /closepath ldef
/gr /grestore ldef
/gs /gsave ldef
/mt /moveto ldef
/np /newpath ldef
/cm /currentmatrix ldef
/sm /setmatrix ldef
/rm /rmoveto ldef
/rl /rlineto ldef
/s {show newpath} bdef
/sc {setcmykcolor} bdef
/sr /setrgbcolor ldef
/sg /setgray ldef
/w /setlinewidth ldef
/j /setlinejoin ldef
/cap /setlinecap ldef
/rc {rectclip} bdef
/rf {rectfill} bdef
% page state control
/pgsv () def
/bpage {/pgsv save def} bdef
/epage {pgsv restore} bdef
/bplot /gsave ldef
/eplot {stroke grestore} bdef
% orientation switch
/portraitMode 0 def /landscapeMode 1 def /rotateMode 2 def
% coordinate system mappings
/dpi2point 0 def
% font control
/FontSize 0 def
/FMS {/FontSize xstore findfont [FontSize 0 0 FontSize neg 0 0]
  makefont setfont} bdef
/reencode {exch dup where {pop load} {pop StandardEncoding} ifelse
  exch dup 3 1 roll findfont dup length dict begin
  { 1 index /FID ne {def}{pop pop} ifelse } forall
  /Encoding exch def currentdict end definefont pop} bdef
/isroman {findfont /CharStrings get /Agrave known} bdef
/FMSR {3 1 roll 1 index dup isroman {reencode} {pop pop} ifelse
  exch FMS} bdef
/csm {1 dpi2point div -1 dpi2point div scale neg translate
 dup landscapeMode eq {pop -90 rotate}
  {rotateMode eq {90 rotate} if} ifelse} bdef
% line types: solid, dotted, dashed, dotdash
/SO { [] 0 setdash } bdef
/DO { [.5 dpi2point mul 4 dpi2point mul] 0 setdash } bdef
/DA { [6 dpi2point mul] 0 setdash } bdef
/DD { [.5 dpi2point mul 4 dpi2point mul 6 dpi2point mul 4
  dpi2point mul] 0 setdash } bdef
% macros for lines and objects
/L {lineto stroke} bdef
/MP {3 1 roll moveto 1 sub {rlineto} repeat} bdef
/AP {{rlineto} repeat} bdef
/PDlw -1 def
/W {/PDlw currentlinewidth def setlinewidth} def
/PP {closepath eofill} bdef
/DP {closepath stroke} bdef
/MR {4 -2 roll moveto dup  0 exch rlineto exch 0 rlineto
  neg 0 exch rlineto closepath} bdef
/FR {MR stroke} bdef
/PR {MR fill} bdef
/L1i {{currentfile picstr readhexstring pop} image} bdef
/tMatrix matrix def
/MakeOval {newpath tMatrix currentmatrix pop translate scale
0 0 1 0 360 arc tMatrix setmatrix} bdef
/FO {MakeOval stroke} bdef
/PO {MakeOval fill} bdef
/PD {currentlinewidth 2 div 0 360 arc fill
   PDlw -1 eq not {PDlw w /PDlw -1 def} if} def
/FA {newpath tMatrix currentmatrix pop translate scale
  0 0 1 5 -2 roll arc tMatrix setmatrix stroke} bdef
/PA {newpath tMatrix currentmatrix pop	translate 0 0 moveto scale
  0 0 1 5 -2 roll arc closepath tMatrix setmatrix fill} bdef
/FAn {newpath tMatrix currentmatrix pop translate scale
  0 0 1 5 -2 roll arcn tMatrix setmatrix stroke} bdef
/PAn {newpath tMatrix currentmatrix pop translate 0 0 moveto scale
  0 0 1 5 -2 roll arcn closepath tMatrix setmatrix fill} bdef
/vradius 0 def /hradius 0 def /lry 0 def
/lrx 0 def /uly 0 def /ulx 0 def /rad 0 def
/MRR {/vradius xdef /hradius xdef /lry xdef /lrx xdef /uly xdef
  /ulx xdef newpath tMatrix currentmatrix pop ulx hradius add uly
  vradius add translate hradius vradius scale 0 0 1 180 270 arc 
  tMatrix setmatrix lrx hradius sub uly vradius add translate
  hradius vradius scale 0 0 1 270 360 arc tMatrix setmatrix
  lrx hradius sub lry vradius sub translate hradius vradius scale
  0 0 1 0 90 arc tMatrix setmatrix ulx hradius add lry vradius sub
  translate hradius vradius scale 0 0 1 90 180 arc tMatrix setmatrix
  closepath} bdef
/FRR {MRR stroke } bdef
/PRR {MRR fill } bdef
/MlrRR {/lry xdef /lrx xdef /uly xdef /ulx xdef /rad lry uly sub 2 div def
  newpath tMatrix currentmatrix pop ulx rad add uly rad add translate
  rad rad scale 0 0 1 90 270 arc tMatrix setmatrix lrx rad sub lry rad
  sub translate rad rad scale 0 0 1 270 90 arc tMatrix setmatrix
  closepath} bdef
/FlrRR {MlrRR stroke } bdef
/PlrRR {MlrRR fill } bdef
/MtbRR {/lry xdef /lrx xdef /uly xdef /ulx xdef /rad lrx ulx sub 2 div def
  newpath tMatrix currentmatrix pop ulx rad add uly rad add translate
  rad rad scale 0 0 1 180 360 arc tMatrix setmatrix lrx rad sub lry rad
  sub translate rad rad scale 0 0 1 0 180 arc tMatrix setmatrix
  closepath} bdef
/FtbRR {MtbRR stroke } bdef
/PtbRR {MtbRR fill } bdef
/stri 6 array def /dtri 6 array def
/smat 6 array def /dmat 6 array def
/tmat1 6 array def /tmat2 6 array def /dif 3 array def
/asub {/ind2 exch def /ind1 exch def dup dup
  ind1 get exch ind2 get sub exch } bdef
/tri_to_matrix {
  2 0 asub 3 1 asub 4 0 asub 5 1 asub
  dup 0 get exch 1 get 7 -1 roll astore } bdef
/compute_transform {
  dmat dtri tri_to_matrix tmat1 invertmatrix 
  smat stri tri_to_matrix tmat2 concatmatrix } bdef
/ds {stri astore pop} bdef
/dt {dtri astore pop} bdef
/db {2 copy /cols xdef /rows xdef mul dup 3 mul string
  currentfile 
  3 index 0 eq {/ASCIIHexDecode filter}
  {/ASCII85Decode filter 3 index 2 eq {/RunLengthDecode filter} if }
  ifelse exch readstring pop
  dup 0 3 index getinterval /rbmap xdef
  dup 2 index dup getinterval /gbmap xdef
  1 index dup 2 mul exch getinterval /bbmap xdef pop pop}bdef
/it {gs np dtri aload pop moveto lineto lineto cp c
  cols rows 8 compute_transform 
  rbmap gbmap bbmap true 3 colorimage gr}bdef
/il {newpath moveto lineto stroke}bdef
currentdict end def
%%EndProlog

%%BeginSetup
MathWorks begin

0 cap

end
%%EndSetup

%%Page: 1 1
%%BeginPageSetup
%%PageBoundingBox:   -32   183   637   615
MathWorks begin
bpage
%%EndPageSetup

%%BeginObject: obj1
bplot

/dpi2point 4.16667 def
portraitMode -0320 2550 csm

  186   -16  2789  1800 rc
86 dict begin %Colortable dictionary
/c0 { 0.000000 0.000000 0.000000 sr} bdef
/c1 { 1.000000 1.000000 1.000000 sr} bdef
/c2 { 0.900000 0.000000 0.000000 sr} bdef
/c3 { 0.000000 0.820000 0.000000 sr} bdef
/c4 { 0.000000 0.000000 0.800000 sr} bdef
/c5 { 0.910000 0.820000 0.320000 sr} bdef
/c6 { 1.000000 0.260000 0.820000 sr} bdef
/c7 { 0.000000 0.820000 0.820000 sr} bdef
c0
1 j
1 sg
   0    0 3200 1802 rf
2.08333 w
0 1468 2479 0 0 -1468 416 1603 4 MP
PP
-2479 0 0 1468 2479 0 0 -1468 416 1603 5 MP stroke
1.38889 w
DO
0 sg
 416 1603 mt  416  135 L
 416  135 mt  416  135 L
 829 1603 mt  829  135 L
 829  135 mt  829  135 L
1242 1603 mt 1242  135 L
1242  135 mt 1242  135 L
1655 1603 mt 1655  135 L
1655  135 mt 1655  135 L
2068 1603 mt 2068  135 L
2068  135 mt 2068  135 L
2481 1603 mt 2481  135 L
2481  135 mt 2481  135 L
2895 1603 mt 2895  135 L
2895  135 mt 2895  135 L
 416 1183 mt 2895 1183 L
2895 1183 mt 2895 1183 L
 416  764 mt 2895  764 L
2895  764 mt 2895  764 L
 416  344 mt 2895  344 L
2895  344 mt 2895  344 L
SO
2.08333 w
 416 1603 mt 2895 1603 L
 416  135 mt 2895  135 L
 416 1603 mt  416  135 L
2895 1603 mt 2895  135 L
 416 1603 mt 2895 1603 L
 416 1603 mt  416  135 L
 416 1603 mt  416 1578 L
 416  135 mt  416  159 L
%%IncludeResource: font Helvetica
/Helvetica /ISOLatin1Encoding 75 FMSR

 396 1684 mt 
(0) s
 829 1603 mt  829 1578 L
 829  135 mt  829  159 L
 788 1684 mt 
(20) s
1242 1603 mt 1242 1578 L
1242  135 mt 1242  159 L
1201 1684 mt 
(40) s
1655 1603 mt 1655 1578 L
1655  135 mt 1655  159 L
1614 1684 mt 
(60) s
2068 1603 mt 2068 1578 L
2068  135 mt 2068  159 L
2027 1684 mt 
(80) s
2481 1603 mt 2481 1578 L
2481  135 mt 2481  159 L
2419 1684 mt 
(100) s
2895 1603 mt 2895 1578 L
2895  135 mt 2895  159 L
2833 1684 mt 
(120) s
 416 1183 mt  440 1183 L
2895 1183 mt 2870 1183 L
 300 1210 mt 
(0.1) s
 416  764 mt  440  764 L
2895  764 mt 2870  764 L
 300  791 mt 
(0.2) s
 416  344 mt  440  344 L
2895  344 mt 2870  344 L
 300  371 mt 
(0.3) s
 416 1603 mt 2895 1603 L
 416  135 mt 2895  135 L
 416 1603 mt  416  135 L
2895 1603 mt 2895  135 L
1476   78 mt 
(Speed plot) s
gs 416 135 2480 1469 rc
/c8 { 0.000000 0.000000 1.000000 sr} bdef
c8
2 0 2 0 2 0 2 0 2 0 2 0 2 0 2 0 
2 0 2 0 2 0 2 0 3 0 2 0 1 0 3 0 
2 0 2 0 2 0 2 0 2 0 2 0 2 0 2 0 
2 0 2 0 2 0 2 0 2 0 3 0 1 0 2 0 
3 0 2 0 2 0 2 0 2 0 2 0 2 0 2 0 
2 0 2 0 3 0 2 0 1 0 3 0 2 0 2 0 
2 0 2 0 2 0 2 0 2 0 2 0 2 0 2 0 
2 0 2 0 2 0 3 0 1 0 3 0 2 0 2 0 
2 0 2 0 2 0 2 0 2 0 2 0 2 0 2 0 
2 0 2 0 2 0 2 0 3 0 2 0 2 0 2 0 
2 0 2 0 2 0 2 0 2 0 2 0 2 0 2 0 
3 0 1 0 3 0 2 0 1 0 3 0 2 0 2 0 
2 0 2 0 2 0 2 0 2 0 2 0 2 0 2 0 
2 0 2 0 2 0 3 0 2 0 2 0 2 0 2 0 
2 0 2 0 2 0 2 0 2 0 2 0 2 0 2 0 
2 0 3 0 2 0 2 0 2 0 2 0 2 0 2 0 
2 0 2 0 2 0 2 0 2 0 2 0 2 0 3 0 
1 0 2 0 3 0 2 0 2 0 2 0 2 0 2 0 
2 0 2 0 2 0 2 0 2 0 3 0 2 0 2 0 
2 0 2 0 2 0 2 0 2 0 2 0 2 0 2 0 
2 0 2 0 2 0 2 0 2 0 3 0 1 0 3 0 
1 0 3 0 2 0 2 0 2 0 2 0 2 0 2 0 
3 0 2 0 2 0 2 0 2 0 2 0 2 0 2 0 
2 0 2 0 2 0 2 0 2 0 2 0 2 0 3 0 
1 0 3 0 2 0 2 0 2 0 2 0 2 0 2 0 
2 0 2 0 2 0 2 0 2 0 2 0 2 0 2 0 
3 0 2 0 2 0 2 0 2 0 2 0 2 0 2 0 
2 0 2 0 2 0 2 0 2 0 2 0 3 0 2 0 
2 0 2 0 2 0 2 0 2 0 2 0 2 0 2 0 
2 0 2 0 2 0 2 0 2 0 3 0 2 0 2 0 
2 0 2 0 2 0 2 0 2 0 2 0 2 0 2 0 
2 0 2 0 2 0 2 0 2 0 2 0 2 0 3 0 
2 0 2 0 2 0 2 0 2 0 2 0 2 0 2 0 
2 0 2 0 2 0 2 0 2 0 2 0 2 0 2 0 
2 0 3 0 1 0 3 0 2 0 2 0 2 0 2 0 
2 0 0 209 2 0 2 0 2 0 2 0 2 0 2 0 
3 0 1 0 3 0 2 0 2 0 2 0 2 0 2 0 
2 0 2 0 2 0 2281 764 300 MP stroke
2 0 2 0 2 0 2 0 3 0 1 0 3 0 2 0 
2 0 2 0 2 0 2 0 2 0 2 0 2 0 2 0 
2 0 2 0 2 0 2 0 2 0 3 0 2 0 2 0 
2 0 2 0 2 0 2 0 2 0 2 0 2 0 2 0 
2 0 2 0 2 0 3 0 2 0 2 0 2 0 2 0 
2 0 2 0 2 0 2 0 2 0 2 0 2 0 2 0 
2 0 3 0 1 0 2 0 3 0 1 0 3 0 2 0 
2 0 2 0 2 0 2 0 2 0 2 0 2 0 3 0 
1 0 3 0 2 0 2 0 2 0 2 0 2 0 2 0 
2 0 2 0 2 0 2 0 2 0 2 0 2 0 3 0 
1 0 3 0 2 0 2 0 2 0 2 0 2 0 2 0 
2 0 2 0 2 0 2 0 2 0 2 0 2 0 3 0 
2 0 2 0 2 0 2 0 2 0 2 0 2 0 2 0 
2 0 2 0 2 0 2 0 2 0 2 0 3 0 1 0 
3 0 2 0 2 0 2 0 2 0 2 0 2 0 2 0 
2 0 2 0 3 0 1 0 3 0 2 0 2 0 2 0 
2 0 2 0 2 0 2 0 2 0 2 0 2 0 2 0 
2 0 3 0 2 0 1 0 3 0 2 0 2 0 2 0 
2 0 2 0 2 0 2 0 2 0 2 0 2 0 2 0 
2 0 2 0 2 0 3 0 2 0 1 0 3 0 2 0 
2 0 2 0 2 0 2 0 2 0 2 0 2 0 3 0 
2 0 2 0 2 0 2 0 2 0 2 0 2 0 2 0 
2 0 2 0 2 0 2 0 2 0 2 0 2 0 3 0 
2 0 2 0 2 0 2 0 2 0 2 0 2 0 2 0 
2 0 2 0 2 0 2 0 2 0 3 0 1 0 2 0 
2 0 2 0 2 0 3 0 1 0 3 0 2 0 2 0 
2 0 2 0 2 0 2 0 2 0 2 0 2 0 2 0 
2 0 3 0 1 0 3 0 2 0 2 0 2 0 2 0 
2 0 2 0 2 0 2 0 2 0 2 0 2 0 3 0 
2 0 0 -419 2 0 2 0 2 0 2 0 2 0 2 0 
2 0 2 0 2 0 2 0 2 0 2 0 2 0 2 0 
2 0 2 0 3 0 2 0 2 0 2 0 2 0 2 0 
2 0 2 0 2 0 2 0 2 0 2 0 2 0 3 0 
1 0 3 0 2 0 2 0 2 0 2 0 2 0 2 0 
2 0 2 0 2 0 2 0 3 0 1 0 2 0 2 0 
2 0 3 0 2 0 2 0 2 0 2 0 2 0 2 0 
2 0 2 0 2 0 2 0 3 0 1 0 2 0 2 0 
3 0 2 0 2 0 1665 1183 300 MP stroke
2 0 2 0 2 0 2 0 2 0 2 0 2 0 2 0 
2 0 3 0 1 0 2 0 3 0 2 0 2 0 2 0 
2 0 2 0 2 0 2 0 2 0 2 0 2 0 2 0 
2 0 3 0 1 0 2 0 3 0 2 0 2 0 2 0 
2 0 2 0 2 0 2 0 2 0 2 0 2 0 2 0 
2 0 3 0 2 0 2 0 2 0 2 0 2 0 2 0 
2 0 2 0 2 0 2 0 2 0 2 0 2 0 3 0 
2 0 2 0 1 0 3 0 2 0 2 0 2 0 2 0 
2 0 2 0 2 0 2 0 2 0 2 0 2 0 3 0 
2 0 2 0 2 0 2 0 2 0 2 0 2 0 2 0 
2 0 2 0 2 0 2 0 2 0 2 0 2 0 3 0 
2 0 2 0 2 0 2 0 2 0 2 0 2 0 2 0 
2 0 2 0 2 0 2 0 3 0 1 0 3 0 1 0 
3 0 2 0 2 0 2 0 2 0 2 0 2 0 2 0 
2 0 2 0 3 0 2 0 2 0 1 0 3 0 2 0 
2 0 2 0 2 0 2 0 2 0 2 0 2 0 2 0 
2 0 3 0 2 0 2 0 2 0 1 0 3 0 2 0 
2 0 2 0 2 0 2 0 2 0 2 0 2 0 3 0 
2 0 2 0 2 0 2 0 2 0 2 0 2 0 2 0 
2 0 2 0 2 0 2 0 2 0 2 0 2 0 2 0 
2 0 3 0 2 0 1 0 3 0 2 0 2 0 2 0 
2 0 2 0 2 0 2 0 2 0 2 0 2 0 2 0 
2 0 2 0 2 0 3 0 2 0 2 0 2 0 2 0 
2 0 2 0 2 0 2 0 2 0 2 0 2 0 2 0 
3 0 2 0 2 0 2 0 2 0 2 0 2 0 2 0 
2 0 2 0 2 0 2 0 2 0 3 0 1 0 2 0 
2 0 3 0 2 0 2 0 2 0 2 0 2 0 2 0 
2 0 2 0 2 0 2 0 2 0 2 0 3 0 2 0 
1 0 3 0 2 0 2 0 2 0 2 0 2 0 1 0 
3 0 2 0 2 0 2 0 2 0 3 0 1 0 3 0 
2 0 2 0 2 0 2 0 2 0 2 0 2 0 2 0 
2 0 2 0 2 0 2 0 2 0 3 0 1 0 3 0 
1 0 3 0 2 0 2 0 2 0 2 0 2 0 2 0 
2 0 2 0 3 0 2 0 2 0 2 0 2 0 2 0 
2 0 2 0 2 0 2 0 2 0 2 0 2 0 2 0 
2 0 2 0 2 0 3 0 1 0 3 0 2 0 2 0 
2 0 2 0 2 0 2 0 2 0 2 0 2 0 2 0 
2 0 3 0 1 0 1048 1183 300 MP stroke
3 0 2 0 1 0 3 0 2 0 2 0 2 0 2 0 
2 0 2 0 2 0 2 0 2 0 2 0 3 0 2 0 
2 0 1 0 3 0 2 0 2 0 2 0 2 0 2 0 
2 0 2 0 2 0 2 0 2 0 3 0 2 0 1 0 
2 0 3 0 1 0 3 0 2 0 2 0 2 0 2 0 
2 0 2 0 2 0 2 0 3 0 1 0 2 0 3 0 
2 0 2 0 2 0 2 0 2 0 2 0 2 0 2 0 
2 0 2 0 2 0 2 0 3 0 1 0 3 0 2 0 
2 0 2 0 2 0 2 0 2 0 2 0 2 0 2 0 
3 0 1 0 2 0 2 0 2 0 3 0 2 0 2 0 
2 0 2 0 2 0 2 0 2 0 2 0 2 0 2 0 
2 0 2 0 3 0 2 0 1 0 3 0 2 0 2 0 
2 0 2 0 2 0 2 0 2 0 2 0 2 0 2 0 
2 0 3 0 1 0 3 0 1 0 3 0 2 0 2 0 
2 0 2 0 2 0 2 0 2 0 2 0 2 0 2 0 
3 0 1 0 2 0 3 0 2 0 2 0 2 0 2 0 
2 0 2 0 2 0 2 0 2 0 2 0 3 0 1 0 
0 839 2 0 2 0 2 0 3 0 2 0 2 0 2 0 
2 0 2 0 2 0 2 0 2 0 2 0 2 0 2 0 
2 0 3 0 2 0 2 0 2 0 2 0 2 0 2 0 
2 0 2 0 2 0 2 0 2 0 2 0 2 0 2 0 
2 0 3 0 2 0 2 0 2 0 2 0 2 0 2 0 
2 0 2 0 2 0 3 0 2 0 2 0 2 0 1 0 
3 0 2 0 2 0 2 0 2 0 2 0 2 0 2 0 
2 0 2 0 3 0 2 0 2 0 2 0 2 0 2 0 
2 0 2 0 2 0 2 0 2 0 2 0 2 0 2 0 
2 0 2 0 2 0 2 0 3 0 2 0 2 0 2 0 
2 0 2 0 2 0 2 0 2 0 2 0 2 0 2 0 
2 0 2 0 2 0 2 0 2 0 3 0 1 0 3 0 
2 0 2 0 2 0 2 0 2 0 2 0 2 0 2 0 
2 0 2 0 2 0 3 0 2 0 2 0 2 0 2 0 
2 0 2 0 2 0 2 0 2 0 2 0 2 0 2 0 
2 0 2 0 2 0 3 0 2 0 2 0 2 0 2 0 
2 0 2 0 2 0 2 0 2 0 2 0 2 0 2 0 
2 0 2 0 3 0 2 0 2 0 2 0 2 0 2 0 
2 0 2 0 2 0 2 0 2 0 2 0 2 0 2 0 
2 0 2 0 2 0 3 0 2 0 2 0 2 0 2 0 
2 0 2 0 2 0 432 344 300 MP stroke
2 0 2 0 2 0 2 0 2 0 2 0 3 0 1 0 
416 344 9 MP stroke
/c9 { 0.000000 1.000000 0.000000 sr} bdef
c9
2 0 2 0 2 0 2 0 2 0 2 0 2 0 2 0 
2 0 2 0 2 0 2 0 3 0 2 0 1 0 3 0 
2 0 2 0 2 0 2 0 2 0 2 0 2 0 2 0 
2 0 2 0 2 0 2 0 2 0 3 0 0 0 3 -1 
3 0 2 0 2 0 2 0 2 0 2 0 2 0 2 0 
2 0 0 -1 2 0 3 0 2 0 1 0 3 0 2 0 
2 0 2 0 2 0 2 0 0 -1 2 0 2 0 2 0 
2 0 2 0 2 0 2 0 2 0 3 0 1 0 0 -3 
3 0 2 0 2 0 2 0 2 0 2 0 2 0 2 0 
2 0 2 0 0 -3 2 0 2 0 2 0 2 0 2 0 
3 0 2 0 2 0 2 0 0 5 2 0 2 0 2 0 
2 0 2 0 2 0 2 0 2 0 3 0 1 0 3 0 
2 0 1 0 3 0 2 0 2 0 2 0 2 0 2 0 
2 0 2 0 2 0 2 0 2 0 2 0 2 0 2 0 
3 0 2 0 2 0 2 0 0 1 2 0 2 0 2 0 
2 0 2 0 2 0 2 0 2 0 2 0 2 0 0 2 
3 0 2 0 2 0 2 0 2 0 2 0 2 0 2 0 
2 0 2 0 0 -6 2 0 2 0 2 0 2 0 3 0 
1 0 2 0 3 0 2 0 2 0 0 1 2 0 2 0 
2 0 2 0 2 0 2 0 2 0 2 0 3 0 0 1 
2 0 2 0 2 0 2 0 2 0 2 0 2 0 2 0 
2 0 2 0 0 3 2 0 2 0 2 0 2 0 2 0 
3 0 1 0 3 0 1 0 3 0 2 0 0 -6 2 0 
2 0 2 0 2 0 2 0 3 0 2 0 2 0 2 0 
0 2 2 0 2 0 2 0 2 0 2 0 2 0 2 0 
2 0 2 0 2 0 0 4 2 0 3 0 1 0 3 0 
2 0 2 0 2 0 2 0 2 0 2 0 0 8 2 0 
2 0 2 0 2 0 2 0 2 0 2 0 2 0 3 0 
2 0 0 11 2 0 2 0 2 0 2 0 2 0 2 0 
2 0 2 0 2 0 2 0 0 17 2 0 2 0 3 0 
2 0 2 0 2 0 2 0 2 0 2 0 2 0 0 21 
2 0 2 0 2 0 2 0 2 0 2 0 2 0 3 0 
2 0 2 0 0 37 2 0 2 0 2 0 2 0 2 0 
2 0 2 0 2 0 2 0 2 0 2 0 0 34 2 0 
2 0 2 0 2 0 3 0 2 0 2 0 2 0 2 0 
2 0 0 36 2 0 2 0 2 0 2 0 2 0 2 0 
2 0 2 0 2 0 2 0 0 30 2 0 2 0 3 0 
1 0 3 0 2 0 2324 780 300 MP stroke
2 0 2 0 2 0 2 0 0 16 2 0 2 0 2 0 
2 0 2 0 2 0 3 0 1 0 3 0 2 0 2 0 
2 0 2 0 2 0 2 0 2 0 2 0 2 0 2 0 
2 0 2 0 3 0 1 0 3 0 2 0 2 0 2 0 
2 0 2 0 2 0 2 0 2 0 2 0 2 0 2 0 
2 0 2 0 2 0 3 0 2 0 0 1 2 0 2 0 
2 0 2 0 2 0 2 0 2 0 2 0 2 0 2 0 
0 1 2 0 2 0 3 0 2 0 2 0 2 0 2 0 
2 0 2 0 2 0 0 1 2 0 2 0 2 0 2 0 
2 0 2 0 3 0 1 0 2 0 3 0 0 2 1 0 
3 0 2 0 2 0 2 0 2 0 2 0 2 0 2 0 
2 0 0 2 3 0 1 0 3 0 2 0 2 0 2 0 
2 0 2 0 2 0 2 0 0 2 2 0 2 0 2 0 
2 0 2 0 2 0 3 0 1 0 3 0 2 0 0 2 
2 0 2 0 2 0 2 0 2 0 2 0 2 0 2 0 
2 0 2 0 0 2 2 0 2 0 3 0 2 0 2 0 
2 0 2 0 2 0 2 0 2 0 0 6 2 0 2 0 
2 0 2 0 2 0 2 0 2 0 3 0 0 0 4 1 
2 0 2 0 2 0 2 0 2 0 2 0 2 0 2 0 
2 0 3 0 1 0 3 0 2 0 2 0 2 0 2 0 
2 0 2 0 2 0 0 -6 2 0 2 0 2 0 2 0 
2 0 3 0 2 0 1 0 3 0 2 0 0 -11 2 0 
2 0 2 0 2 0 2 0 2 0 2 0 2 0 2 0 
2 0 0 -20 2 0 2 0 2 0 3 0 2 0 1 0 
3 0 2 0 2 0 2 0 0 -19 2 0 2 0 2 0 
2 0 2 0 3 0 2 0 2 0 2 0 2 0 0 -38 
2 0 2 0 2 0 2 0 2 0 2 0 2 0 2 0 
2 0 2 0 0 -50 2 0 3 0 2 0 2 0 2 0 
2 0 2 0 2 0 2 0 2 0 0 -63 2 0 2 0 
2 0 2 0 2 0 3 0 1 0 2 0 2 0 2 0 
2 0 0 -72 3 0 1 0 3 0 2 0 2 0 2 0 
2 0 2 0 2 0 2 0 0 -75 2 0 2 0 2 0 
2 0 3 0 1 0 3 0 2 0 2 0 2 0 0 -53 
2 0 2 0 2 0 2 0 2 0 2 0 2 0 2 0 
3 0 2 0 0 -32 2 0 2 0 2 0 2 0 2 0 
2 0 2 0 2 0 2 0 2 0 2 0 2 0 2 0 
2 0 2 0 2 0 3 0 2 0 2 0 2 0 2 0 
2 0 2 0 2 0 1750 1183 300 MP stroke
2 0 2 0 2 0 2 0 2 0 3 0 1 0 3 0 
2 0 2 0 2 0 2 0 2 0 2 0 2 0 2 0 
2 0 2 0 3 0 1 0 2 0 2 0 2 0 3 0 
2 0 2 0 2 0 2 0 2 0 2 0 2 0 2 0 
2 0 2 0 3 0 1 0 2 0 2 0 3 0 2 0 
2 0 2 0 2 0 2 0 2 0 2 0 2 0 2 0 
2 0 2 0 3 0 1 0 2 0 3 0 2 0 2 0 
2 0 2 0 2 0 2 0 2 0 2 0 2 0 2 0 
2 0 2 0 3 0 1 0 2 0 3 0 2 0 2 0 
2 0 2 0 2 0 2 0 2 0 2 0 2 0 2 0 
2 0 2 0 3 0 2 0 2 0 2 0 2 0 2 0 
2 0 2 0 2 0 2 0 2 0 2 0 2 0 2 0 
3 0 2 0 2 0 1 0 3 0 2 0 2 0 2 0 
2 0 2 0 2 0 2 0 2 0 2 0 2 0 2 0 
3 0 2 0 2 0 2 0 0 -1 2 0 2 0 2 0 
2 0 2 0 2 0 2 0 2 0 2 0 2 0 2 0 
2 0 3 0 2 0 2 0 2 0 2 0 2 0 2 0 
2 0 0 -1 2 0 2 0 2 0 2 0 2 0 3 0 
1 0 3 0 1 0 3 0 0 2 2 0 2 0 2 0 
2 0 2 0 2 0 2 0 2 0 2 0 3 0 2 0 
2 0 1 0 3 0 2 0 2 0 2 0 2 0 2 0 
2 0 2 0 2 0 2 0 2 0 3 0 2 0 2 0 
2 0 0 0 4 1 2 0 2 0 2 0 2 0 2 0 
2 0 2 0 2 0 3 0 0 1 2 0 2 0 2 0 
2 0 2 0 2 0 2 0 2 0 2 0 2 0 2 0 
0 2 2 0 2 0 2 0 2 0 2 0 2 0 3 0 
2 0 0 0 4 1 2 0 2 0 2 0 2 0 2 0 
2 0 2 0 2 0 2 0 2 0 0 2 2 0 2 0 
2 0 2 0 3 0 2 0 2 0 2 0 2 0 0 1 
2 0 2 0 2 0 2 0 2 0 2 0 2 0 2 0 
3 0 2 0 2 0 0 1 2 0 2 0 2 0 2 0 
2 0 2 0 2 0 2 0 2 0 2 0 0 1 3 0 
1 0 2 0 2 0 3 0 2 0 2 0 2 0 2 0 
0 -2 2 0 2 0 2 0 2 0 2 0 2 0 2 0 
2 0 3 0 2 0 1 0 0 -4 3 0 2 0 2 0 
2 0 2 0 2 0 1 0 3 0 2 0 2 0 0 -7 
2 0 2 0 3 0 1 0 3 0 2 0 2 0 2 0 
2 0 2 0 0 -13 1159 1199 300 MP stroke
2 0 2 0 2 0 2 0 2 0 2 0 2 0 2 0 
3 0 1 0 0 -5 3 0 1 0 3 0 2 0 2 0 
2 0 2 0 2 0 2 0 2 0 0 14 2 0 3 0 
2 0 2 0 2 0 2 0 2 0 2 0 2 0 2 0 
0 -8 2 0 2 0 2 0 2 0 2 0 2 0 2 0 
2 0 3 0 1 0 0 -9 3 0 2 0 2 0 2 0 
2 0 2 0 2 0 2 0 2 0 2 0 0 -12 2 0 
2 0 3 0 1 0 3 0 2 0 1 0 3 0 2 0 
2 0 0 6 2 0 2 0 2 0 2 0 2 0 2 0 
2 0 2 0 3 0 2 0 0 -3 2 0 1 0 3 0 
2 0 2 0 2 0 2 0 2 0 2 0 2 0 2 0 
2 0 2 0 3 0 2 0 1 0 2 0 3 0 1 0 
3 0 0 6 2 0 2 0 2 0 2 0 2 0 2 0 
2 0 2 0 3 0 1 0 0 15 2 0 3 0 2 0 
2 0 2 0 2 0 2 0 2 0 2 0 0 33 2 0 
2 0 2 0 2 0 2 0 3 0 1 0 3 0 2 0 
2 0 0 57 2 0 2 0 2 0 2 0 2 0 2 0 
2 0 3 0 1 0 2 0 2 0 0 72 2 0 3 0 
2 0 2 0 2 0 2 0 2 0 2 0 2 0 2 0 
0 95 2 0 2 0 2 0 2 0 3 0 2 0 1 0 
3 0 2 0 0 117 2 0 2 0 2 0 2 0 2 0 
2 0 2 0 2 0 2 0 2 0 0 131 3 0 1 0 
3 0 1 0 3 0 2 0 2 0 2 0 2 0 2 0 
2 0 0 170 2 0 2 0 2 0 2 0 3 0 1 0 
2 0 3 0 2 0 0 130 2 0 2 0 2 0 2 0 
2 0 2 0 2 0 2 0 2 0 3 0 1 0 0 75 
2 0 2 0 2 0 3 0 2 0 2 0 2 0 2 0 
2 0 2 0 0 14 2 0 2 0 2 0 2 0 2 0 
2 0 3 0 2 0 2 0 2 0 0 15 2 0 2 0 
2 0 2 0 2 0 2 0 2 0 2 0 2 0 2 0 
0 15 2 0 2 0 3 0 2 0 2 0 2 0 2 0 
2 0 2 0 0 13 2 0 2 0 2 0 3 0 2 0 
2 0 2 0 1 0 3 0 2 0 0 6 2 0 2 0 
2 0 2 0 2 0 2 0 2 0 2 0 3 0 2 0 
0 -7 2 0 2 0 2 0 2 0 2 0 2 0 2 0 
2 0 2 0 2 0 2 0 0 -28 2 0 2 0 2 0 
2 0 2 0 3 0 2 0 2 0 2 0 2 0 0 -58 
2 0 2 0 2 0 595 345 300 MP stroke
2 0 2 0 2 0 2 0 2 0 2 0 2 0 0 -99 
2 0 2 0 3 0 1 0 3 0 2 0 2 0 2 0 
2 0 2 0 0 -149 2 0 2 0 2 0 2 0 2 0 
2 0 3 0 2 0 2 0 2 0 0 -209 2 0 2 0 
2 0 2 0 2 0 2 0 2 0 2 0 2 0 2 0 
0 -270 2 0 2 0 3 0 2 0 2 0 2 0 2 0 
2 0 2 0 2 0 0 -327 2 0 2 0 2 0 2 0 
2 0 2 0 2 0 3 0 2 0 2 0 0 -205 477 1604 64 MP stroke
/c10 { 1.000000 0.000000 0.000000 sr} bdef
c10
2 0 2 0 2 0 2 0 2 0 2 0 2 0 2 0 
2 0 2 0 2 0 0 -1 2 0 2 0 2 0 3 0 
2 0 2 0 2 0 2 0 2 0 2 0 0 -1 2 0 
2 0 2 0 2 0 2 0 2 0 2 0 2 0 3 0 
2 0 0 -2 2 0 2 0 2 0 2 0 2 0 2 0 
2 0 2 0 2 0 0 2 2 0 2 0 2 0 2 0 
3 0 2 0 2 0 2 0 2 0 2 0 2 0 0 -1 
2 0 2 0 2 0 2 0 2 0 2 0 2 0 3 0 
2 0 2 0 2 0 2 0 2 0 2 0 2 0 2 0 
2 0 2 0 2 0 2 0 2 0 2 0 2 0 3 0 
1 0 3 0 2 0 2 0 2 0 2 0 2 0 2 0 
2 0 2 0 2 0 2 0 2 0 2 0 2 0 2 0 
0 1 2 0 3 0 2 0 2 0 2 0 2 0 2 0 
2 0 2 0 2 0 0 2 2 0 2 0 2 0 3 0 
2 0 2 0 2 0 2 0 2 0 2 0 0 2 2 0 
2 0 2 0 2 0 2 0 2 0 2 0 2 0 2 0 
3 0 0 4 2 0 2 0 2 0 2 0 2 0 2 0 
2 0 2 0 2 0 2 0 0 4 2 0 2 0 2 0 
2 0 2 0 2 0 3 0 2 0 2 0 2 0 0 7 
2 0 2 0 2 0 2 0 2 0 2 0 2 0 2 0 
2 0 2 0 0 8 2 0 2 0 2 0 3 0 2 0 
2 0 2 0 2 0 2 0 2 0 0 9 2 0 2 0 
2 0 2 0 2 0 3 0 1 0 3 0 2 0 2 0 
0 12 2 0 2 0 2 0 2 0 2 0 2 0 2 0 
2 0 2 0 2 0 0 15 2 0 3 0 2 0 2 0 
2 0 2 0 2 0 2 0 2 0 2 0 0 16 2 0 
2 0 2 0 2 0 3 0 2 0 2 0 2 0 2 0 
2 0 0 18 2 0 2 0 2 0 2 0 2 0 2 0 
2 0 2 0 2 0 2 0 0 19 2 0 3 0 2 0 
2 0 2 0 2 0 2 0 2 0 2 0 2 0 0 21 
2 0 2 0 2 0 2 0 2 0 2 0 3 0 2 0 
1 0 3 0 0 21 2 0 2 0 2 0 2 0 2 0 
2 0 2 0 2 0 2 0 2 0 0 21 3 0 2 0 
1 0 3 0 2 0 2 0 2 0 2 0 2 0 2 0 
0 19 2 0 2 0 2 0 2 0 2 0 2 0 2 0 
3 0 2 0 2 0 0 15 2 0 2 0 2 0 2 0 
2 0 2 0 2 0 2 0 2 0 2 0 0 11 2 0 
2 0 3 0 2 0 2328 757 300 MP stroke
2 0 2 0 2 0 2 0 2 0 2 0 0 8 2 0 
2 0 2 0 2 0 2 0 2 0 3 0 1 0 3 0 
2 0 0 2 2 0 2 0 2 0 2 0 2 0 2 0 
2 0 2 0 2 0 2 0 0 1 2 0 3 0 2 0 
2 0 2 0 2 0 2 0 2 0 2 0 2 0 0 1 
2 0 2 0 2 0 2 0 2 0 2 0 2 0 2 0 
3 0 2 0 2 0 2 0 2 0 2 0 2 0 2 0 
2 0 2 0 2 0 2 0 2 0 2 0 2 0 3 0 
2 0 2 0 2 0 2 0 2 0 2 0 0 -2 2 0 
2 0 2 0 2 0 2 0 2 0 2 0 3 0 2 0 
2 0 0 -3 2 0 2 0 2 0 2 0 2 0 2 0 
2 0 2 0 2 0 2 0 0 -5 2 0 2 0 2 0 
3 0 2 0 2 0 2 0 2 0 2 0 2 0 0 -7 
2 0 2 0 2 0 2 0 2 0 2 0 2 0 2 0 
3 0 2 0 0 -10 2 0 2 0 1 0 3 0 2 0 
2 0 2 0 2 0 2 0 2 0 0 -13 2 0 2 0 
2 0 3 0 2 0 2 0 2 0 2 0 2 0 2 0 
0 -16 2 0 2 0 2 0 2 0 2 0 2 0 2 0 
2 0 2 0 2 0 0 -19 3 0 2 0 2 0 2 0 
2 0 2 0 2 0 2 0 2 0 2 0 0 -24 2 0 
2 0 2 0 3 0 2 0 2 0 2 0 2 0 2 0 
2 0 0 -28 2 0 2 0 2 0 2 0 2 0 2 0 
2 0 2 0 3 0 1 0 0 -31 3 0 2 0 2 0 
2 0 2 0 2 0 2 0 2 0 2 0 2 0 0 -36 
2 0 2 0 2 0 3 0 2 0 2 0 2 0 2 0 
2 0 2 0 0 -39 2 0 2 0 2 0 2 0 2 0 
2 0 2 0 2 0 3 0 1 0 0 -38 3 0 2 0 
2 0 2 0 2 0 2 0 2 0 2 0 2 0 2 0 
0 -37 2 0 2 0 2 0 2 0 3 0 2 0 2 0 
2 0 2 0 2 0 0 -39 2 0 2 0 2 0 2 0 
2 0 2 0 2 0 2 0 3 0 1 0 0 -36 3 0 
2 0 2 0 2 0 2 0 2 0 2 0 2 0 2 0 
2 0 0 -30 2 0 2 0 2 0 2 0 2 0 2 0 
2 0 2 0 3 0 2 0 0 -20 2 0 2 0 2 0 
2 0 2 0 2 0 2 0 3 0 2 0 2 0 0 -5 
2 0 2 0 2 0 2 0 2 0 2 0 2 0 2 0 
2 0 2 0 2 0 2 0 3 0 1 0 3 0 2 0 
2 0 2 0 2 0 1760 1183 300 MP stroke
2 0 0 1 2 0 2 0 2 0 2 0 2 0 2 0 
2 0 2 0 2 0 2 0 3 0 2 0 2 0 2 0 
2 0 2 0 2 0 2 0 2 0 2 0 0 -1 2 0 
2 0 2 0 2 0 2 0 3 0 1 0 3 0 2 0 
2 0 0 1 2 0 2 0 2 0 2 0 2 0 2 0 
2 0 2 0 2 0 2 0 0 1 2 0 3 0 2 0 
2 0 2 0 2 0 2 0 2 0 2 0 2 0 0 1 
2 0 2 0 2 0 2 0 2 0 2 0 3 0 2 0 
2 0 2 0 2 0 2 0 2 0 2 0 2 0 2 0 
2 0 2 0 2 0 2 0 2 0 3 0 2 0 2 0 
2 0 2 0 2 0 2 0 2 0 2 0 2 0 2 0 
2 0 2 0 2 0 2 0 3 0 2 0 2 0 2 0 
2 0 2 0 2 0 2 0 2 0 2 0 2 0 2 0 
2 0 2 0 0 -1 2 0 3 0 2 0 2 0 2 0 
2 0 2 0 2 0 2 0 2 0 2 0 2 0 2 0 
2 0 2 0 2 0 3 0 1 0 2 0 3 0 0 -1 
2 0 2 0 2 0 2 0 2 0 2 0 2 0 2 0 
2 0 2 0 0 -2 2 0 3 0 1 0 3 0 2 0 
2 0 2 0 2 0 2 0 2 0 0 -1 2 0 2 0 
2 0 2 0 2 0 2 0 2 0 2 0 3 0 2 0 
0 -3 2 0 2 0 2 0 2 0 2 0 2 0 2 0 
2 0 2 0 2 0 0 -3 2 0 3 0 1 0 3 0 
2 0 2 0 2 0 2 0 2 0 2 0 0 -3 2 0 
2 0 2 0 2 0 3 0 2 0 2 0 2 0 2 0 
2 0 0 -4 2 0 2 0 2 0 2 0 2 0 2 0 
2 0 2 0 2 0 0 -3 3 0 2 0 1 0 3 0 
2 0 2 0 2 0 2 0 2 0 2 0 0 -3 2 0 
2 0 2 0 2 0 2 0 2 0 2 0 2 0 2 0 
3 0 0 -2 2 0 2 0 2 0 2 0 2 0 2 0 
2 0 2 0 2 0 2 0 2 0 0 -4 2 0 2 0 
3 0 1 0 3 0 2 0 2 0 2 0 2 0 2 0 
0 -5 2 0 2 0 2 0 2 0 2 0 2 0 2 0 
2 0 0 -3 2 0 3 0 2 0 2 0 2 0 2 0 
2 0 2 0 2 0 2 0 2 0 0 -1 2 0 2 0 
2 0 3 0 2 0 2 0 2 0 2 0 2 0 2 0 
0 -1 2 0 2 0 2 0 2 0 2 0 2 0 2 0 
2 0 3 0 2 0 2 0 2 0 2 0 2 0 2 0 
2 0 2 0 2 0 1186 1220 300 MP stroke
2 0 2 0 2 0 0 1 2 0 2 0 3 0 2 0 
1 0 3 0 2 0 2 0 2 0 2 0 0 9 2 0 
2 0 2 0 2 0 2 0 2 0 2 0 2 0 3 0 
2 0 0 9 2 0 2 0 2 0 2 0 2 0 2 0 
2 0 2 0 2 0 2 0 0 14 2 0 2 0 2 0 
3 0 1 0 3 0 2 0 1 0 3 0 2 0 0 17 
2 0 2 0 2 0 2 0 2 0 2 0 2 0 2 0 
2 0 2 0 0 22 3 0 2 0 2 0 2 0 2 0 
2 0 2 0 1 0 3 0 2 0 0 29 2 0 2 0 
2 0 2 0 2 0 3 0 2 0 2 0 1 0 3 0 
0 35 2 0 2 0 2 0 2 0 2 0 2 0 2 0 
3 0 2 0 2 0 0 45 1 0 3 0 2 0 2 0 
2 0 2 0 2 0 2 0 2 0 2 0 0 50 2 0 
2 0 2 0 2 0 3 0 2 0 2 0 2 0 2 0 
2 0 0 58 2 0 2 0 2 0 2 0 2 0 2 0 
2 0 2 0 2 0 2 0 0 65 2 0 3 0 2 0 
2 0 2 0 2 0 2 0 2 0 2 0 2 0 0 72 
2 0 2 0 2 0 2 0 2 0 2 0 3 0 2 0 
2 0 2 0 0 77 2 0 2 0 2 0 2 0 2 0 
2 0 2 0 2 0 2 0 3 0 0 79 2 0 2 0 
2 0 2 0 2 0 2 0 2 0 2 0 2 0 2 0 
0 79 2 0 2 0 2 0 2 0 2 0 2 0 3 0 
1 0 3 0 2 0 0 74 2 0 2 0 2 0 2 0 
2 0 2 0 2 0 2 0 2 0 2 0 0 63 3 0 
2 0 2 0 2 0 2 0 2 0 2 0 2 0 2 0 
2 0 0 46 2 0 2 0 2 0 2 0 2 0 2 0 
3 0 2 0 2 0 2 0 0 21 2 0 2 0 2 0 
2 0 2 0 2 0 2 0 2 0 2 0 2 0 0 -16 
2 0 3 0 2 0 2 0 2 0 2 0 2 0 2 0 
2 0 2 0 0 -34 2 0 2 0 2 0 2 0 2 0 
2 0 3 0 2 0 2 0 2 0 0 -43 2 0 2 0 
2 0 2 0 2 0 2 0 2 0 2 0 2 0 2 0 
0 -45 2 0 2 0 3 0 2 0 2 0 2 0 2 0 
2 0 2 0 2 0 0 -63 2 0 2 0 2 0 2 0 
2 0 3 0 2 0 2 0 2 0 2 0 0 -74 2 0 
2 0 2 0 2 0 2 0 2 0 2 0 2 0 2 0 
2 0 0 -86 3 0 1 0 3 0 2 0 2 0 2 0 
2 0 2 0 2 0 624 716 300 MP stroke
2 0 0 -99 2 0 2 0 2 0 2 0 2 0 3 0 
2 0 2 0 2 0 2 0 0 -105 2 0 2 0 2 0 
2 0 2 0 2 0 2 0 2 0 2 0 3 0 0 -108 
2 0 2 0 2 0 2 0 2 0 2 0 2 0 2 0 
2 0 2 0 0 -107 2 0 2 0 2 0 2 0 3 0 
1 0 3 0 2 0 2 0 2 0 0 -100 2 0 2 0 
2 0 2 0 2 0 2 0 2 0 2 0 2 0 3 0 
0 -88 2 0 2 0 2 0 2 0 2 0 2 0 2 0 
2 0 2 0 2 0 0 -75 2 0 2 0 2 0 2 0 
2 0 2 0 2 0 2 0 3 0 2 0 0 -63 2 0 
2 0 2 0 2 0 2 0 2 0 2 0 2 0 2 0 
2 0 0 -56 2 0 2 0 3 0 2 0 2 0 1 0 
3 0 2 0 2 0 2 0 436 1517 101 MP stroke
gr

c10
0 sg
1521 1759 mt 
(Time [s]) s
 264 1070 mt  -90 rotate
(Speed [m/s]) s
90 rotate
%%IncludeResource: font Helvetica
/Helvetica /ISOLatin1Encoding 41.6667 FMSR

 410 1619 mt 
( ) s
2890  150 mt 
( ) s
1 sg
0 228 956 0 0 -228 1919 384 4 MP
PP
-956 0 0 228 956 0 0 -228 1919 384 5 MP stroke
1.38889 w
DO
SO
2.08333 w
0 sg
1919  384 mt 2875  384 L
1919  156 mt 2875  156 L
1919  384 mt 1919  156 L
2875  384 mt 2875  156 L
1919  384 mt 2875  384 L
1919  384 mt 1919  156 L
1919  384 mt 2875  384 L
1919  156 mt 2875  156 L
1919  384 mt 1919  156 L
2875  384 mt 2875  156 L
%%IncludeResource: font Helvetica
/Helvetica /ISOLatin1Encoding 58.3333 FMSR

2088  219 mt 
(Simulated diver speed) s
gs 1919 156 957 229 rc
c8
130 0 1945 197 2 MP stroke
gr

c8
0 sg
2088  292 mt 
(Estimated speed \(Q = 0.005\)) s
gs 1919 156 957 229 rc
c9
130 0 1945 270 2 MP stroke
gr

c9
0 sg
2088  364 mt 
(Estimated speed \(Q = 0.0005\)) s
gs 1919 156 957 229 rc
c10
130 0 1945 342 2 MP stroke
gr

c10

end %%Color Dict

eplot
%%EndObject

epage
end

showpage

%%Trailer
%%EOF
